{"photos":{"page":58,"pages":26696,"perpage":60,"total":"1601726","photo":[{"id":"14032125125","owner":"60247153@N08","secret":"2ae1f0ab44","server":"5452","farm":6,"title":"Ocks\u00e5 tr\u00e4det vid havet l\u00e4ngtar efter sommaren.","ispublic":1,"isfriend":0,"isfamily":0,"safe":0,"ownername":"Halloj v\u00e4rlden! \/Inger","latitude":56.170333,"longitude":14.861166,"accuracy":"16","context":0,"place_id":"ONeitUxZW76WQTg","woeid":"894947","geo_is_family":0,"geo_is_friend":0,"geo_is_contact":0,"geo_is_public":1,"media":"photo","media_status":"ready"},{"id":"14030730915","owner":"39669415@N05","secret":"d2ecbe17fb","server":"7105","farm":8,"title":"After Sunset Sky","ispublic":1,"isfriend":0,"isfamily":0,"safe":0,"ownername":"BraCom (Bram)","latitude":51.708586,"longitude":4.080486,"accuracy":"16","context":0,"place_id":"Ec3Aji1WUbrD5k8","woeid":"730010","geo_is_family":0,"geo_is_friend":0,"geo_is_contact":0,"geo_is_public":1,"media":"photo","media_status":"ready"},{"id":"14027172341","owner":"63526336@N08","secret":"257a7be418","server":"7309","farm":8,"title":"blue and green","ispublic":1,"isfriend":0,"isfamily":0,"safe":0,"ownername":"VERUSHKA4","latitude":55.807455,"longitude":37.611694,"accuracy":"7","context":0,"place_id":"BmRxMRpQUL99Lw095Q","woeid":"12598709","geo_is_family":0,"geo_is_friend":0,"geo_is_contact":0,"geo_is_public":1,"media":"photo","media_status":"ready"},{"id":"14026718962","owner":"90378082@N07","secret":"50bf8a7309","server":"2938","farm":3,"title":"I think he said go off that way!!!!","ispublic":1,"isfriend":0,"isfamily":0,"safe":0,"ownername":"Baz 120","latitude":41.898891,"longitude":12.473773,"accuracy":"15","context":0,"place_id":"FphPyURWU7ux6h4","woeid":"711883","geo_is_family":0,"geo_is_friend":0,"geo_is_contact":0,"geo_is_public":1,"media":"photo","media_status":"ready"},{"id":"14030292804","owner":"31472524@N06","secret":"835c2ac97c","server":"7110","farm":8,"title":"_D7B8609_bis_San_Vito_Lo_Capo","ispublic":1,"isfriend":0,"isfamily":0,"safe":0,"ownername":"Vater_fotografo","latitude":38.172166,"longitude":12.737961,"accuracy":"16","context":0,"place_id":"KyD2cJFWULmEfi0","woeid":"723212","geo_is_family":0,"geo_is_friend":0,"geo_is_contact":0,"geo_is_public":1,"media":"photo","media_status":"ready"},{"id":"14019227291","owner":"67659376@N03","secret":"a033220399","server":"5034","farm":6,"title":"Langdale Valley","ispublic":1,"isfriend":0,"isfamily":0,"safe":0,"ownername":"Bardsea Photography","latitude":54.446781,"longitude":-3.063951,"accuracy":"16","context":0,"place_id":"zMLsgapTU7yD7g","woeid":"21670","geo_is_family":0,"geo_is_friend":0,"geo_is_contact":0,"geo_is_public":1,"media":"photo","media_status":"ready"},{"id":"14018378001","owner":"69008291@N02","secret":"a40783baf5","server":"7325","farm":8,"title":"Truffle the Fish! [Explored!]","ispublic":1,"isfriend":0,"isfamily":0,"safe":0,"ownername":"RiverCrouchWalker","latitude":51.643099,"longitude":0.605998,"accuracy":"14","context":0,"place_id":"vTyzjGVTVrtvPA","woeid":"24104","geo_is_family":0,"geo_is_friend":0,"geo_is_contact":0,"geo_is_public":1,"media":"photo","media_status":"ready"},{"id":"14018344541","owner":"45971977@N03","secret":"e6953b1496","server":"7009","farm":8,"title":"New York","ispublic":1,"isfriend":0,"isfamily":0,"safe":0,"ownername":"\uf8ff Philippe L Photography \uf8ff","latitude":40.757821,"longitude":-73.97858,"accuracy":"16","context":0,"place_id":"96sb7fdTWr18qKQRBg","woeid":"28751381","geo_is_family":0,"geo_is_friend":0,"geo_is_contact":0,"geo_is_public":1,"media":"photo","media_status":"ready"},{"id":"14018299452","owner":"21597638@N02","secret":"86e70650dc","server":"2935","farm":3,"title":"2857DSC","ispublic":1,"isfriend":0,"isfamily":0,"safe":0,"ownername":"Rafael Gonz\u00e1lez de Riancho (Lunada) \/ Rafa Rianch","latitude":43.42609,"longitude":-4.041409,"accuracy":"11","context":0,"place_id":"AzLHOCVWVb5THFY","woeid":"774978","geo_is_family":0,"geo_is_friend":0,"geo_is_contact":0,"geo_is_public":1,"media":"photo","media_status":"ready"},{"id":"14019642684","owner":"55858110@N02","secret":"93871ab7c8","server":"2905","farm":3,"title":"Monsal head (explore)","ispublic":1,"isfriend":0,"isfamily":0,"safe":0,"ownername":"jvarley19 very busy will catch up soon","latitude":53.240821,"longitude":-1.728115,"accuracy":"14","context":0,"place_id":"ZM7gcXRTW7gZGg","woeid":"29245","geo_is_family":0,"geo_is_friend":0,"geo_is_contact":0,"geo_is_public":1,"media":"photo","media_status":"ready"},{"id":"14015903672","owner":"96676530@N08","secret":"295f49f551","server":"7110","farm":8,"title":"Fr\u00fchlings-K\u00fcchenschelle (Pulsatilla vernalis)","ispublic":1,"isfriend":0,"isfamily":0,"safe":0,"ownername":"papinifoto","latitude":46.488628,"longitude":9.821946,"accuracy":"14","context":0,"place_id":"5iW1.IxTUb4Temvu","woeid":"2347091","geo_is_family":0,"geo_is_friend":0,"geo_is_contact":0,"geo_is_public":1,"media":"photo","media_status":"ready"},{"id":"14018986955","owner":"24061413@N04","secret":"cb71cfd1aa","server":"2931","farm":3,"title":"Along the Seine river \/ Le long de la Seine","ispublic":1,"isfriend":0,"isfamily":0,"safe":0,"ownername":"french_lolita","latitude":48.855058,"longitude":2.352367,"accuracy":"16","context":0,"place_id":"EsIQUYZXU79_kEA","woeid":"615702","geo_is_family":0,"geo_is_friend":0,"geo_is_contact":0,"geo_is_public":1,"media":"photo","media_status":"ready"},{"id":"14018296195","owner":"63500583@N08","secret":"cf083a46b9","server":"7066","farm":8,"title":"Bon Appetit.....","ispublic":1,"isfriend":0,"isfamily":0,"safe":0,"ownername":"Joop Rensema","latitude":53.18797,"longitude":6.558634,"accuracy":"16","context":0,"place_id":"VUHz8.JWULLWwFw","woeid":"728566","geo_is_family":0,"geo_is_friend":0,"geo_is_contact":0,"geo_is_public":1,"media":"photo","media_status":"ready"},{"id":"14017930384","owner":"58384486@N07","secret":"76e0c3aba8","server":"7131","farm":8,"title":"I'm getting married in 2 hours!","ispublic":1,"isfriend":0,"isfamily":0,"safe":0,"ownername":"AlexTurton","latitude":52.35067,"longitude":-1.771645,"accuracy":"16","context":0,"place_id":"_66489hTUb9R4A","woeid":"23592","geo_is_family":0,"geo_is_friend":0,"geo_is_contact":0,"geo_is_public":1,"media":"photo","media_status":"ready"},{"id":"14014321315","owner":"55858110@N02","secret":"1546870708","server":"5164","farm":6,"title":"Solar powered Swan (explore)","ispublic":1,"isfriend":0,"isfamily":0,"safe":0,"ownername":"jvarley19 very busy will catch up soon","latitude":53.437981,"longitude":-2.144823,"accuracy":"16","context":0,"place_id":"8WpaeDZSUbqViw","woeid":"33034","geo_is_family":0,"geo_is_friend":0,"geo_is_contact":0,"geo_is_public":1,"media":"photo","media_status":"ready"},{"id":"13988335776","owner":"44501137@N07","secret":"08b97214f8","server":"7159","farm":8,"title":"Allariz (Ourense)","ispublic":1,"isfriend":0,"isfamily":0,"safe":0,"ownername":"galizport","latitude":42.198003,"longitude":-7.819519,"accuracy":"9","context":0,"place_id":"bbdmSvtWV7g8UeI","woeid":"752130","geo_is_family":0,"geo_is_friend":0,"geo_is_contact":0,"geo_is_public":1,"media":"photo","media_status":"ready"},{"id":"13988057146","owner":"60375723@N04","secret":"3d69a87500","server":"2908","farm":3,"title":"It's a foggy damp night!","ispublic":1,"isfriend":0,"isfamily":0,"safe":0,"ownername":"Mandy968","latitude":53.570772,"longitude":-0.082182,"accuracy":"14","context":0,"place_id":"Pixzi0ZTU7KzCA","woeid":"21896","geo_is_family":0,"geo_is_friend":0,"geo_is_contact":0,"geo_is_public":1,"media":"photo","media_status":"ready"},{"id":"14009963065","owner":"41534212@N04","secret":"001c242c08","server":"7164","farm":8,"title":"Via dei Fori Imperiali","ispublic":1,"isfriend":0,"isfamily":0,"safe":0,"ownername":"EricP2x","latitude":41.900552,"longitude":12.46622,"accuracy":"12","context":0,"place_id":"FphPyURWU7ux6h4","woeid":"711883","geo_is_family":0,"geo_is_friend":0,"geo_is_contact":0,"geo_is_public":1,"media":"photo","media_status":"ready"},{"id":"14006688472","owner":"91794896@N00","secret":"5447a06997","server":"7449","farm":8,"title":"Happy Weekend \/ Explore # 69 \/ 25.04.2014","ispublic":1,"isfriend":0,"isfamily":0,"safe":0,"ownername":"Gerhard Singer","latitude":48.19676,"longitude":16.368942,"accuracy":"11","context":0,"place_id":"vyIUe41UV7uao.Y","woeid":"551801","geo_is_family":0,"geo_is_friend":0,"geo_is_contact":0,"geo_is_public":1,"media":"photo","media_status":"ready"},{"id":"14029421483","owner":"105738673@N02","secret":"3ea90d047d","server":"7187","farm":8,"title":"Shore of Ahrenshoop at sunset, Baltic Sea","ispublic":1,"isfriend":0,"isfamily":0,"safe":0,"ownername":"Marcus Rahm","latitude":54.362558,"longitude":12.397018,"accuracy":"16","context":0,"place_id":"1Xa5gPlXWro0d74","woeid":"680026","geo_is_family":0,"geo_is_friend":0,"geo_is_contact":0,"geo_is_public":1,"media":"photo","media_status":"ready"},{"id":"14029114743","owner":"80046198@N00","secret":"8d95e05232","server":"7367","farm":8,"title":"Did somebody say Zucchini ..","ispublic":1,"isfriend":0,"isfamily":0,"safe":0,"ownername":"areyarey","latitude":44.407251,"longitude":8.934116,"accuracy":"15","context":0,"place_id":"U9uHhb9TUruHgV.MKA","woeid":"20150290","geo_is_family":0,"geo_is_friend":0,"geo_is_contact":0,"geo_is_public":1,"media":"photo","media_status":"ready"},{"id":"14005988595","owner":"31612046@N04","secret":"c362575524","server":"2910","farm":3,"title":"Luzern - Reuss","ispublic":1,"isfriend":0,"isfamily":0,"safe":0,"ownername":"Alessia Cross","latitude":47.051177,"longitude":8.303818,"accuracy":"16","context":0,"place_id":"b8MITN1TUrttsP2_eQ","woeid":"20102030","geo_is_family":0,"geo_is_friend":0,"geo_is_contact":0,"geo_is_public":1,"media":"photo","media_status":"ready"},{"id":"14025586673","owner":"16327370@N00","secret":"c2181445df","server":"5268","farm":6,"title":"Nasir Al Mulk Mosque","ispublic":1,"isfriend":0,"isfamily":0,"safe":0,"ownername":"tamra hays","latitude":29.61549,"longitude":52.536483,"accuracy":"10","context":0,"place_id":"p4s7bqRTUL8j9_kI","woeid":"2255202","geo_is_family":0,"geo_is_friend":0,"geo_is_contact":0,"geo_is_public":1,"media":"photo","media_status":"ready"},{"id":"14005477074","owner":"42108906@N04","secret":"52916dbdc5","server":"7102","farm":8,"title":"Sunday in Milan","ispublic":1,"isfriend":0,"isfamily":0,"safe":0,"ownername":"Fil.ippo","latitude":45.453628,"longitude":9.174828,"accuracy":"15","context":0,"place_id":"49Gidk1WU7JxrFY","woeid":"718345","geo_is_family":0,"geo_is_friend":0,"geo_is_contact":0,"geo_is_public":1,"media":"photo","media_status":"ready"},{"id":"14005050904","owner":"13922644@N05","secret":"4559c9df5c","server":"7100","farm":8,"title":"Wharfedale ruin","ispublic":1,"isfriend":0,"isfamily":0,"safe":0,"ownername":"bingleyman2","latitude":54.1477,"longitude":-2.055644,"accuracy":"16","context":0,"place_id":"bjZ4ziRTVrJlGA","woeid":"24880","geo_is_family":0,"geo_is_friend":0,"geo_is_contact":0,"geo_is_public":1,"media":"photo","media_status":"ready"},{"id":"14001123402","owner":"17306541@N06","secret":"9a1913226c","server":"2932","farm":3,"title":"Edges","ispublic":1,"isfriend":0,"isfamily":0,"safe":0,"ownername":"jellyfire","latitude":52.284542,"longitude":1.043186,"accuracy":"12","context":0,"place_id":"x4cDPelVUr5.0w","woeid":"40416","geo_is_family":0,"geo_is_friend":0,"geo_is_contact":0,"geo_is_public":1,"media":"photo","media_status":"ready"},{"id":"14000623181","owner":"46267286@N07","secret":"6d3ca77659","server":"2909","farm":3,"title":"Liquid By Simon (On Explore 24th April 2014)","ispublic":1,"isfriend":0,"isfamily":0,"safe":0,"ownername":"Simon & His Camera","latitude":51.51387,"longitude":-0.081539,"accuracy":"16","context":0,"place_id":"3Vyv899TUroWiiTGDg","woeid":"20094298","geo_is_family":0,"geo_is_friend":0,"geo_is_contact":0,"geo_is_public":1,"media":"photo","media_status":"ready"},{"id":"14000393031","owner":"55858110@N02","secret":"e876731816","server":"2903","farm":3,"title":"Sunrise Docks (explore)","ispublic":1,"isfriend":0,"isfamily":0,"safe":0,"ownername":"jvarley19 very busy will catch up soon","latitude":53.288269,"longitude":-2.889211,"accuracy":"16","context":0,"place_id":"UOVGbclQW77I6g","woeid":"19484","geo_is_family":0,"geo_is_friend":0,"geo_is_contact":0,"geo_is_public":1,"media":"photo","media_status":"ready"},{"id":"13999825961","owner":"53223794@N00","secret":"ab713602ef","server":"7177","farm":8,"title":"P\u00e5lsundet, Stockholm","ispublic":1,"isfriend":0,"isfamily":0,"safe":0,"ownername":"joeriksson","latitude":59.319758,"longitude":18.031589,"accuracy":"15","context":0,"place_id":"VqVeMfVZW7yVth8","woeid":"896628","geo_is_family":0,"geo_is_friend":0,"geo_is_contact":0,"geo_is_public":1,"media":"photo","media_status":"ready"},{"id":"13997654071","owner":"91553093@N02","secret":"7735b3afbc","server":"2903","farm":3,"title":"The wall","ispublic":1,"isfriend":0,"isfamily":0,"safe":0,"ownername":"Sebastian Waszak Photography","latitude":51.217744,"longitude":6.777899,"accuracy":"16","context":0,"place_id":"MA8Ke4hXVrwlyVI","woeid":"646099","geo_is_family":0,"geo_is_friend":0,"geo_is_contact":0,"geo_is_public":1,"media":"photo","media_status":"ready"},{"id":"14020434213","owner":"80489004@N03","secret":"956b0a0882","server":"5107","farm":6,"title":"Sunrise from Casabianca di Fermo  21\/04\/2014","ispublic":1,"isfriend":0,"isfamily":0,"safe":0,"ownername":"Famasse","latitude":43.215122,"longitude":13.78355,"accuracy":"14","context":0,"place_id":"yg8RWXdWU73wrHs","woeid":"717278","geo_is_family":0,"geo_is_friend":0,"geo_is_contact":0,"geo_is_public":1,"media":"photo","media_status":"ready"},{"id":"14018146513","owner":"67659376@N03","secret":"2d0e28fb71","server":"2900","farm":3,"title":"Great Langdale","ispublic":1,"isfriend":0,"isfamily":0,"safe":0,"ownername":"Bardsea Photography","latitude":54.446363,"longitude":-3.064949,"accuracy":"16","context":0,"place_id":"zMLsgapTU7yD7g","woeid":"21670","geo_is_family":0,"geo_is_friend":0,"geo_is_contact":0,"geo_is_public":1,"media":"photo","media_status":"ready"},{"id":"14017209813","owner":"38337348@N06","secret":"b0f9958167","server":"7185","farm":8,"title":"In essence","ispublic":1,"isfriend":0,"isfamily":0,"safe":0,"ownername":"Passie13(Ines van Megen-Thijssen)","latitude":51.983968,"longitude":4.113264,"accuracy":"15","context":0,"place_id":"LtaqaHpWUbo77K8","woeid":"730165","geo_is_family":0,"geo_is_friend":0,"geo_is_contact":0,"geo_is_public":1,"media":"photo","media_status":"ready"},{"id":"13973180116","owner":"30032844@N05","secret":"116d6a9403","server":"7399","farm":8,"title":"\"YOU MAKE ME FEEL....\"","ispublic":1,"isfriend":0,"isfamily":0,"safe":0,"ownername":"R a q u e l d e C a s t r o | Images","latitude":43.417018,"longitude":-3.32405,"accuracy":"11","context":0,"place_id":"Ery0ISlTUrgZ8WTfhA","woeid":"20226247","geo_is_family":0,"geo_is_friend":0,"geo_is_contact":0,"geo_is_public":1,"media":"photo","media_status":"ready"},{"id":"13971983636","owner":"71992351@N02","secret":"577dc6e0e6","server":"5181","farm":6,"title":"Ilonse","ispublic":1,"isfriend":0,"isfamily":0,"safe":0,"ownername":"papy06200","latitude":44.031888,"longitude":7.101287,"accuracy":"13","context":0,"place_id":"aaX2B6JUW7.LWuA","woeid":"595176","geo_is_family":0,"geo_is_friend":0,"geo_is_contact":0,"geo_is_public":1,"media":"photo","media_status":"ready"},{"id":"13995453214","owner":"32208339@N04","secret":"7e5eb19341","server":"5481","farm":6,"title":"Starling...","ispublic":1,"isfriend":0,"isfamily":0,"safe":0,"ownername":"Feathers (Allan)","latitude":50.985315,"longitude":0.644803,"accuracy":"14","context":0,"place_id":"hUC0tnBQULuWUg","woeid":"12195","geo_is_family":0,"geo_is_friend":0,"geo_is_contact":0,"geo_is_public":1,"media":"photo","media_status":"ready"},{"id":"13994391594","owner":"45872172@N04","secret":"f36571dc65","server":"7451","farm":8,"title":"Vida en la arena.","ispublic":1,"isfriend":0,"isfamily":0,"safe":0,"ownername":"Manuelbv","latitude":43.544515,"longitude":-5.662703,"accuracy":"11","context":0,"place_id":"ab9v_glWVLtecyY","woeid":"761570","geo_is_family":0,"geo_is_friend":0,"geo_is_contact":0,"geo_is_public":1,"media":"photo","media_status":"ready"},{"id":"13990532221","owner":"32081639@N05","secret":"74524465ee","server":"5143","farm":6,"title":"Deep blue sunset","ispublic":1,"isfriend":0,"isfamily":0,"safe":0,"ownername":"Juampiter","latitude":40.578042,"longitude":-4.042453,"accuracy":"13","context":0,"place_id":"Kih0bjNWV71TIfk","woeid":"757870","geo_is_family":0,"geo_is_friend":0,"geo_is_contact":0,"geo_is_public":1,"media":"photo","media_status":"ready"},{"id":"13969938596","owner":"17913004@N06","secret":"9e6cc5e25b","server":"7459","farm":8,"title":"Bridge in the night","ispublic":1,"isfriend":0,"isfamily":0,"safe":0,"ownername":"G.hostbuster","latitude":45.406916,"longitude":9.034881,"accuracy":"16","context":0,"place_id":"uL7xJBJWU79sfMs","woeid":"715893","geo_is_family":0,"geo_is_friend":0,"geo_is_contact":0,"geo_is_public":1,"media":"photo","media_status":"ready"},{"id":"13969692196","owner":"46915431@N06","secret":"dd2d1914da","server":"7074","farm":8,"title":"Aiguille du Dru","ispublic":1,"isfriend":0,"isfamily":0,"safe":0,"ownername":"Lil Bavvers","latitude":45.931763,"longitude":6.918078,"accuracy":"14","context":0,"place_id":"uxzCPpBQULwB72HmWQ","woeid":"12655471","geo_is_family":0,"geo_is_friend":0,"geo_is_contact":0,"geo_is_public":1,"media":"photo","media_status":"ready"},{"id":"14011865653","owner":"42645785@N04","secret":"50a4b8a1ca","server":"7176","farm":8,"title":"An der Ach - Uffing, Pfaffenwinkel","ispublic":1,"isfriend":0,"isfamily":0,"safe":0,"ownername":"dorena-wm","latitude":47.708721,"longitude":11.152153,"accuracy":"13","context":0,"place_id":"Vki1sJxWUrp5fBY","woeid":"700443","geo_is_family":0,"geo_is_friend":0,"geo_is_contact":0,"geo_is_public":1,"media":"photo","media_status":"ready"},{"id":"13968295866","owner":"55858110@N02","secret":"5c69640805","server":"7126","farm":8,"title":"Fishing the Vale (explore)","ispublic":1,"isfriend":0,"isfamily":0,"safe":0,"ownername":"jvarley19 very busy will catch up soon","latitude":53.437943,"longitude":-2.144608,"accuracy":"16","context":0,"place_id":"8WpaeDZSUbqViw","woeid":"33034","geo_is_family":0,"geo_is_friend":0,"geo_is_contact":0,"geo_is_public":1,"media":"photo","media_status":"ready"},{"id":"13988220124","owner":"26261314@N06","secret":"194b3a7071","server":"7422","farm":8,"title":"TL-x-7-8686","ispublic":1,"isfriend":0,"isfamily":0,"safe":0,"ownername":"RAFATZ","latitude":41.136843,"longitude":1.225318,"accuracy":"13","context":0,"place_id":"EbT50Y9TUb5.EgkbYw","woeid":"23416444","geo_is_family":0,"geo_is_friend":0,"geo_is_contact":0,"geo_is_public":1,"media":"photo","media_status":"ready"},{"id":"13984568981","owner":"26261314@N06","secret":"5a1be11706","server":"7237","farm":8,"title":"TL-X-8-Darlene-2740","ispublic":1,"isfriend":0,"isfamily":0,"safe":0,"ownername":"RAFATZ","latitude":41.148865,"longitude":1.089019,"accuracy":"13","context":0,"place_id":"IIuJL6xWVbuzKdQ","woeid":"771702","geo_is_family":0,"geo_is_friend":0,"geo_is_contact":0,"geo_is_public":1,"media":"photo","media_status":"ready"},{"id":"13963720026","owner":"68035120@N03","secret":"58d187db62","server":"5110","farm":6,"title":"warsaw","ispublic":1,"isfriend":0,"isfamily":0,"safe":0,"ownername":"Ianne Boydzv","latitude":52.238733,"longitude":21.015472,"accuracy":"11","context":0,"place_id":"7VcHRkJUULmTDVQ","woeid":"523920","geo_is_family":0,"geo_is_friend":0,"geo_is_contact":0,"geo_is_public":1,"media":"photo","media_status":"ready"},{"id":"13987239084","owner":"26261314@N06","secret":"ec09917b14","server":"7193","farm":8,"title":"Tormenta inminente-4046","ispublic":1,"isfriend":0,"isfamily":0,"safe":0,"ownername":"RAFATZ","latitude":41.265259,"longitude":0.890665,"accuracy":"14","context":0,"place_id":"DGwnIk1WV7K5Cx8","woeid":"758061","geo_is_family":0,"geo_is_friend":0,"geo_is_contact":0,"geo_is_public":1,"media":"photo","media_status":"ready"},{"id":"13986491734","owner":"26261314@N06","secret":"2c4bcd1820","server":"2927","farm":3,"title":"TL-X-5-Irene-2463","ispublic":1,"isfriend":0,"isfamily":0,"safe":0,"ownername":"RAFATZ","latitude":41.171192,"longitude":1.022157,"accuracy":"14","context":0,"place_id":"IeTdVrJWV76oS6I","woeid":"754757","geo_is_family":0,"geo_is_friend":0,"geo_is_contact":0,"geo_is_public":1,"media":"photo","media_status":"ready"},{"id":"13982626251","owner":"7132158@N07","secret":"75ce105e56","server":"7112","farm":8,"title":"Happy the man who expects nothing, so never have disappointments","ispublic":1,"isfriend":0,"isfamily":0,"safe":0,"ownername":"Rui Almeida.","latitude":39.081939,"longitude":-8.757133,"accuracy":"15","context":0,"place_id":"GlNbcL9WVrOj_6I","woeid":"749726","geo_is_family":0,"geo_is_friend":0,"geo_is_contact":0,"geo_is_public":1,"media":"photo","media_status":"ready"},{"id":"13979697041","owner":"46724410@N07","secret":"60084f2771","server":"5250","farm":6,"title":"Plumeria","ispublic":1,"isfriend":0,"isfamily":0,"safe":0,"ownername":"Rokkor Fella","latitude":25.9991,"longitude":-80.138509,"accuracy":"16","context":0,"place_id":"OL4uMo9UV7LKSuwNSA","woeid":"55859686","geo_is_family":0,"geo_is_friend":0,"geo_is_contact":0,"geo_is_public":1,"media":"photo","media_status":"ready"},{"id":"13977146561","owner":"13922644@N05","secret":"0cef6ebcd3","server":"7172","farm":8,"title":"Posforth Gill Falls","ispublic":1,"isfriend":0,"isfamily":0,"safe":0,"ownername":"bingleyman2","latitude":54.004868,"longitude":-1.882513,"accuracy":"16","context":0,"place_id":"hVsaTNpSVLnDtg","woeid":"36346","geo_is_family":0,"geo_is_friend":0,"geo_is_contact":0,"geo_is_public":1,"media":"photo","media_status":"ready"},{"id":"13976730612","owner":"54127929@N08","secret":"a9578e6ae5","server":"7254","farm":8,"title":"Moon Over NYC","ispublic":1,"isfriend":0,"isfamily":0,"safe":0,"ownername":"Moniza*","latitude":40.737159,"longitude":-74.030967,"accuracy":"11","context":0,"place_id":"snHn_Q1TVrix3w9U","woeid":"2422673","geo_is_family":0,"geo_is_friend":0,"geo_is_contact":0,"geo_is_public":1,"media":"photo","media_status":"ready"},{"id":"13999642363","owner":"37070332@N08","secret":"ae23f5dbfa","server":"7360","farm":8,"title":"Spring Comes To Warsaw","ispublic":1,"isfriend":0,"isfamily":0,"safe":0,"ownername":"Oleh Zavadsky","latitude":52.249638,"longitude":21.014091,"accuracy":"16","context":0,"place_id":"vMehlH1TUL3Gj_Urow","woeid":"22724182","geo_is_family":0,"geo_is_friend":0,"geo_is_contact":0,"geo_is_public":1,"media":"photo","media_status":"ready"},{"id":"13979533015","owner":"90378082@N07","secret":"9bb5826045","server":"7036","farm":8,"title":"Serious stuff","ispublic":1,"isfriend":0,"isfamily":0,"safe":0,"ownername":"Baz 120","latitude":41.895632,"longitude":12.48255,"accuracy":"15","context":0,"place_id":"FphPyURWU7ux6h4","woeid":"711883","geo_is_family":0,"geo_is_friend":0,"geo_is_contact":0,"geo_is_public":1,"media":"photo","media_status":"ready"},{"id":"13978834445","owner":"58195583@N06","secret":"558cc49143","server":"7148","farm":8,"title":"Southern Pied Babbler (Explored), Turdoides bicolor, Hwange National Park, Zimbabwe","ispublic":1,"isfriend":0,"isfamily":0,"safe":0,"ownername":"Jeremy Smith Photography","latitude":-18.737521,"longitude":26.720123,"accuracy":"9","context":0,"place_id":"jlLi9xZTUb4Dx0h8","woeid":"2347815","geo_is_family":0,"geo_is_friend":0,"geo_is_contact":0,"geo_is_public":1,"media":"photo","media_status":"ready"},{"id":"13997235933","owner":"35581435@N07","secret":"10c0e5b69d","server":"7030","farm":8,"title":"Igreja de S\u00e3o Jo\u00e3o de Trancoso","ispublic":1,"isfriend":0,"isfamily":0,"safe":0,"ownername":"marcelo nacinovic","latitude":-16.601977,"longitude":-39.094848,"accuracy":"11","context":0,"place_id":"HTlt5udTUb7fwhxO","woeid":"2344848","geo_is_family":0,"geo_is_friend":0,"geo_is_contact":0,"geo_is_public":1,"media":"photo","media_status":"ready"},{"id":"13975793665","owner":"85184797@N00","secret":"7ffe225157","server":"7435","farm":8,"title":"Air play: May & sax - 6","ispublic":1,"isfriend":0,"isfamily":0,"safe":0,"ownername":"jonathan charles photo","latitude":45.895593,"longitude":-0.243372,"accuracy":"15","context":0,"place_id":"TfCjkSJQULxesH1NYQ","woeid":"12662244","geo_is_family":0,"geo_is_friend":0,"geo_is_contact":0,"geo_is_public":1,"media":"photo","media_status":"ready"},{"id":"13971785211","owner":"99574551@N04","secret":"f74d4a1520","server":"7177","farm":8,"title":"Vernal Daydream","ispublic":1,"isfriend":0,"isfamily":0,"safe":0,"ownername":"Massmo Relsig","latitude":54.533309,"longitude":9.722009,"accuracy":"16","context":0,"place_id":"Ur.s65tTW7mKG7zuuw","woeid":"29351288","geo_is_family":0,"geo_is_friend":0,"geo_is_contact":0,"geo_is_public":1,"media":"photo","media_status":"ready"},{"id":"13974621555","owner":"22488000@N05","secret":"25008a4e5c","server":"7351","farm":8,"title":"Chiesa  della Madonna di Vitaleta","ispublic":1,"isfriend":0,"isfamily":0,"safe":0,"ownername":"valeriolanci","latitude":43.077866,"longitude":11.647243,"accuracy":"14","context":0,"place_id":"efmaKclWULnXU.M","woeid":"723077","geo_is_family":0,"geo_is_friend":0,"geo_is_contact":0,"geo_is_public":1,"media":"photo","media_status":"ready"},{"id":"14010008145","owner":"21298507@N04","secret":"3d04cb6551","server":"2895","farm":3,"title":"Stairway To The Roof","ispublic":1,"isfriend":0,"isfamily":0,"safe":0,"ownername":"Charliebubbles","latitude":52.644358,"longitude":-2.315583,"accuracy":"16","context":0,"place_id":"hd_P48xSVryZjg","woeid":"34618","geo_is_family":0,"geo_is_friend":0,"geo_is_contact":0,"geo_is_public":1,"media":"photo","media_status":"ready"},{"id":"13988403494","owner":"80571162@N02","secret":"5515b61bb7","server":"2921","farm":3,"title":"Mandare cartoline dall' estero vivendo a casa mia.","ispublic":1,"isfriend":0,"isfamily":0,"safe":0,"ownername":"BelaLugosi vorrebbe non essere BelaLugosi","latitude":39.08557,"longitude":9.532012,"accuracy":"11","context":0,"place_id":"82pw5ZtTW7mCkzSCCw","woeid":"29343747","geo_is_family":0,"geo_is_friend":0,"geo_is_contact":0,"geo_is_public":1,"media":"photo","media_status":"ready"}]},"stat":"ok"}