{"photos":{"page":39,"pages":26685,"perpage":60,"total":"1601100","photo":[{"id":"14079348736","owner":"48518396@N08","secret":"512468316a","server":"5568","farm":6,"title":"Airbus A300-600 ST Supertransporter \"Beluga\" F-GSTA powerful take-off","ispublic":1,"isfriend":0,"isfamily":0,"safe":0,"ownername":"Olivier CABARET","latitude":47.153682,"longitude":-1.610698,"accuracy":"14","context":0,"place_id":"ZcrU8uJQUL_uvKxO2w","woeid":"12512881","geo_is_family":0,"geo_is_friend":0,"geo_is_contact":0,"geo_is_public":1,"media":"photo","media_status":"ready"},{"id":"14099039811","owner":"39669415@N05","secret":"9151aeef55","server":"2914","farm":3,"title":"Marina, Ouddorp","ispublic":1,"isfriend":0,"isfamily":0,"safe":0,"ownername":"BraCom (Bram)","latitude":51.798058,"longitude":3.933952,"accuracy":"16","context":0,"place_id":"hUdJEIhWUbgUNGg","woeid":"732524","geo_is_family":0,"geo_is_friend":0,"geo_is_contact":0,"geo_is_public":1,"media":"photo","media_status":"ready"},{"id":"14079096266","owner":"66644631@N05","secret":"4a94752e1e","server":"5545","farm":6,"title":"Panier de fleurs [20042014-IMG_2068-2].jpg","ispublic":1,"isfriend":0,"isfamily":0,"safe":0,"ownername":"jmlpyt","latitude":48.790241,"longitude":2.654309,"accuracy":"11","context":0,"place_id":"Q5fdiC9XU7NNNXU","woeid":"619796","geo_is_family":0,"geo_is_friend":0,"geo_is_contact":0,"geo_is_public":1,"media":"photo","media_status":"ready"},{"id":"14097038981","owner":"90634379@N06","secret":"970ba26a6c","server":"7037","farm":8,"title":"\"But you need to breathe. And you need to be.\u201d -Albert Camus-","ispublic":1,"isfriend":0,"isfamily":0,"safe":0,"ownername":"Lilian_Anadan","latitude":-23.589435,"longitude":-46.659579,"accuracy":"16","context":0,"place_id":"a0.vOz9TUL1HYmiERQ","woeid":"22723910","geo_is_family":0,"geo_is_friend":0,"geo_is_contact":0,"geo_is_public":1,"media":"photo","media_status":"ready"},{"id":"14098858745","owner":"26849514@N06","secret":"96cba7fd15","server":"7176","farm":8,"title":"Happy Sunday ! \/ Nativity of Christ Cathedral in Riga, Latvia","ispublic":1,"isfriend":0,"isfamily":0,"safe":0,"ownername":"Frans.Sellies","latitude":56.953961,"longitude":24.115698,"accuracy":"16","context":0,"place_id":"fCk.zxZZV769Z9I","woeid":"854823","geo_is_family":0,"geo_is_friend":0,"geo_is_contact":0,"geo_is_public":1,"media":"photo","media_status":"ready"},{"id":"14116707703","owner":"92686475@N00","secret":"8c2a41f08b","server":"5279","farm":6,"title":"Heading Home","ispublic":1,"isfriend":0,"isfamily":0,"safe":0,"ownername":"Timothy Valentine","latitude":25.795378,"longitude":-80.278061,"accuracy":"16","context":0,"place_id":"3jg3_3RTVri6IrdS","woeid":"2420610","geo_is_family":0,"geo_is_friend":0,"geo_is_contact":0,"geo_is_public":1,"media":"photo","media_status":"ready"},{"id":"14091366111","owner":"26272797@N02","secret":"2c82f05edc","server":"5322","farm":6,"title":"a kiss at sunset","ispublic":1,"isfriend":0,"isfamily":0,"safe":0,"ownername":"*magma*","latitude":41.912036,"longitude":12.475361,"accuracy":"13","context":0,"place_id":"DcobQsBTUrtDByHcqw","woeid":"20150544","geo_is_family":0,"geo_is_friend":0,"geo_is_contact":0,"geo_is_public":1,"media":"photo","media_status":"ready"},{"id":"14095003604","owner":"22857264@N08","secret":"61627a55c8","server":"5117","farm":6,"title":"Nach S\u00fcdamerika","ispublic":1,"isfriend":0,"isfamily":0,"safe":0,"ownername":"redstarpictures","latitude":53.535434,"longitude":10.019099,"accuracy":"15","context":0,"place_id":"L6CgVrlTWrnNHGkoZA","woeid":"28362581","geo_is_family":0,"geo_is_friend":0,"geo_is_contact":0,"geo_is_public":1,"media":"photo","media_status":"ready"},{"id":"14114385993","owner":"52011215@N08","secret":"f8530b260d","server":"7061","farm":8,"title":"Una fachada en Toledo - A facade in Toledo","ispublic":1,"isfriend":0,"isfamily":0,"safe":0,"ownername":"Rumbo181","latitude":39.861869,"longitude":-4.025139,"accuracy":"11","context":0,"place_id":"3936VUBWVb8qSI8","woeid":"775524","geo_is_family":0,"geo_is_friend":0,"geo_is_contact":0,"geo_is_public":1,"media":"photo","media_status":"ready"},{"id":"14094365024","owner":"72738192@N00","secret":"22a5a08798","server":"2899","farm":3,"title":"S E A G U L L S. Essaouira","ispublic":1,"isfriend":0,"isfamily":0,"safe":0,"ownername":"Claude Renault Photography","latitude":31.511678,"longitude":-9.773025,"accuracy":"13","context":0,"place_id":"QWPSlNBQV7kfWwf_","woeid":"1535366","geo_is_family":0,"geo_is_friend":0,"geo_is_contact":0,"geo_is_public":1,"media":"photo","media_status":"ready"},{"id":"13906741899","owner":"89213194@N05","secret":"328a91d7ed","server":"2902","farm":3,"title":"Runcorn Bridge Runners","ispublic":1,"isfriend":0,"isfamily":0,"safe":0,"ownername":"Glyn Owen Photography & Image-Art","latitude":53.348463,"longitude":-2.737054,"accuracy":"15","context":0,"place_id":"YbXAiMZTULsj6w","woeid":"22160","geo_is_family":0,"geo_is_friend":0,"geo_is_contact":0,"geo_is_public":1,"media":"photo","media_status":"ready"},{"id":"14070274156","owner":"62448022@N00","secret":"74305d0ea7","server":"7195","farm":8,"title":"Spring Day","ispublic":1,"isfriend":0,"isfamily":0,"safe":0,"ownername":"Aerial Photography","latitude":48.445486,"longitude":12.027711,"accuracy":"16","context":0,"place_id":"OEEaDvxXVrtVg8U","woeid":"641925","geo_is_family":0,"geo_is_friend":0,"geo_is_contact":0,"geo_is_public":1,"media":"photo","media_status":"ready"},{"id":"14088901681","owner":"8070463@N03","secret":"0db7fdb597","server":"2923","farm":3,"title":"Flamingo profile","ispublic":1,"isfriend":0,"isfamily":0,"safe":0,"ownername":"Tambako the Jaguar","latitude":46.934821,"longitude":7.449455,"accuracy":"16","context":0,"place_id":"GpM368tWWr4at80","woeid":"784626","geo_is_family":0,"geo_is_friend":0,"geo_is_contact":0,"geo_is_public":1,"media":"photo","media_status":"ready"},{"id":"14087004321","owner":"77243361@N07","secret":"d8c7d89e3a","server":"2914","farm":3,"title":"A walk on the beach","ispublic":1,"isfriend":0,"isfamily":0,"safe":0,"ownername":"Nodding Pig","latitude":50.858897,"longitude":-4.558811,"accuracy":"13","context":0,"place_id":"1uCitytQVr7ftQ","woeid":"14434","geo_is_family":0,"geo_is_friend":0,"geo_is_contact":0,"geo_is_public":1,"media":"photo","media_status":"ready"},{"id":"13902937337","owner":"29350952@N06","secret":"131b058599","server":"5562","farm":6,"title":"\u2318","ispublic":1,"isfriend":0,"isfamily":0,"safe":0,"ownername":"melquiades1898","latitude":54.349928,"longitude":12.419314,"accuracy":"15","context":0,"place_id":"8HektFtWUrI09M4","woeid":"708374","geo_is_family":0,"geo_is_friend":0,"geo_is_contact":0,"geo_is_public":1,"media":"photo","media_status":"ready"},{"id":"14086222931","owner":"88420718@N03","secret":"753eef1336","server":"7434","farm":8,"title":"nocturnal blue","ispublic":1,"isfriend":0,"isfamily":0,"safe":0,"ownername":"thequietguy","latitude":41.136778,"longitude":23.220977,"accuracy":"11","context":0,"place_id":"fxqZi19YV79Wso0","woeid":"955547","geo_is_family":0,"geo_is_friend":0,"geo_is_contact":0,"geo_is_public":1,"media":"photo","media_status":"ready"},{"id":"14109217823","owner":"63270671@N03","secret":"15aa6b3718","server":"7406","farm":8,"title":"The Cyclist - FlickR explore 02.05.2014","ispublic":1,"isfriend":0,"isfamily":0,"safe":0,"ownername":"S.R.Murphy","latitude":55.676108,"longitude":12.575139,"accuracy":"14","context":0,"place_id":"s8FKSuxTUri_WJ42Pw","woeid":"20229440","geo_is_family":0,"geo_is_friend":0,"geo_is_contact":0,"geo_is_public":1,"media":"photo","media_status":"ready"},{"id":"14085480982","owner":"34305619@N06","secret":"fd8f0d73b9","server":"5114","farm":6,"title":"water lily @ 2weeks~ Explored#51","ispublic":1,"isfriend":0,"isfamily":0,"safe":0,"ownername":"Wendy:","latitude":53.313902,"longitude":-6.213026,"accuracy":"14","context":0,"place_id":"fjmHzRZUVLpKRgI","woeid":"560743","geo_is_family":0,"geo_is_friend":0,"geo_is_contact":0,"geo_is_public":1,"media":"photo","media_status":"ready"},{"id":"14085215582","owner":"53340207@N07","secret":"6247ef751b","server":"5593","farm":6,"title":"La Tradition est respect\u00e9e","ispublic":1,"isfriend":0,"isfamily":0,"safe":0,"ownername":"Pifou 2010","latitude":48.889051,"longitude":2.323919,"accuracy":"16","context":0,"place_id":"iSoxLlBUV7Jk5hnnmA","woeid":"55843842","geo_is_family":0,"geo_is_friend":0,"geo_is_contact":0,"geo_is_public":1,"media":"photo","media_status":"ready"},{"id":"14088196344","owner":"23012400@N03","secret":"8b35bcceb8","server":"5483","farm":6,"title":"Pantano de Ria\u00f1o.Le\u00f3n.","ispublic":1,"isfriend":0,"isfamily":0,"safe":0,"ownername":"Miguel. (respenda)","latitude":42.97528,"longitude":-5.012512,"accuracy":"16","context":0,"place_id":"_YcD3.RWVbted0Y","woeid":"771745","geo_is_family":0,"geo_is_friend":0,"geo_is_contact":0,"geo_is_public":1,"media":"photo","media_status":"ready"},{"id":"14064123776","owner":"8868875@N03","secret":"b5a001456f","server":"5101","farm":6,"title":"making bubbles","ispublic":1,"isfriend":0,"isfamily":0,"safe":0,"ownername":"gato-gato-gato","latitude":47.37603,"longitude":8.526355,"accuracy":"16","context":0,"place_id":"N6mvrZ5WWrsOeBo","woeid":"781693","geo_is_family":0,"geo_is_friend":0,"geo_is_contact":0,"geo_is_public":1,"media":"photo","media_status":"ready"},{"id":"13900567669","owner":"73665853@N07","secret":"63da3a3ca2","server":"5475","farm":6,"title":"por Tolosa 1a","ispublic":1,"isfriend":0,"isfamily":0,"safe":0,"ownername":"juan luis olaeta","latitude":43.139512,"longitude":-2.072639,"accuracy":"14","context":0,"place_id":"hN8RdltWVb8aT9U","woeid":"775536","geo_is_family":0,"geo_is_friend":0,"geo_is_contact":0,"geo_is_public":1,"media":"photo","media_status":"ready"},{"id":"13900438710","owner":"66403925@N03","secret":"983b91801e","server":"7187","farm":8,"title":"Lagartixa-do-mato, Large Psammodromus(Psammodromus algirus) - em Liberdade [in Wild]","ispublic":1,"isfriend":0,"isfamily":0,"safe":0,"ownername":"ana & xavier (1.100.000 views - Obg \/ thanks)","latitude":40.26538,"longitude":-7.132186,"accuracy":"11","context":0,"place_id":"CnvfCClWVrk6.NU","woeid":"743402","geo_is_family":0,"geo_is_friend":0,"geo_is_contact":0,"geo_is_public":1,"media":"photo","media_status":"ready"},{"id":"13898626927","owner":"28754568@N02","secret":"e68d9069c2","server":"7308","farm":8,"title":"Rio Arno (Florencia)","ispublic":1,"isfriend":0,"isfamily":0,"safe":0,"ownername":"Jos\u00e9 M. Arboleda","latitude":43.76811,"longitude":11.253111,"accuracy":"16","context":0,"place_id":"drN1SbBTUrsvdwZ2VA","woeid":"20150265","geo_is_family":0,"geo_is_friend":0,"geo_is_contact":0,"geo_is_public":1,"media":"photo","media_status":"ready"},{"id":"14103878653","owner":"8462128@N04","secret":"8c55b24073","server":"7365","farm":8,"title":"Manarola - Italy","ispublic":1,"isfriend":0,"isfamily":0,"safe":0,"ownername":"Lars Kehrel","latitude":44.107425,"longitude":9.725475,"accuracy":"16","context":0,"place_id":"V82f9lFQULzNNNVHcg","woeid":"12678917","geo_is_family":0,"geo_is_friend":0,"geo_is_contact":0,"geo_is_public":1,"media":"photo","media_status":"ready"},{"id":"14079699131","owner":"67590306@N03","secret":"eec2243053","server":"7448","farm":8,"title":"Sobre las nubes, Estrecho de Gibraltar \/ Above the Clouds, Strait of Gibraltar ( Explore )","ispublic":1,"isfriend":0,"isfamily":0,"safe":0,"ownername":"Jos\u00e9 Rambaud","latitude":36.095649,"longitude":-5.53359,"accuracy":"14","context":0,"place_id":"c_UmxG5TULzz3CkkOw","woeid":"22661077","geo_is_family":0,"geo_is_friend":0,"geo_is_contact":0,"geo_is_public":1,"media":"photo","media_status":"ready"},{"id":"13895417800","owner":"97004099@N05","secret":"80d25ace52","server":"5338","farm":6,"title":"This is Madinina","ispublic":1,"isfriend":0,"isfamily":0,"safe":0,"ownername":"Fonk De","latitude":14.463936,"longitude":-60.939445,"accuracy":"14","context":0,"place_id":"mRk0WoVQU7pz8yo","woeid":"110788","geo_is_family":0,"geo_is_friend":0,"geo_is_contact":0,"geo_is_public":1,"media":"photo","media_status":"ready"},{"id":"14058309016","owner":"13297363@N08","secret":"d24fdd05fa","server":"5329","farm":6,"title":"View of Havana","ispublic":1,"isfriend":0,"isfamily":0,"safe":0,"ownername":"duque\u0131ros","latitude":23.1168,"longitude":-82.388587,"accuracy":"11","context":0,"place_id":"mfX4siRXUbJJTg","woeid":"63817","geo_is_family":0,"geo_is_friend":0,"geo_is_contact":0,"geo_is_public":1,"media":"photo","media_status":"ready"},{"id":"14077101121","owner":"16874065@N00","secret":"764efb4509","server":"2933","farm":3,"title":"213venise-n&b","ispublic":1,"isfriend":0,"isfamily":0,"safe":0,"ownername":"R E M I B R I D O T","latitude":45.431972,"longitude":12.350683,"accuracy":"16","context":0,"place_id":"h_GEQ5NTUrtOcFoQNQ","woeid":"20150617","geo_is_family":0,"geo_is_friend":0,"geo_is_contact":0,"geo_is_public":1,"media":"photo","media_status":"ready"},{"id":"13892044077","owner":"73414467@N02","secret":"8154b20ab7","server":"2895","farm":3,"title":"Hola","ispublic":1,"isfriend":0,"isfamily":0,"safe":0,"ownername":"Jos\u00e9 Luis Vega","latitude":40.411127,"longitude":-3.691151,"accuracy":"16","context":0,"place_id":"XrSazRhTUrh4j1shyQ","woeid":"20219885","geo_is_family":0,"geo_is_friend":0,"geo_is_contact":0,"geo_is_public":1,"media":"photo","media_status":"ready"},{"id":"13890934207","owner":"49403400@N08","secret":"6d45feb62c","server":"7350","farm":8,"title":"Storm on the Indian Ocean (Explore!)","ispublic":1,"isfriend":0,"isfamily":0,"safe":0,"ownername":"Anindo Dey","latitude":6.833481,"longitude":79.861185,"accuracy":"15","context":0,"place_id":"_OjzeOhTU7LLqY3m","woeid":"2183144","geo_is_family":0,"geo_is_friend":0,"geo_is_contact":0,"geo_is_public":1,"media":"photo","media_status":"ready"},{"id":"13890582958","owner":"88158633@N04","secret":"76c47cc7ac","server":"7415","farm":8,"title":"A beautiful smile","ispublic":1,"isfriend":0,"isfamily":0,"safe":0,"ownername":"Fe_Lima","latitude":-22.514658,"longitude":-48.542747,"accuracy":"14","context":0,"place_id":"UfWi4gRVUb_9yTw","woeid":"435384","geo_is_family":0,"geo_is_friend":0,"geo_is_contact":0,"geo_is_public":1,"media":"photo","media_status":"ready"},{"id":"14076484245","owner":"8609505@N08","secret":"65d6f8141d","server":"2940","farm":3,"title":"Reflecting on the demise of an insect","ispublic":1,"isfriend":0,"isfamily":0,"safe":0,"ownername":"keith27a (limited internet for a while)","latitude":52.58592,"longitude":-1.702963,"accuracy":"15","context":0,"place_id":"DkSmrYpQUbtWwg","woeid":"13147","geo_is_family":0,"geo_is_friend":0,"geo_is_contact":0,"geo_is_public":1,"media":"photo","media_status":"ready"},{"id":"14076918244","owner":"22857264@N08","secret":"2a39bf3e12","server":"7202","farm":8,"title":"...and it was all yellow","ispublic":1,"isfriend":0,"isfamily":0,"safe":0,"ownername":"redstarpictures","latitude":53.807336,"longitude":10.59048,"accuracy":"16","context":0,"place_id":"k9lhCzlXVbhuID4","woeid":"672826","geo_is_family":0,"geo_is_friend":0,"geo_is_contact":0,"geo_is_public":1,"media":"photo","media_status":"ready"},{"id":"13889468189","owner":"91564885@N00","secret":"fb610358ed","server":"5311","farm":6,"title":"Philosophizing","ispublic":1,"isfriend":0,"isfamily":0,"safe":0,"ownername":"*k59","latitude":43.074107,"longitude":-8.012981,"accuracy":"16","context":0,"place_id":"G5_lViFWV7KksJ0","woeid":"758574","geo_is_family":0,"geo_is_friend":0,"geo_is_contact":0,"geo_is_public":1,"media":"photo","media_status":"ready"},{"id":"13889387447","owner":"20905078@N04","secret":"0b5beb395d","server":"7353","farm":8,"title":"","ispublic":1,"isfriend":0,"isfamily":0,"safe":0,"ownername":"patrickjoust","latitude":39.298588,"longitude":-76.634391,"accuracy":"16","context":0,"place_id":"rGymwc9TW7iq3.EgLQ","woeid":"29229490","geo_is_family":0,"geo_is_friend":0,"geo_is_contact":0,"geo_is_public":1,"media":"photo","media_status":"ready"},{"id":"14075998675","owner":"7428283@N05","secret":"fc1c15aa0b","server":"2934","farm":3,"title":"Gunnarsholmsundet in April.","ispublic":1,"isfriend":0,"isfamily":0,"safe":0,"ownername":"la1cna","latitude":58.864295,"longitude":9.41164,"accuracy":"16","context":0,"place_id":"BkdkzbpZVLqP6sQ","woeid":"860801","geo_is_family":0,"geo_is_friend":0,"geo_is_contact":0,"geo_is_public":1,"media":"photo","media_status":"ready"},{"id":"14075905665","owner":"77243361@N07","secret":"d2cc6a1905","server":"5460","farm":6,"title":"Appendage","ispublic":1,"isfriend":0,"isfamily":0,"safe":0,"ownername":"Nodding Pig","latitude":51.165432,"longitude":-2.36898,"accuracy":"16","context":0,"place_id":"ptI196JVUr2tGg","woeid":"40776","geo_is_family":0,"geo_is_friend":0,"geo_is_contact":0,"geo_is_public":1,"media":"photo","media_status":"ready"},{"id":"14074965535","owner":"14279081@N08","secret":"6ea2cf4e7f","server":"7323","farm":8,"title":"iphoneography","ispublic":1,"isfriend":0,"isfamily":0,"safe":0,"ownername":"\u039eSS\u039e\u00ae\u00ae\u039e","latitude":41.949612,"longitude":12.846407,"accuracy":"15","context":0,"place_id":"4wIrb3xTUrso1yq7YQ","woeid":"20109990","geo_is_family":0,"geo_is_friend":0,"geo_is_contact":0,"geo_is_public":1,"media":"photo","media_status":"ready"},{"id":"14069983081","owner":"78411537@N05","secret":"320beb8dea","server":"5475","farm":6,"title":"Alta velocidad","ispublic":1,"isfriend":0,"isfamily":0,"safe":0,"ownername":"Silvina Menna","latitude":-38.373962,"longitude":-60.275115,"accuracy":"9","context":0,"place_id":"opZ.bA9VVL0LqxU","woeid":"467068","geo_is_family":0,"geo_is_friend":0,"geo_is_contact":0,"geo_is_public":1,"media":"photo","media_status":"ready"},{"id":"13886409077","owner":"62051833@N07","secret":"73a2e3dd9b","server":"7357","farm":8,"title":"Heute nehme ich ein Bad","ispublic":1,"isfriend":0,"isfamily":0,"safe":0,"ownername":"Rumpi65","latitude":51.350771,"longitude":12.368309,"accuracy":"16","context":0,"place_id":"UH8CL0dXVbu23sY","woeid":"671072","geo_is_family":0,"geo_is_friend":0,"geo_is_contact":0,"geo_is_public":1,"media":"photo","media_status":"ready"},{"id":"14072954165","owner":"63947271@N06","secret":"71ce0bc9b6","server":"7329","farm":8,"title":"Mirage","ispublic":1,"isfriend":0,"isfamily":0,"safe":0,"ownername":"S l a w e k","latitude":51.501262,"longitude":-0.0112,"accuracy":"14","context":0,"place_id":"aI2AtZhSULmuUg","woeid":"32338","geo_is_family":0,"geo_is_friend":0,"geo_is_contact":0,"geo_is_public":1,"media":"photo","media_status":"ready"},{"id":"14068911002","owner":"92981517@N03","secret":"c7097fbf79","server":"5462","farm":6,"title":"Inhabit\u00e9 VI","ispublic":1,"isfriend":0,"isfamily":0,"safe":0,"ownername":"dono heneman","latitude":47.218109,"longitude":-1.55306,"accuracy":"11","context":0,"place_id":"ujh96DNXU7nOPuo","woeid":"613858","geo_is_family":0,"geo_is_friend":0,"geo_is_contact":0,"geo_is_public":1,"media":"photo","media_status":"ready"},{"id":"14048941086","owner":"16874065@N00","secret":"9acae28f73","server":"5454","farm":6,"title":"213venise","ispublic":1,"isfriend":0,"isfamily":0,"safe":0,"ownername":"R E M I B R I D O T","latitude":45.431972,"longitude":12.350683,"accuracy":"16","context":0,"place_id":"h_GEQ5NTUrtOcFoQNQ","woeid":"20150617","geo_is_family":0,"geo_is_friend":0,"geo_is_contact":0,"geo_is_public":1,"media":"photo","media_status":"ready"},{"id":"14065369532","owner":"45064447@N05","secret":"655b9e9253","server":"7352","farm":8,"title":"pausa","ispublic":1,"isfriend":0,"isfamily":0,"safe":0,"ownername":"ma[mi]losa","latitude":41.251919,"longitude":15.341098,"accuracy":"16","context":0,"place_id":"42P7A5JWU7sn1sQ","woeid":"711350","geo_is_family":0,"geo_is_friend":0,"geo_is_contact":0,"geo_is_public":1,"media":"photo","media_status":"ready"},{"id":"14068650244","owner":"42135237@N02","secret":"c14b0f8b41","server":"2907","farm":3,"title":"French countryside","ispublic":1,"isfriend":0,"isfamily":0,"safe":0,"ownername":"Pierrick M","latitude":48.574207,"longitude":3.252961,"accuracy":"15","context":0,"place_id":"jZVOPlFXU7IaZ5Q","woeid":"618162","geo_is_family":0,"geo_is_friend":0,"geo_is_contact":0,"geo_is_public":1,"media":"photo","media_status":"ready"},{"id":"14064354772","owner":"75501901@N08","secret":"3cf9609c7c","server":"7324","farm":8,"title":"Little Gull","ispublic":1,"isfriend":0,"isfamily":0,"safe":0,"ownername":"Sh4un65_Artistry","latitude":51.660523,"longitude":-4.119958,"accuracy":"13","context":0,"place_id":"rz2baDpQUL9yHWKSJw","woeid":"12578049","geo_is_family":0,"geo_is_friend":0,"geo_is_contact":0,"geo_is_public":1,"media":"photo","media_status":"ready"},{"id":"14063939621","owner":"34885474@N03","secret":"2038b86d65","server":"7398","farm":8,"title":"la roca","ispublic":1,"isfriend":0,"isfamily":0,"safe":0,"ownername":"alcachofa1960","latitude":34.032265,"longitude":-6.842948,"accuracy":"16","context":0,"place_id":"9IpbSoNQV7k.WYJZ","woeid":"1538348","geo_is_family":0,"geo_is_friend":0,"geo_is_contact":0,"geo_is_public":1,"media":"photo","media_status":"ready"},{"id":"14086666973","owner":"93704958@N03","secret":"9b5373e439","server":"5158","farm":6,"title":"The Man in Hyde Park","ispublic":1,"isfriend":0,"isfamily":0,"safe":0,"ownername":"Jazzteffe","latitude":51.511039,"longitude":-0.163078,"accuracy":"14","context":0,"place_id":"K5C5EVRTUrpKduHgSw","woeid":"20094323","geo_is_family":0,"geo_is_friend":0,"geo_is_contact":0,"geo_is_public":1,"media":"photo","media_status":"ready"},{"id":"14062206332","owner":"24448805@N07","secret":"c7719e1593","server":"7326","farm":8,"title":"Carnegie Library Syracuse University","ispublic":1,"isfriend":0,"isfamily":0,"safe":0,"ownername":"Tony Shi.","latitude":43.036714,"longitude":-76.133987,"accuracy":"16","context":0,"place_id":"N0K2JhRTV7ohbA1t","woeid":"2503418","geo_is_family":0,"geo_is_friend":0,"geo_is_contact":0,"geo_is_public":1,"media":"photo","media_status":"ready"},{"id":"14061985161","owner":"87850323@N03","secret":"5857e8d248","server":"5341","farm":6,"title":"Volcanic rock detail in Ponta de Sa\u0303o Lourenc\u0327o Madeira","ispublic":1,"isfriend":0,"isfamily":0,"safe":0,"ownername":"Jon Bagge","latitude":32.745905,"longitude":-16.682202,"accuracy":"15","context":0,"place_id":"hftGDitUV7IBt3vQHA","woeid":"55868363","geo_is_family":0,"geo_is_friend":0,"geo_is_contact":0,"geo_is_public":1,"media":"photo","media_status":"ready"},{"id":"14039254536","owner":"44161305@N02","secret":"155145c504","server":"5277","farm":6,"title":"Venice, Italy, March 30, 2014  125","ispublic":1,"isfriend":0,"isfamily":0,"safe":0,"ownername":"tango-","latitude":45.442023,"longitude":12.3291,"accuracy":"11","context":0,"place_id":"1kXEps9WUL8o6ro","woeid":"725746","geo_is_family":0,"geo_is_friend":0,"geo_is_contact":0,"geo_is_public":1,"media":"photo","media_status":"ready"},{"id":"14081992223","owner":"8645675@N02","secret":"50cdc30e11","server":"2908","farm":3,"title":"Hooked","ispublic":1,"isfriend":0,"isfamily":0,"safe":0,"ownername":"Drachenfanger","latitude":36.661875,"longitude":-76.032998,"accuracy":"16","context":0,"place_id":"yMKol1xTV7vG0onE","woeid":"2512636","geo_is_family":0,"geo_is_friend":0,"geo_is_contact":0,"geo_is_public":1,"media":"photo","media_status":"ready"},{"id":"14058147981","owner":"95549570@N00","secret":"36584de299","server":"7342","farm":8,"title":"The essence of man","ispublic":1,"isfriend":0,"isfamily":0,"safe":0,"ownername":"Giulio Magnifico","latitude":46.07402,"longitude":13.229622,"accuracy":"16","context":0,"place_id":"VnV_nEJWUL_PH4Y","woeid":"725383","geo_is_family":0,"geo_is_friend":0,"geo_is_contact":0,"geo_is_public":1,"media":"photo","media_status":"ready"},{"id":"14079715093","owner":"92981517@N03","secret":"470551dbed","server":"7081","farm":8,"title":"Water and Wood II","ispublic":1,"isfriend":0,"isfamily":0,"safe":0,"ownername":"dono heneman","latitude":47.066268,"longitude":-2.00727,"accuracy":"11","context":0,"place_id":"cTXdcktXUry6LCY","woeid":"606972","geo_is_family":0,"geo_is_friend":0,"geo_is_contact":0,"geo_is_public":1,"media":"photo","media_status":"ready"},{"id":"14055815131","owner":"12895988@N07","secret":"103c2d9ff8","server":"7398","farm":8,"title":"\"When We Were Kings\"","ispublic":1,"isfriend":0,"isfamily":0,"safe":0,"ownername":"Sion Fullana","latitude":40.680511,"longitude":-73.996886,"accuracy":"16","context":0,"place_id":"kQe9MpRUV7NCQz9xCg","woeid":"55992163","geo_is_family":0,"geo_is_friend":0,"geo_is_contact":0,"geo_is_public":1,"media":"photo","media_status":"ready"},{"id":"14052749961","owner":"32686294@N08","secret":"fa562f20e5","server":"5566","farm":6,"title":"Dark sunset","ispublic":1,"isfriend":0,"isfamily":0,"safe":0,"ownername":"mariohowat","latitude":-22.851795,"longitude":-42.663576,"accuracy":"4","context":0,"place_id":"fCgNtJ9TUb7DgEOD","woeid":"2344862","geo_is_family":0,"geo_is_friend":0,"geo_is_contact":0,"geo_is_public":1,"media":"photo","media_status":"ready"},{"id":"14054996245","owner":"38490142@N05","secret":"37bc9d7a62","server":"7377","farm":8,"title":"Eglise abbatiale de la B\u00e9nisson-Dieu - Loire","ispublic":1,"isfriend":0,"isfamily":0,"safe":0,"ownername":"Vaxjo","latitude":46.151029,"longitude":4.045114,"accuracy":"14","context":0,"place_id":"YKpuo8RUW7yoQts","woeid":"596867","geo_is_family":0,"geo_is_friend":0,"geo_is_contact":0,"geo_is_public":1,"media":"photo","media_status":"ready"},{"id":"14074344923","owner":"39870654@N04","secret":"8ffbfb6ed0","server":"5077","farm":6,"title":"Monsanto","ispublic":1,"isfriend":0,"isfamily":0,"safe":0,"ownername":"Ant\u00f3nio Alfarroba","latitude":40.03665,"longitude":-7.11472,"accuracy":"16","context":0,"place_id":"5gAck95WVrl2ny8","woeid":"743731","geo_is_family":0,"geo_is_friend":0,"geo_is_contact":0,"geo_is_public":1,"media":"photo","media_status":"ready"},{"id":"14060402665","owner":"65949682@N00","secret":"f276acdaea","server":"5486","farm":6,"title":"Strolling Comes to an End","ispublic":1,"isfriend":0,"isfamily":0,"safe":0,"ownername":"OR_U","latitude":39.460955,"longitude":-0.323889,"accuracy":"16","context":0,"place_id":"vIyLPqlTUrjdN6QxyA","woeid":"20220212","geo_is_family":0,"geo_is_friend":0,"geo_is_contact":0,"geo_is_public":1,"media":"photo","media_status":"ready"}]},"stat":"ok"}