{"photos":{"page":44,"pages":26686,"perpage":60,"total":"1601104","photo":[{"id":"14051040548","owner":"79503469@N00","secret":"7bbfb79428","server":"5518","farm":6,"title":"Zig Zag Wanderer","ispublic":1,"isfriend":0,"isfamily":0,"safe":0,"ownername":"tagois","latitude":78.216803,"longitude":15.708389,"accuracy":"11","context":0,"place_id":"vwKNDUpUUb08NrU","woeid":"537831","geo_is_family":0,"geo_is_friend":0,"geo_is_contact":0,"geo_is_public":1,"media":"photo","media_status":"ready"},{"id":"14045846377","owner":"76519553@N08","secret":"49cb6327c8","server":"2940","farm":3,"title":"Van Curler Greenhouses (Explore)","ispublic":1,"isfriend":0,"isfamily":0,"safe":0,"ownername":"fotofish64","latitude":42.839157,"longitude":-73.934297,"accuracy":"13","context":0,"place_id":"T4NAdPhTVrJHXE_y","woeid":"2489634","geo_is_family":0,"geo_is_friend":0,"geo_is_contact":0,"geo_is_public":1,"media":"photo","media_status":"ready"},{"id":"14228943131","owner":"68801618@N03","secret":"614786455d","server":"2916","farm":3,"title":"Lin\u00e9aire","ispublic":1,"isfriend":0,"isfamily":0,"safe":0,"ownername":"L'agriculteur Illumin\u00e9","latitude":47.021929,"longitude":7.02301,"accuracy":"11","context":0,"place_id":"XHNCuC5WWr8qC2k","woeid":"785031","geo_is_family":0,"geo_is_friend":0,"geo_is_contact":0,"geo_is_public":1,"media":"photo","media_status":"ready"},{"id":"14018999061","owner":"44161305@N02","secret":"effb663787","server":"7136","farm":8,"title":"Spiral staircase, Palazzo Barozzi, Vignola, Italy, 2014-04-26 16.33.46","ispublic":1,"isfriend":0,"isfamily":0,"safe":0,"ownername":"tango-","latitude":44.479051,"longitude":11.009719,"accuracy":"15","context":0,"place_id":"9lz0wylWUL8TlDg","woeid":"725943","geo_is_family":0,"geo_is_friend":0,"geo_is_contact":0,"geo_is_public":1,"media":"photo","media_status":"ready"},{"id":"14015560575","owner":"39669415@N05","secret":"b46551e3d0","server":"5481","farm":6,"title":"Koningsdag \/ King Day 2014","ispublic":1,"isfriend":0,"isfamily":0,"safe":0,"ownername":"BraCom (Bram)","latitude":51.717202,"longitude":4.117141,"accuracy":"16","context":0,"place_id":"Ec3Aji1WUbrD5k8","woeid":"730010","geo_is_family":0,"geo_is_friend":0,"geo_is_contact":0,"geo_is_public":1,"media":"photo","media_status":"ready"},{"id":"14015106265","owner":"36119280@N04","secret":"f4fd562c89","server":"2897","farm":3,"title":"Sunrise over Charles Bridge","ispublic":1,"isfriend":0,"isfamily":0,"safe":0,"ownername":"blichb","latitude":50.08647,"longitude":14.410521,"accuracy":"15","context":0,"place_id":"EdMZdzlWW7zUBG8","woeid":"796597","geo_is_family":0,"geo_is_friend":0,"geo_is_contact":0,"geo_is_public":1,"media":"photo","media_status":"ready"},{"id":"14012658915","owner":"81752684@N05","secret":"0df32cfd19","server":"2905","farm":3,"title":"Gantry Plaza State Park [Explore]","ispublic":1,"isfriend":0,"isfamily":0,"safe":0,"ownername":"NYRBlue94","latitude":40.74446,"longitude":-73.958909,"accuracy":"16","context":0,"place_id":"sTXjQKNTUb9enZi8dg","woeid":"23511858","geo_is_family":0,"geo_is_friend":0,"geo_is_contact":0,"geo_is_public":1,"media":"photo","media_status":"ready"},{"id":"14006733481","owner":"59646784@N08","secret":"d35a7ae493","server":"7221","farm":8,"title":"Contradictions","ispublic":1,"isfriend":0,"isfamily":0,"safe":0,"ownername":"L'hort de la Lolo","latitude":42.255204,"longitude":2.802886,"accuracy":"11","context":0,"place_id":"oK1nEihWVL..RyA","woeid":"765261","geo_is_family":0,"geo_is_friend":0,"geo_is_contact":0,"geo_is_public":1,"media":"photo","media_status":"ready"},{"id":"14006276641","owner":"8935325@N08","secret":"6e8dee7bef","server":"2916","farm":3,"title":"Dreamy Daisies","ispublic":1,"isfriend":0,"isfamily":0,"safe":0,"ownername":"Riccardo Maria Mantero","latitude":44.914182,"longitude":9.028353,"accuracy":"16","context":0,"place_id":"JKWzmw9WULh3bro","woeid":"722249","geo_is_family":0,"geo_is_friend":0,"geo_is_contact":0,"geo_is_public":1,"media":"photo","media_status":"ready"},{"id":"14029276933","owner":"46378751@N02","secret":"d9662798ed","server":"7429","farm":8,"title":"Today in \"Caserma Bandini\", 186 Rgt Folgore [EXPLORE]","ispublic":1,"isfriend":0,"isfamily":0,"safe":0,"ownername":"Antonio Cinotti \uf8ff","latitude":43.327394,"longitude":11.321239,"accuracy":"15","context":0,"place_id":"ETlqzr1WUL6FcKo","woeid":"724196","geo_is_family":0,"geo_is_friend":0,"geo_is_contact":0,"geo_is_public":1,"media":"photo","media_status":"ready"},{"id":"13982614576","owner":"107254823@N07","secret":"930be0aec2","server":"5167","farm":6,"title":"Valencia Central Station","ispublic":1,"isfriend":0,"isfamily":0,"safe":0,"ownername":"Fleccki","latitude":39.467002,"longitude":-0.377182,"accuracy":"16","context":0,"place_id":"aOaiaoRTUrjdUgVu0g","woeid":"20220220","geo_is_family":0,"geo_is_friend":0,"geo_is_contact":0,"geo_is_public":1,"media":"photo","media_status":"ready"},{"id":"14000397461","owner":"44161305@N02","secret":"9c671300c4","server":"5141","farm":6,"title":"Mantarkaya Rock (Mushroom rock),  Acik Saray (G\u00fcl\u015fehir - Cappadocia, Turkey) 230","ispublic":1,"isfriend":0,"isfamily":0,"safe":0,"ownername":"tango-","latitude":38.74364,"longitude":34.647359,"accuracy":"13","context":0,"place_id":"2TFePR5TUbgaEB9O","woeid":"2321280","geo_is_family":0,"geo_is_friend":0,"geo_is_contact":0,"geo_is_public":1,"media":"photo","media_status":"ready"},{"id":"13996569382","owner":"10259875@N03","secret":"fc996046fd","server":"7390","farm":8,"title":"The Many Buildings of St. Malo","ispublic":1,"isfriend":0,"isfamily":0,"safe":0,"ownername":"Samantha Decker","latitude":48.651418,"longitude":-2.025084,"accuracy":"16","context":0,"place_id":"etJASYhXUL.sLu8","woeid":"625391","geo_is_family":0,"geo_is_friend":0,"geo_is_contact":0,"geo_is_public":1,"media":"photo","media_status":"ready"},{"id":"13998908115","owner":"85178107@N08","secret":"3c537aa4ac","server":"2934","farm":3,"title":"Havs\u00f8ysund","ispublic":1,"isfriend":0,"isfamily":0,"safe":0,"ownername":"\u00d8yvind Bjerkholt (Thanks for 2,4 million+ views)","latitude":58.422167,"longitude":8.769578,"accuracy":"15","context":0,"place_id":"NnMlF.BZV7Mk8U4","woeid":"859796","geo_is_family":0,"geo_is_friend":0,"geo_is_contact":0,"geo_is_public":1,"media":"photo","media_status":"ready"},{"id":"13998145694","owner":"26429763@N08","secret":"8381a39861","server":"2895","farm":3,"title":"Alongside Poole Town Quay.","ispublic":1,"isfriend":0,"isfamily":0,"safe":0,"ownername":"Born in The 40's.. Explored again!","latitude":50.711929,"longitude":-1.987366,"accuracy":"16","context":0,"place_id":"GfIf68FVUb3lLA","woeid":"43734","geo_is_family":0,"geo_is_friend":0,"geo_is_contact":0,"geo_is_public":1,"media":"photo","media_status":"ready"},{"id":"13994379924","owner":"35984911@N00","secret":"a4fefaa7a5","server":"2912","farm":3,"title":"door","ispublic":1,"isfriend":0,"isfamily":0,"safe":0,"ownername":"kewguys","latitude":40.730623,"longitude":-73.821859,"accuracy":"13","context":0,"place_id":"pLQ.RZBUV7PEBwFa2g","woeid":"55992119","geo_is_family":0,"geo_is_friend":0,"geo_is_contact":0,"geo_is_public":1,"media":"photo","media_status":"ready"},{"id":"13992573005","owner":"89558472@N00","secret":"f44099a55c","server":"7379","farm":8,"title":"Attenborough loves Sheffield","ispublic":1,"isfriend":0,"isfamily":0,"safe":0,"ownername":"Jawad Q","latitude":53.37753,"longitude":-1.467146,"accuracy":"16","context":0,"place_id":"_9rOW2NVUbOrSQ","woeid":"43970","geo_is_family":0,"geo_is_friend":0,"geo_is_contact":0,"geo_is_public":1,"media":"photo","media_status":"ready"},{"id":"13991699494","owner":"16854222@N05","secret":"bb63b2ca4c","server":"2912","farm":3,"title":"The Arch","ispublic":1,"isfriend":0,"isfamily":0,"safe":0,"ownername":"AnyMotion","latitude":50.123271,"longitude":8.6804,"accuracy":"16","context":0,"place_id":"Z0FRRfRXV7oIeew","woeid":"650272","geo_is_family":0,"geo_is_friend":0,"geo_is_contact":0,"geo_is_public":1,"media":"photo","media_status":"ready"},{"id":"13986347404","owner":"15133799@N02","secret":"7e578b0e6f","server":"2936","farm":3,"title":"Welcome to Stockholm","ispublic":1,"isfriend":0,"isfamily":0,"safe":0,"ownername":"*Kicki*","latitude":59.325211,"longitude":18.061905,"accuracy":"16","context":0,"place_id":"uBSfjj5YUrjgNoM","woeid":"902412","geo_is_family":0,"geo_is_friend":0,"geo_is_contact":0,"geo_is_public":1,"media":"photo","media_status":"ready"},{"id":"13962465046","owner":"44161305@N02","secret":"d77282be62","server":"5575","farm":6,"title":"(Explored) Caltabellotta, Sicily","ispublic":1,"isfriend":0,"isfamily":0,"safe":0,"ownername":"tango-","latitude":37.575331,"longitude":13.218784,"accuracy":"11","context":0,"place_id":"h11Ygf1WU7sxz4E","woeid":"711746","geo_is_family":0,"geo_is_friend":0,"geo_is_contact":0,"geo_is_public":1,"media":"photo","media_status":"ready"},{"id":"14004446033","owner":"39669415@N05","secret":"c72e346a1f","server":"2921","farm":3,"title":"Spring trees and country road","ispublic":1,"isfriend":0,"isfamily":0,"safe":0,"ownername":"BraCom (Bram)","latitude":51.708863,"longitude":4.166844,"accuracy":"16","context":0,"place_id":"Lte3pS5WUbv75.Y","woeid":"731978","geo_is_family":0,"geo_is_friend":0,"geo_is_contact":0,"geo_is_public":1,"media":"photo","media_status":"ready"},{"id":"13959946986","owner":"73414467@N02","secret":"183e7770ec","server":"5134","farm":6,"title":"Iris Romantic Evening (y III)","ispublic":1,"isfriend":0,"isfamily":0,"safe":0,"ownername":"Jos\u00e9 Luis Vega","latitude":40.411127,"longitude":-3.691151,"accuracy":"16","context":0,"place_id":"XrSazRhTUrh4j1shyQ","woeid":"20219885","geo_is_family":0,"geo_is_friend":0,"geo_is_contact":0,"geo_is_public":1,"media":"photo","media_status":"ready"},{"id":"13999464683","owner":"34096574@N06","secret":"c2869303f7","server":"7296","farm":8,"title":"Venice : Guglie bridge \/  The  deliveryman  - 1\/2","ispublic":1,"isfriend":0,"isfamily":0,"safe":0,"ownername":"Pantchoa","latitude":45.443636,"longitude":12.325786,"accuracy":"16","context":0,"place_id":"EzRUzuJTUrtWx_W.dw","woeid":"20150612","geo_is_family":0,"geo_is_friend":0,"geo_is_contact":0,"geo_is_public":1,"media":"photo","media_status":"ready"},{"id":"13978509815","owner":"96404105@N08","secret":"15f69bafe6","server":"7429","farm":8,"title":"Ohrntal 2 (Farbe)","ispublic":1,"isfriend":0,"isfamily":0,"safe":0,"ownername":"Impressionen-Digital","latitude":49.250221,"longitude":9.455969,"accuracy":"11","context":0,"place_id":"SfA2J_lXWrnCewI","woeid":"683120","geo_is_family":0,"geo_is_friend":0,"geo_is_contact":0,"geo_is_public":1,"media":"photo","media_status":"ready"},{"id":"13973006532","owner":"91553093@N02","secret":"25bfcf3061","server":"2937","farm":3,"title":"oval shape & lines","ispublic":1,"isfriend":0,"isfamily":0,"safe":0,"ownername":"Sebastian Waszak Photography","latitude":51.219303,"longitude":6.77586,"accuracy":"16","context":0,"place_id":"MA8Ke4hXVrwlyVI","woeid":"646099","geo_is_family":0,"geo_is_friend":0,"geo_is_contact":0,"geo_is_public":1,"media":"photo","media_status":"ready"},{"id":"13973967805","owner":"44161305@N02","secret":"1fbb5a9d99","server":"5540","farm":6,"title":"(Explored) Cesenatico, porto canale, Italy 043","ispublic":1,"isfriend":0,"isfamily":0,"safe":0,"ownername":"tango-","latitude":44.197841,"longitude":12.40806,"accuracy":"11","context":0,"place_id":"EacSqq1WU7mg4fA","woeid":"713885","geo_is_family":0,"geo_is_friend":0,"geo_is_contact":0,"geo_is_public":1,"media":"photo","media_status":"ready"},{"id":"13973211024","owner":"41835982@N02","secret":"ac79e7c32c","server":"7299","farm":8,"title":"Lever de soleil derri\u00e8re la dame de fer","ispublic":1,"isfriend":0,"isfamily":0,"safe":0,"ownername":"Mathieu Rivrin - Photographies","latitude":48.844835,"longitude":2.348327,"accuracy":"8","context":0,"place_id":"EsIQUYZXU79_kEA","woeid":"615702","geo_is_family":0,"geo_is_friend":0,"geo_is_contact":0,"geo_is_public":1,"media":"photo","media_status":"ready"},{"id":"13972996164","owner":"27450769@N06","secret":"3cd0d6b8c3","server":"7356","farm":8,"title":"\u263a\u2740\u2661 More Flowers for Grandma \u2661\u2740\u263a","ispublic":1,"isfriend":0,"isfamily":0,"safe":0,"ownername":"~Ranveig Marie~","latitude":59.771781,"longitude":5.177822,"accuracy":"16","context":0,"place_id":"Oz2xHxJZV72sAyU","woeid":"857574","geo_is_family":0,"geo_is_friend":0,"geo_is_contact":0,"geo_is_public":1,"media":"photo","media_status":"ready"},{"id":"13945898816","owner":"53340207@N07","secret":"dcc72a1339","server":"5554","farm":6,"title":"The Red Umbrella","ispublic":1,"isfriend":0,"isfamily":0,"safe":0,"ownername":"Pifou 2010","latitude":48.862717,"longitude":2.335506,"accuracy":"16","context":0,"place_id":"R13rUF1UV7LQLoV4Ig","woeid":"55843751","geo_is_family":0,"geo_is_friend":0,"geo_is_contact":0,"geo_is_public":1,"media":"photo","media_status":"ready"},{"id":"13988599943","owner":"44161305@N02","secret":"8ab1eeea54","server":"7122","farm":8,"title":"Eraclea Minoa, Sicily,   20 ottobre 2013 194","ispublic":1,"isfriend":0,"isfamily":0,"safe":0,"ownername":"tango-","latitude":37.39147,"longitude":13.283114,"accuracy":"15","context":0,"place_id":"focdvnBTW7npAPtjuA","woeid":"29343961","geo_is_family":0,"geo_is_friend":0,"geo_is_contact":0,"geo_is_public":1,"media":"photo","media_status":"ready"},{"id":"13988508903","owner":"85081332@N00","secret":"1795983ff8","server":"7238","farm":8,"title":"Moated castle Schweckhausen","ispublic":1,"isfriend":0,"isfamily":0,"safe":0,"ownername":"pe_ha45","latitude":51.606024,"longitude":9.164614,"accuracy":"14","context":0,"place_id":"mFzyQvFXW7nXJdA","woeid":"693772","geo_is_family":0,"geo_is_friend":0,"geo_is_contact":0,"geo_is_public":1,"media":"photo","media_status":"ready"},{"id":"13967578355","owner":"89558472@N00","secret":"7862741b08","server":"5276","farm":6,"title":"A declining congregation","ispublic":1,"isfriend":0,"isfamily":0,"safe":0,"ownername":"Jawad Q","latitude":53.36378,"longitude":-1.477789,"accuracy":"15","context":0,"place_id":"_9rOW2NVUbOrSQ","woeid":"43970","geo_is_family":0,"geo_is_friend":0,"geo_is_contact":0,"geo_is_public":1,"media":"photo","media_status":"ready"},{"id":"13953191762","owner":"66378844@N06","secret":"6f480a83e7","server":"7027","farm":8,"title":"It's a man's man's man's world","ispublic":1,"isfriend":0,"isfamily":0,"safe":0,"ownername":"Francy \uf8ff (still here....)","latitude":45.465825,"longitude":9.19647,"accuracy":"16","context":0,"place_id":"49Gidk1WU7JxrFY","woeid":"718345","geo_is_family":0,"geo_is_friend":0,"geo_is_contact":0,"geo_is_public":1,"media":"photo","media_status":"ready"},{"id":"13845440064","owner":"35110249@N05","secret":"2383edbc84","server":"2879","farm":3,"title":"Red Panda","ispublic":1,"isfriend":0,"isfamily":0,"safe":0,"ownername":"Foto Martien","latitude":51.958133,"longitude":5.589919,"accuracy":"16","context":0,"place_id":"SqR1nmRWUbjOxPs","woeid":"732923","geo_is_family":0,"geo_is_friend":0,"geo_is_contact":0,"geo_is_public":1,"media":"photo","media_status":"ready"},{"id":"13726497285","owner":"49746210@N07","secret":"8ba4c93a7a","server":"3724","farm":4,"title":"Lofoten Magic","ispublic":1,"isfriend":0,"isfamily":0,"safe":0,"ownername":"Normann Photography","latitude":68.255719,"longitude":14.660863,"accuracy":"16","context":0,"place_id":"s2erQ0lZVL7d6EU","woeid":"864826","geo_is_family":0,"geo_is_friend":0,"geo_is_contact":0,"geo_is_public":1,"media":"photo","media_status":"ready"},{"id":"13144281015","owner":"28225853@N02","secret":"cc7065f3f0","server":"7366","farm":8,"title":"Along the red seashore","ispublic":1,"isfriend":0,"isfamily":0,"safe":1,"ownername":"alf@cetara very busy !!!","latitude":41.734173,"longitude":12.278594,"accuracy":"11","context":0,"place_id":"QAUbW2pWU70PUHI","woeid":"717286","geo_is_family":0,"geo_is_friend":0,"geo_is_contact":0,"geo_is_public":1,"media":"photo","media_status":"ready"},{"id":"12264611525","owner":"32476380@N05","secret":"25df002a00","server":"3822","farm":4,"title":"Cap d'Agde","ispublic":1,"isfriend":0,"isfamily":0,"safe":1,"ownername":"Arnodil","latitude":43.274775,"longitude":3.514758,"accuracy":"16","context":0,"place_id":"4q_DIllXUrh15kU","woeid":"602423","geo_is_family":0,"geo_is_friend":0,"geo_is_contact":0,"geo_is_public":1,"media":"photo","media_status":"ready"},{"id":"11843331894","owner":"52047112@N03","secret":"18b237d5a5","server":"3737","farm":4,"title":"NIEBLA   [ EXPLORE ]","ispublic":1,"isfriend":0,"isfamily":0,"safe":1,"ownername":"M.G.N - Marcel","latitude":39.564825,"longitude":2.648777,"accuracy":"15","context":0,"place_id":"BKInhOlTUrgpzgYz.g","woeid":"20220122","geo_is_family":0,"geo_is_friend":0,"geo_is_contact":0,"geo_is_public":1,"media":"photo","media_status":"ready"},{"id":"11051693954","owner":"11925274@N02","secret":"b3f2356ce8","server":"3676","farm":4,"title":"PLATRES  ROSE 2077","ispublic":1,"isfriend":0,"isfamily":0,"safe":1,"ownername":"liontas-Andreas Droussiotis","latitude":34.88755,"longitude":32.859077,"accuracy":"13","context":0,"place_id":"aGRoVxtZVrvzR5A","woeid":"841629","geo_is_family":0,"geo_is_friend":0,"geo_is_contact":0,"geo_is_public":1,"media":"photo","media_status":"ready"},{"id":"11026005673","owner":"65166290@N00","secret":"03d751a064","server":"5471","farm":6,"title":"Loch Eck","ispublic":1,"isfriend":0,"isfamily":0,"safe":1,"ownername":"Hugh Spicer \/ UIsdean Spicer","latitude":56.050183,"longitude":-4.984703,"accuracy":"11","context":0,"place_id":"vy_KlPVTVbgYcQ","woeid":"27205","geo_is_family":0,"geo_is_friend":0,"geo_is_contact":0,"geo_is_public":1,"media":"photo","media_status":"ready"},{"id":"10404978866","owner":"25959337@N00","secret":"0f850764ee","server":"3787","farm":4,"title":"J\u00f6kull, sandur and fog by Skaftafell","ispublic":1,"isfriend":0,"isfamily":0,"safe":1,"ownername":"Martin Ystenes - celebrating 5 million views","latitude":63.991678,"longitude":-16.893324,"accuracy":"14","context":0,"place_id":"L30o2XlTUb6ZXW0u","woeid":"2345690","geo_is_family":0,"geo_is_friend":0,"geo_is_contact":0,"geo_is_public":1,"media":"photo","media_status":"ready"},{"id":"9699605531","owner":"54612410@N05","secret":"77527bb2ae","server":"3669","farm":4,"title":"Matterhorn - Mont Blanc - Wallis - Switzerland","ispublic":1,"isfriend":0,"isfamily":0,"safe":1,"ownername":"gurou45","latitude":46.046712,"longitude":7.887775,"accuracy":"16","context":0,"place_id":"Z7lA8TlTUb6ayJG5","woeid":"2347104","geo_is_family":0,"geo_is_friend":0,"geo_is_contact":0,"geo_is_public":1,"media":"photo","media_status":"ready"},{"id":"9694997266","owner":"11925274@N02","secret":"ba179a2e17","server":"2811","farm":3,"title":"\u0399\u039f\u0391\u039d\u039d\u0391 515","ispublic":1,"isfriend":0,"isfamily":0,"safe":1,"ownername":"liontas-Andreas Droussiotis","latitude":34.705211,"longitude":33.0867,"accuracy":"12","context":0,"place_id":"Ko0YvfRZVrvakP8","woeid":"841452","geo_is_family":0,"geo_is_friend":0,"geo_is_contact":0,"geo_is_public":1,"media":"photo","media_status":"ready"},{"id":"9546719909","owner":"75509492@N07","secret":"3db184076b","server":"7441","farm":8,"title":"Tangen 1.2, Kr\u00e5ker\u00f8y, Norway","ispublic":1,"isfriend":0,"isfamily":0,"safe":1,"ownername":"knutsi12","latitude":59.136713,"longitude":10.928616,"accuracy":"16","context":0,"place_id":"3gF9NXpZVLoB7W0","woeid":"860806","geo_is_family":0,"geo_is_friend":0,"geo_is_contact":0,"geo_is_public":1,"media":"photo","media_status":"ready"},{"id":"8483790742","owner":"25959337@N00","secret":"4932d322a1","server":"8236","farm":9,"title":"Otnes - Quiet","ispublic":1,"isfriend":0,"isfamily":0,"safe":0,"ownername":"Martin Ystenes - celebrating 5 million views","latitude":63.136364,"longitude":8.499298,"accuracy":"11","context":0,"place_id":"WGujJ7JZVL8rO0E","woeid":"865518","geo_is_family":0,"geo_is_friend":0,"geo_is_contact":0,"geo_is_public":1,"media":"photo","media_status":"ready"},{"id":"8383252941","owner":"26849514@N06","secret":"5d0bf31daa","server":"8221","farm":9,"title":"Rock carvings from the bronze age","ispublic":1,"isfriend":0,"isfamily":0,"safe":1,"ownername":"Frans.Sellies","latitude":58.706508,"longitude":11.327762,"accuracy":"14","context":0,"place_id":"bbtEqNdYUr097zU","woeid":"907286","geo_is_family":0,"geo_is_friend":0,"geo_is_contact":0,"geo_is_public":1,"media":"photo","media_status":"ready"},{"id":"7757487440","owner":"65166290@N00","secret":"d9d5ca6da2","server":"7275","farm":8,"title":"Atlantic Sunset","ispublic":1,"isfriend":0,"isfamily":0,"safe":0,"ownername":"Hugh Spicer \/ UIsdean Spicer","latitude":57.299999,"longitude":-7.383329,"accuracy":"11","context":0,"place_id":"UD2CJnZTVrremg","woeid":"24058","geo_is_family":0,"geo_is_friend":0,"geo_is_contact":0,"geo_is_public":1,"media":"photo","media_status":"ready"},{"id":"6847374445","owner":"41659357@N07","secret":"d921e65e43","server":"7029","farm":8,"title":"Amsterdam Stationsplein (1971)","ispublic":1,"isfriend":0,"isfamily":0,"safe":1,"ownername":"Amsterdam RAIL","latitude":52.377812,"longitude":4.899408,"accuracy":"15","context":0,"place_id":"xQ4tawtWUL1NrOY","woeid":"727232","geo_is_family":0,"geo_is_friend":0,"geo_is_contact":0,"geo_is_public":1,"media":"photo","media_status":"ready"},{"id":"6702616965","owner":"71208464@N08","secret":"702b99c51c","server":"7148","farm":8,"title":"just floating around","ispublic":1,"isfriend":0,"isfamily":0,"safe":1,"ownername":"Jake Blues Photography","latitude":50.116202,"longitude":8.704669,"accuracy":"14","context":0,"place_id":"Z0FRRfRXV7oIeew","woeid":"650272","geo_is_family":0,"geo_is_friend":0,"geo_is_contact":0,"geo_is_public":1,"media":"photo","media_status":"ready"},{"id":"6485607889","owner":"29394931@N06","secret":"4f081a005c","server":"7174","farm":8,"title":"Paris Noel\/Christmas 2011 : Dec.10","ispublic":1,"isfriend":0,"isfamily":0,"safe":1,"ownername":"\u2203Scape","latitude":48.884261,"longitude":2.338612,"accuracy":"16","context":0,"place_id":"IFTbeKJUV7LF35bKtA","woeid":"55843852","geo_is_family":0,"geo_is_friend":0,"geo_is_contact":0,"geo_is_public":1,"media":"photo","media_status":"ready"},{"id":"6189876748","owner":"39508892@N06","secret":"9970d18a4f","server":"6008","farm":7,"title":"Craques do Futebol - Soccer Experts","ispublic":1,"isfriend":0,"isfamily":0,"safe":1,"ownername":"Parnanet - Wallace Moura","latitude":-6.057258,"longitude":-36.355648,"accuracy":"13","context":0,"place_id":"5NwReP5VV71n3PM","woeid":"457023","geo_is_family":0,"geo_is_friend":0,"geo_is_contact":0,"geo_is_public":1,"media":"photo","media_status":"ready"},{"id":"5553136520","owner":"26792746@N07","secret":"577f4e4eb9","server":"5059","farm":6,"title":"Video:  White Satin Slip II","ispublic":1,"isfriend":0,"isfamily":0,"safe":1,"ownername":"Pennant","latitude":42.980468,"longitude":-71.462588,"accuracy":"16","context":0,"place_id":"A28Vw8VUV7PuV1YjXA","woeid":"55991529","geo_is_family":0,"geo_is_friend":0,"geo_is_contact":0,"geo_is_public":1,"media":"video","media_status":"ready"},{"id":"5378396990","owner":"52674600@N02","secret":"fd17d841b1","server":"5081","farm":6,"title":"Exhibition Arena, Windsor, NS","ispublic":1,"isfriend":0,"isfamily":0,"safe":1,"ownername":"Avard Woolaver","latitude":44.991041,"longitude":-64.114859,"accuracy":"14","context":0,"place_id":"LMp9v0pVU72k","woeid":"4171","geo_is_family":0,"geo_is_friend":0,"geo_is_contact":0,"geo_is_public":1,"media":"photo","media_status":"ready"},{"id":"5223980238","owner":"7676405@N04","secret":"2a98595a27","server":"5126","farm":6,"title":"Modern Art...","ispublic":1,"isfriend":0,"isfamily":0,"safe":0,"ownername":"JH Images.co.uk","latitude":51.519178,"longitude":-0.126739,"accuracy":"16","context":0,"place_id":"R4ZOG4ZQUboasg","woeid":"13064","geo_is_family":0,"geo_is_friend":0,"geo_is_contact":0,"geo_is_public":1,"media":"photo","media_status":"ready"},{"id":"2754446317","owner":"15605437@N08","secret":"c69412d433","server":"3166","farm":4,"title":"Looking West","ispublic":1,"isfriend":0,"isfamily":0,"safe":0,"ownername":"Kevin Borland","latitude":38.562566,"longitude":-78.382955,"accuracy":"16","context":0,"place_id":"Zltk5.dTVrz7pTGD","woeid":"2465219","geo_is_family":0,"geo_is_friend":0,"geo_is_contact":0,"geo_is_public":1,"media":"photo","media_status":"ready"},{"id":"2200787519","owner":"22891100@N08","secret":"d538d8e538","server":"2147","farm":3,"title":"Himalaya from Nepal","ispublic":1,"isfriend":0,"isfamily":0,"safe":1,"ownername":"sofarsocute Thanks for NOT 'Fave n run' except fri","latitude":27.897349,"longitude":83.737792,"accuracy":"6","context":0,"place_id":"Cgf9by1TUb2_C9JpEQ","woeid":"23706806","geo_is_family":0,"geo_is_friend":0,"geo_is_contact":0,"geo_is_public":1,"media":"photo","media_status":"ready"},{"id":"14216172396","owner":"96803350@N00","secret":"6d9e857b76","server":"2896","farm":3,"title":"multiselfie","ispublic":1,"isfriend":0,"isfamily":0,"safe":0,"ownername":"davebias","latitude":40.744477,"longitude":-73.992694,"accuracy":"16","context":0,"place_id":"frqe6ehTUb_ESPQDIQ","woeid":"23511897","geo_is_family":0,"geo_is_friend":0,"geo_is_contact":0,"geo_is_public":1,"media":"photo","media_status":"ready"},{"id":"14051393900","owner":"26522673@N07","secret":"23a9d8e794","server":"5158","farm":6,"title":"Artoo-Detoo's Popping Up All Over","ispublic":1,"isfriend":0,"isfamily":0,"safe":0,"ownername":"Gary Burke.","latitude":28.357454,"longitude":-81.560075,"accuracy":"16","context":0,"place_id":"KDmGPrpTUbzVDI_I","woeid":"2360208","geo_is_family":0,"geo_is_friend":0,"geo_is_contact":0,"geo_is_public":1,"media":"photo","media_status":"ready"},{"id":"14046521427","owner":"48029767@N08","secret":"9a7d046d75","server":"5530","farm":6,"title":"...","ispublic":1,"isfriend":0,"isfamily":0,"safe":0,"ownername":"Rinzi Ruiz [street zen]","latitude":40.756044,"longitude":-73.987758,"accuracy":"16","context":0,"place_id":"byMt1GpTWrhtqOpahg","woeid":"28288823","geo_is_family":0,"geo_is_friend":0,"geo_is_contact":0,"geo_is_public":1,"media":"photo","media_status":"ready"},{"id":"14040540869","owner":"29250863@N02","secret":"0d0ec843af","server":"2898","farm":3,"title":"Nouvelles vies  - New Life - Explore #396 - 2014-05-19","ispublic":1,"isfriend":0,"isfamily":0,"safe":0,"ownername":"Jogabi-Mich\u00e8le","latitude":46.512255,"longitude":6.601169,"accuracy":"16","context":0,"place_id":"7OYB0MtWWr6TRcE","woeid":"784579","geo_is_family":0,"geo_is_friend":0,"geo_is_contact":0,"geo_is_public":1,"media":"photo","media_status":"ready"}]},"stat":"ok"}