{"photos":{"page":1, "pages":24242, "perpage":60, "total":"1454476", "photo":[{"id":"13006163123", "owner":"34096574@N06", "secret":"0b38b03583", "server":"7363", "farm":8, "title":"Carmona ( Provine of Seville )  : Iglesia San Bartolom\u00e9  \/ Calle Prim  - 3\/3  - EXPLORE  #162", "ispublic":1, "isfriend":0, "isfamily":0, "safe":0, "ownername":"Pantchoa", "latitude":37.471683, "longitude":-5.63972, "accuracy":"16", "context":0, "place_id":"ecGT05FWV7y8._U", "woeid":"756224", "geo_is_family":0, "geo_is_friend":0, "geo_is_contact":0, "geo_is_public":1, "media":"photo", "media_status":"ready"}, {"id":"12981806744", "owner":"80516886@N00", "secret":"4d64d3a437", "server":"7425", "farm":8, "title":"Rio de Janeiro - Sugar Loaf - P\u00e3o de A\u00e7ucar", "ispublic":1, "isfriend":0, "isfamily":0, "safe":0, "ownername":".**rickipanema**.", "latitude":-43.180306, "longitude":-22.94532, "accuracy":"16", "context":0, "geo_is_family":0, "geo_is_friend":0, "geo_is_contact":0, "geo_is_public":1, "media":"photo", "media_status":"ready"}, {"id":"12911141973", "owner":"100063725@N06", "secret":"923ce45be1", "server":"7329", "farm":8, "title":"Cuando se oculta el sol", "ispublic":1, "isfriend":0, "isfamily":0, "safe":0, "ownername":"Antonio Chac", "latitude":36.499727, "longitude":-4.928634, "accuracy":"16", "context":0, "place_id":"b6ANCk5WVLwQivI", "woeid":"766537", "geo_is_family":0, "geo_is_friend":0, "geo_is_contact":0, "geo_is_public":1, "media":"photo", "media_status":"ready"}, {"id":"12876573635", "owner":"8188882@N05", "secret":"2482552449", "server":"7438", "farm":8, "title":"I wish I could shoot the time ~dand", "ispublic":1, "isfriend":0, "isfamily":0, "safe":1, "ownername":"DinosaursAreNotDead", "latitude":48.804793, "longitude":2.120264, "accuracy":"16", "context":0, "place_id":"RtpMgPNXUbrqF08", "woeid":"630908", "geo_is_family":0, "geo_is_friend":0, "geo_is_contact":0, "geo_is_public":1, "media":"photo", "media_status":"ready"}, {"id":"12840044883", "owner":"8188882@N05", "secret":"3ac25c2cc2", "server":"2860", "farm":3, "title":"After Rain", "ispublic":1, "isfriend":0, "isfamily":0, "safe":0, "ownername":"DinosaursAreNotDead", "latitude":52.373391, "longitude":4.887081, "accuracy":"16", "context":0, "place_id":"xfcEFYhWULKtjYI", "woeid":"728410", "geo_is_family":0, "geo_is_friend":0, "geo_is_contact":0, "geo_is_public":1, "media":"photo", "media_status":"ready"}, {"id":"12830415325", "owner":"26849514@N06", "secret":"fece809dc4", "server":"2871", "farm":3, "title":"Dubai alive and kicking ! \/ ABM (Another Blue Monday)", "ispublic":1, "isfriend":0, "isfamily":0, "safe":1, "ownername":"Frans.Sellies", "latitude":25.214259, "longitude":55.276765, "accuracy":"13", "context":0, "place_id":"eQtoeghQW77HLrTB", "woeid":"1940345", "geo_is_family":0, "geo_is_friend":0, "geo_is_contact":0, "geo_is_public":1, "media":"photo", "media_status":"ready"}, {"id":"12824592335", "owner":"80516886@N00", "secret":"2f0dd97d41", "server":"7431", "farm":8, "title":"Rio de Janeiro - Pedra da G\u00e1vea", "ispublic":1, "isfriend":0, "isfamily":0, "safe":0, "ownername":".**rickipanema**.", "latitude":-22.990703, "longitude":-43.240112, "accuracy":"16", "context":0, "place_id":"pdNwn9BUV7OU1GjQ8Q", "woeid":"55944214", "geo_is_family":0, "geo_is_friend":0, "geo_is_contact":0, "geo_is_public":1, "media":"photo", "media_status":"ready"}, {"id":"12818487853", "owner":"100063725@N06", "secret":"9ff593c25c", "server":"3735", "farm":4, "title":"Luz sobre el Estrecho", "ispublic":1, "isfriend":0, "isfamily":0, "safe":1, "ownername":"Antonio Chac", "latitude":36.505701, "longitude":-4.876585, "accuracy":"16", "context":0, "place_id":"b6ANCk5WVLwQivI", "woeid":"766537", "geo_is_family":0, "geo_is_friend":0, "geo_is_contact":0, "geo_is_public":1, "media":"photo", "media_status":"ready"}, {"id":"12815120865", "owner":"80516886@N00", "secret":"b267e0f245", "server":"3707", "farm":4, "title":"Rio de Janeiro - Pedra da G\u00e1vea", "ispublic":1, "isfriend":0, "isfamily":0, "safe":1, "ownername":".**rickipanema**.", "latitude":-22.989009, "longitude":-43.283056, "accuracy":"16", "context":0, "place_id":"Pq2AxPJUV7NKn5GrIg", "woeid":"55944375", "geo_is_family":0, "geo_is_friend":0, "geo_is_contact":0, "geo_is_public":1, "media":"photo", "media_status":"ready"}, {"id":"12810709575", "owner":"93846482@N08", "secret":"623c14159c", "server":"7319", "farm":8, "title":"Firth of the Clyde Long Exposure", "ispublic":1, "isfriend":0, "isfamily":0, "safe":1, "ownername":"Bathsheba 1", "latitude":55.956615, "longitude":-4.830121, "accuracy":"15", "context":0, "place_id":"QM5HmedTU76gbg", "woeid":"21428", "geo_is_family":0, "geo_is_friend":0, "geo_is_contact":0, "geo_is_public":1, "media":"photo", "media_status":"ready"}, {"id":"12800887675", "owner":"8188882@N05", "secret":"436d662248", "server":"7391", "farm":8, "title":"I told you I was there", "ispublic":1, "isfriend":0, "isfamily":0, "safe":0, "ownername":"DinosaursAreNotDead", "latitude":52.378553, "longitude":4.898389, "accuracy":"16", "context":0, "place_id":"xQ4tawtWUL1NrOY", "woeid":"727232", "geo_is_family":0, "geo_is_friend":0, "geo_is_contact":0, "geo_is_public":1, "media":"photo", "media_status":"ready"}, {"id":"12795722994", "owner":"21207178@N07", "secret":"754c7d7bf6", "server":"7439", "farm":8, "title":"Balance", "ispublic":1, "isfriend":0, "isfamily":0, "safe":1, "ownername":"Batikart", "latitude":48.809188, "longitude":9.27665, "accuracy":"11", "context":0, "place_id":"q.j3YtZXVrMMKvI", "woeid":"649530", "geo_is_family":0, "geo_is_friend":0, "geo_is_contact":0, "geo_is_public":1, "media":"photo", "media_status":"ready"}, {"id":"12777470525", "owner":"68801618@N03", "secret":"24b5760202", "server":"7388", "farm":8, "title":"I'll be the reason that you wanna stay", "ispublic":1, "isfriend":0, "isfamily":0, "safe":0, "ownername":"L'agriculteur Illumin\u00e9", "latitude":47.019588, "longitude":7.023696, "accuracy":"11", "context":0, "place_id":"XHNCuC5WWr8qC2k", "woeid":"785031", "geo_is_family":0, "geo_is_friend":0, "geo_is_contact":0, "geo_is_public":1, "media":"photo", "media_status":"ready"}, {"id":"12777038785", "owner":"80516886@N00", "secret":"c977b74ee6", "server":"7453", "farm":8, "title":"Rio de Janeiro - Pedra da G\u00e1vea", "ispublic":1, "isfriend":0, "isfamily":0, "safe":0, "ownername":".**rickipanema**.", "latitude":-22.987437, "longitude":-43.279342, "accuracy":"16", "context":0, "place_id":"Pq2AxPJUV7NKn5GrIg", "woeid":"55944375", "geo_is_family":0, "geo_is_friend":0, "geo_is_contact":0, "geo_is_public":1, "media":"photo", "media_status":"ready"}, {"id":"12774962474", "owner":"69663264@N03", "secret":"5599507daf", "server":"7402", "farm":8, "title":"Red sun over paradise (color version)", "ispublic":1, "isfriend":0, "isfamily":0, "safe":1, "ownername":"steff808", "latitude":41.662781, "longitude":8.882446, "accuracy":"13", "context":0, "place_id":"DeyULMNWU7_p0Lrr", "woeid":"7153316", "geo_is_family":0, "geo_is_friend":0, "geo_is_contact":0, "geo_is_public":1, "media":"photo", "media_status":"ready"}, {"id":"12753241363", "owner":"8188882@N05", "secret":"ecd14bcddd", "server":"7435", "farm":8, "title":"Pont Alexandre III et Le Grand Palais HDR", "ispublic":1, "isfriend":0, "isfamily":0, "safe":0, "ownername":"DinosaursAreNotDead", "latitude":48.863147, "longitude":2.313802, "accuracy":"15", "context":0, "place_id":"CyyjQfRUV7Kth7ctCA", "woeid":"55843776", "geo_is_family":0, "geo_is_friend":0, "geo_is_contact":0, "geo_is_public":1, "media":"photo", "media_status":"ready"}, {"id":"12752435803", "owner":"80516886@N00", "secret":"da5944f2da", "server":"3733", "farm":4, "title":"Rio de Janeiro - Sunset", "ispublic":1, "isfriend":0, "isfamily":0, "safe":0, "ownername":".**rickipanema**.", "latitude":-22.989198, "longitude":-43.283781, "accuracy":"16", "context":0, "place_id":"Pq2AxPJUV7NKn5GrIg", "woeid":"55944375", "geo_is_family":0, "geo_is_friend":0, "geo_is_contact":0, "geo_is_public":1, "media":"photo", "media_status":"ready"}, {"id":"12751167464", "owner":"62815410@N04", "secret":"0bc7a8077a", "server":"5545", "farm":6, "title":"untitled (brescia, italy)", "ispublic":1, "isfriend":0, "isfamily":0, "safe":0, "ownername":"bloodybee", "latitude":45.535716, "longitude":10.234923, "accuracy":"16", "context":0, "place_id":"WO1uGLRWU7u69ps", "woeid":"711410", "geo_is_family":0, "geo_is_friend":0, "geo_is_contact":0, "geo_is_public":1, "media":"photo", "media_status":"ready"}, {"id":"12743392185", "owner":"59682423@N00", "secret":"9b6e37cb37", "server":"5483", "farm":6, "title":"Lago Ritom, Lago Cadagno, Lago Tom", "ispublic":1, "isfriend":0, "isfamily":0, "safe":1, "ownername":"ladigue_99", "latitude":46.553725, "longitude":8.701858, "accuracy":"13", "context":0, "place_id":"4jb874NQULz0AG_4Sg", "woeid":"12682773", "geo_is_family":0, "geo_is_friend":0, "geo_is_contact":0, "geo_is_public":1, "media":"photo", "media_status":"ready"}, {"id":"12724884673", "owner":"100063725@N06", "secret":"dd1f41fb3d", "server":"2836", "farm":3, "title":"Reflejos en el Mediterr\u00e1neo", "ispublic":1, "isfriend":0, "isfamily":0, "safe":0, "ownername":"Antonio Chac", "latitude":36.499594, "longitude":-4.92825, "accuracy":"15", "context":0, "place_id":"b6ANCk5WVLwQivI", "woeid":"766537", "geo_is_family":0, "geo_is_friend":0, "geo_is_contact":0, "geo_is_public":1, "media":"photo", "media_status":"ready"}, {"id":"12674772124", "owner":"49452763@N03", "secret":"755da935a0", "server":"5537", "farm":6, "title":"the fog", "ispublic":1, "isfriend":0, "isfamily":0, "safe":0, "ownername":"alexcoitus", "latitude":37.967199, "longitude":23.716099, "accuracy":"14", "context":0, "place_id":"jcUwLJBTUb0j_WlQOA", "woeid":"23701327", "geo_is_family":0, "geo_is_friend":0, "geo_is_contact":0, "geo_is_public":1, "media":"photo", "media_status":"ready"}, {"id":"12674667564", "owner":"80516886@N00", "secret":"cf4af67968", "server":"5527", "farm":6, "title":"Rio de Janeiro - Lagoa Rodrigo de Freitas", "ispublic":1, "isfriend":0, "isfamily":0, "safe":1, "ownername":".**rickipanema**.", "latitude":-22.951889, "longitude":-43.210203, "accuracy":"16", "context":0, "place_id":"3zn3YeVUV7M7GCXybA", "woeid":"55944356", "geo_is_family":0, "geo_is_friend":0, "geo_is_contact":0, "geo_is_public":1, "media":"photo", "media_status":"ready"}, {"id":"12659088753", "owner":"69663264@N03", "secret":"4d5b849704", "server":"7453", "farm":8, "title":"like a fish in the nets", "ispublic":1, "isfriend":0, "isfamily":0, "safe":1, "ownername":"steff808", "latitude":40.703741, "longitude":-73.994121, "accuracy":"15", "context":0, "place_id":"pUfLvixTWr2dFTQFfg", "woeid":"28751260", "geo_is_family":0, "geo_is_friend":0, "geo_is_contact":0, "geo_is_public":1, "media":"photo", "media_status":"ready"}, {"id":"12645869705", "owner":"63377227@N05", "secret":"514a9f8700", "server":"7346", "farm":8, "title":"RAIN OF HAPPINESS! :)))", "ispublic":1, "isfriend":0, "isfamily":0, "safe":1, "ownername":"halina.reshetova", "latitude":45.584431, "longitude":32.847318, "accuracy":"13", "context":0, "place_id":"h1qQYHdYULxnpIY", "woeid":"926919", "geo_is_family":0, "geo_is_friend":0, "geo_is_contact":0, "geo_is_public":1, "media":"photo", "media_status":"ready"}, {"id":"12632691723", "owner":"61874975@N05", "secret":"95a2c7cdaf", "server":"3834", "farm":4, "title":"`till the Setting of the Sun . .", "ispublic":1, "isfriend":0, "isfamily":0, "safe":0, "ownername":"\u2740\u10e6 Poetic Outlook (Anne)", "latitude":27.78646, "longitude":-15.714409, "accuracy":"11", "context":0, "place_id":"bpf6O9FWVbNLUqc", "woeid":"779199", "geo_is_family":0, "geo_is_friend":0, "geo_is_contact":0, "geo_is_public":1, "media":"photo", "media_status":"ready"}, {"id":"12624202803", "owner":"8188882@N05", "secret":"09217499bf", "server":"5550", "farm":6, "title":"I will never forget the look in your eyes", "ispublic":1, "isfriend":0, "isfamily":0, "safe":1, "ownername":"DinosaursAreNotDead", "latitude":48.749777, "longitude":1.927547, "accuracy":"16", "context":0, "place_id":"Bv7BbtFQULz_blrbFA", "woeid":"12641906", "geo_is_family":0, "geo_is_friend":0, "geo_is_contact":0, "geo_is_public":1, "media":"photo", "media_status":"ready"}, {"id":"12600724155", "owner":"94015342@N04", "secret":"a7e024265b", "server":"3666", "farm":4, "title":"In a Galaxy Far, Far Away", "ispublic":1, "isfriend":0, "isfamily":0, "safe":0, "ownername":"Adrian Kingsley-Hughes", "latitude":52.7625, "longitude":-4.788099, "accuracy":"11", "context":0, "place_id":"5RMTjEVQU7JrHg", "woeid":"11827", "geo_is_family":0, "geo_is_friend":0, "geo_is_contact":0, "geo_is_public":1, "media":"photo", "media_status":"ready"}, {"id":"12570028374", "owner":"100063725@N06", "secret":"2b11bed2e2", "server":"7411", "farm":8, "title":"Brilla el Mediterr\u00e1neo", "ispublic":1, "isfriend":0, "isfamily":0, "safe":0, "ownername":"Antonio Chac", "latitude":36.504976, "longitude":-4.891034, "accuracy":"15", "context":0, "place_id":"b6ANCk5WVLwQivI", "woeid":"766537", "geo_is_family":0, "geo_is_friend":0, "geo_is_contact":0, "geo_is_public":1, "media":"photo", "media_status":"ready"}, {"id":"12549213894", "owner":"80516886@N00", "secret":"3da6e6a5a8", "server":"3806", "farm":4, "title":"Rio de Janeiro - Mountains, forest, lagoon, beaches, a beautiful bay and all within a City", "ispublic":1, "isfriend":0, "isfamily":0, "safe":1, "ownername":".**rickipanema**.", "latitude":-22.973237, "longitude":-43.249278, "accuracy":"16", "context":0, "place_id":"TsmP_EJVUb5ztoc", "woeid":"434465", "geo_is_family":0, "geo_is_friend":0, "geo_is_contact":0, "geo_is_public":1, "media":"photo", "media_status":"ready"}, {"id":"12544483494", "owner":"69663264@N03", "secret":"59c7efd1f5", "server":"7425", "farm":8, "title":"Tag and the tower", "ispublic":1, "isfriend":0, "isfamily":0, "safe":0, "ownername":"steff808", "latitude":41.902111, "longitude":8.804082, "accuracy":"14", "context":0, "place_id":"naaoS_lTUrhfk7Iudw", "woeid":"20219475", "geo_is_family":0, "geo_is_friend":0, "geo_is_contact":0, "geo_is_public":1, "media":"photo", "media_status":"ready"}, {"id":"12519262953", "owner":"21207178@N07", "secret":"87b8a5a335", "server":"7398", "farm":8, "title":"Happy Valentine's Day !", "ispublic":1, "isfriend":0, "isfamily":0, "safe":1, "ownername":"Batikart", "latitude":48.809188, "longitude":9.27665, "accuracy":"11", "context":0, "place_id":"q.j3YtZXVrMMKvI", "woeid":"649530", "geo_is_family":0, "geo_is_friend":0, "geo_is_contact":0, "geo_is_public":1, "media":"photo", "media_status":"ready"}, {"id":"12515471325", "owner":"72179079@N00", "secret":"26d6de1c47", "server":"3764", "farm":4, "title":"All the colors of the sunset", "ispublic":1, "isfriend":0, "isfamily":0, "safe":1, "ownername":"Katarina 2353", "latitude":36.447948, "longitude":28.22591, "accuracy":"11", "context":0, "place_id":"A9eXtvVYVLs5xaI", "woeid":"961265", "geo_is_family":0, "geo_is_friend":0, "geo_is_contact":0, "geo_is_public":1, "media":"photo", "media_status":"ready"}, {"id":"12506284563", "owner":"26849514@N06", "secret":"8ac1636a38", "server":"2839", "farm":3, "title":"Ukrainian opposition leader Yulia Timoshenko freed and on independence square saturday 22 February", "ispublic":1, "isfriend":0, "isfamily":0, "safe":1, "ownername":"Frans.Sellies", "latitude":50.449768, "longitude":30.524173, "accuracy":"16", "context":0, "place_id":"5I6w0q5YUL586B8", "woeid":"924938", "geo_is_family":0, "geo_is_friend":0, "geo_is_contact":0, "geo_is_public":1, "media":"photo", "media_status":"ready"}, {"id":"12121536064", "owner":"100063725@N06", "secret":"bda1e3e25d", "server":"5471", "farm":6, "title":"El Mediterr\u00e1neo iluminado", "ispublic":1, "isfriend":0, "isfamily":0, "safe":0, "ownername":"Antonio Chac", "latitude":36.499615, "longitude":-4.92837, "accuracy":"15", "context":0, "place_id":"b6ANCk5WVLwQivI", "woeid":"766537", "geo_is_family":0, "geo_is_friend":0, "geo_is_contact":0, "geo_is_public":1, "media":"photo", "media_status":"ready"}, {"id":"12011088093", "owner":"93269402@N08", "secret":"5e79708598", "server":"3798", "farm":4, "title":"Meanwhile on the other side...   (Aurora Borealis) (Explored at no 2.)", "ispublic":1, "isfriend":0, "isfamily":0, "safe":1, "ownername":"Bhalalhaika", "latitude":69.15041, "longitude":18.161108, "accuracy":"15", "context":0, "place_id":"WDVOZmhZVL5Zu80", "woeid":"864232", "geo_is_family":0, "geo_is_friend":0, "geo_is_contact":0, "geo_is_public":1, "media":"photo", "media_status":"ready"}, {"id":"11468115155", "owner":"100063725@N06", "secret":"42254a896a", "server":"3776", "farm":4, "title":"Horizonte", "ispublic":1, "isfriend":0, "isfamily":0, "safe":1, "ownername":"Antonio Chac", "latitude":36.500319, "longitude":-4.924765, "accuracy":"15", "context":0, "place_id":"b6ANCk5WVLwQivI", "woeid":"766537", "geo_is_family":0, "geo_is_friend":0, "geo_is_contact":0, "geo_is_public":1, "media":"photo", "media_status":"ready"}, {"id":"10932170624", "owner":"100063725@N06", "secret":"baaf022e75", "server":"2882", "farm":3, "title":"Cielo iluminado", "ispublic":1, "isfriend":0, "isfamily":0, "safe":0, "ownername":"Antonio Chac", "latitude":36.499562, "longitude":-4.928226, "accuracy":"14", "context":0, "place_id":"b6ANCk5WVLwQivI", "woeid":"766537", "geo_is_family":0, "geo_is_friend":0, "geo_is_contact":0, "geo_is_public":1, "media":"photo", "media_status":"ready"}, {"id":"8471748766", "owner":"71183143@N05", "secret":"688a6522b5", "server":"8248", "farm":9, "title":"Sunset in Northern Zealand", "ispublic":1, "isfriend":0, "isfamily":0, "safe":0, "ownername":"David Cartagena", "latitude":55.9658, "longitude":11.844935, "accuracy":"16", "context":0, "place_id":"hLH1oJtUV7431ys", "woeid":"554390", "geo_is_family":0, "geo_is_friend":0, "geo_is_contact":0, "geo_is_public":1, "media":"photo", "media_status":"ready"}, {"id":"8394840798", "owner":"38181284@N06", "secret":"0d6bca3e5f", "server":"8364", "farm":9, "title":"Animals", "ispublic":1, "isfriend":0, "isfamily":0, "safe":0, "ownername":"vulture labs", "latitude":51.50632, "longitude":-0.12714, "accuracy":"11", "context":0, "place_id":"2eIY2QFTVr_DwWZNLg", "woeid":"24554868", "geo_is_family":0, "geo_is_friend":0, "geo_is_contact":0, "geo_is_public":1, "media":"photo", "media_status":"ready"}, {"id":"8281452917", "owner":"26849514@N06", "secret":"71b010cf57", "server":"8364", "farm":9, "title":"Rudolph!!!!!  Where are you???", "ispublic":1, "isfriend":0, "isfamily":0, "safe":1, "ownername":"Frans.Sellies", "latitude":61.2529, "longitude":8.943214, "accuracy":"16", "context":0, "place_id":"aY7DkL1ZV72SoIU", "woeid":"857036", "geo_is_family":0, "geo_is_friend":0, "geo_is_contact":0, "geo_is_public":1, "media":"photo", "media_status":"ready"}, {"id":"8145670755", "owner":"38795342@N06", "secret":"09294fd255", "server":"8184", "farm":9, "title":"Homenagem aos 449 anos da Cidade Maravilhosa!  Rio de Janeiro: Wonderful City. Anyone doubts?", "ispublic":1, "isfriend":0, "isfamily":0, "safe":1, "ownername":"Rubem Jr", "latitude":-22.978782, "longitude":-43.220558, "accuracy":"13", "context":0, "place_id":"PlNkoOtVUbJceXE", "woeid":"438462", "geo_is_family":0, "geo_is_friend":0, "geo_is_contact":0, "geo_is_public":1, "media":"photo", "media_status":"ready"}, {"id":"8058859394", "owner":"76550850@N04", "secret":"fa4420bc01", "server":"8459", "farm":9, "title":"all you need is love", "ispublic":1, "isfriend":0, "isfamily":0, "safe":1, "ownername":"mesana62", "latitude":36.993629, "longitude":-6.529459, "accuracy":"11", "context":0, "place_id":"H09U8StWVb.ovdQ", "woeid":"775682", "geo_is_family":0, "geo_is_friend":0, "geo_is_contact":0, "geo_is_public":1, "media":"photo", "media_status":"ready"}, {"id":"7168789359", "owner":"46742405@N04", "secret":"bf8d97df05", "server":"7225", "farm":8, "title":"Off to London for a week! \/ The Shard \/ Southwark bridge \/ London", "ispublic":1, "isfriend":0, "isfamily":0, "safe":1, "ownername":"zzapback", "latitude":51.510011, "longitude":-0.095336, "accuracy":"15", "context":0, "place_id":"87OE4Q1TUrpz8Ex55Q", "woeid":"20094307", "geo_is_family":0, "geo_is_friend":0, "geo_is_contact":0, "geo_is_public":1, "media":"photo", "media_status":"ready"}, {"id":"7066948117", "owner":"34726560@N00", "secret":"b3c118669d", "server":"7052", "farm":8, "title":"Lady sings the blues", "ispublic":1, "isfriend":0, "isfamily":0, "safe":0, "ownername":"Steve-h", "latitude":53.337501, "longitude":-6.252765, "accuracy":"15", "context":0, "place_id":"fjmHzRZUVLpKRgI", "woeid":"560743", "geo_is_family":0, "geo_is_friend":0, "geo_is_contact":0, "geo_is_public":1, "media":"photo", "media_status":"ready"}, {"id":"6979867325", "owner":"37287055@N02", "secret":"89fa1bac71", "server":"7036", "farm":8, "title":"La primavera en el bolsillo...", "ispublic":1, "isfriend":0, "isfamily":0, "safe":1, "ownername":"nanettesol #M4M", "latitude":37.170391, "longitude":-3.60542, "accuracy":"11", "context":0, "place_id":"IIJhTI1WVLvBLCY", "woeid":"761766", "geo_is_family":0, "geo_is_friend":0, "geo_is_contact":0, "geo_is_public":1, "media":"photo", "media_status":"ready"}, {"id":"6863036103", "owner":"58760809@N07", "secret":"483b33d03a", "server":"7052", "farm":8, "title":"Una fredda mattina   --   One cold morning  (repost)", "ispublic":1, "isfriend":0, "isfamily":0, "safe":1, "ownername":"marcellociappi - Thank you all for 1,500,000 views", "latitude":43.543073, "longitude":10.954055, "accuracy":"10", "context":0, "place_id":"iFnOqixWU7_rdWc", "woeid":"715989", "geo_is_family":0, "geo_is_friend":0, "geo_is_contact":0, "geo_is_public":1, "media":"photo", "media_status":"ready"}, {"id":"6727607399", "owner":"34726560@N00", "secret":"4beb2f9ba9", "server":"7158", "farm":8, "title":"Walking at sunrise", "ispublic":1, "isfriend":0, "isfamily":0, "safe":0, "ownername":"Steve-h", "latitude":36.506482, "longitude":-4.891539, "accuracy":"15", "context":0, "place_id":"b6ANCk5WVLwQivI", "woeid":"766537", "geo_is_family":0, "geo_is_friend":0, "geo_is_contact":0, "geo_is_public":1, "media":"photo", "media_status":"ready"}, {"id":"6276938448", "owner":"26849514@N06", "secret":"5eca2b46c9", "server":"6097", "farm":7, "title":"Greece : A view on Oia, Santorini", "ispublic":1, "isfriend":0, "isfamily":0, "safe":1, "ownername":"Frans.Sellies", "latitude":36.461819, "longitude":25.37531, "accuracy":"16", "context":0, "place_id":"2BV2WR9YV7I2RoM", "woeid":"958459", "geo_is_family":0, "geo_is_friend":0, "geo_is_contact":0, "geo_is_public":1, "media":"photo", "media_status":"ready"}, {"id":"6201617466", "owner":"12090378@N05", "secret":"55204bfc6f", "server":"6159", "farm":7, "title":"Hongos (boletus edulis)", "ispublic":1, "isfriend":0, "isfamily":0, "safe":1, "ownername":"Jabi Artaraz", "latitude":43.083526, "longitude":-2.604017, "accuracy":"13", "context":0, "place_id":"p.TvJaNWVbxm9N8", "woeid":"776334", "geo_is_family":0, "geo_is_friend":0, "geo_is_contact":0, "geo_is_public":1, "media":"photo", "media_status":"ready"}, {"id":"6080779098", "owner":"25959337@N00", "secret":"01026d4b1b", "server":"6085", "farm":7, "title":"Storevatnet i Brunstaddalen, Sykkylven", "ispublic":1, "isfriend":0, "isfamily":0, "safe":0, "ownername":"Martin Ystenes", "latitude":62.266684, "longitude":6.7317, "accuracy":"13", "context":0, "place_id":"g7dERi5ZV72iFg0", "woeid":"857637", "geo_is_family":0, "geo_is_friend":0, "geo_is_contact":0, "geo_is_public":1, "media":"photo", "media_status":"ready"}, {"id":"5946562120", "owner":"26849514@N06", "secret":"8e4e2a5819", "server":"6002", "farm":7, "title":"Going to work \/  8. March - International Women's Day !!! For all strong women!", "ispublic":1, "isfriend":0, "isfamily":0, "safe":1, "ownername":"Frans.Sellies", "latitude":47.30253, "longitude":28.96923, "accuracy":"14", "context":0, "place_id":"esYNxCpVWrqfvOc", "woeid":"480203", "geo_is_family":0, "geo_is_friend":0, "geo_is_contact":0, "geo_is_public":1, "media":"photo", "media_status":"ready"}, {"id":"5943477773", "owner":"21207178@N07", "secret":"39f885e07e", "server":"6141", "farm":7, "title":"Wheat in golden Evening Light - - - Thanks for 100.000 views on this image !!!", "ispublic":1, "isfriend":0, "isfamily":0, "safe":0, "ownername":"Batikart", "latitude":48.807273, "longitude":9.263749, "accuracy":"14", "context":0, "place_id":"q.j3YtZXVrMMKvI", "woeid":"649530", "geo_is_family":0, "geo_is_friend":0, "geo_is_contact":0, "geo_is_public":1, "media":"photo", "media_status":"ready"}, {"id":"5754949846", "owner":"46742405@N04", "secret":"1c924721a1", "server":"5188", "farm":6, "title":"Rotterdam Centraal Station \/ 2014", "ispublic":1, "isfriend":0, "isfamily":0, "safe":1, "ownername":"zzapback", "latitude":51.923136, "longitude":4.470555, "accuracy":"15", "context":0, "place_id":"oJk7i7JTUrrvjfpn4A", "woeid":"20063946", "geo_is_family":0, "geo_is_friend":0, "geo_is_contact":0, "geo_is_public":1, "media":"photo", "media_status":"ready"}, {"id":"5519940161", "owner":"25959337@N00", "secret":"34a55e66d4", "server":"5052", "farm":6, "title":"Atlanterhavsveien - \"The Atlantic Road\"", "ispublic":1, "isfriend":0, "isfamily":0, "safe":0, "ownername":"Martin Ystenes", "latitude":63.019467, "longitude":7.371139, "accuracy":"11", "context":0, "place_id":"KvHXG.JQV7rUYnC4yA", "woeid":"15000788", "geo_is_family":0, "geo_is_friend":0, "geo_is_contact":0, "geo_is_public":1, "media":"photo", "media_status":"ready"}, {"id":"5259545906", "owner":"25959337@N00", "secret":"7041bb1c7f", "server":"5046", "farm":6, "title":"Late evening sunshine between Romsdalen mountains", "ispublic":1, "isfriend":0, "isfamily":0, "safe":0, "ownername":"Martin Ystenes", "latitude":62.672724, "longitude":7.101287, "accuracy":"10", "context":0, "place_id":"R.bQ3GNZVL_88Aw", "woeid":"865700", "geo_is_family":0, "geo_is_friend":0, "geo_is_contact":0, "geo_is_public":1, "media":"photo", "media_status":"ready"}, {"id":"5159730964", "owner":"48664097@N02", "secret":"124c1e63d8", "server":"1227", "farm":2, "title":"La Puesta", "ispublic":1, "isfriend":0, "isfamily":0, "safe":1, "ownername":"BeGoNi", "latitude":39.425486, "longitude":2.743062, "accuracy":"13", "context":0, "place_id":"mfoPXi5TW7m7Pcr3eQ", "woeid":"29370173", "geo_is_family":0, "geo_is_friend":0, "geo_is_contact":0, "geo_is_public":1, "media":"photo", "media_status":"ready"}, {"id":"5074768918", "owner":"27420180@N08", "secret":"1d83e105b2", "server":"4087", "farm":5, "title":"Lamborghini Sesto Elemento", "ispublic":1, "isfriend":0, "isfamily":0, "safe":1, "ownername":"A.G. Photographe", "latitude":48.829519, "longitude":2.290767, "accuracy":"15", "context":0, "place_id":"4QbuqFpUV7Icr0IrPA", "woeid":"55843827", "geo_is_family":0, "geo_is_friend":0, "geo_is_contact":0, "geo_is_public":1, "media":"photo", "media_status":"ready"}, {"id":"4889274673", "owner":"43634577@N00", "secret":"2e7ec9fb55", "server":"4098", "farm":5, "title":"DSC_3513   \"a bath with a smile\" ((60k views of this photo! Thank you all very much. Your thoughts and time are much appreciated.))", "ispublic":1, "isfriend":0, "isfamily":0, "safe":0, "ownername":"ChanHawkins", "latitude":47.294541, "longitude":-52.760982, "accuracy":"16", "context":0, "place_id":"xSIs0uBVUrpA", "woeid":"4005", "geo_is_family":0, "geo_is_friend":0, "geo_is_contact":0, "geo_is_public":1, "media":"photo", "media_status":"ready"}, {"id":"4778470884", "owner":"25959337@N00", "secret":"c779363f73", "server":"4081", "farm":5, "title":"Fjallsarlon, Iceland", "ispublic":1, "isfriend":0, "isfamily":0, "safe":0, "ownername":"Martin Ystenes", "latitude":63.988912, "longitude":-16.379241, "accuracy":"9", "context":0, "place_id":"L30o2XlTUb6ZXW0u", "woeid":"2345690", "geo_is_family":0, "geo_is_friend":0, "geo_is_contact":0, "geo_is_public":1, "media":"photo", "media_status":"ready"}, {"id":"4742125317", "owner":"46226755@N04", "secret":"d95ab7d775", "server":"4115", "farm":5, "title":"\"If you love someone, set them free. If they come back they're yours\"", "ispublic":1, "isfriend":0, "isfamily":0, "safe":1, "ownername":"** Nico **", "latitude":48.852718, "longitude":2.350933, "accuracy":"16", "context":0, "place_id":"l6ezWo1UV7J685f0sQ", "woeid":"55843761", "geo_is_family":0, "geo_is_friend":0, "geo_is_contact":0, "geo_is_public":1, "media":"photo", "media_status":"ready"}]}, "stat":"ok"}