{"photos":{"page":31,"pages":26139,"perpage":60,"total":"1568297","photo":[{"id":"5712849372","owner":"29394931@N06","secret":"a16803db32","server":"3207","farm":4,"title":"Place Vendome, Paris","ispublic":1,"isfriend":0,"isfamily":0,"safe":1,"ownername":"\u2203Scape","latitude":48.866542,"longitude":2.328511,"accuracy":"15","context":0,"place_id":"dDkjellUV7Im9Xph5Q","woeid":"55843753","geo_is_family":0,"geo_is_friend":0,"geo_is_contact":0,"geo_is_public":1,"media":"photo","media_status":"ready"},{"id":"4989594346","owner":"7676405@N04","secret":"3fc5522c1a","server":"4128","farm":5,"title":"An Appointment With Trey...","ispublic":1,"isfriend":0,"isfamily":0,"safe":0,"ownername":"JH Images.co.uk","latitude":51.502828,"longitude":-0.119376,"accuracy":"16","context":0,"place_id":"up5njGVTUrqg4WUNsw","woeid":"20094347","geo_is_family":0,"geo_is_friend":0,"geo_is_contact":0,"geo_is_public":1,"media":"photo","media_status":"ready"},{"id":"4544479066","owner":"46442093@N00","secret":"d42cf28809","server":"4016","farm":5,"title":"[Sara de Castro] Actriz","ispublic":1,"isfriend":0,"isfamily":0,"safe":0,"ownername":"lia costa carvalho\u00a9","latitude":38.711232,"longitude":-9.118652,"accuracy":"5","context":0,"place_id":"CtXbe4BTUb5BgTOv","woeid":"2346573","geo_is_family":0,"geo_is_friend":0,"geo_is_contact":0,"geo_is_public":1,"media":"photo","media_status":"ready"},{"id":"14209324296","owner":"64110713@N05","secret":"438012c382","server":"2932","farm":3,"title":"They must be brothers","ispublic":1,"isfriend":0,"isfamily":0,"safe":0,"ownername":"Just Ard","latitude":52.363866,"longitude":4.882693,"accuracy":"16","context":0,"place_id":"xfcEFYhWULKtjYI","woeid":"728410","geo_is_family":0,"geo_is_friend":0,"geo_is_contact":0,"geo_is_public":1,"media":"photo","media_status":"ready"},{"id":"14037895097","owner":"52866177@N02","secret":"1bb960b630","server":"2904","farm":3,"title":"Paris is burning \u266a\u266b\u266a\u266b.Seen in Explore* May 19.2014","ispublic":1,"isfriend":0,"isfamily":0,"safe":0,"ownername":"Dan in Mars","latitude":48.873712,"longitude":2.295037,"accuracy":"16","context":0,"place_id":"EsIQUYZXU79_kEA","woeid":"615702","geo_is_family":0,"geo_is_friend":0,"geo_is_contact":0,"geo_is_public":1,"media":"photo","media_status":"ready"},{"id":"14037184520","owner":"46209713@N00","secret":"a3f20b591a","server":"2928","farm":3,"title":"Musing","ispublic":1,"isfriend":0,"isfamily":0,"safe":0,"ownername":"Ralph Friedman","latitude":48.204126,"longitude":16.370508,"accuracy":"16","context":0,"place_id":"G7TwxipUV7uNr80","woeid":"551759","geo_is_family":0,"geo_is_friend":0,"geo_is_contact":0,"geo_is_public":1,"media":"photo","media_status":"ready"},{"id":"14036653257","owner":"92036053@N06","secret":"6c19f9b9a7","server":"2937","farm":3,"title":"Arvore em meio a planta\u00e7\u00e3o de milho. Beautiful tree with flowers in the middle of the cornfield.","ispublic":1,"isfriend":0,"isfamily":0,"safe":0,"ownername":"IVOLINES","latitude":-22.844697,"longitude":-50.552728,"accuracy":"13","context":0,"place_id":"0RsDPRdVUb7Dwqs","woeid":"434132","geo_is_family":0,"geo_is_friend":0,"geo_is_contact":0,"geo_is_public":1,"media":"photo","media_status":"ready"},{"id":"14036106709","owner":"51010207@N04","secret":"5046eaef9d","server":"5117","farm":6,"title":"D8B_7577","ispublic":1,"isfriend":0,"isfamily":0,"safe":0,"ownername":"Viggo Johansen","latitude":59.765731,"longitude":7.327194,"accuracy":"14","context":0,"place_id":"KthwPNhZVL8D4H8","woeid":"865454","geo_is_family":0,"geo_is_friend":0,"geo_is_contact":0,"geo_is_public":1,"media":"photo","media_status":"ready"},{"id":"14034802028","owner":"38634749@N02","secret":"2d9b47d2f4","server":"2922","farm":3,"title":"IMG_8977 Doors from the past (ANO - 1817 - TH) - Seen On Explore - 2014-05-19 # 92","ispublic":1,"isfriend":0,"isfamily":0,"safe":0,"ownername":"jaro-es","latitude":39.279968,"longitude":-0.572059,"accuracy":"9","context":0,"place_id":"XoIpNABWVL9YDmM","woeid":"765374","geo_is_family":0,"geo_is_friend":0,"geo_is_contact":0,"geo_is_public":1,"media":"photo","media_status":"ready"},{"id":"14240965133","owner":"37708438@N05","secret":"013d9d09cb","server":"2910","farm":3,"title":"And it was all yellow....","ispublic":1,"isfriend":0,"isfamily":0,"safe":0,"ownername":"kenny barker","latitude":56.013814,"longitude":-3.846038,"accuracy":"10","context":0,"place_id":"HZ280wZTV7L1Qg","woeid":"25842","geo_is_family":0,"geo_is_friend":0,"geo_is_contact":0,"geo_is_public":1,"media":"photo","media_status":"ready"},{"id":"14034081987","owner":"42990908@N02","secret":"ddb2f762e7","server":"5501","farm":6,"title":"Egyptian goslings","ispublic":1,"isfriend":0,"isfamily":0,"safe":0,"ownername":"Wilma1962*","latitude":52.006515,"longitude":6.143082,"accuracy":"15","context":0,"place_id":"oDUO6bxWULK2Vb8","woeid":"728748","geo_is_family":0,"geo_is_friend":0,"geo_is_contact":0,"geo_is_public":1,"media":"photo","media_status":"ready"},{"id":"14213809302","owner":"28769220@N08","secret":"afaf57a3ea","server":"2906","farm":3,"title":"Bogarre","ispublic":1,"isfriend":0,"isfamily":0,"safe":0,"ownername":"Fernando N.P.","latitude":37.407255,"longitude":-3.380613,"accuracy":"14","context":0,"place_id":"hiZVxRJWV74UdPQ","woeid":"754655","geo_is_family":0,"geo_is_friend":0,"geo_is_contact":0,"geo_is_public":1,"media":"photo","media_status":"ready"},{"id":"14185939616","owner":"97004099@N05","secret":"0d89bce7d6","server":"5478","farm":6,"title":"20\/52 (2014) - Etretat a\u0300 l'heure bleue","ispublic":1,"isfriend":0,"isfamily":0,"safe":0,"ownername":"Fonk De","latitude":49.713019,"longitude":0.207581,"accuracy":"15","context":0,"place_id":"agZvH55UW7rnH2o","woeid":"590324","geo_is_family":0,"geo_is_friend":0,"geo_is_contact":0,"geo_is_public":1,"media":"photo","media_status":"ready"},{"id":"14181337616","owner":"48415713@N04","secret":"fd05e8099a","server":"2914","farm":3,"title":"G-VLIP B747-443 Virgin Atlantic Airways","ispublic":1,"isfriend":0,"isfamily":0,"safe":0,"ownername":"kw2p","latitude":55.864125,"longitude":-4.441328,"accuracy":"16","context":0,"place_id":"RSIXnJFSU7nLBA","woeid":"31342","geo_is_family":0,"geo_is_friend":0,"geo_is_contact":0,"geo_is_public":1,"media":"photo","media_status":"ready"},{"id":"14201100591","owner":"31472524@N06","secret":"0648d433e1","server":"5195","farm":6,"title":"_D7B9593_bis_Giardino_Inglese","ispublic":1,"isfriend":0,"isfamily":0,"safe":0,"ownername":"Vater_fotografo","latitude":38.131855,"longitude":13.351651,"accuracy":"15","context":0,"place_id":"PbK4XUNWU7MEzP8","woeid":"719846","geo_is_family":0,"geo_is_friend":0,"geo_is_contact":0,"geo_is_public":1,"media":"photo","media_status":"ready"},{"id":"14204017894","owner":"8677054@N03","secret":"a63852fb61","server":"5569","farm":6,"title":"Maraj\u00f3 mangrove . . .","ispublic":1,"isfriend":0,"isfamily":0,"safe":0,"ownername":"ericrstoner","latitude":-0.692186,"longitude":-48.48582,"accuracy":"16","context":0,"place_id":"vSRhuy5VVLtwZWE","woeid":"461297","geo_is_family":0,"geo_is_friend":0,"geo_is_contact":0,"geo_is_public":1,"media":"photo","media_status":"ready"},{"id":"14017182079","owner":"41558538@N02","secret":"ae99c1f5a4","server":"5524","farm":6,"title":"Fort William","ispublic":1,"isfriend":0,"isfamily":0,"safe":0,"ownername":"vampire-carmen","latitude":56.815696,"longitude":-5.11538,"accuracy":"16","context":0,"place_id":"cfWLsK5TUr7L0Q","woeid":"20465","geo_is_family":0,"geo_is_friend":0,"geo_is_contact":0,"geo_is_public":1,"media":"photo","media_status":"ready"},{"id":"14201282162","owner":"22350928@N02","secret":"5ff2ea3244","server":"5474","farm":6,"title":"Abandoned caravan","ispublic":1,"isfriend":0,"isfamily":0,"safe":0,"ownername":"bjornvald","latitude":65.80953,"longitude":-18.547668,"accuracy":"8","context":0,"place_id":"Wco6JCFTUb4R6d.v","woeid":"2345693","geo_is_family":0,"geo_is_friend":0,"geo_is_contact":0,"geo_is_public":1,"media":"photo","media_status":"ready"},{"id":"14013428097","owner":"90076467@N07","secret":"a663150e16","server":"7412","farm":8,"title":"... 16Tons!!!","ispublic":1,"isfriend":0,"isfamily":0,"safe":0,"ownername":"Fede Falces (OFF & ON)","latitude":41.385719,"longitude":2.170049,"accuracy":"11","context":0,"place_id":"p.gvf6dWV7k1Gpg","woeid":"753692","geo_is_family":0,"geo_is_friend":0,"geo_is_contact":0,"geo_is_public":1,"media":"photo","media_status":"ready"},{"id":"14012154938","owner":"57314912@N03","secret":"3609211c05","server":"2911","farm":3,"title":"Sans titre","ispublic":1,"isfriend":0,"isfamily":0,"safe":0,"ownername":"Dom Lortha","latitude":46.584165,"longitude":0.335479,"accuracy":"16","context":0,"place_id":"WQaFWOFXU73g8ZE","woeid":"617150","geo_is_family":0,"geo_is_friend":0,"geo_is_contact":0,"geo_is_public":1,"media":"photo","media_status":"ready"},{"id":"14006805347","owner":"66403925@N03","secret":"abeaba6dff","server":"7379","farm":8,"title":"Pica-pau-malhado-grande, The Great Spotted Woodpecker(Dendrocopos major) - em Liberdade [in Wild]","ispublic":1,"isfriend":0,"isfamily":0,"safe":0,"ownername":"ana & xavier","latitude":41.129108,"longitude":-8.61361,"accuracy":"11","context":0,"place_id":"a69YBDJWV7q53QY","woeid":"750800","geo_is_family":0,"geo_is_friend":0,"geo_is_contact":0,"geo_is_public":1,"media":"photo","media_status":"ready"},{"id":"14213503143","owner":"48282670@N03","secret":"e92cfcafeb","server":"5079","farm":6,"title":"Copenhagen Scale Model 1:1","ispublic":1,"isfriend":0,"isfamily":0,"safe":0,"ownername":"MarcoGiorgiPhoto","latitude":55.680403,"longitude":12.572221,"accuracy":"15","context":0,"place_id":"7Q0tk3BTUrij1v_15w","woeid":"20229302","geo_is_family":0,"geo_is_friend":0,"geo_is_contact":0,"geo_is_public":1,"media":"photo","media_status":"ready"},{"id":"14192608884","owner":"52027561@N00","secret":"0240fbc5ef","server":"7422","farm":8,"title":"2013-09-08_20-39_33767_WTA_5DM3","ispublic":1,"isfriend":0,"isfamily":0,"safe":0,"ownername":"Tudor ApMadoc","latitude":51.507561,"longitude":-0.128121,"accuracy":"16","context":0,"place_id":"1EPGyGtTUrrDXJmGCA","woeid":"20094364","geo_is_family":0,"geo_is_friend":0,"geo_is_contact":0,"geo_is_public":1,"media":"photo","media_status":"ready"},{"id":"14004050670","owner":"64892508@N06","secret":"443becb9e6","server":"7336","farm":8,"title":"Kn\u00e4ppare \/ Click Beetle (Athous haemorrhoidalis)","ispublic":1,"isfriend":0,"isfamily":0,"safe":0,"ownername":"Martin1446","latitude":57.62338,"longitude":11.985762,"accuracy":"16","context":0,"place_id":"gFa2yi1TUrtR6GJh.Q","woeid":"20151616","geo_is_family":0,"geo_is_friend":0,"geo_is_contact":0,"geo_is_public":1,"media":"photo","media_status":"ready"},{"id":"14185410312","owner":"26522673@N07","secret":"5d1ce3a103","server":"7406","farm":8,"title":"Robert F. Kennedy Bridge","ispublic":1,"isfriend":0,"isfamily":0,"safe":0,"ownername":"Gary Burke.","latitude":40.779371,"longitude":-73.92404,"accuracy":"14","context":0,"place_id":"z6Mv279TVrNc2RcT","woeid":"2499525","geo_is_family":0,"geo_is_friend":0,"geo_is_contact":0,"geo_is_public":1,"media":"photo","media_status":"ready"},{"id":"13999807350","owner":"47735293@N06","secret":"77a5a41e80","server":"5559","farm":6,"title":"Snow White Variation3","ispublic":1,"isfriend":0,"isfamily":0,"safe":0,"ownername":"Fotografik33","latitude":42.725383,"longitude":1.690133,"accuracy":"16","context":0,"place_id":"3yO60h9QULzl1enaJg","woeid":"12664547","geo_is_family":0,"geo_is_friend":0,"geo_is_contact":0,"geo_is_public":1,"media":"photo","media_status":"ready"},{"id":"14185332364","owner":"48988488@N04","secret":"ccc850f6e4","server":"7373","farm":8,"title":"Gran Premio della Montagna (a piedi)","ispublic":1,"isfriend":0,"isfamily":0,"safe":0,"ownername":"claudius1954","latitude":46.041603,"longitude":9.630675,"accuracy":"15","context":0,"place_id":"05BaKjFTUrs962CtsA","woeid":"20125266","geo_is_family":0,"geo_is_friend":0,"geo_is_contact":0,"geo_is_public":1,"media":"photo","media_status":"ready"},{"id":"14181617651","owner":"94579059@N05","secret":"d7b08fb808","server":"5078","farm":6,"title":"R\u00e9flexion ext\u00e9rieure \/ Outdoor reflection","ispublic":1,"isfriend":0,"isfamily":0,"safe":0,"ownername":"m43photos","latitude":48.860762,"longitude":2.35219,"accuracy":"16","context":0,"place_id":"GPoA4aBUV7LCk1SJeQ","woeid":"55843763","geo_is_family":0,"geo_is_friend":0,"geo_is_contact":0,"geo_is_public":1,"media":"photo","media_status":"ready"},{"id":"14155715966","owner":"7983463@N08","secret":"d543ebf6db","server":"7411","farm":8,"title":"Rapeseed Field","ispublic":1,"isfriend":0,"isfamily":0,"safe":0,"ownername":"diesmali","latitude":58.266199,"longitude":15.758879,"accuracy":"15","context":0,"place_id":"_2pKskpQUL9MkvZrrA","woeid":"12587372","geo_is_family":0,"geo_is_friend":0,"geo_is_contact":0,"geo_is_public":1,"media":"photo","media_status":"ready"},{"id":"14174882561","owner":"62815410@N04","secret":"599fe56a95","server":"7450","farm":8,"title":"flickriversary (brescia, italy)","ispublic":1,"isfriend":0,"isfamily":0,"safe":0,"ownername":"bloodybee","latitude":45.535821,"longitude":10.234086,"accuracy":"16","context":0,"place_id":"WO1uGLRWU7u69ps","woeid":"711410","geo_is_family":0,"geo_is_friend":0,"geo_is_contact":0,"geo_is_public":1,"media":"photo","media_status":"ready"},{"id":"14176434455","owner":"47281210@N00","secret":"d0754c5e7f","server":"7332","farm":8,"title":"FenetresRueSaint-Honore-6","ispublic":1,"isfriend":0,"isfamily":0,"safe":0,"ownername":"Daniel Hard","latitude":48.864391,"longitude":2.333521,"accuracy":"14","context":0,"place_id":"R13rUF1UV7LQLoV4Ig","woeid":"55843751","geo_is_family":0,"geo_is_friend":0,"geo_is_contact":0,"geo_is_public":1,"media":"photo","media_status":"ready"},{"id":"14195258363","owner":"86867805@N08","secret":"0b3ebf779a","server":"7376","farm":8,"title":"Rainy Day #3","ispublic":1,"isfriend":0,"isfamily":0,"safe":0,"ownername":"-KOOPS-","latitude":51.058646,"longitude":2.43654,"accuracy":"16","context":0,"place_id":".kyRtI1XUr_cGPQ","woeid":"605077","geo_is_family":0,"geo_is_friend":0,"geo_is_contact":0,"geo_is_public":1,"media":"photo","media_status":"ready"},{"id":"14148831766","owner":"87848574@N07","secret":"eb3844079b","server":"5511","farm":6,"title":"Candle for Buddha","ispublic":1,"isfriend":0,"isfamily":0,"safe":0,"ownername":"fredMin","latitude":27.679879,"longitude":85.309524,"accuracy":"11","context":0,"place_id":"l9lWcGdTULyUgU9b","woeid":"2269179","geo_is_family":0,"geo_is_friend":0,"geo_is_contact":0,"geo_is_public":1,"media":"photo","media_status":"ready"},{"id":"14170311705","owner":"96844815@N03","secret":"45dc089d54","server":"5154","farm":6,"title":"Caffeine High","ispublic":1,"isfriend":0,"isfamily":0,"safe":0,"ownername":"LKB Photographic","latitude":55.861263,"longitude":-4.254922,"accuracy":"16","context":0,"place_id":"ec7HT9FTU7snhw","woeid":"21125","geo_is_family":0,"geo_is_friend":0,"geo_is_contact":0,"geo_is_public":1,"media":"photo","media_status":"ready"},{"id":"13981088770","owner":"47035764@N03","secret":"cf3e996a84","server":"2930","farm":3,"title":"Hunebed D45, Emmen, Drenthe, Netherlands - 1795","ispublic":1,"isfriend":0,"isfamily":0,"safe":0,"ownername":"HereIsTom","latitude":52.791715,"longitude":6.907258,"accuracy":"16","context":0,"place_id":"gXqIvEVWULNNZww","woeid":"729113","geo_is_family":0,"geo_is_friend":0,"geo_is_contact":0,"geo_is_public":1,"media":"photo","media_status":"ready"},{"id":"14160648402","owner":"15133799@N02","secret":"d1c07102f8","server":"7355","farm":8,"title":"Yellow and blue","ispublic":1,"isfriend":0,"isfamily":0,"safe":0,"ownername":"*Kicki*","latitude":58.09998,"longitude":14.537796,"accuracy":"12","context":0,"place_id":"V4qrLpJQUL_CWhZD0w","woeid":"12587376","geo_is_family":0,"geo_is_friend":0,"geo_is_contact":0,"geo_is_public":1,"media":"photo","media_status":"ready"},{"id":"13973985767","owner":"88420718@N03","secret":"df94159c96","server":"7425","farm":8,"title":"abstract sea","ispublic":1,"isfriend":0,"isfamily":0,"safe":0,"ownername":"thequietguy","latitude":40.002371,"longitude":23.892517,"accuracy":"9","context":0,"place_id":"lui0NyBYVLl4cIs","woeid":"963102","geo_is_family":0,"geo_is_friend":0,"geo_is_contact":0,"geo_is_public":1,"media":"photo","media_status":"ready"},{"id":"13972184028","owner":"11269250@N07","secret":"509fe13873","server":"7420","farm":8,"title":"~ * ~","ispublic":1,"isfriend":0,"isfamily":0,"safe":0,"ownername":"Janey Kay","latitude":57.704926,"longitude":11.975044,"accuracy":"16","context":0,"place_id":"WErwB4RTUrsuHZsbSA","woeid":"20151157","geo_is_family":0,"geo_is_friend":0,"geo_is_contact":0,"geo_is_public":1,"media":"photo","media_status":"ready"},{"id":"14158818175","owner":"57279943@N00","secret":"5e7b0de969","server":"2899","farm":3,"title":"View from my first home and remembering Mum","ispublic":1,"isfriend":0,"isfamily":0,"safe":0,"ownername":"bryanilona","latitude":56.316884,"longitude":-3.130167,"accuracy":"14","context":0,"place_id":"eZVurBtTW7tVDw","woeid":"29194","geo_is_family":0,"geo_is_friend":0,"geo_is_contact":0,"geo_is_public":1,"media":"photo","media_status":"ready"},{"id":"13972111167","owner":"32438882@N07","secret":"1c86d597d3","server":"7388","farm":8,"title":"Laguna de Yeguas por TeresalaLoba","ispublic":1,"isfriend":0,"isfamily":0,"safe":0,"ownername":"TeresalaLoba","latitude":42.188703,"longitude":-6.72419,"accuracy":"16","context":0,"place_id":"UJduV9NWVbngCoo","woeid":"773085","geo_is_family":0,"geo_is_friend":0,"geo_is_contact":0,"geo_is_public":1,"media":"photo","media_status":"ready"},{"id":"13971494629","owner":"37708438@N05","secret":"241f7c86bc","server":"7450","farm":8,"title":"If you go down to the woods today.....","ispublic":1,"isfriend":0,"isfamily":0,"safe":0,"ownername":"kenny barker","latitude":56.061379,"longitude":-3.616012,"accuracy":"10","context":0,"place_id":"4Rmz5VJTUbgvyw","woeid":"23277","geo_is_family":0,"geo_is_friend":0,"geo_is_contact":0,"geo_is_public":1,"media":"photo","media_status":"ready"},{"id":"14132732586","owner":"45722248@N07","secret":"62d4874d74","server":"5153","farm":6,"title":"Longboard","ispublic":1,"isfriend":0,"isfamily":0,"safe":0,"ownername":"ffela","latitude":52.519825,"longitude":13.377725,"accuracy":"16","context":0,"place_id":"VULyzjBXVb89VXc","woeid":"675695","geo_is_family":0,"geo_is_friend":0,"geo_is_contact":0,"geo_is_public":1,"media":"photo","media_status":"ready"},{"id":"13966881650","owner":"8449245@N07","secret":"0cbf6f8fe3","server":"5516","farm":6,"title":"A storm is coming","ispublic":1,"isfriend":0,"isfamily":0,"safe":0,"ownername":"Lucio\u00ae","latitude":39.79515,"longitude":18.362445,"accuracy":"13","context":0,"place_id":"l0_ZdDtTUrq8Ya4zyQ","woeid":"20076978","geo_is_family":0,"geo_is_friend":0,"geo_is_contact":0,"geo_is_public":1,"media":"photo","media_status":"ready"},{"id":"14152711195","owner":"33276816@N02","secret":"e61412a7d5","server":"2921","farm":3,"title":"ATARDECE.., QUE NO ES POCO","ispublic":1,"isfriend":0,"isfamily":0,"safe":0,"ownername":"alexdealagon","latitude":41.764833,"longitude":-1.116167,"accuracy":"16","context":0,"place_id":"J185Im5QULyfpra9vg","woeid":"12689841","geo_is_family":0,"geo_is_friend":0,"geo_is_contact":0,"geo_is_public":1,"media":"photo","media_status":"ready"},{"id":"14148477561","owner":"31156303@N06","secret":"3aaa769dd7","server":"2923","farm":3,"title":"Nothing Flows Nothing Changes","ispublic":1,"isfriend":0,"isfamily":0,"safe":0,"ownername":"Chernivtsi Online","latitude":48.294769,"longitude":25.929608,"accuracy":"16","context":0,"place_id":"3WEMLxdYU7IVSWU","woeid":"918247","geo_is_family":0,"geo_is_friend":0,"geo_is_contact":0,"geo_is_public":1,"media":"photo","media_status":"ready"},{"id":"14171536353","owner":"90076467@N07","secret":"1fea7ab314","server":"7322","farm":8,"title":"... qu\u00e9 pasa con Cenicienta!?!?!? \/ ... what's up with Cinderella!?!?!?","ispublic":1,"isfriend":0,"isfamily":0,"safe":0,"ownername":"Fede Falces (OFF & ON)","latitude":41.385719,"longitude":2.170049,"accuracy":"11","context":0,"place_id":"p.gvf6dWV7k1Gpg","woeid":"753692","geo_is_family":0,"geo_is_friend":0,"geo_is_contact":0,"geo_is_public":1,"media":"photo","media_status":"ready"},{"id":"13964458000","owner":"48988488@N04","secret":"e890902cf7","server":"5273","farm":6,"title":"Codera","ispublic":1,"isfriend":0,"isfamily":0,"safe":0,"ownername":"claudius1954","latitude":46.238941,"longitude":9.473979,"accuracy":"14","context":0,"place_id":"pCRDbjZTUrsTHk0FhQ","woeid":"20120876","geo_is_family":0,"geo_is_friend":0,"geo_is_contact":0,"geo_is_public":1,"media":"photo","media_status":"ready"},{"id":"13964008357","owner":"12186112@N06","secret":"69bf873e87","server":"7453","farm":8,"title":"(#2.302) L\u00f6wenzahn, Wiese [Explore]","ispublic":1,"isfriend":0,"isfamily":0,"safe":0,"ownername":"unicorn 81","latitude":54.151427,"longitude":11.767001,"accuracy":"14","context":0,"place_id":"UIG_8tBXWrlMTrQ","woeid":"683826","geo_is_family":0,"geo_is_friend":0,"geo_is_contact":0,"geo_is_public":1,"media":"photo","media_status":"ready"},{"id":"13959378438","owner":"66403925@N03","secret":"fabdd16155","server":"7382","farm":8,"title":"Melro-das-rochas, Common Rock Thrush(Monticola saxatilis) - em Liberdade [in Wild]","ispublic":1,"isfriend":0,"isfamily":0,"safe":0,"ownername":"ana & xavier","latitude":40.874568,"longitude":-8.2978,"accuracy":"11","context":0,"place_id":"vlbU__9UV7JVYRpjTQ","woeid":"55867599","geo_is_family":0,"geo_is_friend":0,"geo_is_contact":0,"geo_is_public":1,"media":"photo","media_status":"ready"},{"id":"13959078849","owner":"100063725@N06","secret":"596ceda1ca","server":"2918","farm":3,"title":"Reflejos","ispublic":1,"isfriend":0,"isfamily":0,"safe":0,"ownername":"Antonio Chac","latitude":36.507488,"longitude":-4.874603,"accuracy":"16","context":0,"place_id":"b6ANCk5WVLwQivI","woeid":"766537","geo_is_family":0,"geo_is_friend":0,"geo_is_contact":0,"geo_is_public":1,"media":"photo","media_status":"ready"},{"id":"14143903445","owner":"31804708@N02","secret":"941959d6cf","server":"7382","farm":8,"title":"\u00c9xodo - Exodus","ispublic":1,"isfriend":0,"isfamily":0,"safe":0,"ownername":"celta4","latitude":-34.587529,"longitude":-58.422911,"accuracy":"16","context":0,"place_id":"BkPyiYpSUbtortc","woeid":"331580","geo_is_family":0,"geo_is_friend":0,"geo_is_contact":0,"geo_is_public":1,"media":"photo","media_status":"ready"},{"id":"13956896200","owner":"68176223@N07","secret":"190b76049c","server":"7440","farm":8,"title":"Clouds & bridges","ispublic":1,"isfriend":0,"isfamily":0,"safe":0,"ownername":"Franco Beccari","latitude":43.782371,"longitude":11.254989,"accuracy":"11","context":0,"place_id":"ZPDshblWU7_DgSs","woeid":"715496","geo_is_family":0,"geo_is_friend":0,"geo_is_contact":0,"geo_is_public":1,"media":"photo","media_status":"ready"},{"id":"13952808180","owner":"97004099@N05","secret":"cd9f0e7530","server":"5157","farm":6,"title":"Seductive woman lost in toughts","ispublic":1,"isfriend":0,"isfamily":0,"safe":0,"ownername":"Fonk De","latitude":48.856918,"longitude":2.341209,"accuracy":"11","context":0,"place_id":"EsIQUYZXU79_kEA","woeid":"615702","geo_is_family":0,"geo_is_friend":0,"geo_is_contact":0,"geo_is_public":1,"media":"photo","media_status":"ready"},{"id":"14115989886","owner":"8071044@N04","secret":"82131eccc9","server":"7401","farm":8,"title":"III","ispublic":1,"isfriend":0,"isfamily":0,"safe":0,"ownername":"Torsten Reuschling","latitude":47.901728,"longitude":-4.146995,"accuracy":"16","context":0,"place_id":"5.EM9r5WU79GO2nY","woeid":"7153313","geo_is_family":0,"geo_is_friend":0,"geo_is_contact":0,"geo_is_public":1,"media":"photo","media_status":"ready"},{"id":"13951830788","owner":"71193951@N07","secret":"1ee9f20470","server":"2935","farm":3,"title":"The Leaf Gatherer (explored 08\/05\/14)","ispublic":1,"isfriend":0,"isfamily":0,"safe":0,"ownername":"galvanol (offline)","latitude":17.098792,"longitude":-25.131225,"accuracy":"8","context":0,"place_id":"Ifq0NSFTUb6ZmrUzGw","woeid":"23424794","geo_is_family":0,"geo_is_friend":0,"geo_is_contact":0,"geo_is_public":1,"media":"photo","media_status":"ready"},{"id":"13951307637","owner":"48233974@N05","secret":"4f81a06dd5","server":"2924","farm":3,"title":"light for humans","ispublic":1,"isfriend":0,"isfamily":0,"safe":0,"ownername":"ommation","latitude":35.519879,"longitude":24.017336,"accuracy":"15","context":0,"place_id":"KhlsNLBYVrKYNFs","woeid":"948008","geo_is_family":0,"geo_is_friend":0,"geo_is_contact":0,"geo_is_public":1,"media":"photo","media_status":"ready"},{"id":"14133625071","owner":"46267286@N07","secret":"e3b8cee1cc","server":"2918","farm":3,"title":"The New Adelphi - Art Deco 1930's London - Low Key","ispublic":1,"isfriend":0,"isfamily":0,"safe":0,"ownername":"Simon & His Camera","latitude":51.509316,"longitude":-0.122523,"accuracy":"16","context":0,"place_id":"aOppNH9QV7zH7w","woeid":"15652","geo_is_family":0,"geo_is_friend":0,"geo_is_contact":0,"geo_is_public":1,"media":"photo","media_status":"ready"},{"id":"14133697402","owner":"107257500@N03","secret":"330c706113","server":"7327","farm":8,"title":"Sunbeam 01","ispublic":1,"isfriend":0,"isfamily":0,"safe":0,"ownername":"hoobgoobliin","latitude":52.950111,"longitude":0.803654,"accuracy":"15","context":0,"place_id":"rSgzh85TUrpWfwwl3Q","woeid":"20093016","geo_is_family":0,"geo_is_friend":0,"geo_is_contact":0,"geo_is_public":1,"media":"photo","media_status":"ready"},{"id":"14133472322","owner":"22543235@N05","secret":"d34c14e383","server":"7376","farm":8,"title":"Cliffs of Moher","ispublic":1,"isfriend":0,"isfamily":0,"safe":0,"ownername":"Gareth Wray Photography -Thanks = 1.5 Million Hits","latitude":53.043483,"longitude":-9.375629,"accuracy":"12","context":0,"place_id":"qX16VNpUVLrsIbA","woeid":"560320","geo_is_family":0,"geo_is_friend":0,"geo_is_contact":0,"geo_is_public":1,"media":"photo","media_status":"ready"},{"id":"14132275422","owner":"90189924@N08","secret":"b021f1bf44","server":"2920","farm":3,"title":"Spider","ispublic":1,"isfriend":0,"isfamily":0,"safe":0,"ownername":"Guilherme GMP","latitude":-25.404106,"longitude":-49.247173,"accuracy":"16","context":0,"place_id":"ZeCKPdpUV7P8S1MHcg","woeid":"55944080","geo_is_family":0,"geo_is_friend":0,"geo_is_contact":0,"geo_is_public":1,"media":"photo","media_status":"ready"}]},"stat":"ok"}