{"photos":{"page":35,"pages":26685,"perpage":60,"total":"1601099","photo":[{"id":"14049458366","owner":"37708438@N05","secret":"08dae4e2ee","server":"5485","farm":6,"title":"Helios Hyperion","ispublic":1,"isfriend":0,"isfamily":0,"safe":0,"ownername":"kenny barker","latitude":36.590832,"longitude":28.067871,"accuracy":"6","context":0,"place_id":"CUYcwuNTW7nb6uI6OQ","woeid":"29390558","geo_is_family":0,"geo_is_friend":0,"geo_is_contact":0,"geo_is_public":1,"media":"photo","media_status":"ready"},{"id":"14179178053","owner":"13592518@N03","secret":"53a1a0b6e8","server":"7386","farm":8,"title":"O casal","ispublic":1,"isfriend":0,"isfamily":0,"safe":0,"ownername":"Pedro Correa","latitude":-8.019227,"longitude":-34.852291,"accuracy":"16","context":0,"place_id":"kbaGc4hVV78L49c","woeid":"455893","geo_is_family":0,"geo_is_friend":0,"geo_is_contact":0,"geo_is_public":1,"media":"photo","media_status":"ready"},{"id":"14154576761","owner":"59852454@N03","secret":"835aa2cf18","server":"7299","farm":8,"title":"The Side You Never Get to See","ispublic":1,"isfriend":0,"isfamily":0,"safe":0,"ownername":"Pavel P.","latitude":49.674179,"longitude":18.346794,"accuracy":"16","context":0,"place_id":"w2ClW1JTVrNjh_UawQ","woeid":"24929002","geo_is_family":0,"geo_is_friend":0,"geo_is_contact":0,"geo_is_public":1,"media":"photo","media_status":"ready"},{"id":"14154201275","owner":"7977981@N06","secret":"7c7f0a2c80","server":"7311","farm":8,"title":"Arches [Explored]","ispublic":1,"isfriend":0,"isfamily":0,"safe":0,"ownername":"Rickydavid","latitude":41.903379,"longitude":12.490017,"accuracy":"16","context":0,"place_id":"FphPyURWU7ux6h4","woeid":"711883","geo_is_family":0,"geo_is_friend":0,"geo_is_contact":0,"geo_is_public":1,"media":"photo","media_status":"ready"},{"id":"14153325315","owner":"21207178@N07","secret":"b42deaecda","server":"7415","farm":8,"title":"Aerial view of potash works near Hildesheim, Germany","ispublic":1,"isfriend":0,"isfamily":0,"safe":0,"ownername":"Batikart","latitude":52.197269,"longitude":9.89898,"accuracy":"10","context":0,"place_id":"pV4cJbFTUrs3tIzZYQ","woeid":"20166480","geo_is_family":0,"geo_is_friend":0,"geo_is_contact":0,"geo_is_public":1,"media":"photo","media_status":"ready"},{"id":"13964915688","owner":"24061413@N04","secret":"9247bdf8a4","server":"7353","farm":8,"title":"In the Orient Express \/ Dans l'Orient Express","ispublic":1,"isfriend":0,"isfamily":0,"safe":0,"ownername":"french_lolita","latitude":48.848945,"longitude":2.356663,"accuracy":"16","context":0,"place_id":"EsIQUYZXU79_kEA","woeid":"615702","geo_is_family":0,"geo_is_friend":0,"geo_is_contact":0,"geo_is_public":1,"media":"photo","media_status":"ready"},{"id":"14148257082","owner":"37708438@N05","secret":"1abdb82a5b","server":"7300","farm":8,"title":"WILD BLUEBELLS","ispublic":1,"isfriend":0,"isfamily":0,"safe":0,"ownername":"kenny barker","latitude":56.004984,"longitude":-3.820632,"accuracy":"10","context":0,"place_id":"qpr9jxVQVrMOJg","woeid":"14993","geo_is_family":0,"geo_is_friend":0,"geo_is_contact":0,"geo_is_public":1,"media":"photo","media_status":"ready"},{"id":"14146775242","owner":"66644631@N05","secret":"a8b9d8da4e","server":"7338","farm":8,"title":"Versailles castle","ispublic":1,"isfriend":0,"isfamily":0,"safe":0,"ownername":"jmlpyt","latitude":48.801929,"longitude":2.131119,"accuracy":"11","context":0,"place_id":"RtpMgPNXUbrqF08","woeid":"630908","geo_is_family":0,"geo_is_friend":0,"geo_is_contact":0,"geo_is_public":1,"media":"photo","media_status":"ready"},{"id":"14148175645","owner":"87317128@N08","secret":"426aa2e149","server":"7376","farm":8,"title":"The Champ is Down","ispublic":1,"isfriend":0,"isfamily":0,"safe":0,"ownername":"Pu\u00e9rtolas","latitude":51.513296,"longitude":-0.136578,"accuracy":"16","context":0,"place_id":"4nCX5V9VUbigBA","woeid":"43201","geo_is_family":0,"geo_is_friend":0,"geo_is_contact":0,"geo_is_public":1,"media":"photo","media_status":"ready"},{"id":"14146134814","owner":"51647010@N07","secret":"c12403e19a","server":"7420","farm":8,"title":"Viervlek  .....  libellula quadrimaculata !!  EXPLORE.","ispublic":1,"isfriend":0,"isfamily":0,"safe":0,"ownername":"jac hendrix","latitude":51.347381,"longitude":6.166248,"accuracy":"15","context":0,"place_id":"tAyC6LlWUbkIvUc","woeid":"733768","geo_is_family":0,"geo_is_friend":0,"geo_is_contact":0,"geo_is_public":1,"media":"photo","media_status":"ready"},{"id":"14145492545","owner":"35891293@N02","secret":"4fff070f74","server":"7363","farm":8,"title":"splitting the blues","ispublic":1,"isfriend":0,"isfamily":0,"safe":0,"ownername":"gil walker","latitude":-33.919262,"longitude":18.416208,"accuracy":"16","context":0,"place_id":"uJTEXMpQV7LF_2FD","woeid":"1584382","geo_is_family":0,"geo_is_friend":0,"geo_is_contact":0,"geo_is_public":1,"media":"photo","media_status":"ready"},{"id":"14145452954","owner":"37797486@N06","secret":"5bba784af3","server":"2922","farm":3,"title":"Ad un sospiro di vento","ispublic":1,"isfriend":0,"isfamily":0,"safe":0,"ownername":"margot 52","latitude":44.976699,"longitude":9.085865,"accuracy":"14","context":0,"place_id":"rWnTVUpWUL_hW3Y","woeid":"725029","geo_is_family":0,"geo_is_friend":0,"geo_is_contact":0,"geo_is_public":1,"media":"photo","media_status":"ready"},{"id":"14143023514","owner":"66644631@N05","secret":"09d90a27bc","server":"7426","farm":8,"title":"Versailles castle","ispublic":1,"isfriend":0,"isfamily":0,"safe":0,"ownername":"jmlpyt","latitude":48.801929,"longitude":2.131119,"accuracy":"11","context":0,"place_id":"RtpMgPNXUbrqF08","woeid":"630908","geo_is_family":0,"geo_is_friend":0,"geo_is_contact":0,"geo_is_public":1,"media":"photo","media_status":"ready"},{"id":"14118824386","owner":"85150392@N05","secret":"a268d2b298","server":"5504","farm":6,"title":"Tiger had a wonderful life","ispublic":1,"isfriend":0,"isfamily":0,"safe":0,"ownername":"Manuel.Martin_72","latitude":47.489978,"longitude":8.68723,"accuracy":"16","context":0,"place_id":"lpCHRCNWWr4lodg","woeid":"784418","geo_is_family":0,"geo_is_friend":0,"geo_is_contact":0,"geo_is_public":1,"media":"photo","media_status":"ready"},{"id":"14138116554","owner":"79117486@N02","secret":"98861b248d","server":"2939","farm":3,"title":"Guggenheim - torre Iberdrola ( on explore 8-5-2014 )","ispublic":1,"isfriend":0,"isfamily":0,"safe":0,"ownername":"haymartxo","latitude":43.267699,"longitude":-2.959454,"accuracy":"11","context":0,"place_id":"v0b7ga9WV745BHU","woeid":"754542","geo_is_family":0,"geo_is_friend":0,"geo_is_contact":0,"geo_is_public":1,"media":"photo","media_status":"ready"},{"id":"14157879503","owner":"22843771@N04","secret":"6d787e4203","server":"2897","farm":3,"title":"2014-05-07 21.36.05-2","ispublic":1,"isfriend":0,"isfamily":0,"safe":0,"ownername":"Assun","latitude":41.389652,"longitude":2.130091,"accuracy":"16","context":0,"place_id":"xiYk7HBWVb7qP8g","woeid":"774129","geo_is_family":0,"geo_is_friend":0,"geo_is_contact":0,"geo_is_public":1,"media":"photo","media_status":"ready"},{"id":"14113459746","owner":"31156303@N06","secret":"9c5002157e","server":"7298","farm":8,"title":"The Right Side","ispublic":1,"isfriend":0,"isfamily":0,"safe":0,"ownername":"Chernivtsi Online","latitude":48.28985,"longitude":25.935058,"accuracy":"16","context":0,"place_id":"3WEMLxdYU7IVSWU","woeid":"918247","geo_is_family":0,"geo_is_friend":0,"geo_is_contact":0,"geo_is_public":1,"media":"photo","media_status":"ready"},{"id":"14132023535","owner":"52981672@N05","secret":"dab5a06f4a","server":"7392","farm":8,"title":"Bec et ongles","ispublic":1,"isfriend":0,"isfamily":0,"safe":0,"ownername":"fidgi","latitude":45.761527,"longitude":4.855012,"accuracy":"16","context":0,"place_id":"gUrZ2NhXUrPDYlI","woeid":"609125","geo_is_family":0,"geo_is_friend":0,"geo_is_contact":0,"geo_is_public":1,"media":"photo","media_status":"ready"},{"id":"14128546461","owner":"8188882@N05","secret":"45889a5910","server":"7435","farm":8,"title":"1910","ispublic":1,"isfriend":0,"isfamily":0,"safe":0,"ownername":"DinosaursAreNotDead","latitude":48.855185,"longitude":2.350537,"accuracy":"15","context":0,"place_id":"l6ezWo1UV7J685f0sQ","woeid":"55843761","geo_is_family":0,"geo_is_friend":0,"geo_is_contact":0,"geo_is_public":1,"media":"photo","media_status":"ready"},{"id":"14107890786","owner":"19685823@N00","secret":"aa29e3ebdf","server":"7416","farm":8,"title":"Cappella Monti di Lego","ispublic":1,"isfriend":0,"isfamily":0,"safe":0,"ownername":"Toni_V","latitude":46.198725,"longitude":8.83172,"accuracy":"16","context":0,"place_id":"K5sSzKVWWrgVmCI","woeid":"782140","geo_is_family":0,"geo_is_friend":0,"geo_is_contact":0,"geo_is_public":1,"media":"photo","media_status":"ready"},{"id":"13942721727","owner":"42263873@N07","secret":"238178abe7","server":"5500","farm":6,"title":"Hoopoe [Explored 2014.05.07]","ispublic":1,"isfriend":0,"isfamily":0,"safe":0,"ownername":"sumo1664","latitude":41.80203,"longitude":0.95787,"accuracy":"10","context":0,"place_id":"EhzuzY9WVL2EmIc","woeid":"767467","geo_is_family":0,"geo_is_friend":0,"geo_is_contact":0,"geo_is_public":1,"media":"photo","media_status":"ready"},{"id":"13942297437","owner":"40592593@N08","secret":"631fb04ed7","server":"7433","farm":8,"title":"Fantas\u00eda","ispublic":1,"isfriend":0,"isfamily":0,"safe":0,"ownername":"Jaime GF","latitude":43.629676,"longitude":-5.875968,"accuracy":"15","context":0,"place_id":".svZV8FWVb0ZDgc","woeid":"777234","geo_is_family":0,"geo_is_friend":0,"geo_is_contact":0,"geo_is_public":1,"media":"photo","media_status":"ready"},{"id":"14105438926","owner":"107257500@N03","secret":"e84d2fe87b","server":"5075","farm":6,"title":"64457","ispublic":1,"isfriend":0,"isfamily":0,"safe":0,"ownername":"hoobgoobliin","latitude":52.950111,"longitude":0.803654,"accuracy":"15","context":0,"place_id":"rSgzh85TUrpWfwwl3Q","woeid":"20093016","geo_is_family":0,"geo_is_friend":0,"geo_is_contact":0,"geo_is_public":1,"media":"photo","media_status":"ready"},{"id":"14124590555","owner":"66403925@N03","secret":"4122014ec5","server":"7457","farm":8,"title":"R\u00e3-ib\u00e9rica, Iberian Frog(Rana iberica) - em Liberdade [in Wild]","ispublic":1,"isfriend":0,"isfamily":0,"safe":0,"ownername":"ana & xavier (1.100.000 views - Obg \/ thanks)","latitude":41.48825,"longitude":-7.975679,"accuracy":"11","context":0,"place_id":"Pkme0N5WUb2z3SA","woeid":"737095","geo_is_family":0,"geo_is_friend":0,"geo_is_contact":0,"geo_is_public":1,"media":"photo","media_status":"ready"},{"id":"14100729996","owner":"53191561@N03","secret":"55bf711081","server":"7331","farm":8,"title":"La val d'Orcia,  in primavera","ispublic":1,"isfriend":0,"isfamily":0,"safe":0,"ownername":"BORGHY52","latitude":43.061574,"longitude":11.607152,"accuracy":"16","context":0,"place_id":"Baywkq9QULyW1B9VmQ","woeid":"12676449","geo_is_family":0,"geo_is_friend":0,"geo_is_contact":0,"geo_is_public":1,"media":"photo","media_status":"ready"},{"id":"13937249580","owner":"30477482@N00","secret":"07295e8d2c","server":"5445","farm":6,"title":"Water Run (Explored on 6th May 2014)","ispublic":1,"isfriend":0,"isfamily":0,"safe":0,"ownername":"Oliver St\u00f6r","latitude":49.98037,"longitude":8.505477,"accuracy":"11","context":0,"place_id":"Qxznr_BTUrvofiSmMg","woeid":"20162174","geo_is_family":0,"geo_is_friend":0,"geo_is_contact":0,"geo_is_public":1,"media":"photo","media_status":"ready"},{"id":"13936286949","owner":"8868875@N03","secret":"05cd972513","server":"5116","farm":6,"title":"new ink","ispublic":1,"isfriend":0,"isfamily":0,"safe":0,"ownername":"gato-gato-gato","latitude":47.481077,"longitude":8.300463,"accuracy":"16","context":0,"place_id":"1R8aqcVTUrt6iQOVaw","woeid":"20103813","geo_is_family":0,"geo_is_friend":0,"geo_is_contact":0,"geo_is_public":1,"media":"photo","media_status":"ready"},{"id":"13936198168","owner":"112711738@N06","secret":"f34c4994da","server":"5106","farm":6,"title":"Another Worlds IV.","ispublic":1,"isfriend":0,"isfamily":0,"safe":0,"ownername":"dasanes77","latitude":36.803558,"longitude":-2.06339,"accuracy":"11","context":0,"place_id":"poxx0jxWVL9Ary0","woeid":"765734","geo_is_family":0,"geo_is_friend":0,"geo_is_contact":0,"geo_is_public":1,"media":"photo","media_status":"ready"},{"id":"13936097887","owner":"9298216@N08","secret":"b88238994e","server":"2937","farm":3,"title":"Shoreditch street art","ispublic":1,"isfriend":0,"isfamily":0,"safe":0,"ownername":"Ben124.","latitude":51.523644,"longitude":-0.075316,"accuracy":"14","context":0,"place_id":"m3hb5ZZSVr3OFg","woeid":"34709","geo_is_family":0,"geo_is_friend":0,"geo_is_contact":0,"geo_is_public":1,"media":"photo","media_status":"ready"},{"id":"14116425561","owner":"52735684@N07","secret":"d942f94d32","server":"7408","farm":8,"title":"Venezianische Lagune - 04051401","ispublic":1,"isfriend":0,"isfamily":0,"safe":0,"ownername":"Klaus Kehrls","latitude":45.222133,"longitude":12.293829,"accuracy":"16","context":0,"place_id":"HAN1d5VWU77v0Fk","woeid":"714016","geo_is_family":0,"geo_is_friend":0,"geo_is_contact":0,"geo_is_public":1,"media":"photo","media_status":"ready"},{"id":"14114417732","owner":"71992351@N02","secret":"c900a9d4f7","server":"5490","farm":6,"title":"Col de la Bonette","ispublic":1,"isfriend":0,"isfamily":0,"safe":0,"ownername":"papy06200","latitude":44.339442,"longitude":6.830406,"accuracy":"12","context":0,"place_id":"IUOqmVxTUL1W60pqMg","woeid":"22756109","geo_is_family":0,"geo_is_friend":0,"geo_is_contact":0,"geo_is_public":1,"media":"photo","media_status":"ready"},{"id":"13930552607","owner":"97664410@N02","secret":"35e128c947","server":"5278","farm":6,"title":"Arcos","ispublic":1,"isfriend":0,"isfamily":0,"safe":0,"ownername":"Julieta Portel","latitude":40.481866,"longitude":-3.705224,"accuracy":"16","context":0,"place_id":"MszmvV9TUrgsgc0YYg","woeid":"20219811","geo_is_family":0,"geo_is_friend":0,"geo_is_contact":0,"geo_is_public":1,"media":"photo","media_status":"ready"},{"id":"13928119997","owner":"36217762@N00","secret":"0a3fc670b0","server":"7333","farm":8,"title":"The man in the chair \/ Der Mann im Sessel","ispublic":1,"isfriend":0,"isfamily":0,"safe":0,"ownername":"Pixelm\u00e4dchen6","latitude":52.531822,"longitude":13.385639,"accuracy":"15","context":0,"place_id":"zot2ouJXUbKOJRM","woeid":"638242","geo_is_family":0,"geo_is_friend":0,"geo_is_contact":0,"geo_is_public":1,"media":"photo","media_status":"ready"},{"id":"13927531438","owner":"27485294@N05","secret":"cb91c778b4","server":"5157","farm":6,"title":"Lo\u017ei\u0161\u0107e - Bra\u010d island","ispublic":1,"isfriend":0,"isfamily":0,"safe":0,"ownername":"Polje\u017ei\u010danin","latitude":43.350397,"longitude":16.480865,"accuracy":"12","context":0,"place_id":"5wmKXuFZVrJ.gSE","woeid":"848883","geo_is_family":0,"geo_is_friend":0,"geo_is_contact":0,"geo_is_public":1,"media":"photo","media_status":"ready"},{"id":"14110010292","owner":"66644631@N05","secret":"47cc703a93","server":"2896","farm":3,"title":"Bicycle [04012014-IMG_8562]","ispublic":1,"isfriend":0,"isfamily":0,"safe":0,"ownername":"jmlpyt","latitude":48.865459,"longitude":2.35552,"accuracy":"13","context":0,"place_id":"zcv1Qn1UV7LFRCEsfQ","woeid":"55843758","geo_is_family":0,"geo_is_friend":0,"geo_is_contact":0,"geo_is_public":1,"media":"photo","media_status":"ready"},{"id":"14089713096","owner":"92686475@N00","secret":"1d3420d699","server":"7438","farm":8,"title":"The Return of Amaryllis - Final Curtain","ispublic":1,"isfriend":0,"isfamily":0,"safe":0,"ownername":"Timothy Valentine","latitude":42.082322,"longitude":-71.01963,"accuracy":"16","context":0,"place_id":"oudmvQ9TUbJHFjpo","woeid":"2381661","geo_is_family":0,"geo_is_friend":0,"geo_is_contact":0,"geo_is_public":1,"media":"photo","media_status":"ready"},{"id":"13925775889","owner":"13796443@N05","secret":"901930c0e4","server":"2921","farm":3,"title":"El Alc\u00e1zar de Segovia","ispublic":1,"isfriend":0,"isfamily":0,"safe":0,"ownername":"osolev","latitude":40.954622,"longitude":-4.134378,"accuracy":"14","context":0,"place_id":"OdJPpwdWVb7JVzE","woeid":"774288","geo_is_family":0,"geo_is_friend":0,"geo_is_contact":0,"geo_is_public":1,"media":"photo","media_status":"ready"},{"id":"13922974160","owner":"93250327@N05","secret":"20dcdbfd5a","server":"7184","farm":8,"title":"Holland Park","ispublic":1,"isfriend":0,"isfamily":0,"safe":0,"ownername":"Patrizia Ilaria Sechi","latitude":51.507513,"longitude":-0.205821,"accuracy":"13","context":0,"place_id":"68bKWJ5SUr3SPQ","woeid":"30719","geo_is_family":0,"geo_is_friend":0,"geo_is_contact":0,"geo_is_public":1,"media":"photo","media_status":"ready"},{"id":"13919248717","owner":"71992351@N02","secret":"e989971844","server":"7060","farm":8,"title":"Col de la Bonette","ispublic":1,"isfriend":0,"isfamily":0,"safe":0,"ownername":"papy06200","latitude":44.332935,"longitude":6.813926,"accuracy":"11","context":0,"place_id":"ZUeuIcdUVbL7mRo","woeid":"578479","geo_is_family":0,"geo_is_friend":0,"geo_is_contact":0,"geo_is_public":1,"media":"photo","media_status":"ready"},{"id":"14095775644","owner":"66403925@N03","secret":"94a84e4b3f","server":"2922","farm":3,"title":"Sard\u00e3o, ocellated lizard(Timon lepidus) - em Liberdade [in Wild]","ispublic":1,"isfriend":0,"isfamily":0,"safe":0,"ownername":"ana & xavier (1.100.000 views - Obg \/ thanks)","latitude":41.513771,"longitude":-7.98602,"accuracy":"11","context":0,"place_id":"uhRpS.9WUb3tGr4","woeid":"737736","geo_is_family":0,"geo_is_friend":0,"geo_is_contact":0,"geo_is_public":1,"media":"photo","media_status":"ready"},{"id":"14071904196","owner":"37128339@N08","secret":"e4a47d7edf","server":"5272","farm":6,"title":"ATC_D4_II_00123","ispublic":1,"isfriend":0,"isfamily":0,"safe":0,"ownername":"giuliano_bianchini","latitude":44.451979,"longitude":10.317192,"accuracy":"13","context":0,"place_id":"OthGSFpTW7kF2MoAwQ","woeid":"29342893","geo_is_family":0,"geo_is_friend":0,"geo_is_contact":0,"geo_is_public":1,"media":"photo","media_status":"ready"},{"id":"14091511691","owner":"30120194@N02","secret":"86df53ef31","server":"7357","farm":8,"title":"Reader, Leh","ispublic":1,"isfriend":0,"isfamily":0,"safe":0,"ownername":"Marji Lang","latitude":34.152726,"longitude":77.486572,"accuracy":"12","context":0,"place_id":"9gBPz6FTULP.b1Kx","woeid":"2290496","geo_is_family":0,"geo_is_friend":0,"geo_is_contact":0,"geo_is_public":1,"media":"photo","media_status":"ready"},{"id":"14088046472","owner":"101109840@N06","secret":"3d07e13441","server":"2907","farm":3,"title":"Electrocuted by the look","ispublic":1,"isfriend":0,"isfamily":0,"safe":0,"ownername":"Brigante\uf8ff","latitude":45.46894,"longitude":9.18103,"accuracy":"11","context":0,"place_id":"49Gidk1WU7JxrFY","woeid":"718345","geo_is_family":0,"geo_is_friend":0,"geo_is_contact":0,"geo_is_public":1,"media":"photo","media_status":"ready"},{"id":"14087689405","owner":"90634379@N06","secret":"5e22323f54","server":"7325","farm":8,"title":"Your days will never be the same ...","ispublic":1,"isfriend":0,"isfamily":0,"safe":0,"ownername":"Lilian_Anadan","latitude":-23.56287,"longitude":-46.654659,"accuracy":"11","context":0,"place_id":"RANHF.pTUb7n07l1","woeid":"2344868","geo_is_family":0,"geo_is_friend":0,"geo_is_contact":0,"geo_is_public":1,"media":"photo","media_status":"ready"},{"id":"14107726833","owner":"79117486@N02","secret":"7114848049","server":"2927","farm":3,"title":"arriaga ( Bilbao ) ( con explore 2-5-2014 )","ispublic":1,"isfriend":0,"isfamily":0,"safe":0,"ownername":"haymartxo","latitude":43.264956,"longitude":-2.956695,"accuracy":"11","context":0,"place_id":"v0b7ga9WV745BHU","woeid":"754542","geo_is_family":0,"geo_is_friend":0,"geo_is_contact":0,"geo_is_public":1,"media":"photo","media_status":"ready"},{"id":"13900360458","owner":"90451570@N07","secret":"3093fd9bb4","server":"7210","farm":8,"title":"Ponte Vecchio by Night","ispublic":1,"isfriend":0,"isfamily":0,"safe":0,"ownername":"CarolynEaton","latitude":43.763159,"longitude":11.264162,"accuracy":"15","context":0,"place_id":"utNU8bNTUrsElznJGg","woeid":"20150268","geo_is_family":0,"geo_is_friend":0,"geo_is_contact":0,"geo_is_public":1,"media":"photo","media_status":"ready"},{"id":"14081862102","owner":"25959337@N00","secret":"48d215392c","server":"7447","farm":8,"title":"Frittsvevende \u00f8y i Hornindalsvatnet","ispublic":1,"isfriend":0,"isfamily":0,"safe":0,"ownername":"Martin Ystenes - celebrating 5 million views","latitude":61.934091,"longitude":6.40712,"accuracy":"11","context":0,"place_id":"EJ.77WZZV7N79Rk","woeid":"859940","geo_is_family":0,"geo_is_friend":0,"geo_is_contact":0,"geo_is_public":1,"media":"photo","media_status":"ready"},{"id":"13895993707","owner":"60527135@N02","secret":"1fd5ec0987","server":"7378","farm":8,"title":"Docile sguardo-meek look","ispublic":1,"isfriend":0,"isfamily":0,"safe":0,"ownername":"giuseppe1957","latitude":6.365219,"longitude":2.078098,"accuracy":"12","context":0,"place_id":"v0jpwUZQULwkQEN4","woeid":"1268321","geo_is_family":0,"geo_is_friend":0,"geo_is_contact":0,"geo_is_public":1,"media":"photo","media_status":"ready"},{"id":"13895816727","owner":"88420718@N03","secret":"b345672fbf","server":"2921","farm":3,"title":"chamomiles","ispublic":1,"isfriend":0,"isfamily":0,"safe":0,"ownername":"thequietguy","latitude":41.148672,"longitude":23.207244,"accuracy":"11","context":0,"place_id":"fxqZi19YV79Wso0","woeid":"955547","geo_is_family":0,"geo_is_friend":0,"geo_is_contact":0,"geo_is_public":1,"media":"photo","media_status":"ready"},{"id":"13895351079","owner":"85922898@N00","secret":"7ab0af9c9e","server":"5031","farm":6,"title":"ROB_1738","ispublic":1,"isfriend":0,"isfamily":0,"safe":0,"ownername":"Rob Hoey","latitude":45.31546,"longitude":-75.747642,"accuracy":"12","context":0,"place_id":"sZX1jLdUV7Kb4vufWQ","woeid":"55855917","geo_is_family":0,"geo_is_friend":0,"geo_is_contact":0,"geo_is_public":1,"media":"photo","media_status":"ready"},{"id":"14080412305","owner":"37842091@N08","secret":"0f4d012bf3","server":"7437","farm":8,"title":"Hipstamatic 124","ispublic":1,"isfriend":0,"isfamily":0,"safe":0,"ownername":"Richard Pilon","latitude":45.399716,"longitude":-75.732036,"accuracy":"16","context":0,"place_id":"YsiddjxUV7J038xfCA","woeid":"55855947","geo_is_family":0,"geo_is_friend":0,"geo_is_contact":0,"geo_is_public":1,"media":"photo","media_status":"ready"},{"id":"14080713164","owner":"50027776@N05","secret":"546a5245f5","server":"5072","farm":6,"title":"arriva la pioggia","ispublic":1,"isfriend":0,"isfamily":0,"safe":0,"ownername":"Luigi Alesi","latitude":43.234197,"longitude":13.264274,"accuracy":"12","context":0,"place_id":"nD7VIBpTW7nkfQoz2A","woeid":"29337609","geo_is_family":0,"geo_is_friend":0,"geo_is_contact":0,"geo_is_public":1,"media":"photo","media_status":"ready"},{"id":"13893186049","owner":"37708438@N05","secret":"ae726f921a","server":"5117","farm":6,"title":"SEEKING SHELTER (distant church)","ispublic":1,"isfriend":0,"isfamily":0,"safe":0,"ownername":"kenny barker","latitude":56.029087,"longitude":-3.832855,"accuracy":"11","context":0,"place_id":"HZ280wZTV7L1Qg","woeid":"25842","geo_is_family":0,"geo_is_friend":0,"geo_is_contact":0,"geo_is_public":1,"media":"photo","media_status":"ready"},{"id":"14076155712","owner":"100139134@N03","secret":"a930214070","server":"2917","farm":3,"title":"Par\u00eds Paris Parigi \u041f\u0430\u0440\u0438\u0436","ispublic":1,"isfriend":0,"isfamily":0,"safe":0,"ownername":"Jes\u00fas 56","latitude":48.863726,"longitude":2.313534,"accuracy":"16","context":0,"place_id":"WU8qo85UV7J7dLZuCw","woeid":"55843784","geo_is_family":0,"geo_is_friend":0,"geo_is_contact":0,"geo_is_public":1,"media":"photo","media_status":"ready"},{"id":"14079512434","owner":"37486507@N06","secret":"9cb670f7a7","server":"2918","farm":3,"title":"Fede \/ Faith","ispublic":1,"isfriend":0,"isfamily":0,"safe":0,"ownername":"AndreaPucci","latitude":51.518937,"longitude":-0.099467,"accuracy":"16","context":0,"place_id":"wg6yQ.FTUrrXfBaklw","woeid":"20094345","geo_is_family":0,"geo_is_friend":0,"geo_is_contact":0,"geo_is_public":1,"media":"photo","media_status":"ready"},{"id":"13892394030","owner":"75363214@N00","secret":"23ed3b77cc","server":"7363","farm":8,"title":"basilica cistern","ispublic":1,"isfriend":0,"isfamily":0,"safe":0,"ownername":"Ron Layters","latitude":41.008358,"longitude":28.977995,"accuracy":"16","context":0,"place_id":"zzzdFT1TUL2cSWTcDw","woeid":"22724020","geo_is_family":0,"geo_is_friend":0,"geo_is_contact":0,"geo_is_public":1,"media":"photo","media_status":"ready"},{"id":"14055026246","owner":"92981517@N03","secret":"96f32f6243","server":"2903","farm":3,"title":"Water and Wood III","ispublic":1,"isfriend":0,"isfamily":0,"safe":0,"ownername":"dono heneman","latitude":47.066268,"longitude":-2.00727,"accuracy":"11","context":0,"place_id":"cTXdcktXUry6LCY","woeid":"606972","geo_is_family":0,"geo_is_friend":0,"geo_is_contact":0,"geo_is_public":1,"media":"photo","media_status":"ready"},{"id":"14052870276","owner":"41944783@N08","secret":"39cc3e0908","server":"2929","farm":3,"title":"Lomellina...","ispublic":1,"isfriend":0,"isfamily":0,"safe":0,"ownername":"gabri58","latitude":45.657581,"longitude":9.9636,"accuracy":"5","context":0,"place_id":"GuxuuU5WU78KYF2H","woeid":"7153338","geo_is_family":0,"geo_is_friend":0,"geo_is_contact":0,"geo_is_public":1,"media":"photo","media_status":"ready"},{"id":"14095047013","owner":"53447837@N02","secret":"e5109b583d","server":"7414","farm":8,"title":"About morning","ispublic":1,"isfriend":0,"isfamily":0,"safe":0,"ownername":"\u25c4federica","latitude":41.915563,"longitude":12.573852,"accuracy":"9","context":0,"place_id":"uijRnjBWULsQTwc","woeid":"721943","geo_is_family":0,"geo_is_friend":0,"geo_is_contact":0,"geo_is_public":1,"media":"photo","media_status":"ready"},{"id":"13886481459","owner":"72738192@N00","secret":"5453e74bda","server":"2928","farm":3,"title":"N O U G A T. Tanger","ispublic":1,"isfriend":0,"isfamily":0,"safe":0,"ownername":"Claude Renault Photography","latitude":35.779106,"longitude":-5.805759,"accuracy":"12","context":0,"place_id":"SAITwsVQV75.SC2Z","woeid":"1540935","geo_is_family":0,"geo_is_friend":0,"geo_is_contact":0,"geo_is_public":1,"media":"photo","media_status":"ready"}]},"stat":"ok"}