{"photos":{"page":42,"pages":26686,"perpage":60,"total":"1601103","photo":[{"id":"14211402673","owner":"60271274@N05","secret":"3cc4ce46b0","server":"7455","farm":8,"title":"Madrid, San Isidro, desde Tres Cantos (ValdelosHielos)","ispublic":1,"isfriend":0,"isfamily":0,"safe":0,"ownername":"Ignacio Garc\u00eda Losa","latitude":40.593816,"longitude":-3.72694,"accuracy":"14","context":0,"place_id":"g4SsC2VWVbMs6LA","woeid":"779234","geo_is_family":0,"geo_is_friend":0,"geo_is_contact":0,"geo_is_public":1,"media":"photo","media_status":"ready"},{"id":"14188231202","owner":"24355450@N07","secret":"8fae660927","server":"7384","farm":8,"title":"A View to the Fannaichs.","ispublic":1,"isfriend":0,"isfamily":0,"safe":0,"ownername":"Gordie Broon.","latitude":57.757945,"longitude":-5.110273,"accuracy":"13","context":0,"place_id":"ENS1kABQW7J86A","woeid":"19844","geo_is_family":0,"geo_is_friend":0,"geo_is_contact":0,"geo_is_public":1,"media":"photo","media_status":"ready"},{"id":"14003672027","owner":"85081332@N00","secret":"492d4d4ab6","server":"2931","farm":3,"title":"Dome of the Rock","ispublic":1,"isfriend":0,"isfamily":0,"safe":0,"ownername":"pe_ha45","latitude":31.77643,"longitude":35.234291,"accuracy":"16","context":0,"place_id":"ALrZDl9TUL2PvWFW7w","woeid":"22724638","geo_is_family":0,"geo_is_friend":0,"geo_is_contact":0,"geo_is_public":1,"media":"photo","media_status":"ready"},{"id":"14189853494","owner":"46267286@N07","secret":"e4ae12d6bd","server":"7414","farm":8,"title":"Buildings Can Be Sexy - London City Architecture","ispublic":1,"isfriend":0,"isfamily":0,"safe":0,"ownername":"Simon & His Camera","latitude":51.517095,"longitude":-0.094799,"accuracy":"16","context":0,"place_id":"XxPnneBTUrrIKpSkLw","woeid":"20094330","geo_is_family":0,"geo_is_friend":0,"geo_is_contact":0,"geo_is_public":1,"media":"photo","media_status":"ready"},{"id":"14002239240","owner":"41558538@N02","secret":"4e14e64ce4","server":"2919","farm":3,"title":"Flatiron Building","ispublic":1,"isfriend":0,"isfamily":0,"safe":0,"ownername":"vampire-carmen","latitude":40.741339,"longitude":-73.989497,"accuracy":"16","context":0,"place_id":"reA9WOJTWr13XtAqxw","woeid":"28751245","geo_is_family":0,"geo_is_friend":0,"geo_is_contact":0,"geo_is_public":1,"media":"photo","media_status":"ready"},{"id":"14206152653","owner":"76458369@N07","secret":"76c8918c29","server":"2901","farm":3,"title":"","ispublic":1,"isfriend":0,"isfamily":0,"safe":0,"ownername":"Eric Goncalves","latitude":51.735427,"longitude":-2.623157,"accuracy":"12","context":0,"place_id":"krp3FyBTVb1kKg","woeid":"27758","geo_is_family":0,"geo_is_friend":0,"geo_is_contact":0,"geo_is_public":1,"media":"photo","media_status":"ready"},{"id":"14185830334","owner":"88795127@N02","secret":"1e2ca89af2","server":"5473","farm":6,"title":"La passante...","ispublic":1,"isfriend":0,"isfamily":0,"safe":0,"ownername":"LPiH","latitude":48.580014,"longitude":7.740898,"accuracy":"11","context":0,"place_id":"8Xzz5ldXUL2QTnc","woeid":"627791","geo_is_family":0,"geo_is_friend":0,"geo_is_contact":0,"geo_is_public":1,"media":"photo","media_status":"ready"},{"id":"14185002084","owner":"92375404@N08","secret":"7632d2a161","server":"5569","farm":6,"title":"Ev. Kirche in Bornhagen","ispublic":1,"isfriend":0,"isfamily":0,"safe":0,"ownername":"tobias142","latitude":51.34174,"longitude":9.939946,"accuracy":"16","context":0,"place_id":"qUA7Bk9XVrqiGqg","woeid":"640329","geo_is_family":0,"geo_is_friend":0,"geo_is_contact":0,"geo_is_public":1,"media":"photo","media_status":"ready"},{"id":"13996176319","owner":"92981517@N03","secret":"8226bc256d","server":"7432","farm":8,"title":"Le grand dauphin","ispublic":1,"isfriend":0,"isfamily":0,"safe":0,"ownername":"dono heneman","latitude":47.133689,"longitude":-1.74861,"accuracy":"11","context":0,"place_id":"YSswJ5hXU716AxM","woeid":"617565","geo_is_family":0,"geo_is_friend":0,"geo_is_contact":0,"geo_is_public":1,"media":"photo","media_status":"ready"},{"id":"13993971068","owner":"14442041@N04","secret":"dc740e9465","server":"7412","farm":8,"title":"Praia Vermelha at Night","ispublic":1,"isfriend":0,"isfamily":0,"safe":0,"ownername":"Quasebart","latitude":-22.956259,"longitude":-43.164768,"accuracy":"15","context":0,"place_id":"GwL_fJtUV7PaGgGV5w","woeid":"55944518","geo_is_family":0,"geo_is_friend":0,"geo_is_contact":0,"geo_is_public":1,"media":"photo","media_status":"ready"},{"id":"14175377322","owner":"49733424@N02","secret":"55ae915160","server":"7454","farm":8,"title":"Outono em Paris","ispublic":1,"isfriend":0,"isfamily":0,"safe":0,"ownername":"Gilda Tonello","latitude":48.853641,"longitude":2.301637,"accuracy":"13","context":0,"place_id":"EsIQUYZXU79_kEA","woeid":"615702","geo_is_family":0,"geo_is_friend":0,"geo_is_contact":0,"geo_is_public":1,"media":"photo","media_status":"ready"},{"id":"14177822885","owner":"87649553@N02","secret":"31b95ffe61","server":"2931","farm":3,"title":"Atlantic Horizon","ispublic":1,"isfriend":0,"isfamily":0,"safe":0,"ownername":"goat1412","latitude":49.436347,"longitude":-2.667059,"accuracy":"15","context":0,"place_id":"p4NYSLtUUbJhhTY","woeid":"538501","geo_is_family":0,"geo_is_friend":0,"geo_is_contact":0,"geo_is_public":1,"media":"photo","media_status":"ready"},{"id":"14197271293","owner":"29826595@N06","secret":"ae62fa76cc","server":"7357","farm":8,"title":"Eurasian Coot","ispublic":1,"isfriend":0,"isfamily":0,"safe":0,"ownername":"themadbirdlady - anne cotton","latitude":56.14507,"longitude":-3.916539,"accuracy":"15","context":0,"place_id":"bsT1sf1SVLtSyw","woeid":"36136","geo_is_family":0,"geo_is_friend":0,"geo_is_contact":0,"geo_is_public":1,"media":"photo","media_status":"ready"},{"id":"14172566251","owner":"92981517@N03","secret":"e44a898d97","server":"5537","farm":6,"title":"Iguanidae","ispublic":1,"isfriend":0,"isfamily":0,"safe":0,"ownername":"dono heneman","latitude":47.133689,"longitude":-1.74861,"accuracy":"11","context":0,"place_id":"YSswJ5hXU716AxM","woeid":"617565","geo_is_family":0,"geo_is_friend":0,"geo_is_contact":0,"geo_is_public":1,"media":"photo","media_status":"ready"},{"id":"13988955449","owner":"29826595@N06","secret":"16275d3f9c","server":"7326","farm":8,"title":"Meadow Pipit","ispublic":1,"isfriend":0,"isfamily":0,"safe":0,"ownername":"themadbirdlady - anne cotton","latitude":56.066022,"longitude":-3.743634,"accuracy":"14","context":0,"place_id":"10VqgUJQUr6L0w","woeid":"10495","geo_is_family":0,"geo_is_friend":0,"geo_is_contact":0,"geo_is_public":1,"media":"photo","media_status":"ready"},{"id":"14173202074","owner":"11746711@N08","secret":"c25365ddf0","server":"7365","farm":8,"title":"New York City | George Washington Bridge | 05\/09\/2014","ispublic":1,"isfriend":0,"isfamily":0,"safe":0,"ownername":"mudpig","latitude":40.851803,"longitude":-73.941904,"accuracy":"16","context":0,"place_id":"Owu2KwtTV7sMYK3l","woeid":"2514888","geo_is_family":0,"geo_is_friend":0,"geo_is_contact":0,"geo_is_public":1,"media":"photo","media_status":"ready"},{"id":"14167934621","owner":"42985099@N03","secret":"7f90e786ce","server":"7418","farm":8,"title":"~Tenthredo sp.~","ispublic":1,"isfriend":0,"isfamily":0,"safe":0,"ownername":"Eddie The Bugman","latitude":52.914,"longitude":-1.153929,"accuracy":"16","context":0,"place_id":"n10fnYdVUr8n3g","woeid":"40524","geo_is_family":0,"geo_is_friend":0,"geo_is_contact":0,"geo_is_public":1,"media":"photo","media_status":"ready"},{"id":"13982584560","owner":"94579059@N05","secret":"51ebbc29c9","server":"7384","farm":8,"title":"Tubes \/ Pipes","ispublic":1,"isfriend":0,"isfamily":0,"safe":0,"ownername":"m43photos","latitude":48.860628,"longitude":2.35323,"accuracy":"16","context":0,"place_id":"GPoA4aBUV7LCk1SJeQ","woeid":"55843763","geo_is_family":0,"geo_is_friend":0,"geo_is_contact":0,"geo_is_public":1,"media":"photo","media_status":"ready"},{"id":"14165596201","owner":"81035653@N00","secret":"eef5ebcd15","server":"5570","farm":6,"title":"The Netherland\u2019s biggest celebration","ispublic":1,"isfriend":0,"isfamily":0,"safe":0,"ownername":"B\u212en","latitude":52.370161,"longitude":4.883015,"accuracy":"16","context":0,"place_id":"xfcEFYhWULKtjYI","woeid":"728410","geo_is_family":0,"geo_is_friend":0,"geo_is_contact":0,"geo_is_public":1,"media":"photo","media_status":"ready"},{"id":"14188688173","owner":"34096574@N06","secret":"5bfd254b54","server":"2901","farm":3,"title":"Venice : Rio de le Muneghete \/ Rio San Pantalon","ispublic":1,"isfriend":0,"isfamily":0,"safe":0,"ownername":"Pantchoa","latitude":45.436625,"longitude":12.324783,"accuracy":"16","context":0,"place_id":"qyV161RTUruqVTuLuQ","woeid":"20150614","geo_is_family":0,"geo_is_friend":0,"geo_is_contact":0,"geo_is_public":1,"media":"photo","media_status":"ready"},{"id":"14164960242","owner":"35207242@N02","secret":"bb28ca1304","server":"7412","farm":8,"title":"Elisa Pagano","ispublic":1,"isfriend":0,"isfamily":0,"safe":0,"ownername":"Merlindino","latitude":43.845345,"longitude":11.37557,"accuracy":"16","context":0,"place_id":"5AS7G_dWU7Lsvgg","woeid":"718503","geo_is_family":0,"geo_is_friend":0,"geo_is_contact":0,"geo_is_public":1,"media":"photo","media_status":"ready"},{"id":"14162914574","owner":"43467227@N08","secret":"75d915de2a","server":"7384","farm":8,"title":"a little break","ispublic":1,"isfriend":0,"isfamily":0,"safe":0,"ownername":"nicolasheinzelmann","latitude":46.947215,"longitude":7.436199,"accuracy":"13","context":0,"place_id":"BU2qIP1WWrmUCWM","woeid":"783269","geo_is_family":0,"geo_is_friend":0,"geo_is_contact":0,"geo_is_public":1,"media":"photo","media_status":"ready"},{"id":"13976037807","owner":"22733326@N08","secret":"4bbc1267a4","server":"5072","farm":6,"title":"temps de roselles","ispublic":1,"isfriend":0,"isfamily":0,"safe":0,"ownername":"dolors ayxendri","latitude":41.531921,"longitude":1.19684,"accuracy":"11","context":0,"place_id":"IZyzOuZWVLOnj7Y","woeid":"769556","geo_is_family":0,"geo_is_friend":0,"geo_is_contact":0,"geo_is_public":1,"media":"photo","media_status":"ready"},{"id":"14181135733","owner":"59870440@N08","secret":"153e46c8d2","server":"5109","farm":6,"title":"Freighter boats rushing for Suez Canal, Red Sea, Egypt","ispublic":1,"isfriend":0,"isfamily":0,"safe":0,"ownername":"Alex_Saurel","latitude":28.863091,"longitude":32.94156,"accuracy":"16","context":0,"place_id":"tGOD3NdTUb4.aiUg","woeid":"2345247","geo_is_family":0,"geo_is_friend":0,"geo_is_contact":0,"geo_is_public":1,"media":"photo","media_status":"ready"},{"id":"14159614295","owner":"66644631@N05","secret":"e1216c6440","server":"7446","farm":8,"title":"Versailles castle","ispublic":1,"isfriend":0,"isfamily":0,"safe":0,"ownername":"jmlpyt","latitude":48.806609,"longitude":2.112958,"accuracy":"15","context":0,"place_id":"RtpMgPNXUbrqF08","woeid":"630908","geo_is_family":0,"geo_is_friend":0,"geo_is_contact":0,"geo_is_public":1,"media":"photo","media_status":"ready"},{"id":"14157393055","owner":"34096574@N06","secret":"9ee1349257","server":"2915","farm":3,"title":"Venice : Campo Dei Frari \/ Rio del Frari \/ At sunset","ispublic":1,"isfriend":0,"isfamily":0,"safe":0,"ownername":"Pantchoa","latitude":45.437052,"longitude":12.327316,"accuracy":"16","context":0,"place_id":"qyV161RTUruqVTuLuQ","woeid":"20150614","geo_is_family":0,"geo_is_friend":0,"geo_is_contact":0,"geo_is_public":1,"media":"photo","media_status":"ready"},{"id":"13968914989","owner":"43917849@N08","secret":"9204c20392","server":"7445","farm":8,"title":"Kvadratur i kvadrat.","ispublic":1,"isfriend":0,"isfamily":0,"safe":0,"ownername":"Dirigentens","latitude":57.692818,"longitude":11.933641,"accuracy":"15","context":0,"place_id":"BUJhIudTUrurq7d5ng","woeid":"20151366","geo_is_family":0,"geo_is_friend":0,"geo_is_contact":0,"geo_is_public":1,"media":"photo","media_status":"ready"},{"id":"13965400509","owner":"42108906@N04","secret":"dca4e33259","server":"5074","farm":6,"title":"MIlano vecchia e nuova","ispublic":1,"isfriend":0,"isfamily":0,"safe":0,"ownername":"Fil.ippo","latitude":45.485725,"longitude":9.191801,"accuracy":"16","context":0,"place_id":"49Gidk1WU7JxrFY","woeid":"718345","geo_is_family":0,"geo_is_friend":0,"geo_is_contact":0,"geo_is_public":1,"media":"photo","media_status":"ready"},{"id":"13963840057","owner":"52735684@N07","secret":"5c07786677","server":"5526","farm":6,"title":"Venedig - 09051401","ispublic":1,"isfriend":0,"isfamily":0,"safe":0,"ownername":"Klaus Kehrls","latitude":45.437986,"longitude":12.335994,"accuracy":"16","context":0,"place_id":"qyV161RTUruqVTuLuQ","woeid":"20150614","geo_is_family":0,"geo_is_friend":0,"geo_is_contact":0,"geo_is_public":1,"media":"photo","media_status":"ready"},{"id":"14146841312","owner":"59852454@N03","secret":"84f70855a6","server":"2921","farm":3,"title":"This Is A Caravan","ispublic":1,"isfriend":0,"isfamily":0,"safe":0,"ownername":"Pavel P.","latitude":49.845978,"longitude":18.266993,"accuracy":"16","context":0,"place_id":"IXEXJcZWW7yT6Jk","woeid":"796798","geo_is_family":0,"geo_is_friend":0,"geo_is_contact":0,"geo_is_public":1,"media":"photo","media_status":"ready"},{"id":"14168516103","owner":"44296911@N03","secret":"ac136cface","server":"2913","farm":3,"title":"Grand Central Terminal","ispublic":1,"isfriend":0,"isfamily":0,"safe":0,"ownername":"Rafakoy","latitude":40.75089,"longitude":-73.978629,"accuracy":"16","context":0,"place_id":"96sb7fdTWr18qKQRBg","woeid":"28751381","geo_is_family":0,"geo_is_friend":0,"geo_is_contact":0,"geo_is_public":1,"media":"photo","media_status":"ready"},{"id":"14143260062","owner":"72738192@N00","secret":"9212f31534","server":"2934","farm":3,"title":"C A T S. Meknes","ispublic":1,"isfriend":0,"isfamily":0,"safe":0,"ownername":"Claude Renault Photography","latitude":33.882814,"longitude":-5.56672,"accuracy":"13","context":0,"place_id":"u_BZm.FQV7l66_Re","woeid":"1537862","geo_is_family":0,"geo_is_friend":0,"geo_is_contact":0,"geo_is_public":1,"media":"photo","media_status":"ready"},{"id":"13959469510","owner":"44161305@N02","secret":"f7c37c0cd9","server":"7305","farm":8,"title":"147 Mothia, Sicily","ispublic":1,"isfriend":0,"isfamily":0,"safe":0,"ownername":"tango-","latitude":37.884405,"longitude":12.471542,"accuracy":"13","context":0,"place_id":"xBURoUJWU7tAde0","woeid":"711004","geo_is_family":0,"geo_is_friend":0,"geo_is_contact":0,"geo_is_public":1,"media":"photo","media_status":"ready"},{"id":"14165698973","owner":"49036575@N02","secret":"df688b9d1c","server":"7395","farm":8,"title":"Cimeti\u00e8re du P\u00e8re-Lachaise","ispublic":1,"isfriend":0,"isfamily":0,"safe":0,"ownername":"Zed The Dragon","latitude":48.860691,"longitude":2.393066,"accuracy":"15","context":0,"place_id":"UjUTilJUV7Ldbl3sGg","woeid":"55843868","geo_is_family":0,"geo_is_friend":0,"geo_is_contact":0,"geo_is_public":1,"media":"photo","media_status":"ready"},{"id":"14144761514","owner":"38084843@N00","secret":"7389cda78a","server":"7349","farm":8,"title":"Il colibr\u00ec.  The hummingbird.","ispublic":1,"isfriend":0,"isfamily":0,"safe":0,"ownername":"neera*","latitude":45.223584,"longitude":9.225597,"accuracy":"13","context":0,"place_id":"u26XRWhTUru1UK5o_g","woeid":"20142187","geo_is_family":0,"geo_is_friend":0,"geo_is_contact":0,"geo_is_public":1,"media":"photo","media_status":"ready"},{"id":"13951316310","owner":"112711738@N06","secret":"f0ba1b173f","server":"7440","farm":8,"title":"Way To The Sirens II.","ispublic":1,"isfriend":0,"isfamily":0,"safe":0,"ownername":"dasanes77","latitude":36.722209,"longitude":-2.192159,"accuracy":"11","context":0,"place_id":"SW3.oBBTULzVYAHv4w","woeid":"22661164","geo_is_family":0,"geo_is_friend":0,"geo_is_contact":0,"geo_is_public":1,"media":"photo","media_status":"ready"},{"id":"14133479621","owner":"59870440@N08","secret":"c8dccb694d","server":"7439","farm":8,"title":"Marine officer roasting a pig on the deck of a freighter boat, Indian Ocean","ispublic":1,"isfriend":0,"isfamily":0,"safe":0,"ownername":"Alex_Saurel","latitude":5.559948,"longitude":84.948863,"accuracy":"16","context":0,"geo_is_family":0,"geo_is_friend":0,"geo_is_contact":0,"geo_is_public":1,"media":"photo","media_status":"ready"},{"id":"13949386387","owner":"23305744@N02","secret":"53da22dfe8","server":"2916","farm":3,"title":"GOLFO DI BARATTI!!","ispublic":1,"isfriend":0,"isfamily":0,"safe":0,"ownername":"Roberto.mac.","latitude":42.99221,"longitude":10.50018,"accuracy":"11","context":0,"place_id":"f610In1TUruYk8ZD.A","woeid":"20105332","geo_is_family":0,"geo_is_friend":0,"geo_is_contact":0,"geo_is_public":1,"media":"photo","media_status":"ready"},{"id":"14112454406","owner":"44161305@N02","secret":"1678e6967f","server":"2914","farm":3,"title":"Scala dei Turchi, Realmonte, Sicily  089","ispublic":1,"isfriend":0,"isfamily":0,"safe":0,"ownername":"tango-","latitude":37.290852,"longitude":13.499965,"accuracy":"12","context":0,"place_id":"HIhTngdTUrtJfTKaaA","woeid":"20138636","geo_is_family":0,"geo_is_friend":0,"geo_is_contact":0,"geo_is_public":1,"media":"photo","media_status":"ready"},{"id":"14130436622","owner":"65949682@N00","secret":"12db8415d2","server":"7331","farm":8,"title":"a little corner of heaven","ispublic":1,"isfriend":0,"isfamily":0,"safe":0,"ownername":"OR_U","latitude":51.562083,"longitude":-2.66692,"accuracy":"16","context":0,"place_id":"UWe2f9pSVr4RHQ","woeid":"34400","geo_is_family":0,"geo_is_friend":0,"geo_is_contact":0,"geo_is_public":1,"media":"photo","media_status":"ready"},{"id":"13945864027","owner":"31769332@N04","secret":"dc023b1613","server":"2899","farm":3,"title":"Sospesa nel verde - Suspended in green (Tuscany, Italy)","ispublic":1,"isfriend":0,"isfamily":0,"safe":0,"ownername":"ricsen","latitude":43.304694,"longitude":11.544577,"accuracy":"11","context":0,"place_id":"WRv3ObdTUrs8ox5KyA","woeid":"20146003","geo_is_family":0,"geo_is_friend":0,"geo_is_contact":0,"geo_is_public":1,"media":"photo","media_status":"ready"},{"id":"14107605226","owner":"87649553@N02","secret":"8b0a6a50fa","server":"7419","farm":8,"title":"Pink and Blue","ispublic":1,"isfriend":0,"isfamily":0,"safe":0,"ownername":"goat1412","latitude":49.465446,"longitude":-2.61217,"accuracy":"15","context":0,"place_id":"gRbpIa9TUr3Su_Kb6g","woeid":"20700956","geo_is_family":0,"geo_is_friend":0,"geo_is_contact":0,"geo_is_public":1,"media":"photo","media_status":"ready"},{"id":"14107206976","owner":"112711738@N06","secret":"51974b6a10","server":"5564","farm":6,"title":"Songs Of Sirens II.","ispublic":1,"isfriend":0,"isfamily":0,"safe":0,"ownername":"dasanes77","latitude":36.722209,"longitude":-2.192159,"accuracy":"11","context":0,"place_id":"SW3.oBBTULzVYAHv4w","woeid":"22661164","geo_is_family":0,"geo_is_friend":0,"geo_is_contact":0,"geo_is_public":1,"media":"photo","media_status":"ready"},{"id":"14126513762","owner":"74582320@N00","secret":"c7553ed803","server":"5499","farm":6,"title":"EuroMaidan volunteers 11-393","ispublic":1,"isfriend":0,"isfamily":0,"safe":0,"ownername":"Mark Estabrook","latitude":50.441379,"longitude":30.522489,"accuracy":"11","context":0,"place_id":"5I6w0q5YUL586B8","woeid":"924938","geo_is_family":0,"geo_is_friend":0,"geo_is_contact":0,"geo_is_public":1,"media":"photo","media_status":"ready"},{"id":"14125215042","owner":"90378082@N07","secret":"b007f30a6f","server":"7424","farm":8,"title":"The wild bunch","ispublic":1,"isfriend":0,"isfamily":0,"safe":0,"ownername":"Baz 120","latitude":41.898443,"longitude":12.475898,"accuracy":"15","context":0,"place_id":"FphPyURWU7ux6h4","woeid":"711883","geo_is_family":0,"geo_is_friend":0,"geo_is_contact":0,"geo_is_public":1,"media":"photo","media_status":"ready"},{"id":"14125204312","owner":"90378082@N07","secret":"17c4005eb3","server":"7345","farm":8,"title":"Stunned by my good looks!!!!!","ispublic":1,"isfriend":0,"isfamily":0,"safe":0,"ownername":"Baz 120","latitude":41.896175,"longitude":12.480168,"accuracy":"15","context":0,"place_id":"FphPyURWU7ux6h4","woeid":"711883","geo_is_family":0,"geo_is_friend":0,"geo_is_contact":0,"geo_is_public":1,"media":"photo","media_status":"ready"},{"id":"14103025126","owner":"87317128@N08","secret":"21599c336b","server":"7347","farm":8,"title":"Beachy Head UK","ispublic":1,"isfriend":0,"isfamily":0,"safe":0,"ownername":"Pu\u00e9rtolas","latitude":50.736781,"longitude":0.249531,"accuracy":"15","context":0,"place_id":"AA8cnOZQULuLsQ","woeid":"12129","geo_is_family":0,"geo_is_friend":0,"geo_is_contact":0,"geo_is_public":1,"media":"photo","media_status":"ready"},{"id":"14101981376","owner":"91902221@N04","secret":"b95b330a0a","server":"7382","farm":8,"title":"last of a dying breed - the record shop customer","ispublic":1,"isfriend":0,"isfamily":0,"safe":0,"ownername":"Dan_W8","latitude":51.51104,"longitude":-0.197444,"accuracy":"16","context":0,"place_id":"5gi.YyFTUrrz6xjYig","woeid":"20089541","geo_is_family":0,"geo_is_friend":0,"geo_is_contact":0,"geo_is_public":1,"media":"photo","media_status":"ready"},{"id":"13937142130","owner":"101109840@N06","secret":"fcdb25963a","server":"2940","farm":3,"title":"Objective identified","ispublic":1,"isfriend":0,"isfamily":0,"safe":0,"ownername":"Brigante\uf8ff","latitude":45.46894,"longitude":9.18103,"accuracy":"11","context":0,"place_id":"49Gidk1WU7JxrFY","woeid":"718345","geo_is_family":0,"geo_is_friend":0,"geo_is_contact":0,"geo_is_public":1,"media":"photo","media_status":"ready"},{"id":"14123750075","owner":"50879678@N03","secret":"21daeae5cb","server":"5236","farm":6,"title":"Eilean Donan, loch Duich, Wester Ross, Highland, Ecosse, Grande-Bretagne, Royaume-Uni.","ispublic":1,"isfriend":0,"isfamily":0,"safe":0,"ownername":"byb64","latitude":57.27431,"longitude":-5.517196,"accuracy":"13","context":0,"place_id":"cIqu7CBQWrkndQ","woeid":"18345","geo_is_family":0,"geo_is_friend":0,"geo_is_contact":0,"geo_is_public":1,"media":"photo","media_status":"ready"},{"id":"14120109052","owner":"87649553@N02","secret":"5feb590a7f","server":"7302","farm":8,"title":"Tidal Surge","ispublic":1,"isfriend":0,"isfamily":0,"safe":0,"ownername":"goat1412","latitude":49.485942,"longitude":-2.588481,"accuracy":"15","context":0,"place_id":"OhX1PUtUUbJ8k_c","woeid":"538468","geo_is_family":0,"geo_is_friend":0,"geo_is_contact":0,"geo_is_public":1,"media":"photo","media_status":"ready"},{"id":"13934789269","owner":"44161305@N02","secret":"b4e4b905b2","server":"5471","farm":6,"title":"Sciacca, Sicily.  May 2014 154 (2)","ispublic":1,"isfriend":0,"isfamily":0,"safe":0,"ownername":"tango-","latitude":37.503325,"longitude":13.079738,"accuracy":"14","context":0,"place_id":"RXkhnPhWULlZY5k","woeid":"723897","geo_is_family":0,"geo_is_friend":0,"geo_is_contact":0,"geo_is_public":1,"media":"photo","media_status":"ready"},{"id":"14117674891","owner":"63947271@N06","secret":"a1cebb2b0c","server":"2902","farm":3,"title":"Sherwood","ispublic":1,"isfriend":0,"isfamily":0,"safe":0,"ownername":"S l a w e k","latitude":51.039127,"longitude":-0.294399,"accuracy":"12","context":0,"place_id":"8Lps9EtTUbP.uw","woeid":"23945","geo_is_family":0,"geo_is_friend":0,"geo_is_contact":0,"geo_is_public":1,"media":"photo","media_status":"ready"},{"id":"14120851444","owner":"34096574@N06","secret":"98a31763d0","server":"7332","farm":8,"title":"Venice : Ponte Madonna dell'Orto \/ Fondamenta Mori  \/ 2\/2","ispublic":1,"isfriend":0,"isfamily":0,"safe":0,"ownername":"Pantchoa","latitude":45.445297,"longitude":12.33225,"accuracy":"16","context":0,"place_id":"EzRUzuJTUrtWx_W.dw","woeid":"20150612","geo_is_family":0,"geo_is_friend":0,"geo_is_contact":0,"geo_is_public":1,"media":"photo","media_status":"ready"},{"id":"14114508212","owner":"64110713@N05","secret":"f23a9f1c43","server":"5489","farm":6,"title":"Ivo #11 100 Strangers","ispublic":1,"isfriend":0,"isfamily":0,"safe":0,"ownername":"Just Ard","latitude":52.271111,"longitude":4.546505,"accuracy":"16","context":0,"place_id":"YIcvpsNWUbvQJDc","woeid":"731349","geo_is_family":0,"geo_is_friend":0,"geo_is_contact":0,"geo_is_public":1,"media":"photo","media_status":"ready"},{"id":"13929623588","owner":"42985099@N03","secret":"830ccc2b77","server":"2938","farm":3,"title":"~Entomophthora muscae~","ispublic":1,"isfriend":0,"isfamily":0,"safe":0,"ownername":"Eddie The Bugman","latitude":52.91444,"longitude":-1.152963,"accuracy":"15","context":0,"place_id":"n10fnYdVUr8n3g","woeid":"40524","geo_is_family":0,"geo_is_friend":0,"geo_is_contact":0,"geo_is_public":1,"media":"photo","media_status":"ready"},{"id":"14090221716","owner":"92361032@N05","secret":"b8d096132e","server":"5519","farm":6,"title":"Pic macul\u00e9 Yellow-bellied sapsucker (male )","ispublic":1,"isfriend":0,"isfamily":0,"safe":0,"ownername":"ricketdi","latitude":45.664531,"longitude":-75.732719,"accuracy":"11","context":0,"place_id":"PJA_PPlTUbkCiDhbxg","woeid":"23396671","geo_is_family":0,"geo_is_friend":0,"geo_is_contact":0,"geo_is_public":1,"media":"photo","media_status":"ready"},{"id":"14133175573","owner":"72339619@N05","secret":"5f10c6ca02","server":"5451","farm":6,"title":"Silent embrace of an intriguing feeling","ispublic":1,"isfriend":0,"isfamily":0,"safe":0,"ownername":"doniflo","latitude":41.025477,"longitude":28.971616,"accuracy":"11","context":0,"place_id":"l02DEdJTUb5XGlLZ","woeid":"2344116","geo_is_family":0,"geo_is_friend":0,"geo_is_contact":0,"geo_is_public":1,"media":"photo","media_status":"ready"},{"id":"13925879598","owner":"22543235@N05","secret":"ecd698bfc3","server":"5237","farm":6,"title":"Connemara's Charm","ispublic":1,"isfriend":0,"isfamily":0,"safe":0,"ownername":"Gareth Wray Photography -Thanks = 1.5 Million Hits","latitude":53.505522,"longitude":-9.462312,"accuracy":"16","context":0,"place_id":"oas5RCBTUrpp3DkS3g","woeid":"20072403","geo_is_family":0,"geo_is_friend":0,"geo_is_contact":0,"geo_is_public":1,"media":"photo","media_status":"ready"},{"id":"13925034757","owner":"46267286@N07","secret":"42c31b6fc6","server":"7367","farm":8,"title":"Escape - London City Office Life","ispublic":1,"isfriend":0,"isfamily":0,"safe":0,"ownername":"Simon & His Camera","latitude":51.503914,"longitude":-0.117169,"accuracy":"16","context":0,"place_id":"up5njGVTUrqg4WUNsw","woeid":"20094347","geo_is_family":0,"geo_is_friend":0,"geo_is_contact":0,"geo_is_public":1,"media":"photo","media_status":"ready"}]},"stat":"ok"}