{"photos":{"page":10, "pages":24254, "perpage":60, "total":"1455211", "photo":[{"id":"12948782994", "owner":"21692577@N02", "secret":"38a91f0cb3", "server":"3754", "farm":4, "title":"The Red Winter Sunrise in Gaspesie, Quebec", "ispublic":1, "isfriend":0, "isfamily":0, "safe":1, "ownername":"Danny VB", "latitude":48.524669, "longitude":-64.213867, "accuracy":"11", "context":0, "place_id":"_A.pbC1SVbhG", "woeid":"3729", "geo_is_family":0, "geo_is_friend":0, "geo_is_contact":0, "geo_is_public":1, "media":"photo", "media_status":"ready"}, {"id":"12948155955", "owner":"31144608@N00", "secret":"2f2af52c21", "server":"7406", "farm":8, "title":"Evening in Faskrudsfjordur", "ispublic":1, "isfriend":0, "isfamily":0, "safe":1, "ownername":"*Jonina* ( Thanks for 3.000.000 views)", "latitude":64.935125, "longitude":-14.039239, "accuracy":"15", "context":0, "place_id":"TXk8i_BYWrqdTIc", "woeid":"980093", "geo_is_family":0, "geo_is_friend":0, "geo_is_contact":0, "geo_is_public":1, "media":"photo", "media_status":"ready"}, {"id":"12946988423", "owner":"37708438@N05", "secret":"868c4544bf", "server":"3707", "farm":4, "title":"DARK WATER", "ispublic":1, "isfriend":0, "isfamily":0, "safe":1, "ownername":"kenny barker", "latitude":56.479842, "longitude":-4.821367, "accuracy":"15", "context":0, "place_id":"hegpbi1QUbIhtg", "woeid":"13847", "geo_is_family":0, "geo_is_friend":0, "geo_is_contact":0, "geo_is_public":1, "media":"photo", "media_status":"ready"}, {"id":"12946810753", "owner":"63412147@N05", "secret":"946dbd322d", "server":"7332", "farm":8, "title":"TULIPAN -EXPLORE-", "ispublic":1, "isfriend":0, "isfamily":0, "safe":1, "ownername":"Susana M.L.", "latitude":40.964218, "longitude":-5.663849, "accuracy":"11", "context":0, "place_id":"S1ti_DhWVbjLtSw", "woeid":"772416", "geo_is_family":0, "geo_is_friend":0, "geo_is_contact":0, "geo_is_public":1, "media":"photo", "media_status":"ready"}, {"id":"12947003254", "owner":"78331455@N05", "secret":"b9e7fb95e8", "server":"2811", "farm":3, "title":"Calm", "ispublic":1, "isfriend":0, "isfamily":0, "safe":0, "ownername":"Scott Baldock", "latitude":51.540378, "longitude":0.70516, "accuracy":"11", "context":0, "place_id":"a1PjiSRSV7nWPA", "woeid":"35375", "geo_is_family":0, "geo_is_friend":0, "geo_is_contact":0, "geo_is_public":1, "media":"photo", "media_status":"ready"}, {"id":"12946683864", "owner":"43797818@N05", "secret":"279e147788", "server":"7317", "farm":8, "title":"Curves and Lines (Explored)", "ispublic":1, "isfriend":0, "isfamily":0, "safe":0, "ownername":"Kathy Medcalf", "latitude":54.431338, "longitude":-0.53186, "accuracy":"16", "context":0, "place_id":"KSrFCvBSUb4eDg", "woeid":"33413", "geo_is_family":0, "geo_is_friend":0, "geo_is_contact":0, "geo_is_public":1, "media":"photo", "media_status":"ready"}, {"id":"12946570934", "owner":"31804708@N02", "secret":"0019b7b8dc", "server":"2885", "farm":3, "title":"La noche en la ciudad - The night in the city", "ispublic":1, "isfriend":0, "isfamily":0, "safe":1, "ownername":"celta4", "latitude":-34.589525, "longitude":-58.423125, "accuracy":"15", "context":0, "place_id":"BkPyiYpSUbtortc", "woeid":"331580", "geo_is_family":0, "geo_is_friend":0, "geo_is_contact":0, "geo_is_public":1, "media":"photo", "media_status":"ready"}, {"id":"12945724444", "owner":"44436788@N03", "secret":"7bc61c0883", "server":"7333", "farm":8, "title":"** Gen\u00e8ve...la pacifique...** - 10", "ispublic":1, "isfriend":0, "isfamily":0, "safe":1, "ownername":"Impatience_1 (+ ou - pr\u00e9sente )", "latitude":46.208351, "longitude":6.1427, "accuracy":"11", "context":0, "place_id":"onynNTlWWrhbqh4", "woeid":"782538", "geo_is_family":0, "geo_is_friend":0, "geo_is_contact":0, "geo_is_public":1, "media":"photo", "media_status":"ready"}, {"id":"12945434934", "owner":"12039065@N00", "secret":"d03b4c03b5", "server":"7385", "farm":8, "title":"Bosques de Hornopir\u00e9n II", "ispublic":1, "isfriend":0, "isfamily":0, "safe":0, "ownername":"Mono Andes", "latitude":-41.873768, "longitude":-72.473466, "accuracy":"13", "context":0, "place_id":"ukRIKgdTVL2hClCLmQ", "woeid":"26794009", "geo_is_family":0, "geo_is_friend":0, "geo_is_contact":0, "geo_is_public":1, "media":"photo", "media_status":"ready"}, {"id":"12944875515", "owner":"43797818@N05", "secret":"da6bdef190", "server":"7353", "farm":8, "title":"Sea Wall - Robin Hoods Bay", "ispublic":1, "isfriend":0, "isfamily":0, "safe":0, "ownername":"Kathy Medcalf", "latitude":54.431569, "longitude":-0.531876, "accuracy":"16", "context":0, "place_id":"KSrFCvBSUb4eDg", "woeid":"33413", "geo_is_family":0, "geo_is_friend":0, "geo_is_contact":0, "geo_is_public":1, "media":"photo", "media_status":"ready"}, {"id":"12944640505", "owner":"90378082@N07", "secret":"1aa4ea5548", "server":"2813", "farm":3, "title":"Old school", "ispublic":1, "isfriend":0, "isfamily":0, "safe":0, "ownername":"Baz 120", "latitude":41.891759, "longitude":12.478569, "accuracy":"16", "context":0, "place_id":"FphPyURWU7ux6h4", "woeid":"711883", "geo_is_family":0, "geo_is_friend":0, "geo_is_contact":0, "geo_is_public":1, "media":"photo", "media_status":"ready"}, {"id":"12944444005", "owner":"74835915@N07", "secret":"4b11c54226", "server":"7318", "farm":8, "title":"Angel Under The Stars (Explored)", "ispublic":1, "isfriend":0, "isfamily":0, "safe":0, "ownername":"Danny Birrell", "latitude":54.916438, "longitude":-1.59379, "accuracy":"14", "context":0, "place_id":"DW0IUrFTUrO0FQ", "woeid":"20928", "geo_is_family":0, "geo_is_friend":0, "geo_is_contact":0, "geo_is_public":1, "media":"photo", "media_status":"ready"}, {"id":"12942723383", "owner":"90171217@N06", "secret":"396f1a336d", "server":"2891", "farm":3, "title":"Golden Field", "ispublic":1, "isfriend":0, "isfamily":0, "safe":0, "ownername":"lars1387", "latitude":59.132756, "longitude":10.267989, "accuracy":"15", "context":0, "place_id":"Oz6jZXRZVLkPpJU", "woeid":"863408", "geo_is_family":0, "geo_is_friend":0, "geo_is_contact":0, "geo_is_public":1, "media":"photo", "media_status":"ready"}, {"id":"12941967903", "owner":"69642831@N02", "secret":"0a2cd1f728", "server":"3708", "farm":4, "title":"Hivers", "ispublic":1, "isfriend":0, "isfamily":0, "safe":0, "ownername":"Dominique Rolland @ Laouleventmeporte", "latitude":44.158932, "longitude":2.880306, "accuracy":"13", "context":0, "place_id":"aX3oq81UWrsp5qY", "woeid":"581106", "geo_is_family":0, "geo_is_friend":0, "geo_is_contact":0, "geo_is_public":1, "media":"photo", "media_status":"ready"}, {"id":"12940401924", "owner":"22461382@N00", "secret":"7d6c8e917f", "server":"3714", "farm":4, "title":"morning becomes reflective | m\u00f8lnarodden, norway", "ispublic":1, "isfriend":0, "isfamily":0, "safe":0, "ownername":"elmofoto", "latitude":68.000686, "longitude":13.176922, "accuracy":"16", "context":0, "place_id":"qn86kzBTULwp7RuuMQ", "woeid":"22660235", "geo_is_family":0, "geo_is_friend":0, "geo_is_contact":0, "geo_is_public":1, "media":"photo", "media_status":"ready"}, {"id":"12938231843", "owner":"34685868@N08", "secret":"60b5ec601a", "server":"3790", "farm":4, "title":"IMG_3654 [Explored]", "ispublic":1, "isfriend":0, "isfamily":0, "safe":1, "ownername":"soccersc(Jim Allen)", "latitude":32.960543, "longitude":-80.190593, "accuracy":"16", "context":0, "place_id":"wjEqPQJTUb_ZdXAv", "woeid":"2356491", "geo_is_family":0, "geo_is_friend":0, "geo_is_contact":0, "geo_is_public":1, "media":"photo", "media_status":"ready"}, {"id":"12936740874", "owner":"26849514@N06", "secret":"9d186964e8", "server":"2808", "farm":3, "title":"Wadi Al Muaydin , Oman", "ispublic":1, "isfriend":0, "isfamily":0, "safe":1, "ownername":"Frans.Sellies", "latitude":22.997478, "longitude":57.671924, "accuracy":"16", "context":0, "place_id":"Dq2f4yhTUb6N.Co4", "woeid":"2346261", "geo_is_family":0, "geo_is_friend":0, "geo_is_contact":0, "geo_is_public":1, "media":"photo", "media_status":"ready"}, {"id":"12936392553", "owner":"7992704@N05", "secret":"52875d5a41", "server":"7295", "farm":8, "title":"Picos de Europa", "ispublic":1, "isfriend":0, "isfamily":0, "safe":0, "ownername":"_Hadock_", "latitude":43.1448, "longitude":-4.81202, "accuracy":"16", "context":0, "place_id":"hDv.ttRTUrhTgIzWlw", "woeid":"20223086", "geo_is_family":0, "geo_is_friend":0, "geo_is_contact":0, "geo_is_public":1, "media":"photo", "media_status":"ready"}, {"id":"12935253125", "owner":"97004099@N05", "secret":"531e2181a1", "server":"2881", "farm":3, "title":"Simply Paris (Looking down)", "ispublic":1, "isfriend":0, "isfamily":0, "safe":1, "ownername":"Fonk De", "latitude":48.841983, "longitude":2.32202, "accuracy":"15", "context":0, "place_id":"kZbonQRUV7JxwWdJRQ", "woeid":"55843828", "geo_is_family":0, "geo_is_friend":0, "geo_is_contact":0, "geo_is_public":1, "media":"photo", "media_status":"ready"}, {"id":"12935150403", "owner":"20215694@N06", "secret":"e2a59f39f3", "server":"7335", "farm":8, "title":"Sun", "ispublic":1, "isfriend":0, "isfamily":0, "safe":0, "ownername":"Dave McGlinchey", "latitude":52.607556, "longitude":-3.128743, "accuracy":"14", "context":0, "place_id":"jeCxhHRTUroLdGzfjA", "woeid":"20094017", "geo_is_family":0, "geo_is_friend":0, "geo_is_contact":0, "geo_is_public":1, "media":"photo", "media_status":"ready"}, {"id":"12934898244", "owner":"22698877@N03", "secret":"39df787fb6", "server":"3726", "farm":4, "title":"Northumberland Tree at Sunset. [Explored]", "ispublic":1, "isfriend":0, "isfamily":0, "safe":1, "ownername":"wazimu0", "latitude":55.353354, "longitude":-1.732059, "accuracy":"16", "context":0, "place_id":"b_p.fFVSUrinzA", "woeid":"30254", "geo_is_family":0, "geo_is_friend":0, "geo_is_contact":0, "geo_is_public":1, "media":"photo", "media_status":"ready"}, {"id":"12934041914", "owner":"81792638@N02", "secret":"8e8d1c861a", "server":"3807", "farm":4, "title":"Sunset and ruins", "ispublic":1, "isfriend":0, "isfamily":0, "safe":1, "ownername":"Ron and Co.", "latitude":52.220701, "longitude":1.580057, "accuracy":"14", "context":0, "place_id":"Iz2zou1TVLroSg", "woeid":"26094", "geo_is_family":0, "geo_is_friend":0, "geo_is_contact":0, "geo_is_public":1, "media":"photo", "media_status":"ready"}, {"id":"12933270273", "owner":"43797818@N05", "secret":"a09d0cd730", "server":"3822", "farm":4, "title":"Pier End (Explored)", "ispublic":1, "isfriend":0, "isfamily":0, "safe":1, "ownername":"Kathy Medcalf", "latitude":54.494209, "longitude":-0.613056, "accuracy":"16", "context":0, "place_id":"_MpKXPdVUrtPrw", "woeid":"40190", "geo_is_family":0, "geo_is_friend":0, "geo_is_contact":0, "geo_is_public":1, "media":"photo", "media_status":"ready"}, {"id":"12933275164", "owner":"42890356@N02", "secret":"e4847676dd", "server":"7327", "farm":8, "title":"Watching the sunset - Explored", "ispublic":1, "isfriend":0, "isfamily":0, "safe":0, "ownername":"faranorclarke", "latitude":51.371874, "longitude":-0.148422, "accuracy":"15", "context":0, "place_id":"QAYcFHFTULp5iA", "woeid":"22083", "geo_is_family":0, "geo_is_friend":0, "geo_is_contact":0, "geo_is_public":1, "media":"photo", "media_status":"ready"}, {"id":"12933009544", "owner":"33909206@N04", "secret":"59c4af1e88", "server":"3676", "farm":4, "title":"Down by the Sea, Huanchaco, Abstract", "ispublic":1, "isfriend":0, "isfamily":0, "safe":1, "ownername":"geezaweezer", "latitude":-8.0795, "longitude":-79.12062, "accuracy":"11", "context":0, "place_id":"HUHiKcZVU7ItMyQ", "woeid":"418874", "geo_is_family":0, "geo_is_friend":0, "geo_is_contact":0, "geo_is_public":1, "media":"photo", "media_status":"ready"}, {"id":"12932426475", "owner":"63377227@N05", "secret":"b2809fd7ee", "server":"3809", "farm":4, "title":"Tom and Jerry. :))", "ispublic":1, "isfriend":0, "isfamily":0, "safe":0, "ownername":"halina.reshetova", "latitude":52.062623, "longitude":29.360961, "accuracy":"7", "context":0, "place_id":"Wr9F6BNTUb56Kwvp", "woeid":"2344831", "geo_is_family":0, "geo_is_friend":0, "geo_is_contact":0, "geo_is_public":1, "media":"photo", "media_status":"ready"}, {"id":"12932507993", "owner":"118393113@N02", "secret":"576a809ec6", "server":"7370", "farm":8, "title":"Open minded", "ispublic":1, "isfriend":0, "isfamily":0, "safe":0, "ownername":"blende74.de", "latitude":48.169166, "longitude":11.525277, "accuracy":"16", "context":0, "place_id":"VoG2Y_lXVby7TOA", "woeid":"676757", "geo_is_family":0, "geo_is_friend":0, "geo_is_contact":0, "geo_is_public":1, "media":"photo", "media_status":"ready"}, {"id":"12932385785", "owner":"32791195@N08", "secret":"c1c0788bdc", "server":"7422", "farm":8, "title":"Angelica Sun, Fourth of July", "ispublic":1, "isfriend":0, "isfamily":0, "safe":1, "ownername":"dangerousdavecarper", "latitude":54.174894, "longitude":-4.720001, "accuracy":"11", "context":0, "place_id":"hL.7iudUUbIajQk", "woeid":"538648", "geo_is_family":0, "geo_is_friend":0, "geo_is_contact":0, "geo_is_public":1, "media":"photo", "media_status":"ready"}, {"id":"12932249953", "owner":"36119280@N04", "secret":"1d3283d57c", "server":"3677", "farm":4, "title":"Am Walchensee", "ispublic":1, "isfriend":0, "isfamily":0, "safe":1, "ownername":"blichb", "latitude":47.583505, "longitude":11.323963, "accuracy":"16", "context":0, "place_id":"0MNMrehWUrPRDPc", "woeid":"709356", "geo_is_family":0, "geo_is_friend":0, "geo_is_contact":0, "geo_is_public":1, "media":"photo", "media_status":"ready"}, {"id":"12932423044", "owner":"88420718@N03", "secret":"d5f2fb29c8", "server":"7339", "farm":8, "title":"winter drama", "ispublic":1, "isfriend":0, "isfamily":0, "safe":1, "ownername":"thequietguy", "latitude":40.787814, "longitude":21.079337, "accuracy":"11", "context":0, "place_id":"TA9CO8BYVr1wTSw", "woeid":"947100", "geo_is_family":0, "geo_is_friend":0, "geo_is_contact":0, "geo_is_public":1, "media":"photo", "media_status":"ready"}, {"id":"12932084993", "owner":"11597051@N07", "secret":"522969694c", "server":"7379", "farm":8, "title":"Arcos", "ispublic":1, "isfriend":0, "isfamily":0, "safe":0, "ownername":"Iabcstm", "latitude":42.794991, "longitude":-4.266729, "accuracy":"14", "context":0, "place_id":"c4voE.BWV7sRd78", "woeid":"751528", "geo_is_family":0, "geo_is_friend":0, "geo_is_contact":0, "geo_is_public":1, "media":"photo", "media_status":"ready"}, {"id":"12931753925", "owner":"59269150@N08", "secret":"431a5bf160", "server":"7291", "farm":8, "title":"Blue Impression", "ispublic":1, "isfriend":0, "isfamily":0, "safe":1, "ownername":"TablinumCarlson", "latitude":36.866729, "longitude":10.341759, "accuracy":"11", "context":0, "place_id":"OFx.VndQVr6Ntzi3", "woeid":"1442633", "geo_is_family":0, "geo_is_friend":0, "geo_is_contact":0, "geo_is_public":1, "media":"photo", "media_status":"ready"}, {"id":"12931574653", "owner":"29789996@N00", "secret":"57514bc08f", "server":"3817", "farm":4, "title":"Turbulences 2", "ispublic":1, "isfriend":0, "isfamily":0, "safe":0, "ownername":"DanielKHC", "latitude":25.207115, "longitude":55.277591, "accuracy":"16", "context":0, "place_id":"eQtoeghQW77HLrTB", "woeid":"1940345", "geo_is_family":0, "geo_is_friend":0, "geo_is_contact":0, "geo_is_public":1, "media":"photo", "media_status":"ready"}, {"id":"12930951985", "owner":"43016292@N07", "secret":"f109315e27", "server":"2891", "farm":3, "title":"Europe \/\/ UK  \/\/ London \/\/ Tower Bridge", "ispublic":1, "isfriend":0, "isfamily":0, "safe":0, "ownername":"msc-photodesign", "latitude":51.506275, "longitude":-0.073859, "accuracy":"16", "context":0, "place_id":"v70Y8qlTUrrLiiTZAg", "woeid":"20094363", "geo_is_family":0, "geo_is_friend":0, "geo_is_contact":0, "geo_is_public":1, "media":"photo", "media_status":"ready"}, {"id":"12930751204", "owner":"95360942@N07", "secret":"4573aebf29", "server":"7420", "farm":8, "title":"The day is ending", "ispublic":1, "isfriend":0, "isfamily":0, "safe":0, "ownername":"Grisley Two", "latitude":56.701301, "longitude":-5.202155, "accuracy":"16", "context":0, "place_id":"xr4XfLxQU7xfAw", "woeid":"11675", "geo_is_family":0, "geo_is_friend":0, "geo_is_contact":0, "geo_is_public":1, "media":"photo", "media_status":"ready"}, {"id":"12930296573", "owner":"22795912@N00", "secret":"5b0ef9aafb", "server":"3775", "farm":4, "title":"Espa\u00f1a. Zaragoza. Bas\u00edlica del Pilar", "ispublic":1, "isfriend":0, "isfamily":0, "safe":1, "ownername":"Cesar Catalan", "latitude":41.651729, "longitude":-0.881319, "accuracy":"11", "context":0, "place_id":"WbgnDbFWVbOLDw0", "woeid":"779063", "geo_is_family":0, "geo_is_friend":0, "geo_is_contact":0, "geo_is_public":1, "media":"photo", "media_status":"ready"}, {"id":"12929815113", "owner":"37034324@N05", "secret":"630bf16c3e", "server":"2863", "farm":3, "title":"a bit \"washed out\" shot, Hotel Grand Lublin February 2014", "ispublic":1, "isfriend":0, "isfamily":0, "safe":0, "ownername":"Smo_Q", "latitude":51.247894, "longitude":22.558407, "accuracy":"14", "context":0, "place_id":"vvrwnzhUUr.HvNc", "woeid":"505477", "geo_is_family":0, "geo_is_friend":0, "geo_is_contact":0, "geo_is_public":1, "media":"photo", "media_status":"ready"}, {"id":"12929689415", "owner":"43155663@N07", "secret":"03496b6339", "server":"3817", "farm":4, "title":"more power", "ispublic":1, "isfriend":0, "isfamily":0, "safe":0, "ownername":"city\/human\/life", "latitude":51.396862, "longitude":7.00241, "accuracy":"16", "context":0, "place_id":"UZIHF3RXVrIRFRQ", "woeid":"648820", "geo_is_family":0, "geo_is_friend":0, "geo_is_contact":0, "geo_is_public":1, "media":"photo", "media_status":"ready"}, {"id":"12929128645", "owner":"100063725@N06", "secret":"c8d423dca5", "server":"3682", "farm":4, "title":"Pescadores de ca\u00f1a", "ispublic":1, "isfriend":0, "isfamily":0, "safe":1, "ownername":"Antonio Chac", "latitude":36.502642, "longitude":-4.842031, "accuracy":"16", "context":0, "place_id":"b6ANCk5WVLwQivI", "woeid":"766537", "geo_is_family":0, "geo_is_friend":0, "geo_is_contact":0, "geo_is_public":1, "media":"photo", "media_status":"ready"}, {"id":"12928948855", "owner":"62511641@N07", "secret":"514267d9dc", "server":"3686", "farm":4, "title":"2012_0110AS-1.jpg", "ispublic":1, "isfriend":0, "isfamily":0, "safe":1, "ownername":"Serge Bar\u00e8s", "latitude":48.795028, "longitude":2.3015, "accuracy":"11", "context":0, "place_id":"kBm2qLdUV7KQ6Dzfuw", "woeid":"55863421", "geo_is_family":0, "geo_is_friend":0, "geo_is_contact":0, "geo_is_public":1, "media":"photo", "media_status":"ready"}, {"id":"12928722685", "owner":"58306119@N07", "secret":"898e490dd6", "server":"3772", "farm":4, "title":"Dusk (Explored)", "ispublic":1, "isfriend":0, "isfamily":0, "safe":1, "ownername":"Tore Thiis Fjeld", "latitude":59.995606, "longitude":10.78351, "accuracy":"16", "context":0, "place_id":"QAkFKjxZVLgK0Y0", "woeid":"862592", "geo_is_family":0, "geo_is_friend":0, "geo_is_contact":0, "geo_is_public":1, "media":"photo", "media_status":"ready"}, {"id":"12928268015", "owner":"67833313@N08", "secret":"a08cf9ca70", "server":"7305", "farm":8, "title":"optasia...", "ispublic":1, "isfriend":0, "isfamily":0, "safe":1, "ownername":"Dimitra Kirgiannaki \u266a\u00b8.\u2022*\u00b4off \u00a8\u00b4\u00a8*\u2022.\u00b8", "latitude":37.927499, "longitude":23.701858, "accuracy":"11", "context":0, "place_id":"hXFuKQ5YV7JgOUY", "woeid":"958836", "geo_is_family":0, "geo_is_friend":0, "geo_is_contact":0, "geo_is_public":1, "media":"photo", "media_status":"ready"}, {"id":"12928176955", "owner":"69460501@N04", "secret":"a7676e5b0d", "server":"2839", "farm":3, "title":"Burghausen, Kernburg der Burganlage", "ispublic":1, "isfriend":0, "isfamily":0, "safe":1, "ownername":"Polybert49", "latitude":48.158329, "longitude":12.83288, "accuracy":"11", "context":0, "place_id":"M0TJjRhXVrjc.Iw", "woeid":"642578", "geo_is_family":0, "geo_is_friend":0, "geo_is_contact":0, "geo_is_public":1, "media":"photo", "media_status":"ready"}, {"id":"12928109373", "owner":"22876654@N00", "secret":"59bd92085a", "server":"3788", "farm":4, "title":"Emporium", "ispublic":1, "isfriend":0, "isfamily":0, "safe":1, "ownername":"halifaxlight", "latitude":34.063681, "longitude":-4.97672, "accuracy":"14", "context":0, "place_id":"zlskJLJQV7mdhu2r", "woeid":"1535450", "geo_is_family":0, "geo_is_friend":0, "geo_is_contact":0, "geo_is_public":1, "media":"photo", "media_status":"ready"}, {"id":"12927538224", "owner":"24355450@N07", "secret":"7fa1cb67b8", "server":"7441", "farm":8, "title":"Sinking Maree Pine.", "ispublic":1, "isfriend":0, "isfamily":0, "safe":1, "ownername":"Gordie Broon.", "latitude":57.661014, "longitude":-5.421667, "accuracy":"13", "context":0, "place_id":"XVzTljRTVbgK_w", "woeid":"27247", "geo_is_family":0, "geo_is_friend":0, "geo_is_contact":0, "geo_is_public":1, "media":"photo", "media_status":"ready"}, {"id":"12926624245", "owner":"79688583@N03", "secret":"6b7991538e", "server":"2875", "farm":3, "title":"Lets Ride", "ispublic":1, "isfriend":0, "isfamily":0, "safe":0, "ownername":"Jamie Frith", "latitude":41.896495, "longitude":12.495875, "accuracy":"15", "context":0, "place_id":"62ufGyBUUb26u2g", "woeid":"537842", "geo_is_family":0, "geo_is_friend":0, "geo_is_contact":0, "geo_is_public":1, "media":"photo", "media_status":"ready"}, {"id":"12926995774", "owner":"58606144@N08", "secret":"5308441668", "server":"3713", "farm":4, "title":"[Urban Explorer]", "ispublic":1, "isfriend":0, "isfamily":0, "safe":0, "ownername":"funky_koala", "latitude":41.383506, "longitude":2.177352, "accuracy":"11", "context":0, "place_id":"p.gvf6dWV7k1Gpg", "woeid":"753692", "geo_is_family":0, "geo_is_friend":0, "geo_is_contact":0, "geo_is_public":1, "media":"photo", "media_status":"ready"}, {"id":"12925938335", "owner":"63412147@N05", "secret":"f0a062bfa7", "server":"3700", "farm":4, "title":"\u00a1\u00c1NIMO, YA QUEDA POCO! -EXPLORE-", "ispublic":1, "isfriend":0, "isfamily":0, "safe":1, "ownername":"Susana M.L.", "latitude":40.512569, "longitude":-6.16825, "accuracy":"11", "context":0, "place_id":"JfbQs4VTUb7Pf4IHxA", "woeid":"23414590", "geo_is_family":0, "geo_is_friend":0, "geo_is_contact":0, "geo_is_public":1, "media":"photo", "media_status":"ready"}, {"id":"12925787505", "owner":"28992076@N08", "secret":"e6cd4dff23", "server":"3755", "farm":4, "title":"From the Top of the Rock... Manhattan Island at night, New York", "ispublic":1, "isfriend":0, "isfamily":0, "safe":1, "ownername":"Mathew Roberts", "latitude":40.759626, "longitude":-73.979637, "accuracy":"15", "context":0, "place_id":"byMt1GpTWrhtqOpahg", "woeid":"28288823", "geo_is_family":0, "geo_is_friend":0, "geo_is_contact":0, "geo_is_public":1, "media":"photo", "media_status":"ready"}, {"id":"12925600275", "owner":"62815410@N04", "secret":"8951c1c699", "server":"2842", "farm":3, "title":"untitled (venice, italy)", "ispublic":1, "isfriend":0, "isfamily":0, "safe":0, "ownername":"bloodybee", "latitude":45.433567, "longitude":12.335672, "accuracy":"16", "context":0, "place_id":"UQEdl5BTUrv2TyTgZw", "woeid":"20150616", "geo_is_family":0, "geo_is_friend":0, "geo_is_contact":0, "geo_is_public":1, "media":"photo", "media_status":"ready"}, {"id":"12925362005", "owner":"44436788@N03", "secret":"39670ac8c4", "server":"2836", "farm":3, "title":"** Le guetteur **", "ispublic":1, "isfriend":0, "isfamily":0, "safe":1, "ownername":"Impatience_1 (+ ou - pr\u00e9sente )", "latitude":45.541881, "longitude":-73.494132, "accuracy":"11", "context":0, "place_id":"cCES1VBVUbLg", "woeid":"4388", "geo_is_family":0, "geo_is_friend":0, "geo_is_contact":0, "geo_is_public":1, "media":"photo", "media_status":"ready"}, {"id":"12925057663", "owner":"75573189@N08", "secret":"a5fb285527", "server":"7296", "farm":8, "title":"Morning Mist", "ispublic":1, "isfriend":0, "isfamily":0, "safe":0, "ownername":"M a r i k o", "latitude":48.319833, "longitude":11.906166, "accuracy":"16", "context":0, "place_id":"He66bzVQULxEEqvRfg", "woeid":"12635143", "geo_is_family":0, "geo_is_friend":0, "geo_is_contact":0, "geo_is_public":1, "media":"photo", "media_status":"ready"}, {"id":"12925349244", "owner":"27420180@N08", "secret":"2f624f96c3", "server":"3803", "farm":4, "title":"Paris from Op\u00e9ra Bastille", "ispublic":1, "isfriend":0, "isfamily":0, "safe":0, "ownername":"A.G. Photographe", "latitude":48.853067, "longitude":2.369302, "accuracy":"16", "context":0, "place_id":"o87ZyUpUV7IfkA8sMw", "woeid":"55843760", "geo_is_family":0, "geo_is_friend":0, "geo_is_contact":0, "geo_is_public":1, "media":"photo", "media_status":"ready"}, {"id":"12924989463", "owner":"25122972@N04", "secret":"b3054ed0a2", "server":"2833", "farm":3, "title":"Misty Mood", "ispublic":1, "isfriend":0, "isfamily":0, "safe":1, "ownername":"jactoll", "latitude":52.163241, "longitude":-1.858478, "accuracy":"16", "context":0, "place_id":"kUYeDfpQUL_YSQ", "woeid":"12574", "geo_is_family":0, "geo_is_friend":0, "geo_is_contact":0, "geo_is_public":1, "media":"photo", "media_status":"ready"}, {"id":"12924917913", "owner":"66403925@N03", "secret":"e9b6f0b27d", "server":"7384", "farm":8, "title":"Priolo, Azores Bullfinch (Pyrrhula murina) - em Liberdade[WildLife] - Probably the most rare bird in Portugal", "ispublic":1, "isfriend":0, "isfamily":0, "safe":1, "ownername":"ana & xavier", "latitude":37.825175, "longitude":-25.160236, "accuracy":"13", "context":0, "place_id":"zpf..R5UUbKllak", "woeid":"538172", "geo_is_family":0, "geo_is_friend":0, "geo_is_contact":0, "geo_is_public":1, "media":"photo", "media_status":"ready"}, {"id":"12924765483", "owner":"37176070@N08", "secret":"dac5b21d34", "server":"2812", "farm":3, "title":"ero andata a caccia di primule", "ispublic":1, "isfriend":0, "isfamily":0, "safe":0, "ownername":"fotomie2009", "latitude":44.249595, "longitude":8.427886, "accuracy":"16", "context":0, "place_id":"vizeQ1xWUL_plBM", "woeid":"725448", "geo_is_family":0, "geo_is_friend":0, "geo_is_contact":0, "geo_is_public":1, "media":"photo", "media_status":"ready"}, {"id":"12924213064", "owner":"82484300@N00", "secret":"be9ea2fa39", "server":"2846", "farm":3, "title":"Fontana de Trevi", "ispublic":1, "isfriend":0, "isfamily":0, "safe":0, "ownername":"dleiva", "latitude":41.918403, "longitude":12.503643, "accuracy":"12", "context":0, "place_id":"EM.ObFlTUrvIfm0pbg", "woeid":"20150545", "geo_is_family":0, "geo_is_friend":0, "geo_is_contact":0, "geo_is_public":1, "media":"photo", "media_status":"ready"}, {"id":"12923657553", "owner":"76805638@N07", "secret":"7684f3eee3", "server":"7444", "farm":8, "title":"gloom", "ispublic":1, "isfriend":0, "isfamily":0, "safe":1, "ownername":"Sergey S Ponomarev", "latitude":55.749216, "longitude":37.624526, "accuracy":"14", "context":0, "place_id":"Gyn7fcFTU7gkY7d5", "woeid":"2122265", "geo_is_family":0, "geo_is_friend":0, "geo_is_contact":0, "geo_is_public":1, "media":"photo", "media_status":"ready"}, {"id":"12922585304", "owner":"12547928@N07", "secret":"ba51c262ce", "server":"3685", "farm":4, "title":"Pastel Window", "ispublic":1, "isfriend":0, "isfamily":0, "safe":0, "ownername":"Tony Shertila", "latitude":51.306981, "longitude":-1.090993, "accuracy":"14", "context":0, "place_id":"et6fzHpTW7grvg", "woeid":"29200", "geo_is_family":0, "geo_is_friend":0, "geo_is_contact":0, "geo_is_public":1, "media":"photo", "media_status":"ready"}, {"id":"12915092323", "owner":"72947739@N07", "secret":"123d2fd0d7", "server":"7432", "farm":8, "title":"just not the women..", "ispublic":1, "isfriend":0, "isfamily":0, "safe":1, "ownername":"camelot98", "latitude":24.876469, "longitude":66.979522, "accuracy":"11", "context":0, "place_id":"zpVY2SRTULtE05Ow", "woeid":"2211096", "geo_is_family":0, "geo_is_friend":0, "geo_is_contact":0, "geo_is_public":1, "media":"photo", "media_status":"ready"}]}, "stat":"ok"}