{"photos":{"page":28,"pages":26137,"perpage":60,"total":"1568218","photo":[{"id":"14023372487","owner":"49625194@N02","secret":"ae681669c9","server":"5511","farm":6,"title":"China Town (Explore)","ispublic":1,"isfriend":0,"isfamily":0,"safe":0,"ownername":"Mick Canon","latitude":40.713672,"longitude":-73.994645,"accuracy":"16","context":0,"place_id":"I7FSwnZTUb3ydjUE","woeid":"2379860","geo_is_family":0,"geo_is_friend":0,"geo_is_contact":0,"geo_is_public":1,"media":"photo","media_status":"ready"},{"id":"14184369766","owner":"20905078@N04","secret":"fffb5241d8","server":"2925","farm":3,"title":"","ispublic":1,"isfriend":0,"isfamily":0,"safe":0,"ownername":"patrickjoust","latitude":39.334149,"longitude":-76.631517,"accuracy":"16","context":0,"place_id":"gDC9FgRTVrs5zJzS","woeid":"2416788","geo_is_family":0,"geo_is_friend":0,"geo_is_contact":0,"geo_is_public":1,"media":"photo","media_status":"ready"},{"id":"14020154518","owner":"15133799@N02","secret":"ecedfdc9a5","server":"5072","farm":6,"title":"Bokskogen","ispublic":1,"isfriend":0,"isfamily":0,"safe":0,"ownername":"*Kicki*","latitude":55.551747,"longitude":13.217325,"accuracy":"13","context":0,"place_id":"xkhdaXJZWr8sa.g","woeid":"885880","geo_is_family":0,"geo_is_friend":0,"geo_is_contact":0,"geo_is_public":1,"media":"photo","media_status":"ready"},{"id":"14203331001","owner":"69663264@N03","secret":"f1d9b9b933","server":"5510","farm":6,"title":"That's how this day ends","ispublic":1,"isfriend":0,"isfamily":0,"safe":0,"ownername":"steff808","latitude":41.915638,"longitude":8.805541,"accuracy":"14","context":0,"place_id":"DeyULMNWU7_p0Lrr","woeid":"7153316","geo_is_family":0,"geo_is_friend":0,"geo_is_contact":0,"geo_is_public":1,"media":"photo","media_status":"ready"},{"id":"14203552635","owner":"11269250@N07","secret":"e1e8495aa7","server":"2926","farm":3,"title":"~ two ~ deux ~ duo ~ zwei ~ dos ~","ispublic":1,"isfriend":0,"isfamily":0,"safe":0,"ownername":"Janey Kay","latitude":48.863098,"longitude":2.296534,"accuracy":"16","context":0,"place_id":"hytGYNFUV7LeiExhTQ","woeid":"55843834","geo_is_family":0,"geo_is_friend":0,"geo_is_contact":0,"geo_is_public":1,"media":"photo","media_status":"ready"},{"id":"14014166110","owner":"45722248@N07","secret":"4522213a68","server":"5549","farm":6,"title":"Rain","ispublic":1,"isfriend":0,"isfamily":0,"safe":0,"ownername":"ffela","latitude":52.519736,"longitude":13.376558,"accuracy":"16","context":0,"place_id":"VULyzjBXVb89VXc","woeid":"675695","geo_is_family":0,"geo_is_friend":0,"geo_is_contact":0,"geo_is_public":1,"media":"photo","media_status":"ready"},{"id":"14193712764","owner":"42890356@N02","secret":"697b339a08","server":"7417","farm":8,"title":"Lv - Explored","ispublic":1,"isfriend":0,"isfamily":0,"safe":0,"ownername":"faranorclarke","latitude":51.507166,"longitude":-0.089478,"accuracy":"14","context":0,"place_id":"AggqPb1TUrohNNCS.A","woeid":"20094296","geo_is_family":0,"geo_is_friend":0,"geo_is_contact":0,"geo_is_public":1,"media":"photo","media_status":"ready"},{"id":"14190200551","owner":"43467227@N08","secret":"729b86ef60","server":"2895","farm":3,"title":"untitled","ispublic":1,"isfriend":0,"isfamily":0,"safe":0,"ownername":"nicolasheinzelmann","latitude":46.947801,"longitude":7.439975,"accuracy":"13","context":0,"place_id":"BU2qIP1WWrmUCWM","woeid":"783269","geo_is_family":0,"geo_is_friend":0,"geo_is_contact":0,"geo_is_public":1,"media":"photo","media_status":"ready"},{"id":"14193279804","owner":"62597931@N02","secret":"e1acd461e3","server":"7446","farm":8,"title":"Steaming over Batty Moss","ispublic":1,"isfriend":0,"isfamily":0,"safe":0,"ownername":"Jim the Joker","latitude":54.21105,"longitude":-2.370944,"accuracy":"15","context":0,"place_id":"c0_c6BdQV7x8Xw","woeid":"15620","geo_is_family":0,"geo_is_friend":0,"geo_is_contact":0,"geo_is_public":1,"media":"photo","media_status":"ready"},{"id":"14006002060","owner":"49733424@N02","secret":"1024f4f401","server":"7336","farm":8,"title":"Gij\u00f3n","ispublic":1,"isfriend":0,"isfamily":0,"safe":0,"ownername":"Gilda Tonello","latitude":43.54203,"longitude":-5.663799,"accuracy":"11","context":0,"place_id":"ab9v_glWVLtecyY","woeid":"761570","geo_is_family":0,"geo_is_friend":0,"geo_is_contact":0,"geo_is_public":1,"media":"photo","media_status":"ready"},{"id":"14000286769","owner":"37206078@N04","secret":"0713d95fcf","server":"7338","farm":8,"title":"Insects on yellow daisy","ispublic":1,"isfriend":0,"isfamily":0,"safe":0,"ownername":"Eduardo Est\u00e9llez","latitude":39.424944,"longitude":-6.49707,"accuracy":"16","context":0,"place_id":"LdhxXD5QULzsM0fOaA","woeid":"12694596","geo_is_family":0,"geo_is_friend":0,"geo_is_contact":0,"geo_is_public":1,"media":"photo","media_status":"ready"},{"id":"13999997498","owner":"98765534@N00","secret":"906cccacb1","server":"5528","farm":6,"title":"Berliner rider","ispublic":1,"isfriend":0,"isfamily":0,"safe":0,"ownername":"ben0son - www.ben0son.com -","latitude":52.507013,"longitude":13.428869,"accuracy":"16","context":0,"place_id":"zot2ouJXUbKOJRM","woeid":"638242","geo_is_family":0,"geo_is_friend":0,"geo_is_contact":0,"geo_is_public":1,"media":"photo","media_status":"ready"},{"id":"13999663678","owner":"66403925@N03","secret":"a7a9f8b66c","server":"7425","farm":8,"title":"Sard\u00e3o, ocellated lizard (Timon lepidus) - em Liberdade [in Wild]","ispublic":1,"isfriend":0,"isfamily":0,"safe":0,"ownername":"ana & xavier","latitude":41.513771,"longitude":-7.98602,"accuracy":"11","context":0,"place_id":"uhRpS.9WUb3tGr4","woeid":"737736","geo_is_family":0,"geo_is_friend":0,"geo_is_contact":0,"geo_is_public":1,"media":"photo","media_status":"ready"},{"id":"14183653112","owner":"55819170@N00","secret":"92a42121e3","server":"7336","farm":8,"title":"First Shot","ispublic":1,"isfriend":0,"isfamily":0,"safe":0,"ownername":"NyYankee","latitude":43.732584,"longitude":7.417176,"accuracy":"16","context":0,"place_id":"m4I_vuRVWrkKJZk","woeid":"483299","geo_is_family":0,"geo_is_friend":0,"geo_is_contact":0,"geo_is_public":1,"media":"photo","media_status":"ready"},{"id":"14204466663","owner":"47035764@N03","secret":"f8d09fe8c0","server":"7457","farm":8,"title":"Orvelte, Drenthe, Netherlands - 1806","ispublic":1,"isfriend":0,"isfamily":0,"safe":0,"ownername":"HereIsTom","latitude":52.84332,"longitude":6.661195,"accuracy":"16","context":0,"place_id":"q.X1985WUbiu0IA","woeid":"732456","geo_is_family":0,"geo_is_friend":0,"geo_is_contact":0,"geo_is_public":1,"media":"photo","media_status":"ready"},{"id":"14183301885","owner":"95549570@N00","secret":"a1cef9ff34","server":"5486","farm":6,"title":"These are the stories of the refugees Syrian...","ispublic":1,"isfriend":0,"isfamily":0,"safe":0,"ownername":"Giulio Magnifico","latitude":36.714338,"longitude":37.114377,"accuracy":"16","context":0,"place_id":"5xpWBKVTUb7hzcPO","woeid":"2344192","geo_is_family":0,"geo_is_friend":0,"geo_is_contact":0,"geo_is_public":1,"media":"photo","media_status":"ready"},{"id":"13995542567","owner":"62448022@N00","secret":"e31b6f77b1","server":"5535","farm":6,"title":"Paradise","ispublic":1,"isfriend":0,"isfamily":0,"safe":0,"ownername":"Aerial Photography","latitude":47.794808,"longitude":11.304233,"accuracy":"16","context":0,"place_id":"zyjITWxQULz7VM0IlQ","woeid":"12634699","geo_is_family":0,"geo_is_friend":0,"geo_is_contact":0,"geo_is_public":1,"media":"photo","media_status":"ready"},{"id":"14177156742","owner":"43194508@N07","secret":"70399fa20e","server":"5515","farm":6,"title":"end","ispublic":1,"isfriend":0,"isfamily":0,"safe":0,"ownername":"jimmy297.","latitude":42.461333,"longitude":-2.460937,"accuracy":"15","context":0,"place_id":"LRRz6jJWVL8zWm0","woeid":"765455","geo_is_family":0,"geo_is_friend":0,"geo_is_contact":0,"geo_is_public":1,"media":"photo","media_status":"ready"},{"id":"13992621647","owner":"15133799@N02","secret":"439e717edf","server":"7338","farm":8,"title":"Yellow fields and dark sky","ispublic":1,"isfriend":0,"isfamily":0,"safe":0,"ownername":"*Kicki*","latitude":55.960655,"longitude":12.894104,"accuracy":"11","context":0,"place_id":"pjWJAz9YUrIZJ1I","woeid":"908830","geo_is_family":0,"geo_is_friend":0,"geo_is_contact":0,"geo_is_public":1,"media":"photo","media_status":"ready"},{"id":"14152728106","owner":"66759125@N00","secret":"7a847ed02c","server":"2919","farm":3,"title":"","ispublic":1,"isfriend":0,"isfamily":0,"safe":0,"ownername":"Svein Nordrum","latitude":59.895438,"longitude":10.611333,"accuracy":"13","context":0,"place_id":"b99oIP1QV7qhC5HIDA","woeid":"15000608","geo_is_family":0,"geo_is_friend":0,"geo_is_contact":0,"geo_is_public":1,"media":"photo","media_status":"ready"},{"id":"13988314439","owner":"42761333@N07","secret":"167ac35475","server":"7352","farm":8,"title":"The Uninvited - EXPLORED! Thank you :-)","ispublic":1,"isfriend":0,"isfamily":0,"safe":0,"ownername":"Ricardodaforce","latitude":38.346843,"longitude":-0.477304,"accuracy":"15","context":0,"place_id":"FSQ4uwRTUrjqBNcU9w","woeid":"20220112","geo_is_family":0,"geo_is_friend":0,"geo_is_contact":0,"geo_is_public":1,"media":"photo","media_status":"ready"},{"id":"14192175743","owner":"96928198@N00","secret":"7e8b478da8","server":"2912","farm":3,"title":"Kveldstoner -|- Sound of evening","ispublic":1,"isfriend":0,"isfamily":0,"safe":0,"ownername":"\u5f61erlingsi","latitude":62.147462,"longitude":6.061556,"accuracy":"15","context":0,"place_id":"lKPMYbBZVL9_C0Q","woeid":"865868","geo_is_family":0,"geo_is_friend":0,"geo_is_contact":0,"geo_is_public":1,"media":"photo","media_status":"ready"},{"id":"14168361721","owner":"30186070@N06","secret":"61e93c94e6","server":"7340","farm":8,"title":"After the Rain","ispublic":1,"isfriend":0,"isfamily":0,"safe":0,"ownername":"Tom Roeleveld","latitude":52.080415,"longitude":4.502506,"accuracy":"16","context":0,"place_id":"U6sRSDhWUbiHG7Y","woeid":"732659","geo_is_family":0,"geo_is_friend":0,"geo_is_contact":0,"geo_is_public":1,"media":"photo","media_status":"ready"},{"id":"13983534879","owner":"76238381@N08","secret":"993dca526b","server":"2926","farm":3,"title":"Tuscan Sunset","ispublic":1,"isfriend":0,"isfamily":0,"safe":1,"ownername":"Sandra's Weeds-Traveling -intermittent connection","latitude":43.078944,"longitude":11.67366,"accuracy":"12","context":0,"place_id":"FYY0DlVWULp1_mk","woeid":"720463","geo_is_family":0,"geo_is_friend":0,"geo_is_contact":0,"geo_is_public":1,"media":"photo","media_status":"ready"},{"id":"14146397836","owner":"92375404@N08","secret":"a264543e16","server":"7339","farm":8,"title":"Abendstimmung","ispublic":1,"isfriend":0,"isfamily":0,"safe":0,"ownername":"tobias142","latitude":51.333248,"longitude":9.931733,"accuracy":"14","context":0,"place_id":"1q_IuBhXWrIK.Kw","woeid":"688752","geo_is_family":0,"geo_is_friend":0,"geo_is_contact":0,"geo_is_public":1,"media":"photo","media_status":"ready"},{"id":"14145721606","owner":"112711738@N06","secret":"89356868f1","server":"7439","farm":8,"title":"Green Dawn.","ispublic":1,"isfriend":0,"isfamily":0,"safe":0,"ownername":"dasanes77","latitude":39.6156,"longitude":-0.30088,"accuracy":"11","context":0,"place_id":".ihsmPBWVbto06E","woeid":"771079","geo_is_family":0,"geo_is_friend":0,"geo_is_contact":0,"geo_is_public":1,"media":"photo","media_status":"ready"},{"id":"13981481620","owner":"7493849@N05","secret":"3881a784c1","server":"7426","farm":8,"title":"Grenzgletscher #4","ispublic":1,"isfriend":0,"isfamily":0,"safe":0,"ownername":"twoeye","latitude":45.938228,"longitude":7.833552,"accuracy":"14","context":0,"place_id":"5iMmsSNQULzDiwSTlQ","woeid":"12682989","geo_is_family":0,"geo_is_friend":0,"geo_is_contact":0,"geo_is_public":1,"media":"photo","media_status":"ready"},{"id":"13981071020","owner":"48988488@N04","secret":"83ab80dd0f","server":"7334","farm":8,"title":"diavoli freddi","ispublic":1,"isfriend":0,"isfamily":0,"safe":0,"ownername":"claudius1954","latitude":46.027839,"longitude":9.876966,"accuracy":"15","context":0,"place_id":"voYYcQFWU7qCa3Y","woeid":"710606","geo_is_family":0,"geo_is_friend":0,"geo_is_contact":0,"geo_is_public":1,"media":"photo","media_status":"ready"},{"id":"13980745539","owner":"59852454@N03","secret":"eb4fa8398c","server":"7320","farm":8,"title":"Crossroad","ispublic":1,"isfriend":0,"isfamily":0,"safe":0,"ownername":"Pavel P.","latitude":49.812927,"longitude":18.271851,"accuracy":"15","context":0,"place_id":"mN59iYtZUrqZhXU","woeid":"800906","geo_is_family":0,"geo_is_friend":0,"geo_is_contact":0,"geo_is_public":1,"media":"photo","media_status":"ready"},{"id":"14160991912","owner":"39934015@N00","secret":"71be615ed6","server":"2937","farm":3,"title":"Tired !","ispublic":1,"isfriend":0,"isfamily":0,"safe":0,"ownername":"Roberto Alc\u00e2ntara","latitude":-3.733736,"longitude":-38.517379,"accuracy":"16","context":0,"place_id":"Jre9bdVVV7.vuhk","woeid":"455830","geo_is_family":0,"geo_is_friend":0,"geo_is_contact":0,"geo_is_public":1,"media":"photo","media_status":"ready"},{"id":"14158026491","owner":"91521575@N00","secret":"78b0e61418","server":"7434","farm":8,"title":"BNO-LBD","ispublic":1,"isfriend":0,"isfamily":0,"safe":0,"ownername":"Sarah~Jane","latitude":51.996998,"longitude":-0.711776,"accuracy":"16","context":0,"place_id":"fJDbYp1TW7qV4w","woeid":"29062","geo_is_family":0,"geo_is_friend":0,"geo_is_contact":0,"geo_is_public":1,"media":"photo","media_status":"ready"},{"id":"13974271008","owner":"67174237@N06","secret":"9e038e44cb","server":"5506","farm":6,"title":"The Door to Hell","ispublic":1,"isfriend":0,"isfamily":0,"safe":0,"ownername":"Stefan Schinning","latitude":40.252159,"longitude":58.439861,"accuracy":"16","context":0,"place_id":"d5VehYZTUb7FIIO1","woeid":"2347347","geo_is_family":0,"geo_is_friend":0,"geo_is_contact":0,"geo_is_public":1,"media":"photo","media_status":"ready"},{"id":"13973936178","owner":"73112706@N04","secret":"b84cd56ac4","server":"2905","farm":3,"title":"mountain forest \/ Bergwald","ispublic":1,"isfriend":0,"isfamily":0,"safe":0,"ownername":"tideloon","latitude":46.562519,"longitude":7.659337,"accuracy":"16","context":0,"place_id":"aGoV1k9WWrj9Uk8","woeid":"782885","geo_is_family":0,"geo_is_friend":0,"geo_is_contact":0,"geo_is_public":1,"media":"photo","media_status":"ready"},{"id":"14159359464","owner":"35891293@N02","secret":"05b8730d2f","server":"5235","farm":6,"title":"dotting the i's","ispublic":1,"isfriend":0,"isfamily":0,"safe":0,"ownername":"gil walker","latitude":-34.003959,"longitude":23.398808,"accuracy":"16","context":0,"place_id":"788FYBZQV7L3yFfF","woeid":"1586589","geo_is_family":0,"geo_is_friend":0,"geo_is_contact":0,"geo_is_public":1,"media":"photo","media_status":"ready"},{"id":"13972314127","owner":"26429763@N08","secret":"8976bd44ee","server":"2911","farm":3,"title":"Clare loves apple!","ispublic":1,"isfriend":0,"isfamily":0,"safe":0,"ownername":"Born in The 40's.. Explored again!","latitude":52.783285,"longitude":0.153958,"accuracy":"15","context":0,"place_id":"bJzmkqBTVLy5Ng","woeid":"26640","geo_is_family":0,"geo_is_friend":0,"geo_is_contact":0,"geo_is_public":1,"media":"photo","media_status":"ready"},{"id":"14158436675","owner":"66759125@N00","secret":"d380e5738c","server":"5508","farm":6,"title":"","ispublic":1,"isfriend":0,"isfamily":0,"safe":0,"ownername":"Svein Nordrum","latitude":59.895309,"longitude":10.618286,"accuracy":"11","context":0,"place_id":"b99oIP1QV7qhC5HIDA","woeid":"15000608","geo_is_family":0,"geo_is_friend":0,"geo_is_contact":0,"geo_is_public":1,"media":"photo","media_status":"ready"},{"id":"13968210149","owner":"45686660@N02","secret":"d17771d37e","server":"7379","farm":8,"title":"Vipiteno, panorama","ispublic":1,"isfriend":0,"isfamily":0,"safe":0,"ownername":"forastico","latitude":46.891979,"longitude":11.43385,"accuracy":"11","context":0,"place_id":"FHQcxJZWULxnhU0","woeid":"726255","geo_is_family":0,"geo_is_friend":0,"geo_is_contact":0,"geo_is_public":1,"media":"photo","media_status":"ready"},{"id":"14173601023","owner":"56401957@N00","secret":"f55164f4f0","server":"7433","farm":8,"title":"Modernes Bremen","ispublic":1,"isfriend":0,"isfamily":0,"safe":0,"ownername":"Mundus Gregorius","latitude":53.091408,"longitude":8.771327,"accuracy":"16","context":0,"place_id":"0UEen6RXWryM9jA","woeid":"686480","geo_is_family":0,"geo_is_friend":0,"geo_is_contact":0,"geo_is_public":1,"media":"photo","media_status":"ready"},{"id":"14150566262","owner":"8188882@N05","secret":"1e0c35f3f2","server":"7405","farm":8,"title":"Weekend is here ! Cheers, Everyone !! ... xxX","ispublic":1,"isfriend":0,"isfamily":0,"safe":0,"ownername":"DinosaursAreNotDead","latitude":48.859336,"longitude":2.293589,"accuracy":"15","context":0,"place_id":"Gh_droFUV7JfPjFofw","woeid":"55843775","geo_is_family":0,"geo_is_friend":0,"geo_is_contact":0,"geo_is_public":1,"media":"photo","media_status":"ready"},{"id":"13965810057","owner":"90189924@N08","secret":"d49af27232","server":"2915","farm":3,"title":"Wind","ispublic":1,"isfriend":0,"isfamily":0,"safe":0,"ownername":"Guilherme GMP","latitude":-25.405623,"longitude":-49.245164,"accuracy":"16","context":0,"place_id":"ZeCKPdpUV7P8S1MHcg","woeid":"55944080","geo_is_family":0,"geo_is_friend":0,"geo_is_contact":0,"geo_is_public":1,"media":"photo","media_status":"ready"},{"id":"14152245135","owner":"40114744@N05","secret":"fbe1d4b4c5","server":"5501","farm":6,"title":"You can shine for me","ispublic":1,"isfriend":0,"isfamily":0,"safe":0,"ownername":"Dunja0712","latitude":45.8087,"longitude":15.967941,"accuracy":"11","context":0,"place_id":"00j4IylZV7scWik","woeid":"851128","geo_is_family":0,"geo_is_friend":0,"geo_is_contact":0,"geo_is_public":1,"media":"photo","media_status":"ready"},{"id":"14148689201","owner":"60913863@N08","secret":"be8cb9fa32","server":"7360","farm":8,"title":"Santa Maria in Castello (Sagra)","ispublic":1,"isfriend":0,"isfamily":0,"safe":0,"ownername":"Goethe58","latitude":44.782737,"longitude":10.886539,"accuracy":"16","context":0,"place_id":"KkQMH8xWU7hQcx0","woeid":"712322","geo_is_family":0,"geo_is_friend":0,"geo_is_contact":0,"geo_is_public":1,"media":"photo","media_status":"ready"},{"id":"14151988185","owner":"57723455@N07","secret":"4f48a49d90","server":"2930","farm":3,"title":"Netherlands, Photo Walk Rotterdam, (on Explore), 10-05-2014","ispublic":1,"isfriend":0,"isfamily":0,"safe":0,"ownername":"Stone's Photography","latitude":51.9248,"longitude":4.467255,"accuracy":"16","context":0,"place_id":"2i2K1TpTUrqgBHEytA","woeid":"20063952","geo_is_family":0,"geo_is_friend":0,"geo_is_contact":0,"geo_is_public":1,"media":"photo","media_status":"ready"},{"id":"14128463376","owner":"65741821@N02","secret":"0e4b682cb2","server":"7421","farm":8,"title":"Through the trees (Explored)","ispublic":1,"isfriend":0,"isfamily":0,"safe":0,"ownername":"Jicardee29","latitude":51.629526,"longitude":-0.746383,"accuracy":"11","context":0,"place_id":"_y5r9wdTUbgOEg","woeid":"23286","geo_is_family":0,"geo_is_friend":0,"geo_is_contact":0,"geo_is_public":1,"media":"photo","media_status":"ready"},{"id":"13964947187","owner":"61874975@N05","secret":"cf20a7e599","server":"7407","farm":8,"title":"One Rose, for you x","ispublic":1,"isfriend":0,"isfamily":0,"safe":0,"ownername":"Poetic Outlook","latitude":40.851254,"longitude":-74.061035,"accuracy":"11","context":0,"place_id":"fhMz6EhTV7qNoIxT","woeid":"2504975","geo_is_family":0,"geo_is_friend":0,"geo_is_contact":0,"geo_is_public":1,"media":"photo","media_status":"ready"},{"id":"14151311144","owner":"24355450@N07","secret":"b7db422218","server":"7384","farm":8,"title":"Croachy..","ispublic":1,"isfriend":0,"isfamily":0,"safe":0,"ownername":"Gordie Broon.","latitude":57.31271,"longitude":-4.247846,"accuracy":"13","context":0,"place_id":"otLd97dQVblhVw","woeid":"17331","geo_is_family":0,"geo_is_friend":0,"geo_is_contact":0,"geo_is_public":1,"media":"photo","media_status":"ready"},{"id":"14144478101","owner":"50762671@N03","secret":"c16c0c31fc","server":"5326","farm":6,"title":"Pont Alexandre III & Les Invalides, Paris (R\u00e9\u00e9dition)","ispublic":1,"isfriend":0,"isfamily":0,"safe":0,"ownername":"Julien Fromentin - Photographe","latitude":48.864333,"longitude":2.313898,"accuracy":"16","context":0,"place_id":"WU8qo85UV7J7dLZuCw","woeid":"55843784","geo_is_family":0,"geo_is_friend":0,"geo_is_contact":0,"geo_is_public":1,"media":"photo","media_status":"ready"},{"id":"13960959608","owner":"93461361@N05","secret":"58585b83d0","server":"7409","farm":8,"title":"awash in light","ispublic":1,"isfriend":0,"isfamily":0,"safe":0,"ownername":"Van Luvender","latitude":40.023868,"longitude":-75.038509,"accuracy":"15","context":0,"place_id":"9gVzNWtTV7qrsRD6","woeid":"2503553","geo_is_family":0,"geo_is_friend":0,"geo_is_contact":0,"geo_is_public":1,"media":"photo","media_status":"ready"},{"id":"13960847298","owner":"57661772@N03","secret":"e06b8e5875","server":"5343","farm":6,"title":"Cuckoo (Explored)","ispublic":1,"isfriend":0,"isfamily":0,"safe":0,"ownername":"OWL62","latitude":50.634452,"longitude":-3.848519,"accuracy":"14","context":0,"place_id":"Vxjfln5TUroH1AndUw","woeid":"20093787","geo_is_family":0,"geo_is_friend":0,"geo_is_contact":0,"geo_is_public":1,"media":"photo","media_status":"ready"},{"id":"13960397719","owner":"8275386@N04","secret":"2928e9e34d","server":"7342","farm":8,"title":"Struktur & Oberfl\u00e4che","ispublic":1,"isfriend":0,"isfamily":0,"safe":0,"ownername":"letloosethelambs","latitude":47.687405,"longitude":16.58088,"accuracy":"16","context":0,"place_id":"LQK0769ZU78cqQ4","woeid":"815055","geo_is_family":0,"geo_is_friend":0,"geo_is_contact":0,"geo_is_public":1,"media":"photo","media_status":"ready"},{"id":"14166085333","owner":"32791195@N08","secret":"54090aa071","server":"7428","farm":8,"title":"Peeking Yellow","ispublic":1,"isfriend":0,"isfamily":0,"safe":0,"ownername":"dangerousdavecarper","latitude":52.613706,"longitude":1.450581,"accuracy":"14","context":0,"place_id":"FCoAqkRSVL9Lsg","woeid":"36529","geo_is_family":0,"geo_is_friend":0,"geo_is_contact":0,"geo_is_public":1,"media":"photo","media_status":"ready"},{"id":"14142654081","owner":"48282670@N03","secret":"9265ff1814","server":"7426","farm":8,"title":"Industrial War","ispublic":1,"isfriend":0,"isfamily":0,"safe":0,"ownername":"MarcoGiorgiPhoto","latitude":55.69089,"longitude":12.595653,"accuracy":"13","context":0,"place_id":"J9xHRKRTUrgM9K3cuQ","woeid":"20229203","geo_is_family":0,"geo_is_friend":0,"geo_is_contact":0,"geo_is_public":1,"media":"photo","media_status":"ready"},{"id":"14146070074","owner":"52559257@N02","secret":"3c71be5813","server":"2927","farm":3,"title":"14112","ispublic":1,"isfriend":0,"isfamily":0,"safe":0,"ownername":"benbobjr","latitude":52.279636,"longitude":-1.58352,"accuracy":"16","context":0,"place_id":"5x5ud5xSW7gAVQ","woeid":"39228","geo_is_family":0,"geo_is_friend":0,"geo_is_contact":0,"geo_is_public":1,"media":"photo","media_status":"ready"},{"id":"13956358390","owner":"66792513@N07","secret":"b16a7fb647","server":"5468","farm":6,"title":"Athens - Greece","ispublic":1,"isfriend":0,"isfamily":0,"safe":0,"ownername":"Ioannisdg","latitude":37.978211,"longitude":23.714177,"accuracy":"16","context":0,"place_id":"VSVwJQRTUb1trCbTVA","woeid":"23701326","geo_is_family":0,"geo_is_friend":0,"geo_is_contact":0,"geo_is_public":1,"media":"photo","media_status":"ready"},{"id":"14140400155","owner":"93461361@N05","secret":"7d6a14cbfb","server":"7391","farm":8,"title":"gentle","ispublic":1,"isfriend":0,"isfamily":0,"safe":0,"ownername":"Van Luvender","latitude":40.146863,"longitude":-75.936212,"accuracy":"14","context":0,"place_id":"IBMgqU5TWr0vOGBBcA","woeid":"28745230","geo_is_family":0,"geo_is_friend":0,"geo_is_contact":0,"geo_is_public":1,"media":"photo","media_status":"ready"},{"id":"14140340995","owner":"24149205@N05","secret":"2bcfba0df8","server":"2920","farm":3,"title":"View of S\u00f6derm\u00e4larstrand from Riddarholmen, Stockholm","ispublic":1,"isfriend":0,"isfamily":0,"safe":0,"ownername":"AdamTje","latitude":59.323797,"longitude":18.064677,"accuracy":"15","context":0,"place_id":"uBSfjj5YUrjgNoM","woeid":"902412","geo_is_family":0,"geo_is_friend":0,"geo_is_contact":0,"geo_is_public":1,"media":"photo","media_status":"ready"},{"id":"14136905281","owner":"30477482@N00","secret":"a1a9683619","server":"5534","farm":6,"title":"Tower Bridge (Long Exposure) - Explored on 8th May 2014","ispublic":1,"isfriend":0,"isfamily":0,"safe":0,"ownername":"Oliver St\u00f6r","latitude":51.505083,"longitude":-0.075531,"accuracy":"15","context":0,"place_id":"v70Y8qlTUrrLiiTZAg","woeid":"20094363","geo_is_family":0,"geo_is_friend":0,"geo_is_contact":0,"geo_is_public":1,"media":"photo","media_status":"ready"},{"id":"14134313181","owner":"35084357@N06","secret":"025cccf375","server":"5102","farm":6,"title":"Pont Aven","ispublic":1,"isfriend":0,"isfamily":0,"safe":0,"ownername":"flo 59","latitude":47.855386,"longitude":-3.748741,"accuracy":"14","context":0,"place_id":"nL5YgPNXU73sG_4","woeid":"617326","geo_is_family":0,"geo_is_friend":0,"geo_is_contact":0,"geo_is_public":1,"media":"photo","media_status":"ready"},{"id":"14134620052","owner":"99706814@N03","secret":"ba80843cb5","server":"7332","farm":8,"title":"Abeille","ispublic":1,"isfriend":0,"isfamily":0,"safe":0,"ownername":"sebastienpeguillou","latitude":48.842208,"longitude":2.35734,"accuracy":"13","context":0,"place_id":"EsIQUYZXU79_kEA","woeid":"615702","geo_is_family":0,"geo_is_friend":0,"geo_is_contact":0,"geo_is_public":1,"media":"photo","media_status":"ready"},{"id":"13949381200","owner":"68898571@N00","secret":"2746de4bc1","server":"2903","farm":3,"title":"Calangute beach scene - Goa, India","ispublic":1,"isfriend":0,"isfamily":0,"safe":0,"ownername":"Maciej Dakowicz","latitude":15.5448,"longitude":73.75493,"accuracy":"16","context":0,"place_id":"O2C8T.tUV7PTjgAwtQ","woeid":"55953432","geo_is_family":0,"geo_is_friend":0,"geo_is_contact":0,"geo_is_public":1,"media":"photo","media_status":"ready"}]},"stat":"ok"}