{"photos":{"page":37,"pages":26685,"perpage":60,"total":"1601100","photo":[{"id":"14213056666","owner":"37176070@N08","secret":"9d02466b35","server":"2921","farm":3,"title":"mini coleottero bicolore metallizzato offresi","ispublic":1,"isfriend":0,"isfamily":0,"safe":0,"ownername":"fotomie2009","latitude":44.245783,"longitude":8.359479,"accuracy":"15","context":0,"place_id":"XY5Fa5BWULlEHPo","woeid":"723978","geo_is_family":0,"geo_is_friend":0,"geo_is_contact":0,"geo_is_public":1,"media":"photo","media_status":"ready"},{"id":"14231362135","owner":"72968563@N06","secret":"f0222ef343","server":"5475","farm":6,"title":"Oneta falls","ispublic":1,"isfriend":0,"isfamily":0,"safe":0,"ownername":"A. del Campo","latitude":43.46471,"longitude":-6.66891,"accuracy":"16","context":0,"place_id":"cIYXBQ1WVLJknWY","woeid":"768809","geo_is_family":0,"geo_is_friend":0,"geo_is_contact":0,"geo_is_public":1,"media":"photo","media_status":"ready"},{"id":"14044482909","owner":"48872775@N05","secret":"2ae7f3e4c8","server":"2906","farm":3,"title":"Crow - Explore 20.5.14","ispublic":1,"isfriend":0,"isfamily":0,"safe":0,"ownername":"Peaf79","latitude":50.836082,"longitude":-3.165779,"accuracy":"11","context":0,"place_id":"vTLCwvNQULug2w","woeid":"12130","geo_is_family":0,"geo_is_friend":0,"geo_is_contact":0,"geo_is_public":1,"media":"photo","media_status":"ready"},{"id":"14205923596","owner":"34885474@N03","secret":"c3ca158da1","server":"5498","farm":6,"title":"otra vez so\u00f1ando","ispublic":1,"isfriend":0,"isfamily":0,"safe":0,"ownername":"alcachofa1960","latitude":40.318965,"longitude":-3.502267,"accuracy":"16","context":0,"place_id":"SULXbAJWV7Nkz_o","woeid":"759552","geo_is_family":0,"geo_is_friend":0,"geo_is_contact":0,"geo_is_public":1,"media":"photo","media_status":"ready"},{"id":"14227366585","owner":"87734984@N07","secret":"00884aebe8","server":"2937","farm":3,"title":"just do it","ispublic":1,"isfriend":0,"isfamily":0,"safe":0,"ownername":"aphon 50mm","latitude":48.362044,"longitude":-4.766891,"accuracy":"16","context":0,"place_id":"53BvRVFXUrhCsIQ","woeid":"602705","geo_is_family":0,"geo_is_friend":0,"geo_is_contact":0,"geo_is_public":1,"media":"photo","media_status":"ready"},{"id":"14036924358","owner":"22829572@N06","secret":"dd7fae8a0b","server":"5156","farm":6,"title":"a carpet of blue (Rannerdale Bluebells) [Explored - thank you!]","ispublic":1,"isfriend":0,"isfamily":0,"safe":0,"ownername":"Steve Brannon...","latitude":54.556622,"longitude":-3.288795,"accuracy":"16","context":0,"place_id":".5Y_fRVQVr3nXw","woeid":"14755","geo_is_family":0,"geo_is_friend":0,"geo_is_contact":0,"geo_is_public":1,"media":"photo","media_status":"ready"},{"id":"14036031070","owner":"72098626@N00","secret":"5fcaf96e37","server":"5071","farm":6,"title":"One day, New York dogs will rise up and overthrow their masters ... or maybe just their dog-walkers","ispublic":1,"isfriend":0,"isfamily":0,"safe":0,"ownername":"Ed Yourdon","latitude":40.776886,"longitude":-73.95191,"accuracy":"16","context":0,"place_id":"GBznSH1TWr0NcFCniA","woeid":"28751571","geo_is_family":0,"geo_is_friend":0,"geo_is_contact":0,"geo_is_public":1,"media":"photo","media_status":"ready"},{"id":"14035009498","owner":"52554767@N05","secret":"cc1fd27c34","server":"2915","farm":3,"title":"night metro","ispublic":1,"isfriend":0,"isfamily":0,"safe":0,"ownername":"smithmakaay","latitude":41.046216,"longitude":28.98056,"accuracy":"10","context":0,"place_id":"l02DEdJTUb5XGlLZ","woeid":"2344116","geo_is_family":0,"geo_is_friend":0,"geo_is_contact":0,"geo_is_public":1,"media":"photo","media_status":"ready"},{"id":"14217442251","owner":"61033692@N00","secret":"14bb7d230b","server":"5496","farm":6,"title":"Here comes the sun","ispublic":1,"isfriend":0,"isfamily":0,"safe":0,"ownername":"magellano","latitude":36.891703,"longitude":27.291412,"accuracy":"11","context":0,"place_id":"ID6q1pxYV74Kg1o","woeid":"954124","geo_is_family":0,"geo_is_friend":0,"geo_is_contact":0,"geo_is_public":1,"media":"photo","media_status":"ready"},{"id":"14213271661","owner":"7405964@N03","secret":"c2d7d90e86","server":"5479","farm":6,"title":"Dedos son dedos","ispublic":1,"isfriend":0,"isfamily":0,"safe":0,"ownername":"Gonzak","latitude":-34.898246,"longitude":-56.178331,"accuracy":"16","context":0,"place_id":"wAWPBvVSWrqZh5Q","woeid":"380452","geo_is_family":0,"geo_is_friend":0,"geo_is_contact":0,"geo_is_public":1,"media":"photo","media_status":"ready"},{"id":"14234223473","owner":"85081332@N00","secret":"b8d9dcbfe5","server":"5477","farm":6,"title":"Moated castle Lembeck","ispublic":1,"isfriend":0,"isfamily":0,"safe":0,"ownername":"pe_ha45","latitude":51.742456,"longitude":6.998376,"accuracy":"16","context":0,"place_id":"3cV3iEZXVbsRR4s","woeid":"671150","geo_is_family":0,"geo_is_friend":0,"geo_is_contact":0,"geo_is_public":1,"media":"photo","media_status":"ready"},{"id":"14207147104","owner":"55276930@N04","secret":"1c9f982886","server":"5077","farm":6,"title":"Alter Markt - Magdeburg","ispublic":1,"isfriend":0,"isfamily":0,"safe":0,"ownername":"Magdeburg","latitude":52.131835,"longitude":11.638598,"accuracy":"16","context":0,"place_id":"mPDXKW5XVbk6z0s","woeid":"673361","geo_is_family":0,"geo_is_friend":0,"geo_is_contact":0,"geo_is_public":1,"media":"photo","media_status":"ready"},{"id":"14201540932","owner":"50226851@N07","secret":"8fc8508f7a","server":"5551","farm":6,"title":"\"Un \u00e1rbol tiene ra\u00edces en el suelo y ramas que rozan el cielo, y nos recuerda que para prosperar tenemos que saber de d\u00f3nde venimos.\"  (Wangari Maathai)","ispublic":1,"isfriend":0,"isfamily":0,"safe":0,"ownername":"Emilio Rodr\u00edguez \u00c1lvarez","latitude":43.377977,"longitude":-8.43707,"accuracy":"14","context":0,"place_id":"sWHFrNNWVLnsxTY","woeid":"763246","geo_is_family":0,"geo_is_friend":0,"geo_is_contact":0,"geo_is_public":1,"media":"photo","media_status":"ready"},{"id":"14223962933","owner":"66403925@N03","secret":"c0a38077c1","server":"2922","farm":3,"title":"Pega-rabuda, Magpie (Pica pica) - em Liberdade [in Wild]","ispublic":1,"isfriend":0,"isfamily":0,"safe":0,"ownername":"ana & xavier (1.100.000 views - Obg \/ thanks)","latitude":41.129108,"longitude":-8.61361,"accuracy":"11","context":0,"place_id":"a69YBDJWV7q53QY","woeid":"750800","geo_is_family":0,"geo_is_friend":0,"geo_is_contact":0,"geo_is_public":1,"media":"photo","media_status":"ready"},{"id":"14197090971","owner":"47854399@N08","secret":"95810eeb96","server":"7382","farm":8,"title":"[Explore] Tour encercl\u00e9e au couchant","ispublic":1,"isfriend":0,"isfamily":0,"safe":0,"ownername":"Johann THEBAULT - Photographe Amateur","latitude":48.636379,"longitude":-2.084435,"accuracy":"16","context":0,"place_id":"uTKppUZTUrvQnVVBcQ","woeid":"20177605","geo_is_family":0,"geo_is_friend":0,"geo_is_contact":0,"geo_is_public":1,"media":"photo","media_status":"ready"},{"id":"14219772953","owner":"30477482@N00","secret":"8ab34621f3","server":"7345","farm":8,"title":"Hawthorn Blossom (Explored on 16th May 2014)","ispublic":1,"isfriend":0,"isfamily":0,"safe":0,"ownername":"Oliver St\u00f6r","latitude":49.980867,"longitude":8.505821,"accuracy":"14","context":0,"place_id":"Qxznr_BTUrvofiSmMg","woeid":"20162174","geo_is_family":0,"geo_is_friend":0,"geo_is_contact":0,"geo_is_public":1,"media":"photo","media_status":"ready"},{"id":"14012976447","owner":"30812694@N03","secret":"53360488bc","server":"5155","farm":6,"title":"Last Mohicans","ispublic":1,"isfriend":0,"isfamily":0,"safe":0,"ownername":"Ricardo Alguacil","latitude":44.494224,"longitude":11.343941,"accuracy":"16","context":0,"place_id":"OpIp4IBWU7vidc0","woeid":"711080","geo_is_family":0,"geo_is_friend":0,"geo_is_contact":0,"geo_is_public":1,"media":"photo","media_status":"ready"},{"id":"14199416345","owner":"34885474@N03","secret":"465c9dc52f","server":"2910","farm":3,"title":"ya solo quedaba una estrella","ispublic":1,"isfriend":0,"isfamily":0,"safe":0,"ownername":"alcachofa1960","latitude":28.07234,"longitude":-14.303587,"accuracy":"16","context":0,"place_id":"JXXP4QtUVLoTJ_IoFw","woeid":"56065264","geo_is_family":0,"geo_is_friend":0,"geo_is_contact":0,"geo_is_public":1,"media":"photo","media_status":"ready"},{"id":"14198806065","owner":"32656068@N03","secret":"d27150e0d1","server":"7389","farm":8,"title":"wild garlic.","ispublic":1,"isfriend":0,"isfamily":0,"safe":0,"ownername":"kmam","latitude":55.621505,"longitude":-4.483117,"accuracy":"16","context":0,"place_id":"qsyoHUxTVrPBFQ","woeid":"24996","geo_is_family":0,"geo_is_friend":0,"geo_is_contact":0,"geo_is_public":1,"media":"photo","media_status":"ready"},{"id":"14198043474","owner":"42812461@N00","secret":"7c06dd1540","server":"5564","farm":6,"title":"Life is  serious business","ispublic":1,"isfriend":0,"isfamily":0,"safe":0,"ownername":"Akbar Simonse","latitude":52.380629,"longitude":4.899001,"accuracy":"16","context":0,"place_id":"xQ4tawtWUL1NrOY","woeid":"727232","geo_is_family":0,"geo_is_friend":0,"geo_is_contact":0,"geo_is_public":1,"media":"photo","media_status":"ready"},{"id":"14011464688","owner":"22843771@N04","secret":"e0a2f2042c","server":"2905","farm":3,"title":"UCI 2","ispublic":1,"isfriend":0,"isfamily":0,"safe":0,"ownername":"Assun","latitude":41.389969,"longitude":2.130475,"accuracy":"16","context":0,"place_id":"xiYk7HBWVb7qP8g","woeid":"774129","geo_is_family":0,"geo_is_friend":0,"geo_is_contact":0,"geo_is_public":1,"media":"photo","media_status":"ready"},{"id":"14174039666","owner":"56936646@N07","secret":"79d0264f54","server":"2937","farm":3,"title":"Passo dello Stelvio","ispublic":1,"isfriend":0,"isfamily":0,"safe":0,"ownername":"Fr@nk = recovering","latitude":46.52859,"longitude":10.453319,"accuracy":"15","context":0,"place_id":"5Zydc3pTW7nYNDQMpQ","woeid":"29335959","geo_is_family":0,"geo_is_friend":0,"geo_is_contact":0,"geo_is_public":1,"media":"photo","media_status":"ready"},{"id":"14010567587","owner":"29826595@N06","secret":"ccae9ae4f1","server":"2928","farm":3,"title":"European Stonechat","ispublic":1,"isfriend":0,"isfamily":0,"safe":0,"ownername":"themadbirdlady - anne cotton","latitude":56.200401,"longitude":-3.889503,"accuracy":"11","context":0,"place_id":"cmuSWVhQWrwfIg","woeid":"18626","geo_is_family":0,"geo_is_friend":0,"geo_is_contact":0,"geo_is_public":1,"media":"photo","media_status":"ready"},{"id":"14173676146","owner":"47035764@N03","secret":"243a446041","server":"2896","farm":3,"title":"Orvelte Museum Village, Drenthe, Netherlands - 1807","ispublic":1,"isfriend":0,"isfamily":0,"safe":0,"ownername":"HereIsTom","latitude":52.843848,"longitude":6.660335,"accuracy":"16","context":0,"place_id":"q.X1985WUbiu0IA","woeid":"732456","geo_is_family":0,"geo_is_friend":0,"geo_is_contact":0,"geo_is_public":1,"media":"photo","media_status":"ready"},{"id":"14006170799","owner":"76458369@N07","secret":"bb0613b4e1","server":"7410","farm":8,"title":"Light...","ispublic":1,"isfriend":0,"isfamily":0,"safe":0,"ownername":"Eric Goncalves","latitude":51.756896,"longitude":-2.610282,"accuracy":"13","context":0,"place_id":"24bh..RTUrolDDCYIg","woeid":"20092541","geo_is_family":0,"geo_is_friend":0,"geo_is_contact":0,"geo_is_public":1,"media":"photo","media_status":"ready"},{"id":"14006196487","owner":"49475392@N04","secret":"b1bfcf2e23","server":"7427","farm":8,"title":"Raw View Of Tampa Bay","ispublic":1,"isfriend":0,"isfamily":0,"safe":0,"ownername":"theo0023","latitude":27.938986,"longitude":-82.459902,"accuracy":"14","context":0,"place_id":"xRi6iFBUV7P.M8NsaA","woeid":"55982034","geo_is_family":0,"geo_is_friend":0,"geo_is_contact":0,"geo_is_public":1,"media":"photo","media_status":"ready"},{"id":"14190560874","owner":"95549570@N00","secret":"5ed4402444","server":"7410","farm":8,"title":"This eyes have seen a lot of lifes","ispublic":1,"isfriend":0,"isfamily":0,"safe":0,"ownername":"Giulio Magnifico","latitude":37.053072,"longitude":37.382294,"accuracy":"16","context":0,"place_id":"IjsMjpBUVLqYChFNSA","woeid":"56043070","geo_is_family":0,"geo_is_friend":0,"geo_is_contact":0,"geo_is_public":1,"media":"photo","media_status":"ready"},{"id":"14000489709","owner":"63270671@N03","secret":"3476ed82ae","server":"7333","farm":8,"title":"To the ruins - Flickr explore 14.05.2014","ispublic":1,"isfriend":0,"isfamily":0,"safe":0,"ownername":"S.R.Murphy","latitude":54.287437,"longitude":-0.387139,"accuracy":"15","context":0,"place_id":"MYAVnBZSVrvgtw","woeid":"34158","geo_is_family":0,"geo_is_friend":0,"geo_is_contact":0,"geo_is_public":1,"media":"photo","media_status":"ready"},{"id":"13999399040","owner":"23355426@N00","secret":"cb5b45f5db","server":"2899","farm":3,"title":"Handles","ispublic":1,"isfriend":0,"isfamily":0,"safe":0,"ownername":"Poul-Werner","latitude":56.396952,"longitude":8.543822,"accuracy":"16","context":0,"place_id":"DOzQXsdQV7oM24YkfA","woeid":"15000101","geo_is_family":0,"geo_is_friend":0,"geo_is_contact":0,"geo_is_public":1,"media":"photo","media_status":"ready"},{"id":"14182261281","owner":"36217762@N00","secret":"1fa256e85b","server":"2901","farm":3,"title":"Photographers-portrait II","ispublic":1,"isfriend":0,"isfamily":0,"safe":0,"ownername":"Pixelm\u00e4dchen6","latitude":52.531822,"longitude":13.385682,"accuracy":"15","context":0,"place_id":"zot2ouJXUbKOJRM","woeid":"638242","geo_is_family":0,"geo_is_friend":0,"geo_is_contact":0,"geo_is_public":1,"media":"photo","media_status":"ready"},{"id":"14160983396","owner":"67485055@N04","secret":"85d881d7df","server":"5503","farm":6,"title":"cactus","ispublic":1,"isfriend":0,"isfamily":0,"safe":0,"ownername":"jegeor","latitude":48.826492,"longitude":2.381023,"accuracy":"16","context":0,"place_id":"7SHEWlVUV7KvKssPGg","woeid":"55843813","geo_is_family":0,"geo_is_friend":0,"geo_is_contact":0,"geo_is_public":1,"media":"photo","media_status":"ready"},{"id":"13996473667","owner":"72602196@N08","secret":"ffeb86f029","server":"2922","farm":3,"title":"s\u00fc\u00df und sauer- sweet and sour","ispublic":1,"isfriend":0,"isfamily":0,"safe":0,"ownername":"Anke knipst","latitude":53.795125,"longitude":9.768047,"accuracy":"14","context":0,"place_id":"x8HctdtQULz5Fqu.Hw","woeid":"12632357","geo_is_family":0,"geo_is_friend":0,"geo_is_contact":0,"geo_is_public":1,"media":"photo","media_status":"ready"},{"id":"13995993580","owner":"34911734@N07","secret":"4d4c72f4ca","server":"5036","farm":6,"title":"Threatening Skies","ispublic":1,"isfriend":0,"isfamily":0,"safe":0,"ownername":"Worthing Wanderer","latitude":50.860826,"longitude":-0.384015,"accuracy":"14","context":0,"place_id":"HzabUPBTUro999BczA","woeid":"20093462","geo_is_family":0,"geo_is_friend":0,"geo_is_contact":0,"geo_is_public":1,"media":"photo","media_status":"ready"},{"id":"14180200035","owner":"66403925@N03","secret":"478f89cdb5","server":"7450","farm":8,"title":"Laverca, Eurasian Skylark(Alauda arvensis) - em Liberdade [in Wild]Laverca","ispublic":1,"isfriend":0,"isfamily":0,"safe":0,"ownername":"ana & xavier (1.100.000 views - Obg \/ thanks)","latitude":38.953941,"longitude":-8.98985,"accuracy":"11","context":0,"place_id":"LPuVWLlWV7oyVlM","woeid":"750699","geo_is_family":0,"geo_is_friend":0,"geo_is_contact":0,"geo_is_public":1,"media":"photo","media_status":"ready"},{"id":"13993128347","owner":"22638088@N04","secret":"c6a86c2032","server":"7385","farm":8,"title":"Iceland - Sn\u00e6fellsnes - Grundarfj\u00f6r\u00f0ur - Kirkjufell during setting Moon & Northern lights - Aurora Borealis","ispublic":1,"isfriend":0,"isfamily":0,"safe":0,"ownername":"\u00a9 Lucie Debelkova \/ www.luciedebelkova.com","latitude":64.933869,"longitude":-23.305606,"accuracy":"16","context":0,"place_id":"qlYnE6ZYWrqvBLI","woeid":"980160","geo_is_family":0,"geo_is_friend":0,"geo_is_contact":0,"geo_is_public":1,"media":"photo","media_status":"ready"},{"id":"13992377640","owner":"88420718@N03","secret":"70bbb44734","server":"7414","farm":8,"title":"large fishing boat","ispublic":1,"isfriend":0,"isfamily":0,"safe":0,"ownername":"thequietguy","latitude":40.391534,"longitude":23.89492,"accuracy":"16","context":0,"place_id":"WklAuWpUVLqm04WJtg","woeid":"56024797","geo_is_family":0,"geo_is_friend":0,"geo_is_contact":0,"geo_is_public":1,"media":"photo","media_status":"ready"},{"id":"13991883017","owner":"62597931@N02","secret":"e2cb909681","server":"7362","farm":8,"title":"Garsdale Box","ispublic":1,"isfriend":0,"isfamily":0,"safe":0,"ownername":"Jim the Joker","latitude":54.322142,"longitude":-2.325389,"accuracy":"16","context":0,"place_id":"JeuguhpTUrJvXw","woeid":"20868","geo_is_family":0,"geo_is_friend":0,"geo_is_contact":0,"geo_is_public":1,"media":"photo","media_status":"ready"},{"id":"13990937479","owner":"94579059@N05","secret":"31aa25ea51","server":"7368","farm":8,"title":"Illusion","ispublic":1,"isfriend":0,"isfamily":0,"safe":0,"ownername":"m43photos","latitude":48.896253,"longitude":2.398474,"accuracy":"16","context":0,"place_id":"EsIQUYZXU79_kEA","woeid":"615702","geo_is_family":0,"geo_is_friend":0,"geo_is_contact":0,"geo_is_public":1,"media":"photo","media_status":"ready"},{"id":"14176918934","owner":"60913863@N08","secret":"1237d42079","server":"2913","farm":3,"title":"Castello di Pompeano 2  (Pompeano Castle 2)","ispublic":1,"isfriend":0,"isfamily":0,"safe":0,"ownername":"Goethe58","latitude":44.399777,"longitude":10.758961,"accuracy":"16","context":0,"place_id":"yYa1I41WUL5F_oo","woeid":"724090","geo_is_family":0,"geo_is_friend":0,"geo_is_contact":0,"geo_is_public":1,"media":"photo","media_status":"ready"},{"id":"14172787971","owner":"7493849@N05","secret":"90269168ec","server":"5492","farm":6,"title":"Cervino #2","ispublic":1,"isfriend":0,"isfamily":0,"safe":0,"ownername":"twoeye","latitude":45.933878,"longitude":7.708164,"accuracy":"16","context":0,"place_id":"5iMmsSNQULzDiwSTlQ","woeid":"12682989","geo_is_family":0,"geo_is_friend":0,"geo_is_contact":0,"geo_is_public":1,"media":"photo","media_status":"ready"},{"id":"13989464707","owner":"96928198@N00","secret":"4dfa106ec0","server":"5547","farm":6,"title":"Fjorden med ferge -|- Fjord with ferry","ispublic":1,"isfriend":0,"isfamily":0,"safe":0,"ownername":"\u5f61erlingsi","latitude":62.14677,"longitude":6.06132,"accuracy":"15","context":0,"place_id":"lKPMYbBZVL9_C0Q","woeid":"865868","geo_is_family":0,"geo_is_friend":0,"geo_is_contact":0,"geo_is_public":1,"media":"photo","media_status":"ready"},{"id":"14193963843","owner":"75133058@N00","secret":"66cda938da","server":"7365","farm":8,"title":"La atropellada","ispublic":1,"isfriend":0,"isfamily":0,"safe":0,"ownername":"Eduardo Amorim","latitude":-34.233802,"longitude":-59.499206,"accuracy":"11","context":0,"place_id":"K.q5MK9SUbg4DZE","woeid":"332504","geo_is_family":0,"geo_is_friend":0,"geo_is_contact":0,"geo_is_public":1,"media":"photo","media_status":"ready"},{"id":"14168267951","owner":"10817753@N03","secret":"ace0a8f2e6","server":"7334","farm":8,"title":"Kungstr\u00e4dg\u00e5rden, May 14, 2010","ispublic":1,"isfriend":0,"isfamily":0,"safe":0,"ownername":"Ulf Bodin","latitude":59.332227,"longitude":18.07053,"accuracy":"16","context":0,"place_id":"9N3p7MZYUrpgccE","woeid":"900000","geo_is_family":0,"geo_is_friend":0,"geo_is_contact":0,"geo_is_public":1,"media":"photo","media_status":"ready"},{"id":"14191132633","owner":"66403925@N03","secret":"8e435ba6b1","server":"2913","farm":3,"title":"Toutinegra dos valados, Sardinian Warbler(Sylvia melanocephala) - em Liberdade [in wild]","ispublic":1,"isfriend":0,"isfamily":0,"safe":0,"ownername":"ana & xavier (1.100.000 views - Obg \/ thanks)","latitude":38.940184,"longitude":-8.988189,"accuracy":"11","context":0,"place_id":"LPuVWLlWV7oyVlM","woeid":"750699","geo_is_family":0,"geo_is_friend":0,"geo_is_contact":0,"geo_is_public":1,"media":"photo","media_status":"ready"},{"id":"14191050043","owner":"62529443@N07","secret":"5ec4c49893","server":"5155","farm":6,"title":"NEOPRIME","ispublic":1,"isfriend":0,"isfamily":0,"safe":0,"ownername":"Martin Dietrich \u23aawww.neoprime.de","latitude":50.26971,"longitude":8.444299,"accuracy":"11","context":0,"place_id":"i7BTwoZXW7hUecA","woeid":"692521","geo_is_family":0,"geo_is_friend":0,"geo_is_contact":0,"geo_is_public":1,"media":"photo","media_status":"ready"},{"id":"13981576029","owner":"61874975@N05","secret":"019573c6cb","server":"2928","farm":3,"title":"Strange Phenomena, in a Great City","ispublic":1,"isfriend":0,"isfamily":0,"safe":0,"ownername":"Poetic Outlook","latitude":40.70011,"longitude":-73.903381,"accuracy":"8","context":0,"place_id":".skCPTpTVr.Q3WKW","woeid":"2459115","geo_is_family":0,"geo_is_friend":0,"geo_is_contact":0,"geo_is_public":1,"media":"photo","media_status":"ready"},{"id":"14145037286","owner":"26929072@N08","secret":"91992927b2","server":"2913","farm":3,"title":"Fl\u00f3ra <3","ispublic":1,"isfriend":0,"isfamily":0,"safe":0,"ownername":"San 42","latitude":47.4896,"longitude":19.067802,"accuracy":"13","context":0,"place_id":"kCcW045ZU7mwJCU","woeid":"813744","geo_is_family":0,"geo_is_friend":0,"geo_is_contact":0,"geo_is_public":1,"media":"photo","media_status":"ready"},{"id":"14143718166","owner":"86867805@N08","secret":"9bb1668e1b","server":"2915","farm":3,"title":"Dreamer","ispublic":1,"isfriend":0,"isfamily":0,"safe":0,"ownername":"-KOOPS-","latitude":51.049461,"longitude":2.38841,"accuracy":"16","context":0,"place_id":"WmBxCBxUWrMhilE","woeid":"589284","geo_is_family":0,"geo_is_friend":0,"geo_is_contact":0,"geo_is_public":1,"media":"photo","media_status":"ready"},{"id":"13979156700","owner":"62448022@N00","secret":"a4b5c26934","server":"7378","farm":8,"title":"Little Stream","ispublic":1,"isfriend":0,"isfamily":0,"safe":0,"ownername":"Aerial Photography","latitude":48.459611,"longitude":12.001061,"accuracy":"16","context":0,"place_id":"cj4bNjFXVbPXD.c","woeid":"679455","geo_is_family":0,"geo_is_friend":0,"geo_is_contact":0,"geo_is_public":1,"media":"photo","media_status":"ready"},{"id":"14181529783","owner":"57661772@N03","secret":"4f92dfb75f","server":"5541","farm":6,"title":"Cuckoo chasing off a pipit( Explored)","ispublic":1,"isfriend":0,"isfamily":0,"safe":0,"ownername":"OWL62","latitude":50.636239,"longitude":-3.847789,"accuracy":"12","context":0,"place_id":"Vxjfln5TUroH1AndUw","woeid":"20093787","geo_is_family":0,"geo_is_friend":0,"geo_is_contact":0,"geo_is_public":1,"media":"photo","media_status":"ready"},{"id":"14137313426","owner":"10396209@N07","secret":"17cbb44de2","server":"7316","farm":8,"title":"Marstrand","ispublic":1,"isfriend":0,"isfamily":0,"safe":0,"ownername":"FreakyLeo","latitude":57.894727,"longitude":11.583958,"accuracy":"14","context":0,"place_id":"vdcp81hZW7IYBWg","woeid":"898280","geo_is_family":0,"geo_is_friend":0,"geo_is_contact":0,"geo_is_public":1,"media":"photo","media_status":"ready"},{"id":"14156921611","owner":"94579059@N05","secret":"9b3997050d","server":"7391","farm":8,"title":"Par\u00e9 au lancement \/ Ready to launch","ispublic":1,"isfriend":0,"isfamily":0,"safe":0,"ownername":"m43photos","latitude":48.839921,"longitude":2.273225,"accuracy":"16","context":0,"place_id":"8pZpvHJUV7K0rV0XVw","woeid":"55843824","geo_is_family":0,"geo_is_friend":0,"geo_is_contact":0,"geo_is_public":1,"media":"photo","media_status":"ready"},{"id":"13973337138","owner":"97664410@N02","secret":"eda18ce8e9","server":"7311","farm":8,"title":"Madrid in motion","ispublic":1,"isfriend":0,"isfamily":0,"safe":0,"ownername":"Julieta Portel","latitude":40.415726,"longitude":-3.695847,"accuracy":"16","context":0,"place_id":"XrSazRhTUrh4j1shyQ","woeid":"20219885","geo_is_family":0,"geo_is_friend":0,"geo_is_contact":0,"geo_is_public":1,"media":"photo","media_status":"ready"},{"id":"14158896884","owner":"66856475@N06","secret":"a371aa4c61","server":"2931","farm":3,"title":"at home......explored, thank you","ispublic":1,"isfriend":0,"isfamily":0,"safe":0,"ownername":"Suzie Noble","latitude":57.406603,"longitude":-4.682922,"accuracy":"11","context":0,"place_id":"Kl2w1o5SVL8aGA","woeid":"36531","geo_is_family":0,"geo_is_friend":0,"geo_is_contact":0,"geo_is_public":1,"media":"photo","media_status":"ready"},{"id":"14134796326","owner":"42761333@N07","secret":"f3472528dc","server":"5029","farm":6,"title":"First Light - EXPLORED! Thank you! :-)","ispublic":1,"isfriend":0,"isfamily":0,"safe":0,"ownername":"Ricardodaforce","latitude":38.369629,"longitude":-0.410013,"accuracy":"14","context":0,"place_id":"FgSLKm5WVLmuFXQ","woeid":"763227","geo_is_family":0,"geo_is_friend":0,"geo_is_contact":0,"geo_is_public":1,"media":"photo","media_status":"ready"},{"id":"13968171417","owner":"48470761@N07","secret":"8e39e57017","server":"7445","farm":8,"title":"erikharstrom-Spring 2014-0451","ispublic":1,"isfriend":0,"isfamily":0,"safe":0,"ownername":"Erik Harstr\u00f6m","latitude":46.207814,"longitude":6.721916,"accuracy":"14","context":0,"place_id":"LCIUzKBXU7noT0U","woeid":"613087","geo_is_family":0,"geo_is_friend":0,"geo_is_contact":0,"geo_is_public":1,"media":"photo","media_status":"ready"},{"id":"14149948561","owner":"45265244@N07","secret":"dd879d1743","server":"2900","farm":3,"title":"The Setting Moon","ispublic":1,"isfriend":0,"isfamily":0,"safe":0,"ownername":"Mick O'Reilly","latitude":28.224592,"longitude":-16.632592,"accuracy":"15","context":0,"place_id":"QldHvoVQULwLKg959Q","woeid":"12690210","geo_is_family":0,"geo_is_friend":0,"geo_is_contact":0,"geo_is_public":1,"media":"photo","media_status":"ready"},{"id":"14129991306","owner":"61160543@N08","secret":"15060536f6","server":"5548","farm":6,"title":"Lightpainting 04","ispublic":1,"isfriend":0,"isfamily":0,"safe":0,"ownername":"Uruvyel","latitude":39.178181,"longitude":-0.312767,"accuracy":"13","context":0,"place_id":"sX9bPT9WVLpZ.eQ","woeid":"760825","geo_is_family":0,"geo_is_friend":0,"geo_is_contact":0,"geo_is_public":1,"media":"photo","media_status":"ready"},{"id":"14172660903","owner":"69579645@N02","secret":"536d603ce8","server":"2897","farm":3,"title":"Palm Beach Traffic","ispublic":1,"isfriend":0,"isfamily":0,"safe":0,"ownername":"AJ Ferrari","latitude":26.701874,"longitude":-80.03658,"accuracy":"15","context":0,"place_id":"0YiFIu1UV7KBwnYs2g","woeid":"55862430","geo_is_family":0,"geo_is_friend":0,"geo_is_contact":0,"geo_is_public":1,"media":"photo","media_status":"ready"},{"id":"14152412034","owner":"94579059@N05","secret":"bf20ce44d4","server":"7313","farm":8,"title":"Arbre de m\u00e9tal \/ Metal tree","ispublic":1,"isfriend":0,"isfamily":0,"safe":0,"ownername":"m43photos","latitude":48.834413,"longitude":2.374913,"accuracy":"16","context":0,"place_id":"UproB21UV7Jwzo9e3w","woeid":"55843810","geo_is_family":0,"geo_is_friend":0,"geo_is_contact":0,"geo_is_public":1,"media":"photo","media_status":"ready"}]},"stat":"ok"}