{"photos":{"page":57,"pages":26696,"perpage":60,"total":"1601726","photo":[{"id":"14071340184","owner":"60527064@N00","secret":"3b2e91f37a","server":"7061","farm":8,"title":"\"The Gazette\"","ispublic":1,"isfriend":0,"isfamily":0,"safe":0,"ownername":"Eric Flexyourhead","latitude":45.500383,"longitude":-73.572456,"accuracy":"16","context":0,"place_id":"YKXEFvJTVLlYzxcrIQ","woeid":"26332794","geo_is_family":0,"geo_is_friend":0,"geo_is_contact":0,"geo_is_public":1,"media":"photo","media_status":"ready"},{"id":"14065634114","owner":"33995372@N07","secret":"b4c44529b6","server":"7452","farm":8,"title":"Snowdonia Sky","ispublic":1,"isfriend":0,"isfamily":0,"safe":0,"ownername":"milesdavis1","latitude":53.131643,"longitude":-4.132575,"accuracy":"11","context":0,"place_id":"BPDLWmFQW7LpVQ","woeid":"19835","geo_is_family":0,"geo_is_friend":0,"geo_is_contact":0,"geo_is_public":1,"media":"photo","media_status":"ready"},{"id":"14059614332","owner":"22897666@N00","secret":"256857e9c7","server":"7403","farm":8,"title":"Spring Mountain Stream  *Explore*","ispublic":1,"isfriend":0,"isfamily":0,"safe":0,"ownername":"Catskills Photography","latitude":41.937658,"longitude":-73.207225,"accuracy":"12","context":0,"place_id":"gfqjaa1TVrNpuzuD","woeid":"2496541","geo_is_family":0,"geo_is_friend":0,"geo_is_contact":0,"geo_is_public":1,"media":"photo","media_status":"ready"},{"id":"14062737565","owner":"100738664@N05","secret":"a6554a5e0f","server":"7192","farm":8,"title":"Pontile serale","ispublic":1,"isfriend":0,"isfamily":0,"safe":0,"ownername":"IVAN 63","latitude":43.922811,"longitude":10.198831,"accuracy":"16","context":0,"place_id":"mUuvVEJWU72iMQs","woeid":"717919","geo_is_family":0,"geo_is_friend":0,"geo_is_contact":0,"geo_is_public":1,"media":"photo","media_status":"ready"},{"id":"14081387193","owner":"30858303@N04","secret":"120ea84f50","server":"2928","farm":3,"title":"Song of Sirens","ispublic":1,"isfriend":0,"isfamily":0,"safe":0,"ownername":"DavidFrutos","latitude":36.721497,"longitude":-2.190334,"accuracy":"16","context":0,"place_id":"SW3.oBBTULzVYAHv4w","woeid":"22661164","geo_is_family":0,"geo_is_friend":0,"geo_is_contact":0,"geo_is_public":1,"media":"photo","media_status":"ready"},{"id":"14060898945","owner":"59070088@N07","secret":"1bf474452a","server":"5283","farm":6,"title":"canon 60d + helios 44-2 58mm f2","ispublic":1,"isfriend":0,"isfamily":0,"safe":0,"ownername":"Fabrizio Ara","latitude":39.537923,"longitude":8.599076,"accuracy":"16","context":0,"place_id":"KcrZfWZWU7qrBGA","woeid":"710247","geo_is_family":0,"geo_is_friend":0,"geo_is_contact":0,"geo_is_public":1,"media":"photo","media_status":"ready"},{"id":"14075513293","owner":"91491056@N04","secret":"0e839160f4","server":"7077","farm":8,"title":"Corciano","ispublic":1,"isfriend":0,"isfamily":0,"safe":0,"ownername":"eying2012","latitude":43.127468,"longitude":12.28674,"accuracy":"11","context":0,"place_id":"kX2qVGhWU76w9wM","woeid":"714605","geo_is_family":0,"geo_is_friend":0,"geo_is_contact":0,"geo_is_public":1,"media":"photo","media_status":"ready"},{"id":"14050362182","owner":"49225855@N07","secret":"23b7b8524d","server":"2920","farm":3,"title":"\u03a4\u03bf \u0394\u03ad\u03bd\u03c4\u03c1\u03bf (the tree)","ispublic":1,"isfriend":0,"isfamily":0,"safe":0,"ownername":"Nikos Niotis","latitude":37.927189,"longitude":23.636108,"accuracy":"16","context":0,"place_id":"gApVebRYV7PK3Fs","woeid":"959973","geo_is_family":0,"geo_is_friend":0,"geo_is_contact":0,"geo_is_public":1,"media":"photo","media_status":"ready"},{"id":"14048360681","owner":"29350952@N06","secret":"f3ef230582","server":"5525","farm":6,"title":"\u2318","ispublic":1,"isfriend":0,"isfamily":0,"safe":0,"ownername":"melquiades1898","latitude":49.870272,"longitude":8.612508,"accuracy":"16","context":0,"place_id":"y0Hg9w1XVrmm8AY","woeid":"643787","geo_is_family":0,"geo_is_friend":0,"geo_is_contact":0,"geo_is_public":1,"media":"photo","media_status":"ready"},{"id":"14051286855","owner":"19685823@N00","secret":"3830be0515","server":"2926","farm":3,"title":"should i stay or should i go ?","ispublic":1,"isfriend":0,"isfamily":0,"safe":0,"ownername":"Toni_V","latitude":46.318718,"longitude":7.883977,"accuracy":"13","context":0,"place_id":"iG2A9v9QULwkqbw2vg","woeid":"12683355","geo_is_family":0,"geo_is_friend":0,"geo_is_contact":0,"geo_is_public":1,"media":"photo","media_status":"ready"},{"id":"14026901186","owner":"71193951@N07","secret":"5916e4aa65","server":"5025","farm":6,"title":"Salzburg Nightlights (explored 28\/04\/14)","ispublic":1,"isfriend":0,"isfamily":0,"safe":0,"ownername":"galvanol (offline)","latitude":47.801322,"longitude":13.04502,"accuracy":"16","context":0,"place_id":"Hij4TRFUVr10jJI","woeid":"547826","geo_is_family":0,"geo_is_friend":0,"geo_is_contact":0,"geo_is_public":1,"media":"photo","media_status":"ready"},{"id":"14026564636","owner":"94015342@N04","secret":"294fa10ed9","server":"7388","farm":8,"title":"'Heart of the Ocean' - Porth Swtan\/Church Bay, Anglesey","ispublic":1,"isfriend":0,"isfamily":0,"safe":0,"ownername":"Adrian Kingsley-Hughes","latitude":53.372332,"longitude":-4.556654,"accuracy":"16","context":0,"place_id":"E88kYYJSUbiE0A","woeid":"33258","geo_is_family":0,"geo_is_friend":0,"geo_is_contact":0,"geo_is_public":1,"media":"photo","media_status":"ready"},{"id":"14068506813","owner":"67833313@N08","secret":"6a303d67f4","server":"2910","farm":3,"title":"welcome to life...","ispublic":1,"isfriend":0,"isfamily":0,"safe":0,"ownername":"Dimitra Kirgiannaki \u266a\u00b8.\u2022*\u00b4spring-lover \u00a8\u00b4","latitude":38.076834,"longitude":23.984218,"accuracy":"11","context":0,"place_id":"VOsDfZpYV71488U","woeid":"957953","geo_is_family":0,"geo_is_friend":0,"geo_is_contact":0,"geo_is_public":1,"media":"photo","media_status":"ready"},{"id":"14048546364","owner":"64817255@N04","secret":"cd56fbb992","server":"2939","farm":3,"title":"Malinconia","ispublic":1,"isfriend":0,"isfamily":0,"safe":0,"ownername":"Simone De Iuliis","latitude":40.782177,"longitude":14.753344,"accuracy":"13","context":0,"place_id":"NWGoTUtWU7I2v0A","woeid":"718241","geo_is_family":0,"geo_is_friend":0,"geo_is_contact":0,"geo_is_public":1,"media":"photo","media_status":"ready"},{"id":"14068028563","owner":"16618681@N00","secret":"2c23c57d9b","server":"7195","farm":8,"title":"Green eyes","ispublic":1,"isfriend":0,"isfamily":0,"safe":0,"ownername":"marypink","latitude":28.13022,"longitude":-15.439709,"accuracy":"11","context":0,"place_id":".6cV.KhWVL796qE","woeid":"764814","geo_is_family":0,"geo_is_friend":0,"geo_is_contact":0,"geo_is_public":1,"media":"photo","media_status":"ready"},{"id":"14044429572","owner":"45686660@N02","secret":"c648e806f9","server":"7325","farm":8,"title":"Turchia, Pergamo, Asklepion","ispublic":1,"isfriend":0,"isfamily":0,"safe":0,"ownername":"forastico","latitude":39.124801,"longitude":27.1777,"accuracy":"11","context":0,"place_id":"zYLelvNTUb7TZZOl","woeid":"2343797","geo_is_family":0,"geo_is_friend":0,"geo_is_contact":0,"geo_is_public":1,"media":"photo","media_status":"ready"},{"id":"14044325361","owner":"40592593@N08","secret":"9351bf265b","server":"5550","farm":6,"title":"'50s","ispublic":1,"isfriend":0,"isfamily":0,"safe":0,"ownername":"Jaime GF","latitude":43.558702,"longitude":-5.97535,"accuracy":"16","context":0,"place_id":"h_yiyzpWV7yrxTE","woeid":"756971","geo_is_family":0,"geo_is_friend":0,"geo_is_contact":0,"geo_is_public":1,"media":"photo","media_status":"ready"},{"id":"14043297312","owner":"9099757@N05","secret":"d8dba2db5f","server":"5451","farm":6,"title":"Z\u00fclpich, LaGa 2014, 003","ispublic":1,"isfriend":0,"isfamily":0,"safe":0,"ownername":"Andy von der Wurm","latitude":50.69234,"longitude":6.6476,"accuracy":"11","context":0,"place_id":"8WYCcMtWUrNXcZY","woeid":"709274","geo_is_family":0,"geo_is_friend":0,"geo_is_contact":0,"geo_is_public":1,"media":"photo","media_status":"ready"},{"id":"14036945011","owner":"24578303@N07","secret":"d93962cb2d","server":"2902","farm":3,"title":"Light on the bluebells (explored)","ispublic":1,"isfriend":0,"isfamily":0,"safe":0,"ownername":"Alan10eden","latitude":54.308887,"longitude":-6.520771,"accuracy":"14","context":0,"place_id":"_6cR0cZTUro0brsvAQ","woeid":"20078322","geo_is_family":0,"geo_is_friend":0,"geo_is_contact":0,"geo_is_public":1,"media":"photo","media_status":"ready"},{"id":"14035918601","owner":"65416880@N00","secret":"15d607af9b","server":"7437","farm":8,"title":"Riu, Bavaro Beach","ispublic":1,"isfriend":0,"isfamily":0,"safe":0,"ownername":"mariola aga","latitude":18.720697,"longitude":-68.453273,"accuracy":"16","context":0,"place_id":"aFqydCxXW7_TYw","woeid":"69511","geo_is_family":0,"geo_is_friend":0,"geo_is_contact":0,"geo_is_public":1,"media":"photo","media_status":"ready"},{"id":"14039073734","owner":"25738602@N03","secret":"61149f9325","server":"7134","farm":8,"title":"una giornata al mare   (Explore)","ispublic":1,"isfriend":0,"isfamily":0,"safe":0,"ownername":"Preziosa 1 \/ Gabriella","latitude":44.336247,"longitude":9.215469,"accuracy":"13","context":0,"place_id":"tXqcOzBWULk1yPY","woeid":"723553","geo_is_family":0,"geo_is_friend":0,"geo_is_contact":0,"geo_is_public":1,"media":"photo","media_status":"ready"},{"id":"14038412024","owner":"30625665@N00","secret":"1732308357","server":"2910","farm":3,"title":"Bark*","ispublic":1,"isfriend":0,"isfamily":0,"safe":0,"ownername":"Kyre Wood","latitude":52.313701,"longitude":-2.5947,"accuracy":"11","context":0,"place_id":"n0bye1RSVbs83Q","woeid":"37107","geo_is_family":0,"geo_is_friend":0,"geo_is_contact":0,"geo_is_public":1,"media":"photo","media_status":"ready"},{"id":"14032752751","owner":"41611710@N04","secret":"a71a4f9ee2","server":"7221","farm":8,"title":"Hautes Alpes - French Alps","ispublic":1,"isfriend":0,"isfamily":0,"safe":0,"ownername":"martinepittet","latitude":44.595279,"longitude":6.363989,"accuracy":"11","context":0,"place_id":"7mmWTtRXU7KyMpc","woeid":"618926","geo_is_family":0,"geo_is_friend":0,"geo_is_contact":0,"geo_is_public":1,"media":"photo","media_status":"ready"},{"id":"14031843162","owner":"55858110@N02","secret":"fa546aa51a","server":"7428","farm":8,"title":"Lyme Stag (explore)","ispublic":1,"isfriend":0,"isfamily":0,"safe":0,"ownername":"jvarley19 very busy will catch up soon","latitude":53.343275,"longitude":-2.040023,"accuracy":"14","context":0,"place_id":"0FcVdMhQWrjO.Q","woeid":"18230","geo_is_family":0,"geo_is_friend":0,"geo_is_contact":0,"geo_is_public":1,"media":"photo","media_status":"ready"},{"id":"14033624225","owner":"66329081@N07","secret":"89f13bbbba","server":"2939","farm":3,"title":"Storr Sunrise (Explored)","ispublic":1,"isfriend":0,"isfamily":0,"safe":0,"ownername":"Richard Davy - The World As I See It","latitude":57.508723,"longitude":-6.182298,"accuracy":"13","context":0,"place_id":"BGFFwVFTUrojGHraOw","woeid":"20093887","geo_is_family":0,"geo_is_friend":0,"geo_is_contact":0,"geo_is_public":1,"media":"photo","media_status":"ready"},{"id":"14009907846","owner":"21298507@N04","secret":"2f44f8596b","server":"7391","farm":8,"title":"Gospel Car & Sunday School","ispublic":1,"isfriend":0,"isfamily":0,"safe":0,"ownername":"Charliebubbles","latitude":52.628667,"longitude":-2.449994,"accuracy":"16","context":0,"place_id":"4EZCDOdSVL0H2A","woeid":"36716","geo_is_family":0,"geo_is_friend":0,"geo_is_contact":0,"geo_is_public":1,"media":"photo","media_status":"ready"},{"id":"13895188548","owner":"91564885@N00","secret":"6c04ffe083","server":"7042","farm":8,"title":"PB","ispublic":1,"isfriend":0,"isfamily":0,"safe":0,"ownername":"*k59","latitude":43.368619,"longitude":-8.402835,"accuracy":"16","context":0,"place_id":"sWHFrNNWVLnsxTY","woeid":"763246","geo_is_family":0,"geo_is_friend":0,"geo_is_contact":0,"geo_is_public":1,"media":"photo","media_status":"ready"},{"id":"14081305285","owner":"16854222@N05","secret":"a0d4e884bb","server":"7383","farm":8,"title":"Welcome May !!!","ispublic":1,"isfriend":0,"isfamily":0,"safe":0,"ownername":"AnyMotion","latitude":50.123271,"longitude":8.6804,"accuracy":"16","context":0,"place_id":"Z0FRRfRXV7oIeew","woeid":"650272","geo_is_family":0,"geo_is_friend":0,"geo_is_contact":0,"geo_is_public":1,"media":"photo","media_status":"ready"},{"id":"14077965401","owner":"91722814@N02","secret":"690ff2561d","server":"2939","farm":3,"title":"Photo Craft","ispublic":1,"isfriend":0,"isfamily":0,"safe":0,"ownername":"nalamanpics","latitude":50.663839,"longitude":-3.46492,"accuracy":"15","context":0,"place_id":"NII55UBSUL9.pQ","woeid":"32515","geo_is_family":0,"geo_is_friend":0,"geo_is_contact":0,"geo_is_public":1,"media":"photo","media_status":"ready"},{"id":"13893897940","owner":"79117486@N02","secret":"48b8ca90d6","server":"7331","farm":8,"title":"pareja ( on explore 1-5-2014 )","ispublic":1,"isfriend":0,"isfamily":0,"safe":0,"ownername":"haymartxo","latitude":43.264956,"longitude":-2.954635,"accuracy":"11","context":0,"place_id":"v0b7ga9WV745BHU","woeid":"754542","geo_is_family":0,"geo_is_friend":0,"geo_is_contact":0,"geo_is_public":1,"media":"photo","media_status":"ready"},{"id":"14100355843","owner":"16874065@N00","secret":"4206ff8156","server":"7176","farm":8,"title":"216venise-n&b","ispublic":1,"isfriend":0,"isfamily":0,"safe":0,"ownername":"R E M I B R I D O T","latitude":45.431519,"longitude":12.351619,"accuracy":"16","context":0,"place_id":"h_GEQ5NTUrtOcFoQNQ","woeid":"20150617","geo_is_family":0,"geo_is_friend":0,"geo_is_contact":0,"geo_is_public":1,"media":"photo","media_status":"ready"},{"id":"14076573271","owner":"13922644@N05","secret":"98c7e230ee","server":"2902","farm":3,"title":"Sligachan, Skye","ispublic":1,"isfriend":0,"isfamily":0,"safe":0,"ownername":"bingleyman2","latitude":57.284134,"longitude":-6.190581,"accuracy":"15","context":0,"place_id":"1eb3xk1SU7.ROg","woeid":"31579","geo_is_family":0,"geo_is_friend":0,"geo_is_contact":0,"geo_is_public":1,"media":"photo","media_status":"ready"},{"id":"14099756693","owner":"88000186@N03","secret":"f94d2aab18","server":"2931","farm":3,"title":"_DSC0742","ispublic":1,"isfriend":0,"isfamily":0,"safe":0,"ownername":"didiersuve","latitude":51.612333,"longitude":-3.9285,"accuracy":"16","context":0,"place_id":"e1.hoihTWrklqQ","woeid":"28335","geo_is_family":0,"geo_is_friend":0,"geo_is_contact":0,"geo_is_public":1,"media":"photo","media_status":"ready"},{"id":"13893036267","owner":"32208339@N04","secret":"4688139b5a","server":"2916","farm":3,"title":"Pied Wagtail","ispublic":1,"isfriend":0,"isfamily":0,"safe":0,"ownername":"Feathers (Allan)","latitude":50.993122,"longitude":0.480823,"accuracy":"12","context":0,"place_id":"Q3LtBvxSUbJKsA","woeid":"33878","geo_is_family":0,"geo_is_friend":0,"geo_is_contact":0,"geo_is_public":1,"media":"photo","media_status":"ready"},{"id":"13893027390","owner":"24832955@N02","secret":"55fca7a034","server":"5515","farm":6,"title":"Eurasian Eagle-Owl - Oehoe","ispublic":1,"isfriend":0,"isfamily":0,"safe":0,"ownername":"joeke pieters","latitude":52.15503,"longitude":6.843495,"accuracy":"15","context":0,"place_id":"BNTZbLZWULIIsoI","woeid":"728157","geo_is_family":0,"geo_is_friend":0,"geo_is_contact":0,"geo_is_public":1,"media":"photo","media_status":"ready"},{"id":"13892859850","owner":"32266663@N06","secret":"1b056843f0","server":"7418","farm":8,"title":"Otro amiguito","ispublic":1,"isfriend":0,"isfamily":0,"safe":0,"ownername":"enrique1959 -","latitude":41.651729,"longitude":-0.881319,"accuracy":"11","context":0,"place_id":"WbgnDbFWVbOLDw0","woeid":"779063","geo_is_family":0,"geo_is_friend":0,"geo_is_contact":0,"geo_is_public":1,"media":"photo","media_status":"ready"},{"id":"14079257445","owner":"90378082@N07","secret":"5109865181","server":"5445","farm":6,"title":"The Huntress","ispublic":1,"isfriend":0,"isfamily":0,"safe":0,"ownername":"Baz 120","latitude":41.906892,"longitude":12.482936,"accuracy":"15","context":0,"place_id":"FphPyURWU7ux6h4","woeid":"711883","geo_is_family":0,"geo_is_friend":0,"geo_is_contact":0,"geo_is_public":1,"media":"photo","media_status":"ready"},{"id":"13892617469","owner":"39669415@N05","secret":"7027d2c444","server":"2908","farm":3,"title":"Busy outbound sailboat traffic","ispublic":1,"isfriend":0,"isfamily":0,"safe":0,"ownername":"BraCom (Bram)","latitude":51.708011,"longitude":4.086136,"accuracy":"16","context":0,"place_id":"Ec3Aji1WUbrD5k8","woeid":"730010","geo_is_family":0,"geo_is_friend":0,"geo_is_contact":0,"geo_is_public":1,"media":"photo","media_status":"ready"},{"id":"14072447001","owner":"75921462@N08","secret":"73d9832468","server":"7061","farm":8,"title":"Ploumanach (22) ......  explore 30-04-14","ispublic":1,"isfriend":0,"isfamily":0,"safe":0,"ownername":"MariBzH35","latitude":48.831729,"longitude":-3.486109,"accuracy":"11","context":0,"place_id":"L21jf2VXU71egz8","woeid":"617017","geo_is_family":0,"geo_is_friend":0,"geo_is_contact":0,"geo_is_public":1,"media":"photo","media_status":"ready"},{"id":"14075592855","owner":"66403925@N03","secret":"09b053259c","server":"5074","farm":6,"title":"Joaninha, Ladybird (Coccienella septempuntat) - em Liberdade [in Wild","ispublic":1,"isfriend":0,"isfamily":0,"safe":0,"ownername":"ana & xavier (1.100.000 views - Obg \/ thanks)","latitude":40.267476,"longitude":-7.135963,"accuracy":"11","context":0,"place_id":"CnvfCClWVrk6.NU","woeid":"743402","geo_is_family":0,"geo_is_friend":0,"geo_is_contact":0,"geo_is_public":1,"media":"photo","media_status":"ready"},{"id":"13888805409","owner":"13922644@N05","secret":"c9187b898d","server":"5506","farm":6,"title":"From Elgol","ispublic":1,"isfriend":0,"isfamily":0,"safe":0,"ownername":"bingleyman2","latitude":57.152444,"longitude":-6.107025,"accuracy":"11","context":0,"place_id":"9A3BACBQW74Jrw","woeid":"19452","geo_is_family":0,"geo_is_friend":0,"geo_is_contact":0,"geo_is_public":1,"media":"photo","media_status":"ready"},{"id":"13888420169","owner":"26261314@N06","secret":"c059997536","server":"2938","farm":3,"title":"RTM-X-2-7384","ispublic":1,"isfriend":0,"isfamily":0,"safe":0,"ownername":"RAFATZ","latitude":40.911809,"longitude":0.832171,"accuracy":"15","context":0,"place_id":"PZuBVaZTUb4NU8zwfA","woeid":"23414889","geo_is_family":0,"geo_is_friend":0,"geo_is_contact":0,"geo_is_public":1,"media":"photo","media_status":"ready"},{"id":"13887594889","owner":"44161305@N02","secret":"81e478ac49","server":"5572","farm":6,"title":"Venice, Italy, March 30, 2014  269","ispublic":1,"isfriend":0,"isfamily":0,"safe":0,"ownername":"tango-","latitude":45.436384,"longitude":12.317237,"accuracy":"12","context":0,"place_id":"1N.fFnxTUruM4fC_Dw","woeid":"20150615","geo_is_family":0,"geo_is_friend":0,"geo_is_contact":0,"geo_is_public":1,"media":"photo","media_status":"ready"},{"id":"13887502229","owner":"26261314@N06","secret":"ea22ddc606","server":"2927","farm":3,"title":"9363","ispublic":1,"isfriend":0,"isfamily":0,"safe":0,"ownername":"RAFATZ","latitude":41.218404,"longitude":1.004991,"accuracy":"14","context":0,"place_id":"arQxM9ZWV7gpeDg","woeid":"752049","geo_is_family":0,"geo_is_friend":0,"geo_is_contact":0,"geo_is_public":1,"media":"photo","media_status":"ready"},{"id":"13887464869","owner":"26261314@N06","secret":"352bcd4cbd","server":"7416","farm":8,"title":"RTM-X-3-1834","ispublic":1,"isfriend":0,"isfamily":0,"safe":0,"ownername":"RAFATZ","latitude":41.218404,"longitude":1.004991,"accuracy":"14","context":0,"place_id":"arQxM9ZWV7gpeDg","woeid":"752049","geo_is_family":0,"geo_is_friend":0,"geo_is_contact":0,"geo_is_public":1,"media":"photo","media_status":"ready"},{"id":"14094003893","owner":"48923613@N03","secret":"d8ab1b68cc","server":"7443","farm":8,"title":"pr\u00e9tre ethiopia_5234","ispublic":1,"isfriend":0,"isfamily":0,"safe":0,"ownername":"ichauvel","latitude":11.958723,"longitude":38.930053,"accuracy":"8","context":0,"place_id":"ORWCe3FQUbsyn2qe","woeid":"1318294","geo_is_family":0,"geo_is_friend":0,"geo_is_contact":0,"geo_is_public":1,"media":"photo","media_status":"ready"},{"id":"14050223516","owner":"91491056@N04","secret":"6df780c8c1","server":"2914","farm":3,"title":"da sotto in su","ispublic":1,"isfriend":0,"isfamily":0,"safe":0,"ownername":"eying2012","latitude":43.11119,"longitude":12.384349,"accuracy":"11","context":0,"place_id":"mrsPREpWULpKrGg","woeid":"720187","geo_is_family":0,"geo_is_friend":0,"geo_is_contact":0,"geo_is_public":1,"media":"photo","media_status":"ready"},{"id":"13885948970","owner":"36326099@N05","secret":"e4696d577f","server":"5476","farm":6,"title":"Rapture","ispublic":1,"isfriend":0,"isfamily":0,"safe":0,"ownername":"Aaron Yeoman","latitude":51.481111,"longitude":-0.003612,"accuracy":"16","context":0,"place_id":"g6k_VpZQVb96VQ","woeid":"17581","geo_is_family":0,"geo_is_friend":0,"geo_is_contact":0,"geo_is_public":1,"media":"photo","media_status":"ready"},{"id":"13885817279","owner":"32208339@N04","secret":"4b5ab4bd4f","server":"5238","farm":6,"title":"Starling...","ispublic":1,"isfriend":0,"isfamily":0,"safe":0,"ownername":"Feathers (Allan)","latitude":50.98826,"longitude":0.64476,"accuracy":"13","context":0,"place_id":"YwpHULxSUrqu.A","woeid":"30095","geo_is_family":0,"geo_is_friend":0,"geo_is_contact":0,"geo_is_public":1,"media":"photo","media_status":"ready"},{"id":"14069376235","owner":"67185151@N02","secret":"d5089288f1","server":"7333","farm":8,"title":"Charlie Brown","ispublic":1,"isfriend":0,"isfamily":0,"safe":0,"ownername":"Man-Wei","latitude":45.427988,"longitude":-75.693515,"accuracy":"16","context":0,"place_id":"Y2R6giNUV7JUvow7TQ","woeid":"55855928","geo_is_family":0,"geo_is_friend":0,"geo_is_contact":0,"geo_is_public":1,"media":"photo","media_status":"ready"},{"id":"14065165421","owner":"99574551@N04","secret":"4d4582f0ff","server":"5011","farm":6,"title":"Powerful Spray of Nature","ispublic":1,"isfriend":0,"isfamily":0,"safe":0,"ownername":"Massmo Relsig","latitude":54.741321,"longitude":8.295063,"accuracy":"14","context":0,"place_id":"nCdAE19XVLj6dvM","woeid":"662392","geo_is_family":0,"geo_is_friend":0,"geo_is_contact":0,"geo_is_public":1,"media":"photo","media_status":"ready"},{"id":"14064819051","owner":"44501137@N07","secret":"f8a4d9a87f","server":"5588","farm":6,"title":"Atardecer en Panx\u00f3n (Galicia)","ispublic":1,"isfriend":0,"isfamily":0,"safe":0,"ownername":"galizport","latitude":42.14355,"longitude":-8.824768,"accuracy":"11","context":0,"place_id":"Cu6Guf9TW7lXOIbQ0Q","woeid":"29371912","geo_is_family":0,"geo_is_friend":0,"geo_is_contact":0,"geo_is_public":1,"media":"photo","media_status":"ready"},{"id":"14080501483","owner":"90378082@N07","secret":"7bc717a99e","server":"5516","farm":6,"title":"I need the bathroom","ispublic":1,"isfriend":0,"isfamily":0,"safe":0,"ownername":"Baz 120","latitude":41.895105,"longitude":12.482314,"accuracy":"15","context":0,"place_id":"FphPyURWU7ux6h4","woeid":"711883","geo_is_family":0,"geo_is_friend":0,"geo_is_contact":0,"geo_is_public":1,"media":"photo","media_status":"ready"},{"id":"14053740672","owner":"75133058@N00","secret":"5e72bb9f3f","server":"7185","farm":8,"title":"Jinete","ispublic":1,"isfriend":0,"isfamily":0,"safe":0,"ownername":"Eduardo Amorim","latitude":-34.856636,"longitude":-56.210002,"accuracy":"12","context":0,"place_id":"2qpp5YdSWrpjQno","woeid":"380653","geo_is_family":0,"geo_is_friend":0,"geo_is_contact":0,"geo_is_public":1,"media":"photo","media_status":"ready"},{"id":"14049812281","owner":"36119280@N04","secret":"27fc8b18f9","server":"7446","farm":8,"title":"Ronneburg","ispublic":1,"isfriend":0,"isfamily":0,"safe":0,"ownername":"blichb","latitude":50.216855,"longitude":9.053796,"accuracy":"16","context":0,"place_id":"e7wB6o9QV7otDRa7rQ","woeid":"15002769","geo_is_family":0,"geo_is_friend":0,"geo_is_contact":0,"geo_is_public":1,"media":"photo","media_status":"ready"},{"id":"14027215196","owner":"15200836@N02","secret":"a9ac25cea3","server":"5548","farm":6,"title":"MENORCA : EL FARO EN EL CABO DE FAV\u00c0RITX","ispublic":1,"isfriend":0,"isfamily":0,"safe":0,"ownername":"marthinotf","latitude":39.996816,"longitude":4.265356,"accuracy":"14","context":0,"place_id":"4fBrRP9TUb6EIY9MNQ","woeid":"23413994","geo_is_family":0,"geo_is_friend":0,"geo_is_contact":0,"geo_is_public":1,"media":"photo","media_status":"ready"},{"id":"14025303096","owner":"13922644@N05","secret":"d75d74a35e","server":"7199","farm":8,"title":"Storm at Neist Point, Skye","ispublic":1,"isfriend":0,"isfamily":0,"safe":0,"ownername":"bingleyman2","latitude":57.429889,"longitude":-6.784572,"accuracy":"12","context":0,"place_id":"p4idfi5SULLIHA","woeid":"32882","geo_is_family":0,"geo_is_friend":0,"geo_is_contact":0,"geo_is_public":1,"media":"photo","media_status":"ready"},{"id":"14046956525","owner":"24773750@N08","secret":"bc2ca7eaab","server":"2911","farm":3,"title":"Bier aus Deutschland","ispublic":1,"isfriend":0,"isfamily":0,"safe":0,"ownername":"G\u00fcnter Hentschel","latitude":50.8578,"longitude":6.187877,"accuracy":"15","context":0,"place_id":"4Vuc9INXVbl2Kc8","woeid":"673834","geo_is_family":0,"geo_is_friend":0,"geo_is_contact":0,"geo_is_public":1,"media":"photo","media_status":"ready"},{"id":"14023125166","owner":"43301211@N03","secret":"7ba229e10b","server":"5295","farm":6,"title":"Punk Duck.....","ispublic":1,"isfriend":0,"isfamily":0,"safe":0,"ownername":"klythawk","latitude":52.949284,"longitude":-1.088633,"accuracy":"15","context":0,"place_id":"IrTTIexQVLySaw","woeid":"16678","geo_is_family":0,"geo_is_friend":0,"geo_is_contact":0,"geo_is_public":1,"media":"photo","media_status":"ready"},{"id":"14031592641","owner":"55365548@N08","secret":"465de780e1","server":"5139","farm":6,"title":"Sad memories","ispublic":1,"isfriend":0,"isfamily":0,"safe":0,"ownername":"dhr Peter","latitude":51.937292,"longitude":6.664013,"accuracy":"16","context":0,"place_id":"dKC6m8JWUbuGzgA","woeid":"731723","geo_is_family":0,"geo_is_friend":0,"geo_is_contact":0,"geo_is_public":1,"media":"photo","media_status":"ready"}]},"stat":"ok"}