{"photos":{"page":23,"pages":26133,"perpage":60,"total":"1567968","photo":[{"id":"13999275090","owner":"71019104@N04","secret":"55a71e7bfd","server":"5502","farm":6,"title":"#LocalLandmark : Le chateau d'Angers.","ispublic":1,"isfriend":0,"isfamily":0,"safe":0,"ownername":"virginiefort","latitude":47.469262,"longitude":-0.55912,"accuracy":"14","context":0,"place_id":"s4Jk.3BUVbyKNHw","woeid":"576106","geo_is_family":0,"geo_is_friend":0,"geo_is_contact":0,"geo_is_public":1,"media":"photo","media_status":"ready"},{"id":"14157345106","owner":"12265457@N04","secret":"ef5c3671f6","server":"7355","farm":8,"title":"Owned!!!!! (EXPLORE)","ispublic":1,"isfriend":0,"isfamily":0,"safe":0,"ownername":"cashacker1980","latitude":40.415668,"longitude":-3.687758,"accuracy":"15","context":0,"place_id":"Z2U_zedTUri7YVepxQ","woeid":"20219886","geo_is_family":0,"geo_is_friend":0,"geo_is_contact":0,"geo_is_public":1,"media":"photo","media_status":"ready"},{"id":"14176225732","owner":"60238824@N07","secret":"a85b29dd2c","server":"7328","farm":8,"title":"Carousel (Explored)","ispublic":1,"isfriend":0,"isfamily":0,"safe":0,"ownername":"dmelchordiaz","latitude":52.516071,"longitude":13.376979,"accuracy":"11","context":0,"place_id":"uxEOtndTUb4nLR9E","woeid":"2345496","geo_is_family":0,"geo_is_friend":0,"geo_is_contact":0,"geo_is_public":1,"media":"photo","media_status":"ready"},{"id":"14178578295","owner":"52866177@N02","secret":"bca55f644a","server":"7458","farm":8,"title":"The glass pyramid, Louvre Paris. Seen in Explore* May 13.2014","ispublic":1,"isfriend":0,"isfamily":0,"safe":0,"ownername":"Dan in Mars","latitude":48.861002,"longitude":2.336032,"accuracy":"15","context":0,"place_id":"EsIQUYZXU79_kEA","woeid":"615702","geo_is_family":0,"geo_is_friend":0,"geo_is_contact":0,"geo_is_public":1,"media":"photo","media_status":"ready"},{"id":"13990161380","owner":"47035764@N03","secret":"842ca6c29c","server":"2921","farm":3,"title":"Hunebed D45, Emmen, Drenthe, Netherlands - 1798","ispublic":1,"isfriend":0,"isfamily":0,"safe":0,"ownername":"HereIsTom","latitude":52.791576,"longitude":6.90788,"accuracy":"16","context":0,"place_id":"gXqIvEVWULNNZww","woeid":"729113","geo_is_family":0,"geo_is_friend":0,"geo_is_contact":0,"geo_is_public":1,"media":"photo","media_status":"ready"},{"id":"14191351433","owner":"62389276@N06","secret":"ecc0f1026b","server":"7340","farm":8,"title":"sundown","ispublic":1,"isfriend":0,"isfamily":0,"safe":0,"ownername":"FREISTELLEN","latitude":51.06671,"longitude":13.752887,"accuracy":"16","context":0,"place_id":"Cbw7OiFXVbOej0s","woeid":"679024","geo_is_family":0,"geo_is_friend":0,"geo_is_contact":0,"geo_is_public":1,"media":"photo","media_status":"ready"},{"id":"14147684036","owner":"30992106@N07","secret":"a488ae630d","server":"7432","farm":8,"title":"Altglastest II","ispublic":1,"isfriend":0,"isfamily":0,"safe":0,"ownername":"J\u00f6rgenshaus","latitude":50.810734,"longitude":7.246255,"accuracy":"15","context":0,"place_id":"GkbM5_xXW77add4","woeid":"694844","geo_is_family":0,"geo_is_friend":0,"geo_is_contact":0,"geo_is_public":1,"media":"photo","media_status":"ready"},{"id":"13983524387","owner":"57761648@N02","secret":"866daf0eea","server":"2926","farm":3,"title":"lights ...","ispublic":1,"isfriend":0,"isfamily":0,"safe":0,"ownername":"David Kracht","latitude":48.886594,"longitude":2.342577,"accuracy":"16","context":0,"place_id":"IFTbeKJUV7LF35bKtA","woeid":"55843852","geo_is_family":0,"geo_is_friend":0,"geo_is_contact":0,"geo_is_public":1,"media":"photo","media_status":"ready"},{"id":"14166335485","owner":"90171217@N06","secret":"637a2d5115","server":"7427","farm":8,"title":"Like a hero","ispublic":1,"isfriend":0,"isfamily":0,"safe":0,"ownername":"lars1387","latitude":59.042391,"longitude":10.273344,"accuracy":"16","context":0,"place_id":"4F7PLxlZVLs7Z40","woeid":"861093","geo_is_family":0,"geo_is_friend":0,"geo_is_contact":0,"geo_is_public":1,"media":"photo","media_status":"ready"},{"id":"14162729644","owner":"76238381@N08","secret":"02896f1681","server":"7310","farm":8,"title":"Tuscan Fields","ispublic":1,"isfriend":0,"isfamily":0,"safe":0,"ownername":"Sandra's Weeds-Traveling -intermittent connection","latitude":43.061613,"longitude":11.603622,"accuracy":"11","context":0,"place_id":"Baywkq9QULyW1B9VmQ","woeid":"12676449","geo_is_family":0,"geo_is_friend":0,"geo_is_contact":0,"geo_is_public":1,"media":"photo","media_status":"ready"},{"id":"14159258121","owner":"30992106@N07","secret":"67e64d0fb1","server":"5494","farm":6,"title":"Altglastest","ispublic":1,"isfriend":0,"isfamily":0,"safe":0,"ownername":"J\u00f6rgenshaus","latitude":50.810517,"longitude":7.245912,"accuracy":"15","context":0,"place_id":"GkbM5_xXW77add4","woeid":"694844","geo_is_family":0,"geo_is_friend":0,"geo_is_contact":0,"geo_is_public":1,"media":"photo","media_status":"ready"},{"id":"14171879713","owner":"100063725@N06","secret":"3bf122eb07","server":"7456","farm":8,"title":"Los rayos del Sol al amanecer","ispublic":1,"isfriend":0,"isfamily":0,"safe":0,"ownername":"Antonio Chac","latitude":36.516353,"longitude":-4.891405,"accuracy":"16","context":0,"place_id":"b6ANCk5WVLwQivI","woeid":"766537","geo_is_family":0,"geo_is_friend":0,"geo_is_contact":0,"geo_is_public":1,"media":"photo","media_status":"ready"},{"id":"14151508144","owner":"57761648@N02","secret":"7db6fa157a","server":"5570","farm":6,"title":"\"i am NOT from the states, ...","ispublic":1,"isfriend":0,"isfamily":0,"safe":0,"ownername":"David Kracht","latitude":48.846461,"longitude":2.333194,"accuracy":"16","context":0,"place_id":"vX_I9FlUV7JEmPC2jA","woeid":"55843771","geo_is_family":0,"geo_is_friend":0,"geo_is_contact":0,"geo_is_public":1,"media":"photo","media_status":"ready"},{"id":"14127546026","owner":"61819511@N02","secret":"f6c0f409eb","server":"5566","farm":6,"title":"Camden stables market 14 apr 14","ispublic":1,"isfriend":0,"isfamily":0,"safe":0,"ownername":"Shaun the grime lover","latitude":51.541992,"longitude":-0.14762,"accuracy":"16","context":0,"place_id":"AUsfG2lTUrqQxUFsUg","woeid":"20089443","geo_is_family":0,"geo_is_friend":0,"geo_is_contact":0,"geo_is_public":1,"media":"photo","media_status":"ready"},{"id":"13959784790","owner":"43194508@N07","secret":"981c8e9ef7","server":"7389","farm":8,"title":"MyA explore...","ispublic":1,"isfriend":0,"isfamily":0,"safe":0,"ownername":"jimmy297.","latitude":42.559655,"longitude":-2.433815,"accuracy":"13","context":0,"place_id":"hKPI.U5QUL97fWOLnA","woeid":"12578037","geo_is_family":0,"geo_is_friend":0,"geo_is_contact":0,"geo_is_public":1,"media":"photo","media_status":"ready"},{"id":"13957518027","owner":"62815410@N04","secret":"ed5731535e","server":"2911","farm":3,"title":"dipsomania (brescia, italy)","ispublic":1,"isfriend":0,"isfamily":0,"safe":0,"ownername":"bloodybee","latitude":45.535851,"longitude":10.234043,"accuracy":"16","context":0,"place_id":"WO1uGLRWU7u69ps","woeid":"711410","geo_is_family":0,"geo_is_friend":0,"geo_is_contact":0,"geo_is_public":1,"media":"photo","media_status":"ready"},{"id":"14142781715","owner":"59852454@N03","secret":"e3bdf2f43c","server":"2920","farm":3,"title":"Bubbles","ispublic":1,"isfriend":0,"isfamily":0,"safe":0,"ownername":"Pavel P.","latitude":49.841919,"longitude":18.261783,"accuracy":"15","context":0,"place_id":"IXEXJcZWW7yT6Jk","woeid":"796798","geo_is_family":0,"geo_is_friend":0,"geo_is_contact":0,"geo_is_public":1,"media":"photo","media_status":"ready"},{"id":"13954266879","owner":"36426732@N05","secret":"78f4942f34","server":"5497","farm":6,"title":"Monsieur Plume street art at 5Pointz","ispublic":1,"isfriend":0,"isfamily":0,"safe":0,"ownername":"ZUCCONY","latitude":40.745141,"longitude":-73.945825,"accuracy":"16","context":0,"place_id":"sTXjQKNTUb9enZi8dg","woeid":"23511858","geo_is_family":0,"geo_is_friend":0,"geo_is_contact":0,"geo_is_public":1,"media":"photo","media_status":"ready"},{"id":"14139258335","owner":"59852454@N03","secret":"afd47841c2","server":"7362","farm":8,"title":"Ventilation Grid","ispublic":1,"isfriend":0,"isfamily":0,"safe":0,"ownername":"Pavel P.","latitude":49.836538,"longitude":18.27561,"accuracy":"15","context":0,"place_id":"dv83ymhTUb7kFWvCKQ","woeid":"23406416","geo_is_family":0,"geo_is_friend":0,"geo_is_contact":0,"geo_is_public":1,"media":"photo","media_status":"ready"},{"id":"13952285399","owner":"49214499@N06","secret":"2377c8534f","server":"7408","farm":8,"title":"The Venice of the Alps","ispublic":1,"isfriend":0,"isfamily":0,"safe":0,"ownername":"Jurek.P","latitude":45.89849,"longitude":6.127871,"accuracy":"16","context":0,"place_id":"17bSoapUVbwVzH8","woeid":"576199","geo_is_family":0,"geo_is_friend":0,"geo_is_contact":0,"geo_is_public":1,"media":"photo","media_status":"ready"},{"id":"14133366301","owner":"63412147@N05","secret":"b8cda498fb","server":"5526","farm":6,"title":"BLOWING IN THE WIND - EXPLORE -","ispublic":1,"isfriend":0,"isfamily":0,"safe":0,"ownername":"Susana M.L.","latitude":36.53095,"longitude":-6.305809,"accuracy":"13","context":0,"place_id":"srBs7G5WV784H04","woeid":"755404","geo_is_family":0,"geo_is_friend":0,"geo_is_contact":0,"geo_is_public":1,"media":"photo","media_status":"ready"},{"id":"14132938361","owner":"48988488@N04","secret":"193a230845","server":"2934","farm":3,"title":"the guardians","ispublic":1,"isfriend":0,"isfamily":0,"safe":0,"ownername":"claudius1954","latitude":45.921333,"longitude":9.374384,"accuracy":"15","context":0,"place_id":"X0KYn9ZWU70VWKU","woeid":"717779","geo_is_family":0,"geo_is_friend":0,"geo_is_contact":0,"geo_is_public":1,"media":"photo","media_status":"ready"},{"id":"14156100723","owner":"28317360@N03","secret":"2b2110341f","server":"5156","farm":6,"title":"","ispublic":1,"isfriend":0,"isfamily":0,"safe":0,"ownername":"plot19","latitude":53.460166,"longitude":-2.216501,"accuracy":"16","context":0,"place_id":"xpHZLLhSUb0nwg","woeid":"33795","geo_is_family":0,"geo_is_friend":0,"geo_is_contact":0,"geo_is_public":1,"media":"photo","media_status":"ready"},{"id":"14155612913","owner":"59852454@N03","secret":"335eaf5040","server":"7366","farm":8,"title":"Traffic Sign","ispublic":1,"isfriend":0,"isfamily":0,"safe":0,"ownername":"Pavel P.","latitude":49.817241,"longitude":18.262092,"accuracy":"15","context":0,"place_id":"mN59iYtZUrqZhXU","woeid":"800906","geo_is_family":0,"geo_is_friend":0,"geo_is_contact":0,"geo_is_public":1,"media":"photo","media_status":"ready"},{"id":"13945115310","owner":"49214499@N06","secret":"7e4f6cee38","server":"5155","farm":6,"title":"Spring in Annecy","ispublic":1,"isfriend":0,"isfamily":0,"safe":0,"ownername":"Jurek.P","latitude":45.89858,"longitude":6.128064,"accuracy":"16","context":0,"place_id":"17bSoapUVbwVzH8","woeid":"576199","geo_is_family":0,"geo_is_friend":0,"geo_is_contact":0,"geo_is_public":1,"media":"photo","media_status":"ready"},{"id":"14150236903","owner":"36217762@N00","secret":"abdf2ae29d","server":"2938","farm":3,"title":"my rhythmic lines","ispublic":1,"isfriend":0,"isfamily":0,"safe":0,"ownername":"Pixelm\u00e4dchen6","latitude":52.53203,"longitude":13.385467,"accuracy":"15","context":0,"place_id":"zot2ouJXUbKOJRM","woeid":"638242","geo_is_family":0,"geo_is_friend":0,"geo_is_contact":0,"geo_is_public":1,"media":"photo","media_status":"ready"},{"id":"13942924569","owner":"24355450@N07","secret":"dbd8eb93fd","server":"7434","farm":8,"title":"Twenty Minutes Later..","ispublic":1,"isfriend":0,"isfamily":0,"safe":0,"ownername":"Gordie Broon.","latitude":57.342735,"longitude":-4.38054,"accuracy":"13","context":0,"place_id":"zZqAEdZQWrlVHQ","woeid":"18334","geo_is_family":0,"geo_is_friend":0,"geo_is_contact":0,"geo_is_public":1,"media":"photo","media_status":"ready"},{"id":"13938253407","owner":"85048686@N07","secret":"6085693f0e","server":"7332","farm":8,"title":"The Storm","ispublic":1,"isfriend":0,"isfamily":0,"safe":0,"ownername":"Chr.W.","latitude":47.58301,"longitude":11.548004,"accuracy":"11","context":0,"place_id":"IZ9FAxdXVrPLnCc","woeid":"649302","geo_is_family":0,"geo_is_friend":0,"geo_is_contact":0,"geo_is_public":1,"media":"photo","media_status":"ready"},{"id":"14144675663","owner":"49214499@N06","secret":"35f1b4b95b","server":"5232","farm":6,"title":"Beautiful Annecy","ispublic":1,"isfriend":0,"isfamily":0,"safe":0,"ownername":"Jurek.P","latitude":45.898625,"longitude":6.127635,"accuracy":"16","context":0,"place_id":"17bSoapUVbwVzH8","woeid":"576199","geo_is_family":0,"geo_is_friend":0,"geo_is_contact":0,"geo_is_public":1,"media":"photo","media_status":"ready"},{"id":"14098715876","owner":"59852454@N03","secret":"8616d4ba75","server":"2904","farm":3,"title":"Bulls","ispublic":1,"isfriend":0,"isfamily":0,"safe":0,"ownername":"Pavel P.","latitude":49.680347,"longitude":18.275327,"accuracy":"14","context":0,"place_id":"51bzpdpWW7ItXPY","woeid":"798732","geo_is_family":0,"geo_is_friend":0,"geo_is_contact":0,"geo_is_public":1,"media":"photo","media_status":"ready"},{"id":"14116320464","owner":"87848574@N07","secret":"7c2e8517e2","server":"2939","farm":3,"title":"Kathmandu","ispublic":1,"isfriend":0,"isfamily":0,"safe":0,"ownername":"fredMin","latitude":27.701999,"longitude":85.317497,"accuracy":"11","context":0,"place_id":"l9lWcGdTULyUgU9b","woeid":"2269179","geo_is_family":0,"geo_is_friend":0,"geo_is_contact":0,"geo_is_public":1,"media":"photo","media_status":"ready"},{"id":"14115716094","owner":"85048686@N07","secret":"b60d2f8e78","server":"7333","farm":8,"title":"The Secret","ispublic":1,"isfriend":0,"isfamily":0,"safe":0,"ownername":"Chr.W.","latitude":47.727777,"longitude":11.843948,"accuracy":"11","context":0,"place_id":"Vm9wYXVXW7j5hi8","woeid":"692216","geo_is_family":0,"geo_is_friend":0,"geo_is_contact":0,"geo_is_public":1,"media":"photo","media_status":"ready"},{"id":"13925729697","owner":"23502939@N02","secret":"1c4fef4b2f","server":"5231","farm":6,"title":"Massive Blue Cock","ispublic":1,"isfriend":0,"isfamily":0,"safe":0,"ownername":"Jan Herremans","latitude":51.520306,"longitude":-0.071883,"accuracy":"14","context":0,"place_id":"3HKN0rdSV757CA","woeid":"35498","geo_is_family":0,"geo_is_friend":0,"geo_is_contact":0,"geo_is_public":1,"media":"photo","media_status":"ready"},{"id":"13917692069","owner":"36217762@N00","secret":"343b605f98","server":"2933","farm":3,"title":"Photographers-portrait","ispublic":1,"isfriend":0,"isfamily":0,"safe":0,"ownername":"Pixelm\u00e4dchen6","latitude":52.532187,"longitude":13.385381,"accuracy":"15","context":0,"place_id":"zot2ouJXUbKOJRM","woeid":"638242","geo_is_family":0,"geo_is_friend":0,"geo_is_contact":0,"geo_is_public":1,"media":"photo","media_status":"ready"},{"id":"13911572757","owner":"48470761@N07","secret":"ac6dce4e4c","server":"7203","farm":8,"title":"erikharstrom-Spring 2014-0144","ispublic":1,"isfriend":0,"isfamily":0,"safe":0,"ownername":"Erik Harstr\u00f6m","latitude":46.349601,"longitude":6.402959,"accuracy":"11","context":0,"place_id":"rI0GGzNTW7lDxZPHkA","woeid":"29329893","geo_is_family":0,"geo_is_friend":0,"geo_is_contact":0,"geo_is_public":1,"media":"photo","media_status":"ready"},{"id":"14094134512","owner":"35084357@N06","secret":"a587d7dceb","server":"7414","farm":8,"title":"Pont Aven","ispublic":1,"isfriend":0,"isfamily":0,"safe":0,"ownername":"flo 59","latitude":47.855329,"longitude":-3.748569,"accuracy":"14","context":0,"place_id":"nL5YgPNXU73sG_4","woeid":"617326","geo_is_family":0,"geo_is_friend":0,"geo_is_contact":0,"geo_is_public":1,"media":"photo","media_status":"ready"},{"id":"13909793598","owner":"59852454@N03","secret":"967c86d872","server":"7448","farm":8,"title":"Your New Home","ispublic":1,"isfriend":0,"isfamily":0,"safe":0,"ownername":"Pavel P.","latitude":49.647726,"longitude":18.316577,"accuracy":"14","context":0,"place_id":"wEw7fM5WW79mgCQ","woeid":"795758","geo_is_family":0,"geo_is_friend":0,"geo_is_contact":0,"geo_is_public":1,"media":"photo","media_status":"ready"},{"id":"14092359372","owner":"24355450@N07","secret":"c286b765fc","server":"7208","farm":8,"title":"Sunset at Gruinard Bay.","ispublic":1,"isfriend":0,"isfamily":0,"safe":0,"ownername":"Gordie Broon.","latitude":57.861192,"longitude":-5.500974,"accuracy":"13","context":0,"place_id":"jZNaCb1TV7xkAQ","woeid":"25655","geo_is_family":0,"geo_is_friend":0,"geo_is_contact":0,"geo_is_public":1,"media":"photo","media_status":"ready"},{"id":"14071921956","owner":"41061703@N03","secret":"7b7da9fac2","server":"5473","farm":6,"title":"The sea seen from Madonnina della Punta (Bonassola).","ispublic":1,"isfriend":0,"isfamily":0,"safe":0,"ownername":"GIVI58","latitude":44.180341,"longitude":9.574069,"accuracy":"15","context":0,"place_id":"MZ_Q6_NWU7uo5_k","woeid":"711105","geo_is_family":0,"geo_is_friend":0,"geo_is_contact":0,"geo_is_public":1,"media":"photo","media_status":"ready"},{"id":"14091540731","owner":"55648226@N03","secret":"a50c2a8e92","server":"7348","farm":8,"title":"Gold Rock Beach","ispublic":1,"isfriend":0,"isfamily":0,"safe":0,"ownername":"Shawn Harquail","latitude":26.541108,"longitude":-78.556578,"accuracy":"16","context":0,"place_id":"E00rt1RTUb5VVSH1","woeid":"2344779","geo_is_family":0,"geo_is_friend":0,"geo_is_contact":0,"geo_is_public":1,"media":"photo","media_status":"ready"},{"id":"14091637282","owner":"22543235@N05","secret":"7b25e24a3d","server":"7329","farm":8,"title":"Ross Errilly Friary","ispublic":1,"isfriend":0,"isfamily":0,"safe":0,"ownername":"Gareth Wray Photography -Thanks = 1.5 Million Hits","latitude":53.479652,"longitude":-9.132901,"accuracy":"16","context":0,"place_id":"gQVN.AZTUrrKCeCGGQ","woeid":"20072441","geo_is_family":0,"geo_is_friend":0,"geo_is_contact":0,"geo_is_public":1,"media":"photo","media_status":"ready"},{"id":"14092179124","owner":"93461361@N05","secret":"96dda41ee2","server":"7365","farm":8,"title":"star crossed","ispublic":1,"isfriend":0,"isfamily":0,"safe":0,"ownername":"Van Luvender","latitude":38.932144,"longitude":-74.923904,"accuracy":"16","context":0,"place_id":"HVEmvnNTUb279Zrr","woeid":"2374656","geo_is_family":0,"geo_is_friend":0,"geo_is_contact":0,"geo_is_public":1,"media":"photo","media_status":"ready"},{"id":"14088191042","owner":"100063725@N06","secret":"5856676eda","server":"2899","farm":3,"title":"Colores de Mayo","ispublic":1,"isfriend":0,"isfamily":0,"safe":0,"ownername":"Antonio Chac","latitude":36.501176,"longitude":-4.831924,"accuracy":"16","context":0,"place_id":"b6ANCk5WVLwQivI","woeid":"766537","geo_is_family":0,"geo_is_friend":0,"geo_is_contact":0,"geo_is_public":1,"media":"photo","media_status":"ready"},{"id":"14085375652","owner":"32367421@N00","secret":"bb64afc75d","server":"5157","farm":6,"title":"Celebrity Infinity Arrives In New York","ispublic":1,"isfriend":0,"isfamily":0,"safe":0,"ownername":"NJ Photographer","latitude":40.785074,"longitude":-74.007393,"accuracy":"16","context":0,"place_id":"btGsRpRTV7sp1ZS7","woeid":"2517463","geo_is_family":0,"geo_is_friend":0,"geo_is_contact":0,"geo_is_public":1,"media":"photo","media_status":"ready"},{"id":"13900046698","owner":"66460484@N06","secret":"1ec5c2198c","server":"5475","farm":6,"title":"Descenso a la Val Set\u00f9s","ispublic":1,"isfriend":0,"isfamily":0,"safe":0,"ownername":"David Ruiz Luna","latitude":46.551418,"longitude":11.87415,"accuracy":"11","context":0,"place_id":"0849Ol5WU74lK0Q","woeid":"714736","geo_is_family":0,"geo_is_friend":0,"geo_is_contact":0,"geo_is_public":1,"media":"photo","media_status":"ready"},{"id":"14081634664","owner":"62815410@N04","secret":"606dc05ccb","server":"7187","farm":8,"title":"sweet(s) laundry day (brescia, italy)","ispublic":1,"isfriend":0,"isfamily":0,"safe":0,"ownername":"bloodybee","latitude":45.535986,"longitude":10.233957,"accuracy":"16","context":0,"place_id":"WO1uGLRWU7u69ps","woeid":"711410","geo_is_family":0,"geo_is_friend":0,"geo_is_contact":0,"geo_is_public":1,"media":"photo","media_status":"ready"},{"id":"13893795079","owner":"57761648@N02","secret":"b4ecc1362f","server":"7062","farm":8,"title":"it's time ...","ispublic":1,"isfriend":0,"isfamily":0,"safe":0,"ownername":"David Kracht","latitude":48.86113,"longitude":2.35253,"accuracy":"16","context":0,"place_id":"GPoA4aBUV7LCk1SJeQ","woeid":"55843763","geo_is_family":0,"geo_is_friend":0,"geo_is_contact":0,"geo_is_public":1,"media":"photo","media_status":"ready"},{"id":"14080756354","owner":"92686475@N00","secret":"39663d5780","server":"5240","farm":6,"title":"Condition Green","ispublic":1,"isfriend":0,"isfamily":0,"safe":0,"ownername":"Timothy Valentine","latitude":25.805466,"longitude":-80.122688,"accuracy":"16","context":0,"place_id":"gmm1JfFTUbzk4CRA","woeid":"2360399","geo_is_family":0,"geo_is_friend":0,"geo_is_contact":0,"geo_is_public":1,"media":"photo","media_status":"ready"},{"id":"13893231620","owner":"59848996@N08","secret":"211e833816","server":"5444","farm":6,"title":"Early morning in the Sassi of Matera","ispublic":1,"isfriend":0,"isfamily":0,"safe":1,"ownername":"paolounique","latitude":40.667618,"longitude":16.592108,"accuracy":"11","context":0,"place_id":"rMsXeRZWU7I.tSQ","woeid":"718113","geo_is_family":0,"geo_is_friend":0,"geo_is_contact":0,"geo_is_public":1,"media":"photo","media_status":"ready"},{"id":"14079489045","owner":"34096574@N06","secret":"555a626c3d","server":"5556","farm":6,"title":"Venice : Campo Dei Mori - 2\/2","ispublic":1,"isfriend":0,"isfamily":0,"safe":0,"ownername":"Pantchoa","latitude":45.445391,"longitude":12.33213,"accuracy":"16","context":0,"place_id":"EzRUzuJTUrtWx_W.dw","woeid":"20150612","geo_is_family":0,"geo_is_friend":0,"geo_is_contact":0,"geo_is_public":1,"media":"photo","media_status":"ready"},{"id":"13890673987","owner":"11514937@N03","secret":"80cc7fe16a","server":"7316","farm":8,"title":"Arecibo Beach","ispublic":1,"isfriend":0,"isfamily":0,"safe":0,"ownername":"wegstudio","latitude":18.492613,"longitude":-66.641875,"accuracy":"16","context":0,"place_id":"Zgz8RxdQVLt5Kwc","woeid":"161225","geo_is_family":0,"geo_is_friend":0,"geo_is_contact":0,"geo_is_public":1,"media":"photo","media_status":"ready"},{"id":"13889194868","owner":"44235200@N08","secret":"8ecc1721e6","server":"7364","farm":8,"title":"Boardwalk to the Sky (Explored 01\/05\/14)","ispublic":1,"isfriend":0,"isfamily":0,"safe":0,"ownername":"Dave Lockwood DA12","latitude":50.921838,"longitude":0.981001,"accuracy":"14","context":0,"place_id":"0a.LQpBQWrznYA","woeid":"18655","geo_is_family":0,"geo_is_friend":0,"geo_is_contact":0,"geo_is_public":1,"media":"photo","media_status":"ready"},{"id":"13888867377","owner":"57761648@N02","secret":"3b6022aff6","server":"5538","farm":6,"title":"... hey, ... psssst !","ispublic":1,"isfriend":0,"isfamily":0,"safe":0,"ownername":"David Kracht","latitude":48.859369,"longitude":2.351425,"accuracy":"16","context":0,"place_id":"GPoA4aBUV7LCk1SJeQ","woeid":"55843763","geo_is_family":0,"geo_is_friend":0,"geo_is_contact":0,"geo_is_public":1,"media":"photo","media_status":"ready"},{"id":"13888842570","owner":"100063725@N06","secret":"fe269ffdea","server":"5313","farm":6,"title":"Se oculta el sol","ispublic":1,"isfriend":0,"isfamily":0,"safe":0,"ownername":"Antonio Chac","latitude":36.503004,"longitude":-4.918205,"accuracy":"16","context":0,"place_id":"b6ANCk5WVLwQivI","woeid":"766537","geo_is_family":0,"geo_is_friend":0,"geo_is_contact":0,"geo_is_public":1,"media":"photo","media_status":"ready"},{"id":"13885898178","owner":"59852454@N03","secret":"2a6b406f30","server":"7302","farm":8,"title":"Windows","ispublic":1,"isfriend":0,"isfamily":0,"safe":0,"ownername":"Pavel P.","latitude":49.677206,"longitude":18.357609,"accuracy":"16","context":0,"place_id":"w2ClW1JTVrNjh_UawQ","woeid":"24929002","geo_is_family":0,"geo_is_friend":0,"geo_is_contact":0,"geo_is_public":1,"media":"photo","media_status":"ready"},{"id":"14046560956","owner":"11514937@N03","secret":"08ef675c3f","server":"7193","farm":8,"title":"Arecibo Beach","ispublic":1,"isfriend":0,"isfamily":0,"safe":0,"ownername":"wegstudio","latitude":18.492613,"longitude":-66.641875,"accuracy":"16","context":0,"place_id":"Zgz8RxdQVLt5Kwc","woeid":"161225","geo_is_family":0,"geo_is_friend":0,"geo_is_contact":0,"geo_is_public":1,"media":"photo","media_status":"ready"},{"id":"14062131611","owner":"100063725@N06","secret":"b4aee761d2","server":"5082","farm":6,"title":"Reflejos en el Mediterr\u00e1neo","ispublic":1,"isfriend":0,"isfamily":0,"safe":0,"ownername":"Antonio Chac","latitude":36.505022,"longitude":-4.89119,"accuracy":"16","context":0,"place_id":"b6ANCk5WVLwQivI","woeid":"766537","geo_is_family":0,"geo_is_friend":0,"geo_is_contact":0,"geo_is_public":1,"media":"photo","media_status":"ready"},{"id":"14082380173","owner":"24355450@N07","secret":"2a6c23b840","server":"7208","farm":8,"title":"Gruinard Bay..","ispublic":1,"isfriend":0,"isfamily":0,"safe":0,"ownername":"Gordie Broon.","latitude":57.861192,"longitude":-5.505094,"accuracy":"13","context":0,"place_id":"jZNaCb1TV7xkAQ","woeid":"25655","geo_is_family":0,"geo_is_friend":0,"geo_is_contact":0,"geo_is_public":1,"media":"photo","media_status":"ready"},{"id":"14081762203","owner":"27485294@N05","secret":"4bb5f166e6","server":"2905","farm":3,"title":"Bobovi\u0161\u0107e - Bra\u010d Island","ispublic":1,"isfriend":0,"isfamily":0,"safe":0,"ownername":"Polje\u017ei\u010danin","latitude":43.350397,"longitude":16.462669,"accuracy":"12","context":0,"place_id":"5wmKXuFZVrJ.gSE","woeid":"848883","geo_is_family":0,"geo_is_friend":0,"geo_is_contact":0,"geo_is_public":1,"media":"photo","media_status":"ready"},{"id":"14081269363","owner":"48988488@N04","secret":"874073f252","server":"2900","farm":3,"title":"pian del lupo","ispublic":1,"isfriend":0,"isfamily":0,"safe":0,"ownername":"claudius1954","latitude":46.309351,"longitude":9.768519,"accuracy":"15","context":0,"place_id":"aMtQNatTW7lkmO4bMw","woeid":"29336612","geo_is_family":0,"geo_is_friend":0,"geo_is_contact":0,"geo_is_public":1,"media":"photo","media_status":"ready"}]},"stat":"ok"}