{"photos":{"page":46,"pages":26692,"perpage":60,"total":"1601480","photo":[{"id":"13947374139","owner":"87317128@N08","secret":"a8c3780505","server":"2939","farm":3,"title":"Exit Stage Left","ispublic":1,"isfriend":0,"isfamily":0,"safe":0,"ownername":"Pu\u00e9rtolas","latitude":51.512969,"longitude":-0.119969,"accuracy":"16","context":0,"place_id":"W3zKxw5TUrpnbVimfw","woeid":"20094358","geo_is_family":0,"geo_is_friend":0,"geo_is_contact":0,"geo_is_public":1,"media":"photo","media_status":"ready"},{"id":"13946254837","owner":"46642852@N08","secret":"d0143e4939","server":"2903","farm":3,"title":"Roman Bridge - square crop - explored!","ispublic":1,"isfriend":0,"isfamily":0,"safe":0,"ownername":"OnlyEverOneJack","latitude":56.59846,"longitude":-4.125108,"accuracy":"15","context":0,"place_id":"33oSYTVQV7J_og","woeid":"15846","geo_is_family":0,"geo_is_friend":0,"geo_is_contact":0,"geo_is_public":1,"media":"photo","media_status":"ready"},{"id":"13944746970","owner":"41580255@N02","secret":"08a23e0f3d","server":"7324","farm":8,"title":"Pr\u00e9stame tus alas y ens\u00e9\u00f1ame a volar. \/ Lend me your wings, and teach me to fly.","ispublic":1,"isfriend":0,"isfamily":0,"safe":0,"ownername":"OMA photo","latitude":43.007659,"longitude":-4.426352,"accuracy":"16","context":0,"place_id":"CP0_cutWVbm1Asw","woeid":"773849","geo_is_family":0,"geo_is_friend":0,"geo_is_contact":0,"geo_is_public":1,"media":"photo","media_status":"ready"},{"id":"13942527487","owner":"65788104@N08","secret":"d74536b7f5","server":"2903","farm":3,"title":"Pearl Bordered Fritillary.(EXPLORED 07-05-2014).","ispublic":1,"isfriend":0,"isfamily":0,"safe":0,"ownername":"Natures Art Photography.Updated Profile, Read.","latitude":50.72805,"longitude":-3.719249,"accuracy":"5","context":0,"place_id":"2eIY2QFTVr_DwWZNLg","woeid":"24554868","geo_is_family":0,"geo_is_friend":0,"geo_is_contact":0,"geo_is_public":1,"media":"photo","media_status":"ready"},{"id":"14125020091","owner":"50027776@N05","secret":"10fe29d0b8","server":"5450","farm":6,"title":"Castelluccio di Norcia - primi raggi di sole","ispublic":1,"isfriend":0,"isfamily":0,"safe":1,"ownername":"Luigi Alesi","latitude":42.828299,"longitude":13.206467,"accuracy":"14","context":0,"place_id":"IcB85V1WU7lCiZ8","woeid":"713407","geo_is_family":0,"geo_is_friend":0,"geo_is_contact":0,"geo_is_public":1,"media":"photo","media_status":"ready"},{"id":"14148109803","owner":"44161305@N02","secret":"6590417789","server":"7418","farm":8,"title":"G\u00f6reme, Cappadocia (Kapadokya, Turkey) 928","ispublic":1,"isfriend":0,"isfamily":0,"safe":0,"ownername":"tango-","latitude":38.645567,"longitude":34.830265,"accuracy":"12","context":0,"place_id":"OIvmaeNTUbmsxu00","woeid":"2339815","geo_is_family":0,"geo_is_friend":0,"geo_is_contact":0,"geo_is_public":1,"media":"photo","media_status":"ready"},{"id":"13938385737","owner":"42483899@N00","secret":"25e99d7c58","server":"7415","farm":8,"title":"Langdale","ispublic":1,"isfriend":0,"isfamily":0,"safe":0,"ownername":"Davescunningplan","latitude":54.441996,"longitude":-3.103895,"accuracy":"13","context":0,"place_id":"ABT_2pVTUrqk3YGrVQ","woeid":"20091630","geo_is_family":0,"geo_is_friend":0,"geo_is_contact":0,"geo_is_public":1,"media":"photo","media_status":"ready"},{"id":"13937732700","owner":"60498186@N05","secret":"189db8c9e1","server":"2917","farm":3,"title":"Alexander Dennis - Enviro 400MMC","ispublic":1,"isfriend":0,"isfamily":0,"safe":0,"ownername":"GreggC84","latitude":53.708911,"longitude":-2.686553,"accuracy":"16","context":0,"place_id":"lbRbDF5TVb4iCA","woeid":"27494","geo_is_family":0,"geo_is_friend":0,"geo_is_contact":0,"geo_is_public":1,"media":"photo","media_status":"ready"},{"id":"13936102480","owner":"14442041@N04","secret":"d8933c4665","server":"5587","farm":6,"title":"Big Waves in Copacabana, Rio de Janeiro","ispublic":1,"isfriend":0,"isfamily":0,"safe":0,"ownername":"Quasebart","latitude":-22.96432,"longitude":-43.16657,"accuracy":"14","context":0,"place_id":".aq0U89VUbK6fW4","woeid":"438473","geo_is_family":0,"geo_is_friend":0,"geo_is_contact":0,"geo_is_public":1,"media":"photo","media_status":"ready"},{"id":"14116809851","owner":"22918294@N04","secret":"f1f5d7e2b3","server":"5589","farm":6,"title":"England","ispublic":1,"isfriend":0,"isfamily":0,"safe":0,"ownername":"richard.mcmanus.","latitude":51.478255,"longitude":-0.314912,"accuracy":"14","context":0,"place_id":"7b8jn_lVUbn02g","woeid":"43351","geo_is_family":0,"geo_is_friend":0,"geo_is_contact":0,"geo_is_public":1,"media":"photo","media_status":"ready"},{"id":"13930111467","owner":"16874065@N00","secret":"2706cb04b6","server":"5075","farm":6,"title":"191venise","ispublic":1,"isfriend":0,"isfamily":0,"safe":0,"ownername":"R E M I B R I D O T","latitude":45.43328,"longitude":12.340311,"accuracy":"16","context":0,"place_id":"UQEdl5BTUrv2TyTgZw","woeid":"20150616","geo_is_family":0,"geo_is_friend":0,"geo_is_contact":0,"geo_is_public":1,"media":"photo","media_status":"ready"},{"id":"14116103755","owner":"68481084@N03","secret":"a9518aa39c","server":"5515","farm":6,"title":"Stairs [Explored 6\/5\/14]","ispublic":1,"isfriend":0,"isfamily":0,"safe":0,"ownername":"Matthew Soar","latitude":50.795682,"longitude":-1.108567,"accuracy":"15","context":0,"place_id":"Z.v9bUxVUb3DHg","woeid":"43745","geo_is_family":0,"geo_is_friend":0,"geo_is_contact":0,"geo_is_public":1,"media":"photo","media_status":"ready"},{"id":"14092474736","owner":"52523946@N04","secret":"1c9731eb45","server":"7441","farm":8,"title":"Pointe du Ch\u00e2teau de Trestrignel","ispublic":1,"isfriend":0,"isfamily":0,"safe":0,"ownername":"Guillaume Chanson","latitude":48.819778,"longitude":-3.42915,"accuracy":"15","context":0,"place_id":"RkrDjcdXU7zF9hc","woeid":"616152","geo_is_family":0,"geo_is_friend":0,"geo_is_contact":0,"geo_is_public":1,"media":"photo","media_status":"ready"},{"id":"14115508875","owner":"65788104@N08","secret":"9fdb104de6","server":"5517","farm":6,"title":"Pearl Bordered Fritillary.(EXPLORED 05-05-2014)","ispublic":1,"isfriend":0,"isfamily":0,"safe":0,"ownername":"Natures Art Photography.Updated Profile, Read.","latitude":50.72805,"longitude":-3.719249,"accuracy":"5","context":0,"place_id":"2eIY2QFTVr_DwWZNLg","woeid":"24554868","geo_is_family":0,"geo_is_friend":0,"geo_is_contact":0,"geo_is_public":1,"media":"photo","media_status":"ready"},{"id":"13928518460","owner":"44962378@N08","secret":"fc221fb56f","server":"7176","farm":8,"title":"Attesa.","ispublic":1,"isfriend":0,"isfamily":0,"safe":0,"ownername":"FilippoMarchi\uf8ff\uf8ff\uf8ff","latitude":41.383638,"longitude":2.180236,"accuracy":"16","context":0,"place_id":"uwgaZH9WV7kYBCo","woeid":"753693","geo_is_family":0,"geo_is_friend":0,"geo_is_contact":0,"geo_is_public":1,"media":"photo","media_status":"ready"},{"id":"14113695455","owner":"79117486@N02","secret":"e3bca23927","server":"5035","farm":6,"title":"bilbao noche ( on explore 5-5-2014 )","ispublic":1,"isfriend":0,"isfamily":0,"safe":0,"ownername":"haymartxo","latitude":43.266721,"longitude":-2.959415,"accuracy":"11","context":0,"place_id":"v0b7ga9WV745BHU","woeid":"754542","geo_is_family":0,"geo_is_friend":0,"geo_is_contact":0,"geo_is_public":1,"media":"photo","media_status":"ready"},{"id":"14108335631","owner":"26429763@N08","secret":"6e9b6634e1","server":"2921","farm":3,"title":"Where the High Street meets The Quay...","ispublic":1,"isfriend":0,"isfamily":0,"safe":0,"ownername":"Born in The 40's.. Explored again!","latitude":50.712112,"longitude":-1.988493,"accuracy":"16","context":0,"place_id":"GfIf68FVUb3lLA","woeid":"43734","geo_is_family":0,"geo_is_friend":0,"geo_is_contact":0,"geo_is_public":1,"media":"photo","media_status":"ready"},{"id":"13923737337","owner":"75133058@N00","secret":"9f42492745","server":"5151","farm":6,"title":"Com entono de ginete...","ispublic":1,"isfriend":0,"isfamily":0,"safe":0,"ownername":"Eduardo Amorim","latitude":-31.698084,"longitude":-52.377662,"accuracy":"11","context":0,"place_id":"vq7fPU9QUL.GdHcYFQ","woeid":"12581438","geo_is_family":0,"geo_is_friend":0,"geo_is_contact":0,"geo_is_public":1,"media":"photo","media_status":"ready"},{"id":"14084339746","owner":"94214577@N00","secret":"4c42aea76d","server":"7301","farm":8,"title":"Gowanus Kentile sign - let there be light!","ispublic":1,"isfriend":0,"isfamily":0,"safe":0,"ownername":"Barry Yanowitz","latitude":40.672322,"longitude":-73.993922,"accuracy":"16","context":0,"place_id":"Z.SPOYJTWr0ijBQPFQ","woeid":"28746217","geo_is_family":0,"geo_is_friend":0,"geo_is_contact":0,"geo_is_public":1,"media":"photo","media_status":"ready"},{"id":"13920757199","owner":"66403925@N03","secret":"73070a42e1","server":"5522","farm":6,"title":"\"Libelinha\", Large red damselfly(Pyrrhosoma nymphula) - em Liberdade [wildLife]","ispublic":1,"isfriend":0,"isfamily":0,"safe":0,"ownername":"ana & xavier (1.100.000 views - Obg \/ thanks)","latitude":41.129108,"longitude":-8.61361,"accuracy":"11","context":0,"place_id":"a69YBDJWV7q53QY","woeid":"750800","geo_is_family":0,"geo_is_friend":0,"geo_is_contact":0,"geo_is_public":1,"media":"photo","media_status":"ready"},{"id":"14103831811","owner":"33995372@N07","secret":"3a2c3bf995","server":"5488","farm":6,"title":"Serenity","ispublic":1,"isfriend":0,"isfamily":0,"safe":0,"ownername":"milesdavis1","latitude":53.131643,"longitude":-4.132575,"accuracy":"11","context":0,"place_id":"BPDLWmFQW7LpVQ","woeid":"19835","geo_is_family":0,"geo_is_friend":0,"geo_is_contact":0,"geo_is_public":1,"media":"photo","media_status":"ready"},{"id":"14105873845","owner":"42985099@N03","secret":"7bddff38bf","server":"7458","farm":8,"title":"~Aelia acuminata~","ispublic":1,"isfriend":0,"isfamily":0,"safe":0,"ownername":"Eddie The Bugman","latitude":52.914802,"longitude":-1.152577,"accuracy":"16","context":0,"place_id":"n10fnYdVUr8n3g","woeid":"40524","geo_is_family":0,"geo_is_friend":0,"geo_is_contact":0,"geo_is_public":1,"media":"photo","media_status":"ready"},{"id":"14105761814","owner":"87850323@N03","secret":"7399b4a2c1","server":"7401","farm":8,"title":"The Fog is rolling in","ispublic":1,"isfriend":0,"isfamily":0,"safe":0,"ownername":"Jon Bagge","latitude":32.755175,"longitude":-17.001171,"accuracy":"13","context":0,"place_id":"VMQUkM1UV7JuZ8tMOg","woeid":"55868420","geo_is_family":0,"geo_is_friend":0,"geo_is_contact":0,"geo_is_public":1,"media":"photo","media_status":"ready"},{"id":"13917091897","owner":"82831944@N02","secret":"45a4da60fd","server":"5470","farm":6,"title":"..mo scaglio un dardo.. vediamo che succede..","ispublic":1,"isfriend":0,"isfamily":0,"safe":0,"ownername":"Antonio Iacobelli (Jacobson-2012)","latitude":41.112695,"longitude":16.864228,"accuracy":"15","context":0,"place_id":"4EezEdZWU7r5KMc","woeid":"710722","geo_is_family":0,"geo_is_friend":0,"geo_is_contact":0,"geo_is_public":1,"media":"photo","media_status":"ready"},{"id":"13916728568","owner":"27728746@N04","secret":"12fbd529a1","server":"7451","farm":8,"title":"Encontr\u00e9 un lugar...","ispublic":1,"isfriend":0,"isfamily":0,"safe":0,"ownername":"pimontes","latitude":59.332168,"longitude":18.062429,"accuracy":"11","context":0,"place_id":"tgFHf69YUryyhAs","woeid":"906057","geo_is_family":0,"geo_is_friend":0,"geo_is_contact":0,"geo_is_public":1,"media":"photo","media_status":"ready"},{"id":"14123019163","owner":"68176223@N07","secret":"0b9ea666f7","server":"7381","farm":8,"title":"Glued","ispublic":1,"isfriend":0,"isfamily":0,"safe":0,"ownername":"Franco Beccari","latitude":43.325439,"longitude":11.33076,"accuracy":"11","context":0,"place_id":"ETlqzr1WUL6FcKo","woeid":"724196","geo_is_family":0,"geo_is_friend":0,"geo_is_contact":0,"geo_is_public":1,"media":"photo","media_status":"ready"},{"id":"14075819366","owner":"9939547@N08","secret":"a4b56f5306","server":"7058","farm":8,"title":"IMG_2883","ispublic":1,"isfriend":0,"isfamily":0,"safe":0,"ownername":"jimbonzo079","latitude":52.271518,"longitude":-5.811767,"accuracy":"7","context":0,"place_id":"2eIY2QFTVr_DwWZNLg","woeid":"24554868","geo_is_family":0,"geo_is_friend":0,"geo_is_contact":0,"geo_is_public":1,"media":"photo","media_status":"ready"},{"id":"13911352530","owner":"90076467@N07","secret":"11bac1311f","server":"2924","farm":3,"title":"... En la zona crepuscular!!! \/ ... In the twilight zone!!!","ispublic":1,"isfriend":0,"isfamily":0,"safe":0,"ownername":"Fede Falces (OFF & ON)","latitude":41.385719,"longitude":2.170049,"accuracy":"11","context":0,"place_id":"p.gvf6dWV7k1Gpg","woeid":"753692","geo_is_family":0,"geo_is_friend":0,"geo_is_contact":0,"geo_is_public":1,"media":"photo","media_status":"ready"},{"id":"13910493500","owner":"88420718@N03","secret":"01324843aa","server":"7036","farm":8,"title":"withering red","ispublic":1,"isfriend":0,"isfamily":0,"safe":0,"ownername":"thequietguy","latitude":41.215853,"longitude":23.087081,"accuracy":"11","context":0,"place_id":"UrcwlPhYV7jGFiI","woeid":"952864","geo_is_family":0,"geo_is_friend":0,"geo_is_contact":0,"geo_is_public":1,"media":"photo","media_status":"ready"},{"id":"14116427973","owner":"40323303@N05","secret":"cb85841375","server":"7441","farm":8,"title":"Amanece en el puerto de A Coru\u00f1a","ispublic":1,"isfriend":0,"isfamily":0,"safe":0,"ownername":"Chencho Mendoza","latitude":43.361132,"longitude":-8.399562,"accuracy":"14","context":0,"place_id":"sWHFrNNWVLnsxTY","woeid":"763246","geo_is_family":0,"geo_is_friend":0,"geo_is_contact":0,"geo_is_public":1,"media":"photo","media_status":"ready"},{"id":"14096279265","owner":"57470747@N02","secret":"6ae6a085ae","server":"7460","farm":8,"title":"Passo Cordone - Luci & Ombre","ispublic":1,"isfriend":0,"isfamily":0,"safe":0,"ownername":"Andrea di Florio (1.000.000 VIEWS!!!)","latitude":42.401538,"longitude":13.962269,"accuracy":"11","context":0,"place_id":"_QSwlDlTUrvK0ChW0g","woeid":"20135168","geo_is_family":0,"geo_is_friend":0,"geo_is_contact":0,"geo_is_public":1,"media":"photo","media_status":"ready"},{"id":"13908507120","owner":"13922644@N05","secret":"6f51a67564","server":"2929","farm":3,"title":"Wharfedale Spring","ispublic":1,"isfriend":0,"isfamily":0,"safe":0,"ownername":"bingleyman2","latitude":54.080434,"longitude":-1.999576,"accuracy":"16","context":0,"place_id":"lFRd9tZTU79Rcg","woeid":"21519","geo_is_family":0,"geo_is_friend":0,"geo_is_contact":0,"geo_is_public":1,"media":"photo","media_status":"ready"},{"id":"13908431849","owner":"32126965@N07","secret":"c1fe53ce6c","server":"2926","farm":3,"title":"Dockland Scene ..","ispublic":1,"isfriend":0,"isfamily":0,"safe":0,"ownername":"* Janets Photos*","latitude":53.571868,"longitude":-0.082311,"accuracy":"13","context":0,"place_id":"Pixzi0ZTU7KzCA","woeid":"21896","geo_is_family":0,"geo_is_friend":0,"geo_is_contact":0,"geo_is_public":1,"media":"photo","media_status":"ready"},{"id":"14091531952","owner":"100738664@N05","secret":"75a34ba373","server":"5470","farm":6,"title":"Parco Delle Erbe Danzanti - The Park, dancing herbs","ispublic":1,"isfriend":0,"isfamily":0,"safe":0,"ownername":"IVAN 63","latitude":45.664009,"longitude":9.957019,"accuracy":"11","context":0,"place_id":"rrpKCUpWU7OqXi8","woeid":"719959","geo_is_family":0,"geo_is_friend":0,"geo_is_contact":0,"geo_is_public":1,"media":"photo","media_status":"ready"},{"id":"13907572450","owner":"90378082@N07","secret":"92dcc637c9","server":"7208","farm":8,"title":"Keep taking the viagra","ispublic":1,"isfriend":0,"isfamily":0,"safe":0,"ownername":"Baz 120","latitude":41.895553,"longitude":12.483708,"accuracy":"15","context":0,"place_id":"FphPyURWU7ux6h4","woeid":"711883","geo_is_family":0,"geo_is_friend":0,"geo_is_contact":0,"geo_is_public":1,"media":"photo","media_status":"ready"},{"id":"14091050572","owner":"90378082@N07","secret":"8bf795aa0c","server":"7345","farm":8,"title":"Are you listening to me.","ispublic":1,"isfriend":0,"isfamily":0,"safe":0,"ownername":"Baz 120","latitude":41.911108,"longitude":12.476305,"accuracy":"15","context":0,"place_id":"62ufGyBUUb26u2g","woeid":"537842","geo_is_family":0,"geo_is_friend":0,"geo_is_contact":0,"geo_is_public":1,"media":"photo","media_status":"ready"},{"id":"14089006691","owner":"91703051@N07","secret":"2c9c4fb589","server":"5564","farm":6,"title":"spring series (woods)","ispublic":1,"isfriend":0,"isfamily":0,"safe":0,"ownername":"enzzo_","latitude":50.625817,"longitude":30.359716,"accuracy":"13","context":0,"place_id":"5snCJBtYU70enqI","woeid":"917674","geo_is_family":0,"geo_is_friend":0,"geo_is_contact":0,"geo_is_public":1,"media":"photo","media_status":"ready"},{"id":"13905394318","owner":"17306541@N06","secret":"9e0625cc7e","server":"5549","farm":6,"title":"Tourist","ispublic":1,"isfriend":0,"isfamily":0,"safe":0,"ownername":"jellyfire","latitude":51.50384,"longitude":-0.065478,"accuracy":"16","context":0,"place_id":"ioMj8f1VVrlYuw","woeid":"44365","geo_is_family":0,"geo_is_friend":0,"geo_is_contact":0,"geo_is_public":1,"media":"photo","media_status":"ready"},{"id":"13904940920","owner":"9939547@N08","secret":"864b003cd4","server":"5529","farm":6,"title":"IMG_2993","ispublic":1,"isfriend":0,"isfamily":0,"safe":0,"ownername":"jimbonzo079","latitude":52.271518,"longitude":-5.811767,"accuracy":"7","context":0,"place_id":"2eIY2QFTVr_DwWZNLg","woeid":"24554868","geo_is_family":0,"geo_is_friend":0,"geo_is_contact":0,"geo_is_public":1,"media":"photo","media_status":"ready"},{"id":"13904238869","owner":"91722814@N02","secret":"3f914b88c8","server":"7199","farm":8,"title":"Time to go.","ispublic":1,"isfriend":0,"isfamily":0,"safe":0,"ownername":"nalamanpics","latitude":50.663839,"longitude":-3.46492,"accuracy":"15","context":0,"place_id":"NII55UBSUL9.pQ","woeid":"32515","geo_is_family":0,"geo_is_friend":0,"geo_is_contact":0,"geo_is_public":1,"media":"photo","media_status":"ready"},{"id":"14089862665","owner":"60423624@N05","secret":"667a063835","server":"2922","farm":3,"title":"Sundgrund","ispublic":1,"isfriend":0,"isfamily":0,"safe":0,"ownername":"dubdream","latitude":54.392152,"longitude":11.094131,"accuracy":"11","context":0,"place_id":"N9xLxhRXV772ZDI","woeid":"654915","geo_is_family":0,"geo_is_friend":0,"geo_is_contact":0,"geo_is_public":1,"media":"photo","media_status":"ready"},{"id":"14064914766","owner":"63947271@N06","secret":"73b15b6940","server":"7350","farm":8,"title":"Perennial","ispublic":1,"isfriend":0,"isfamily":0,"safe":0,"ownername":"S l a w e k","latitude":50.691238,"longitude":-4.008293,"accuracy":"11","context":0,"place_id":"PLDCjDdQULx9ZelyCg","woeid":"12695921","geo_is_family":0,"geo_is_friend":0,"geo_is_contact":0,"geo_is_public":1,"media":"photo","media_status":"ready"},{"id":"13901331207","owner":"14279081@N08","secret":"5ac52354e9","server":"7311","farm":8,"title":"iphoneography","ispublic":1,"isfriend":0,"isfamily":0,"safe":0,"ownername":"\u039eSS\u039e\u00ae\u00ae\u039e","latitude":41.949644,"longitude":12.846579,"accuracy":"15","context":0,"place_id":"4wIrb3xTUrso1yq7YQ","woeid":"20109990","geo_is_family":0,"geo_is_friend":0,"geo_is_contact":0,"geo_is_public":1,"media":"photo","media_status":"ready"},{"id":"13900722718","owner":"66792513@N07","secret":"2ef916cf8f","server":"2932","farm":3,"title":"Arachova, Greece","ispublic":1,"isfriend":0,"isfamily":0,"safe":1,"ownername":"Ioannisdg","latitude":38.480183,"longitude":22.58453,"accuracy":"16","context":0,"place_id":"tmWKNrFYVrxvwiY","woeid":"946293","geo_is_family":0,"geo_is_friend":0,"geo_is_contact":0,"geo_is_public":1,"media":"photo","media_status":"ready"},{"id":"14064141246","owner":"39669415@N05","secret":"962ce2c181","server":"7361","farm":8,"title":"Hyacinths and Tulips","ispublic":1,"isfriend":0,"isfamily":0,"safe":0,"ownername":"BraCom (Bram)","latitude":52.316658,"longitude":4.563644,"accuracy":"16","context":0,"place_id":"g3cMbBBWUb7hcEA","woeid":"734335","geo_is_family":0,"geo_is_friend":0,"geo_is_contact":0,"geo_is_public":1,"media":"photo","media_status":"ready"},{"id":"14105657933","owner":"22540008@N04","secret":"572ddcffd1","server":"5322","farm":6,"title":"New York by night","ispublic":1,"isfriend":0,"isfamily":0,"safe":0,"ownername":"Mihai Andritoiu","latitude":40.748524,"longitude":-73.985645,"accuracy":"16","context":0,"place_id":"MGEM4kFTWr0tOal8SA","woeid":"28751330","geo_is_family":0,"geo_is_friend":0,"geo_is_contact":0,"geo_is_public":1,"media":"photo","media_status":"ready"},{"id":"13893814530","owner":"77963612@N02","secret":"e7148c7a8d","server":"2922","farm":3,"title":"115  Landgoed Clingendael - De Japanse Tuin - \u30ac\u30fc\u30c7\u30f3 ( explore )","ispublic":1,"isfriend":0,"isfamily":0,"safe":0,"ownername":"Bas1953","latitude":52.099862,"longitude":4.334707,"accuracy":"15","context":0,"place_id":"XCe_qOxTUrpCVnaTkA","woeid":"20063900","geo_is_family":0,"geo_is_friend":0,"geo_is_contact":0,"geo_is_public":1,"media":"photo","media_status":"ready"},{"id":"13893030778","owner":"44602415@N03","secret":"827c062dba","server":"7361","farm":8,"title":"Isegrim","ispublic":1,"isfriend":0,"isfamily":0,"safe":0,"ownername":"StellaMarisHH","latitude":53.236377,"longitude":10.043821,"accuracy":"15","context":0,"place_id":"VvudoepTUrvi1Vu6dQ","woeid":"20166659","geo_is_family":0,"geo_is_friend":0,"geo_is_contact":0,"geo_is_public":1,"media":"photo","media_status":"ready"},{"id":"13892811187","owner":"36326099@N05","secret":"50fdd03c7d","server":"7210","farm":8,"title":"Black Hole","ispublic":1,"isfriend":0,"isfamily":0,"safe":0,"ownername":"Aaron Yeoman","latitude":51.505,"longitude":-0.098334,"accuracy":"16","context":0,"place_id":"OSWzL_pTUrqOB8Dpqg","woeid":"20094299","geo_is_family":0,"geo_is_friend":0,"geo_is_contact":0,"geo_is_public":1,"media":"photo","media_status":"ready"},{"id":"14079897154","owner":"60123661@N08","secret":"90ba6e5f37","server":"2930","farm":3,"title":"Keijo, the last member of the familly *Explored*","ispublic":1,"isfriend":0,"isfamily":0,"safe":0,"ownername":"Kataaku","latitude":43.58015,"longitude":7.12123,"accuracy":"11","context":0,"place_id":"pyk5L_ZUVbzvfUs","woeid":"576272","geo_is_family":0,"geo_is_friend":0,"geo_is_contact":0,"geo_is_public":1,"media":"photo","media_status":"ready"},{"id":"13892672099","owner":"44175404@N03","secret":"6d6d13ac15","server":"5119","farm":6,"title":"Swan Study","ispublic":1,"isfriend":0,"isfamily":0,"safe":0,"ownername":"bryangarnett1 (trying to catch-up)","latitude":51.666539,"longitude":-0.213761,"accuracy":"14","context":0,"place_id":"A6TuVr5TUbuX4A","woeid":"23176","geo_is_family":0,"geo_is_friend":0,"geo_is_contact":0,"geo_is_public":1,"media":"photo","media_status":"ready"},{"id":"13889270299","owner":"38490142@N05","secret":"98d71aa202","server":"5450","farm":6,"title":"Ambiance d'un soir","ispublic":1,"isfriend":0,"isfamily":0,"safe":0,"ownername":"Vaxjo","latitude":45.754888,"longitude":4.836473,"accuracy":"13","context":0,"place_id":"gUrZ2NhXUrPDYlI","woeid":"609125","geo_is_family":0,"geo_is_friend":0,"geo_is_contact":0,"geo_is_public":1,"media":"photo","media_status":"ready"},{"id":"14050986636","owner":"48889035424@N01","secret":"af6d1a2827","server":"5198","farm":6,"title":"Seehausen a. Staffelsee","ispublic":1,"isfriend":0,"isfamily":0,"safe":0,"ownername":"[m]apugrafie","latitude":47.687336,"longitude":11.181127,"accuracy":"16","context":0,"place_id":"VObV.a5XVbwMZ0M","woeid":"676912","geo_is_family":0,"geo_is_friend":0,"geo_is_contact":0,"geo_is_public":1,"media":"photo","media_status":"ready"},{"id":"13887418590","owner":"32126965@N07","secret":"de418457da","server":"7327","farm":8,"title":"City Centre Flowerbed ..","ispublic":1,"isfriend":0,"isfamily":0,"safe":0,"ownername":"* Janets Photos*","latitude":53.744193,"longitude":-0.33946,"accuracy":"13","context":0,"place_id":"KjFlu9NTV7jyiw","woeid":"25211","geo_is_family":0,"geo_is_friend":0,"geo_is_contact":0,"geo_is_public":1,"media":"photo","media_status":"ready"},{"id":"14072358144","owner":"66403925@N03","secret":"c9f9649244","server":"7334","farm":8,"title":"\"Libelinha\", Keeled Skimmer(Orthetrum coerulescens) - em Liberdade [wildLife]","ispublic":1,"isfriend":0,"isfamily":0,"safe":0,"ownername":"ana & xavier (1.100.000 views - Obg \/ thanks)","latitude":40.037109,"longitude":-7.02322,"accuracy":"11","context":0,"place_id":"t3UmyrNWVr9TSa4","woeid":"745522","geo_is_family":0,"geo_is_friend":0,"geo_is_contact":0,"geo_is_public":1,"media":"photo","media_status":"ready"},{"id":"14064893905","owner":"11638484@N06","secret":"a032c1dc1d","server":"7408","farm":8,"title":"Anhinga adult female alternate \/ breeding plumage (Anhinga anhinga)","ispublic":1,"isfriend":0,"isfamily":0,"safe":0,"ownername":"Paul Hueber","latitude":28.235024,"longitude":-80.758695,"accuracy":"15","context":0,"place_id":"5msI6aNTVLnC_WUUKQ","woeid":"26342874","geo_is_family":0,"geo_is_friend":0,"geo_is_contact":0,"geo_is_public":1,"media":"photo","media_status":"ready"},{"id":"14040857546","owner":"33660572@N02","secret":"b885942c2a","server":"5528","farm":6,"title":"Peuples du monde: les Mursi d'Ethiopie.","ispublic":1,"isfriend":0,"isfamily":0,"safe":0,"ownername":"claude gourlay","latitude":5.51074,"longitude":36.723518,"accuracy":"11","context":0,"place_id":"uLjanjpQVrKolM.u","woeid":"1482352","geo_is_family":0,"geo_is_friend":0,"geo_is_contact":0,"geo_is_public":1,"media":"photo","media_status":"ready"},{"id":"14061566094","owner":"67833313@N08","secret":"b37809e3a0","server":"5129","farm":6,"title":"purple rain...","ispublic":1,"isfriend":0,"isfamily":0,"safe":0,"ownername":"Dimitra Kirgiannaki \u266a\u00b8.\u2022*\u00b4spring-lover \u00a8\u00b4","latitude":37.928582,"longitude":23.693767,"accuracy":"11","context":0,"place_id":"hXFuKQ5YV7JgOUY","woeid":"958836","geo_is_family":0,"geo_is_friend":0,"geo_is_contact":0,"geo_is_public":1,"media":"photo","media_status":"ready"},{"id":"14037670226","owner":"39669415@N05","secret":"75d3315914","server":"7085","farm":8,"title":"Only a week ago, and now are all the colors already gone","ispublic":1,"isfriend":0,"isfamily":0,"safe":0,"ownername":"BraCom (Bram)","latitude":51.716791,"longitude":4.11763,"accuracy":"16","context":0,"place_id":"Ec3Aji1WUbrD5k8","woeid":"730010","geo_is_family":0,"geo_is_friend":0,"geo_is_contact":0,"geo_is_public":1,"media":"photo","media_status":"ready"},{"id":"13926786577","owner":"37708438@N05","secret":"410eea3b0c","server":"2938","farm":3,"title":"SPRING CLOUDS","ispublic":1,"isfriend":0,"isfamily":0,"safe":0,"ownername":"kenny barker","latitude":56.02479,"longitude":-3.793579,"accuracy":"8","context":0,"place_id":"4iwPHL1QULwZ3mGvkA","woeid":"12602199","geo_is_family":0,"geo_is_friend":0,"geo_is_contact":0,"geo_is_public":1,"media":"photo","media_status":"ready"}]},"stat":"ok"}