{"photos":{"page":8, "pages":24254, "perpage":60, "total":"1455199", "photo":[{"id":"13030480845", "owner":"56936646@N07", "secret":"4c794074f1", "server":"7425", "farm":8, "title":"D.o.F.", "ispublic":1, "isfriend":0, "isfamily":0, "safe":0, "ownername":"Frank van Dongen", "latitude":51.567455, "longitude":3.495402, "accuracy":"16", "context":0, "place_id":"16c6lA1WULLuYTk", "woeid":"728767", "geo_is_family":0, "geo_is_friend":0, "geo_is_contact":0, "geo_is_public":1, "media":"photo", "media_status":"ready"}, {"id":"13029848613", "owner":"64110713@N05", "secret":"146453360d", "server":"7397", "farm":8, "title":"Hello there", "ispublic":1, "isfriend":0, "isfamily":0, "safe":0, "ownername":"Just Ard", "latitude":51.512615, "longitude":-3.219391, "accuracy":"16", "context":0, "place_id":"vlwJlIxVUrsF7g", "woeid":"40191", "geo_is_family":0, "geo_is_friend":0, "geo_is_contact":0, "geo_is_public":1, "media":"photo", "media_status":"ready"}, {"id":"13029395173", "owner":"65990237@N03", "secret":"2c43a0b511", "server":"7317", "farm":8, "title":"Old Man of Storr, Skye at dawn", "ispublic":1, "isfriend":0, "isfamily":0, "safe":0, "ownername":"Belhaven2011", "latitude":57.505933, "longitude":-6.186118, "accuracy":"14", "context":0, "place_id":"BGFFwVFTUrojGHraOw", "woeid":"20093887", "geo_is_family":0, "geo_is_friend":0, "geo_is_contact":0, "geo_is_public":1, "media":"photo", "media_status":"ready"}, {"id":"13028890135", "owner":"48988488@N04", "secret":"8e9065f7b5", "server":"7346", "farm":8, "title":"bosco giulia in inverno", "ispublic":1, "isfriend":0, "isfamily":0, "safe":1, "ownername":"claudius1954", "latitude":45.910734, "longitude":9.389619, "accuracy":"14", "context":0, "place_id":"Lnwg79lTUrvHkw5Ttg", "woeid":"20136161", "geo_is_family":0, "geo_is_friend":0, "geo_is_contact":0, "geo_is_public":1, "media":"photo", "media_status":"ready"}, {"id":"13023364295", "owner":"76238381@N08", "secret":"57694a7a0f", "server":"2154", "farm":3, "title":"Sun's Promise", "ispublic":1, "isfriend":0, "isfamily":0, "safe":1, "ownername":"Sandra's Weeds", "latitude":40.4668, "longitude":-74.008712, "accuracy":"11", "context":0, "place_id":"X6.kC6dTVrrbg0pb", "woeid":"2405718", "geo_is_family":0, "geo_is_friend":0, "geo_is_contact":0, "geo_is_public":1, "media":"photo", "media_status":"ready"}, {"id":"13021097114", "owner":"43082306@N00", "secret":"5ab10fed30", "server":"7420", "farm":8, "title":"Flower & Garden Festival", "ispublic":1, "isfriend":0, "isfamily":0, "safe":0, "ownername":"Don Sullivan", "latitude":28.371823, "longitude":-81.549764, "accuracy":"16", "context":0, "place_id":"KDmGPrpTUbzVDI_I", "woeid":"2360208", "geo_is_family":0, "geo_is_friend":0, "geo_is_contact":0, "geo_is_public":1, "media":"photo", "media_status":"ready"}, {"id":"13020387533", "owner":"14568674@N08", "secret":"38e4267961", "server":"7460", "farm":8, "title":"S argent\u00e9 ...", "ispublic":1, "isfriend":0, "isfamily":0, "safe":1, "ownername":"Titi92. (overbook\u00e9e ...)", "latitude":48.600497, "longitude":-2.818785, "accuracy":"16", "context":0, "place_id":"4xC3qe9UVbO6N04", "woeid":"579986", "geo_is_family":0, "geo_is_friend":0, "geo_is_contact":0, "geo_is_public":1, "media":"photo", "media_status":"ready"}, {"id":"13019499264", "owner":"66752285@N08", "secret":"e387550c33", "server":"3718", "farm":4, "title":"Sideshow Donation", "ispublic":1, "isfriend":0, "isfamily":0, "safe":0, "ownername":"Sam-Lehman", "latitude":39.309447, "longitude":-76.61656, "accuracy":"16", "context":0, "place_id":"FFpbc4RTW7jyN1Nexg", "woeid":"29229393", "geo_is_family":0, "geo_is_friend":0, "geo_is_contact":0, "geo_is_public":1, "media":"photo", "media_status":"ready"}, {"id":"13018565664", "owner":"78772251@N07", "secret":"c81445063e", "server":"7441", "farm":8, "title":"outnumbered", "ispublic":1, "isfriend":0, "isfamily":0, "safe":1, "ownername":"neals pics", "latitude":52.225906, "longitude":0.730934, "accuracy":"14", "context":0, "place_id":"GfumPzNQVr0RLg", "woeid":"14714", "geo_is_family":0, "geo_is_friend":0, "geo_is_contact":0, "geo_is_public":1, "media":"photo", "media_status":"ready"}, {"id":"13017823913", "owner":"20905078@N04", "secret":"a230302829", "server":"7368", "farm":8, "title":"", "ispublic":1, "isfriend":0, "isfamily":0, "safe":1, "ownername":"patrickjoust", "latitude":39.334936, "longitude":-76.634799, "accuracy":"16", "context":0, "place_id":"gDC9FgRTVrs5zJzS", "woeid":"2416788", "geo_is_family":0, "geo_is_friend":0, "geo_is_contact":0, "geo_is_public":1, "media":"photo", "media_status":"ready"}, {"id":"13017227643", "owner":"16125468@N05", "secret":"0f749f9e22", "server":"7358", "farm":8, "title":"Dunstanburgh Castle   Explored", "ispublic":1, "isfriend":0, "isfamily":0, "safe":1, "ownername":"Alan Dingwall", "latitude":55.4843, "longitude":-1.591644, "accuracy":"11", "context":0, "place_id":"1G_E_bpQVbiozg", "woeid":"17220", "geo_is_family":0, "geo_is_friend":0, "geo_is_contact":0, "geo_is_public":1, "media":"photo", "media_status":"ready"}, {"id":"13016774154", "owner":"62529443@N07", "secret":"c977ecea4c", "server":"7299", "farm":8, "title":"Of light, shadows and a briefcase", "ispublic":1, "isfriend":0, "isfamily":0, "safe":0, "ownername":"MarDiet", "latitude":50.106542, "longitude":8.663878, "accuracy":"16", "context":0, "place_id":"Z0FRRfRXV7oIeew", "woeid":"650272", "geo_is_family":0, "geo_is_friend":0, "geo_is_contact":0, "geo_is_public":1, "media":"photo", "media_status":"ready"}, {"id":"13014486124", "owner":"72947739@N07", "secret":"7f615fc6f4", "server":"7453", "farm":8, "title":"father & son at the seaside..", "ispublic":1, "isfriend":0, "isfamily":0, "safe":1, "ownername":"camelot98", "latitude":24.794214, "longitude":67.039947, "accuracy":"11", "context":0, "place_id":"zpVY2SRTULtE05Ow", "woeid":"2211096", "geo_is_family":0, "geo_is_friend":0, "geo_is_contact":0, "geo_is_public":1, "media":"photo", "media_status":"ready"}, {"id":"13013508763", "owner":"66460484@N06", "secret":"8d02eff6ac", "server":"3821", "farm":4, "title":"Typically Venetian", "ispublic":1, "isfriend":0, "isfamily":0, "safe":0, "ownername":"David Ruiz Luna", "latitude":45.433115, "longitude":12.340012, "accuracy":"16", "context":0, "place_id":"UQEdl5BTUrv2TyTgZw", "woeid":"20150616", "geo_is_family":0, "geo_is_friend":0, "geo_is_contact":0, "geo_is_public":1, "media":"photo", "media_status":"ready"}, {"id":"13010793105", "owner":"60509750@N08", "secret":"ee130c94c2", "server":"3098", "farm":4, "title":"The karst landscape called the Burren, County Clare, Ireland", "ispublic":1, "isfriend":0, "isfamily":0, "safe":1, "ownername":"Maria_Globetrotter", "latitude":53.146701, "longitude":-9.075559, "accuracy":"11", "context":0, "place_id":"qWnz9F9UVLqFWnE", "woeid":"560059", "geo_is_family":0, "geo_is_friend":0, "geo_is_contact":0, "geo_is_public":1, "media":"photo", "media_status":"ready"}, {"id":"13010563445", "owner":"9619863@N05", "secret":"5af9e7807d", "server":"3311", "farm":4, "title":"Three Shire Heads", "ispublic":1, "isfriend":0, "isfamily":0, "safe":1, "ownername":"Kev Palmer", "latitude":53.213613, "longitude":-1.987281, "accuracy":"16", "context":0, "place_id":"_wLL1F1TUrjcaA", "woeid":"20280", "geo_is_family":0, "geo_is_friend":0, "geo_is_contact":0, "geo_is_public":1, "media":"photo", "media_status":"ready"}, {"id":"13010374453", "owner":"57553591@N08", "secret":"c4bac65e3a", "server":"3230", "farm":4, "title":"Comme une invitation... \/ Like an invitation...", "ispublic":1, "isfriend":0, "isfamily":0, "safe":0, "ownername":"FloDL", "latitude":45.485635, "longitude":12.415806, "accuracy":"16", "context":0, "place_id":"gaq6L7dWU7vvREY", "woeid":"711537", "geo_is_family":0, "geo_is_friend":0, "geo_is_contact":0, "geo_is_public":1, "media":"photo", "media_status":"ready"}, {"id":"13010143055", "owner":"62815410@N04", "secret":"96f4348cee", "server":"7310", "farm":8, "title":"GMO (brescia, italy)", "ispublic":1, "isfriend":0, "isfamily":0, "safe":1, "ownername":"bloodybee", "latitude":45.535197, "longitude":10.234923, "accuracy":"15", "context":0, "place_id":"WO1uGLRWU7u69ps", "woeid":"711410", "geo_is_family":0, "geo_is_friend":0, "geo_is_contact":0, "geo_is_public":1, "media":"photo", "media_status":"ready"}, {"id":"13009664935", "owner":"100063725@N06", "secret":"dfde176020", "server":"2207", "farm":3, "title":"Ultimos rayos del sol", "ispublic":1, "isfriend":0, "isfamily":0, "safe":0, "ownername":"Antonio Chac", "latitude":36.50585, "longitude":-4.874582, "accuracy":"16", "context":0, "place_id":"b6ANCk5WVLwQivI", "woeid":"766537", "geo_is_family":0, "geo_is_friend":0, "geo_is_contact":0, "geo_is_public":1, "media":"photo", "media_status":"ready"}, {"id":"13009190493", "owner":"21692577@N02", "secret":"b71549cf59", "server":"7338", "farm":8, "title":"Winter on the Ocean, just before sunset. Grande-Riviere, Gaspesie 7", "ispublic":1, "isfriend":0, "isfamily":0, "safe":1, "ownername":"Danny VB", "latitude":48.402311, "longitude":-64.46949, "accuracy":"11", "context":0, "place_id":"2Tr2iDlSVbny", "woeid":"3732", "geo_is_family":0, "geo_is_friend":0, "geo_is_contact":0, "geo_is_public":1, "media":"photo", "media_status":"ready"}, {"id":"13008120813", "owner":"31804708@N02", "secret":"efd3d79ec9", "server":"3720", "farm":4, "title":"Ruinas ribere\u00f1as - Riparian ruins", "ispublic":1, "isfriend":0, "isfamily":0, "safe":1, "ownername":"celta4", "latitude":-31.709265, "longitude":-60.549291, "accuracy":"16", "context":0, "place_id":"3txA5plVVLzR8yk", "woeid":"466869", "geo_is_family":0, "geo_is_friend":0, "geo_is_contact":0, "geo_is_public":1, "media":"photo", "media_status":"ready"}, {"id":"13007717055", "owner":"27450151@N05", "secret":"18ee68f35f", "server":"7410", "farm":8, "title":"Gonepteryx rhamni", "ispublic":1, "isfriend":0, "isfamily":0, "safe":1, "ownername":"Sinkha63", "latitude":45.124649, "longitude":1.723979, "accuracy":"11", "context":0, "place_id":"K71yhbJUVbN6yQw", "woeid":"579780", "geo_is_family":0, "geo_is_friend":0, "geo_is_contact":0, "geo_is_public":1, "media":"photo", "media_status":"ready"}, {"id":"13006402233", "owner":"65990237@N03", "secret":"2a1f8f1bb3", "server":"7386", "farm":8, "title":"Quiraing, Trotternish Ridge, Skye", "ispublic":1, "isfriend":0, "isfamily":0, "safe":1, "ownername":"Belhaven2011", "latitude":57.629894, "longitude":-6.289372, "accuracy":"14", "context":0, "place_id":"0VM72lxSVrpn_A", "woeid":"34083", "geo_is_family":0, "geo_is_friend":0, "geo_is_contact":0, "geo_is_public":1, "media":"photo", "media_status":"ready"}, {"id":"13005701155", "owner":"66644631@N05", "secret":"a014218ae6", "server":"3468", "farm":4, "title":"Cathedral Notre-Dame of Reims, the Altar taken on the side", "ispublic":1, "isfriend":0, "isfamily":0, "safe":1, "ownername":"jmlpyt", "latitude":48.71928, "longitude":4.669188, "accuracy":"16", "context":0, "place_id":"2sLlI4JXU7McJE0", "woeid":"619069", "geo_is_family":0, "geo_is_friend":0, "geo_is_contact":0, "geo_is_public":1, "media":"photo", "media_status":"ready"}, {"id":"13005725114", "owner":"66644631@N05", "secret":"3c5a72b1f1", "server":"3230", "farm":4, "title":"The Harvest of the wheat in summer in Normandy", "ispublic":1, "isfriend":0, "isfamily":0, "safe":1, "ownername":"jmlpyt", "latitude":48.617591, "longitude":0.537644, "accuracy":"16", "context":0, "place_id":"iRd6Hk1XULguTlI", "woeid":"622318", "geo_is_family":0, "geo_is_friend":0, "geo_is_contact":0, "geo_is_public":1, "media":"photo", "media_status":"ready"}, {"id":"13005123743", "owner":"90378082@N07", "secret":"2287a1a084", "server":"7411", "farm":8, "title":"Roman version of scissors", "ispublic":1, "isfriend":0, "isfamily":0, "safe":0, "ownername":"Baz 120", "latitude":41.900608, "longitude":12.480179, "accuracy":"16", "context":0, "place_id":"FphPyURWU7ux6h4", "woeid":"711883", "geo_is_family":0, "geo_is_friend":0, "geo_is_contact":0, "geo_is_public":1, "media":"photo", "media_status":"ready"}, {"id":"13004153695", "owner":"48988488@N04", "secret":"e61fdeb21f", "server":"7329", "farm":8, "title":"quando fiorisce il cielo", "ispublic":1, "isfriend":0, "isfamily":0, "safe":1, "ownername":"claudius1954", "latitude":45.8491, "longitude":9.342627, "accuracy":"15", "context":0, "place_id":"ttUYle5WUL.BOi8", "woeid":"725614", "geo_is_family":0, "geo_is_friend":0, "geo_is_contact":0, "geo_is_public":1, "media":"photo", "media_status":"ready"}, {"id":"12999102933", "owner":"79254232@N08", "secret":"a38ec31eca", "server":"3419", "farm":4, "title":"Ducks on Ice (Explored)", "ispublic":1, "isfriend":0, "isfamily":0, "safe":1, "ownername":"DaveInman", "latitude":41.249079, "longitude":-80.088261, "accuracy":"16", "context":0, "place_id":"2Tx3xhhTVr_Ph9Mx", "woeid":"2451218", "geo_is_family":0, "geo_is_friend":0, "geo_is_contact":0, "geo_is_public":1, "media":"photo", "media_status":"ready"}, {"id":"12997032654", "owner":"42550055@N07", "secret":"a0a78fdedc", "server":"3509", "farm":4, "title":"Swimming in Gold ~ explored", "ispublic":1, "isfriend":0, "isfamily":0, "safe":1, "ownername":"JamesO'Neill", "latitude":54.492165, "longitude":-6.370568, "accuracy":"15", "context":0, "place_id":"TxdMedZTUrpAFFr40A", "woeid":"20078323", "geo_is_family":0, "geo_is_friend":0, "geo_is_contact":0, "geo_is_public":1, "media":"photo", "media_status":"ready"}, {"id":"12996393953", "owner":"81035653@N00", "secret":"940d9338ab", "server":"7308", "farm":8, "title":"Leaving the harbor of Lindau on the Bodensee", "ispublic":1, "isfriend":0, "isfamily":0, "safe":1, "ownername":"B\u212en", "latitude":47.542902, "longitude":9.683482, "accuracy":"16", "context":0, "place_id":"x_hJwN1TULyM3qC4gQ", "woeid":"22662225", "geo_is_family":0, "geo_is_friend":0, "geo_is_contact":0, "geo_is_public":1, "media":"photo", "media_status":"ready"}, {"id":"12996116385", "owner":"22876654@N00", "secret":"803b56c022", "server":"3462", "farm":4, "title":"Let me in!", "ispublic":1, "isfriend":0, "isfamily":0, "safe":1, "ownername":"halifaxlight", "latitude":35.167476, "longitude":-5.269532, "accuracy":"16", "context":0, "place_id":"KEjBGm5QV7l4UTkL", "woeid":"1532799", "geo_is_family":0, "geo_is_friend":0, "geo_is_contact":0, "geo_is_public":1, "media":"photo", "media_status":"ready"}, {"id":"12995626075", "owner":"25440983@N06", "secret":"f58f4a72e6", "server":"3681", "farm":4, "title":"Louvre", "ispublic":1, "isfriend":0, "isfamily":0, "safe":0, "ownername":"ceca67", "latitude":48.861192, "longitude":2.336182, "accuracy":"16", "context":0, "place_id":"36CFHdZUV7KNOKK4LQ", "woeid":"55843752", "geo_is_family":0, "geo_is_friend":0, "geo_is_contact":0, "geo_is_public":1, "media":"photo", "media_status":"ready"}, {"id":"12995535255", "owner":"20905078@N04", "secret":"c6e7efbe3e", "server":"7378", "farm":8, "title":"", "ispublic":1, "isfriend":0, "isfamily":0, "safe":1, "ownername":"patrickjoust", "latitude":26.794558, "longitude":-80.058199, "accuracy":"16", "context":0, "place_id":"ITrvp5JTVrzyPucR", "woeid":"2467667", "geo_is_family":0, "geo_is_friend":0, "geo_is_contact":0, "geo_is_public":1, "media":"photo", "media_status":"ready"}, {"id":"12994116075", "owner":"27450151@N05", "secret":"95164ab03e", "server":"3665", "farm":4, "title":"Anemone nemorosa", "ispublic":1, "isfriend":0, "isfamily":0, "safe":1, "ownername":"Sinkha63", "latitude":45.124649, "longitude":1.723979, "accuracy":"11", "context":0, "place_id":"K71yhbJUVbN6yQw", "woeid":"579780", "geo_is_family":0, "geo_is_friend":0, "geo_is_contact":0, "geo_is_public":1, "media":"photo", "media_status":"ready"}, {"id":"12993710185", "owner":"11389625@N07", "secret":"f6a57e8e15", "server":"7328", "farm":8, "title":"Minas de Riotinto. Huelva. (explore 07\/03\/2014)", "ispublic":1, "isfriend":0, "isfamily":0, "safe":0, "ownername":"juanito1948.", "latitude":37.697608, "longitude":-6.594719, "accuracy":"11", "context":0, "place_id":"_F_W.chWVL3L6Ws", "woeid":"767212", "geo_is_family":0, "geo_is_friend":0, "geo_is_contact":0, "geo_is_public":1, "media":"photo", "media_status":"ready"}, {"id":"12993240455", "owner":"57761648@N02", "secret":"d5027d6907", "server":"3780", "farm":4, "title":"ulm, panoramic skyline.", "ispublic":1, "isfriend":0, "isfamily":0, "safe":0, "ownername":"David Kracht", "latitude":48.402126, "longitude":9.992022, "accuracy":"16", "context":0, "place_id":"xGXprztXVb1CezM", "woeid":"677807", "geo_is_family":0, "geo_is_friend":0, "geo_is_contact":0, "geo_is_public":1, "media":"photo", "media_status":"ready"}, {"id":"12993257433", "owner":"68801618@N03", "secret":"58c1d43ff3", "server":"7334", "farm":8, "title":"Moon 7 mars", "ispublic":1, "isfriend":0, "isfamily":0, "safe":0, "ownername":"L'agriculteur Illumin\u00e9", "latitude":47.009757, "longitude":7.031936, "accuracy":"11", "context":0, "place_id":"Lkuj7NBTWrPH7WcMIg", "woeid":"28997135", "geo_is_family":0, "geo_is_friend":0, "geo_is_contact":0, "geo_is_public":1, "media":"photo", "media_status":"ready"}, {"id":"12993058543", "owner":"43016292@N07", "secret":"2b2c80c4ba", "server":"7428", "farm":8, "title":"Europe \/\/ Germany  \/\/ Bavaria \/\/ Obere Firstalm", "ispublic":1, "isfriend":0, "isfamily":0, "safe":0, "ownername":"msc-photodesign", "latitude":47.670236, "longitude":11.853652, "accuracy":"16", "context":0, "place_id":"y1tus_BQULxmE1J6EA", "woeid":"12635192", "geo_is_family":0, "geo_is_friend":0, "geo_is_contact":0, "geo_is_public":1, "media":"photo", "media_status":"ready"}, {"id":"12993092604", "owner":"88420718@N03", "secret":"3477028031", "server":"7335", "farm":8, "title":"miniature world", "ispublic":1, "isfriend":0, "isfamily":0, "safe":0, "ownername":"thequietguy", "latitude":40.815368, "longitude":21.124309, "accuracy":"16", "context":0, "place_id":"4M2fuuNQUL8ZSIZl5w", "woeid":"12577883", "geo_is_family":0, "geo_is_friend":0, "geo_is_contact":0, "geo_is_public":1, "media":"photo", "media_status":"ready"}, {"id":"12992008773", "owner":"62815410@N04", "secret":"54d879a51f", "server":"3153", "farm":4, "title":"GMO (brescia, italy)", "ispublic":1, "isfriend":0, "isfamily":0, "safe":1, "ownername":"bloodybee", "latitude":45.535438, "longitude":10.235481, "accuracy":"15", "context":0, "place_id":"WO1uGLRWU7u69ps", "woeid":"711410", "geo_is_family":0, "geo_is_friend":0, "geo_is_contact":0, "geo_is_public":1, "media":"photo", "media_status":"ready"}, {"id":"12990929435", "owner":"74463791@N02", "secret":"2cd1265d54", "server":"2311", "farm":3, "title":"On the way to Laguna San Rafael", "ispublic":1, "isfriend":0, "isfamily":0, "safe":1, "ownername":"2mag7- back without luggage grrr...", "latitude":-46.512826, "longitude":-73.795838, "accuracy":"8", "context":0, "place_id":"d7xSXohTUb4nnQYt", "woeid":"2345019", "geo_is_family":0, "geo_is_friend":0, "geo_is_contact":0, "geo_is_public":1, "media":"photo", "media_status":"ready"}, {"id":"12989925214", "owner":"100063725@N06", "secret":"91465761f2", "server":"7425", "farm":8, "title":"Marzo al atardecer", "ispublic":1, "isfriend":0, "isfamily":0, "safe":1, "ownername":"Antonio Chac", "latitude":36.506936, "longitude":-4.872543, "accuracy":"16", "context":0, "place_id":"b6ANCk5WVLwQivI", "woeid":"766537", "geo_is_family":0, "geo_is_friend":0, "geo_is_contact":0, "geo_is_public":1, "media":"photo", "media_status":"ready"}, {"id":"12988710815", "owner":"24355450@N07", "secret":"7b0cca271d", "server":"7402", "farm":8, "title":"A Maree View.", "ispublic":1, "isfriend":0, "isfamily":0, "safe":0, "ownername":"Gordie Broon.", "latitude":57.630147, "longitude":-5.344762, "accuracy":"13", "context":0, "place_id":"m3r9EjFTV7j9LQ", "woeid":"25264", "geo_is_family":0, "geo_is_friend":0, "geo_is_contact":0, "geo_is_public":1, "media":"photo", "media_status":"ready"}, {"id":"12988548205", "owner":"66644631@N05", "secret":"e69cf8ecb5", "server":"2815", "farm":3, "title":"Soligny la Trappe, Normandie, Orne, France, august 2013.", "ispublic":1, "isfriend":0, "isfamily":0, "safe":1, "ownername":"jmlpyt", "latitude":48.617591, "longitude":0.537644, "accuracy":"16", "context":0, "place_id":"iRd6Hk1XULguTlI", "woeid":"622318", "geo_is_family":0, "geo_is_friend":0, "geo_is_contact":0, "geo_is_public":1, "media":"photo", "media_status":"ready"}, {"id":"12988892804", "owner":"21692577@N02", "secret":"4192551b62", "server":"3041", "farm":4, "title":"The Green house sunset on a cold winter day. Gaspesie, Canada  #7", "ispublic":1, "isfriend":0, "isfamily":0, "safe":1, "ownername":"Danny VB", "latitude":48.420543, "longitude":-64.325981, "accuracy":"11", "context":0, "place_id":"SJniIHpTUblouyLngw", "woeid":"23396384", "geo_is_family":0, "geo_is_friend":0, "geo_is_contact":0, "geo_is_public":1, "media":"photo", "media_status":"ready"}, {"id":"12988488985", "owner":"20971059@N03", "secret":"b4f93be38b", "server":"3045", "farm":4, "title":"Nebelleuchte", "ispublic":1, "isfriend":0, "isfamily":0, "safe":0, "ownername":"Lispeltuut", "latitude":52.521522, "longitude":13.348324, "accuracy":"15", "context":0, "place_id":"VULyzjBXVb89VXc", "woeid":"675695", "geo_is_family":0, "geo_is_friend":0, "geo_is_contact":0, "geo_is_public":1, "media":"photo", "media_status":"ready"}, {"id":"12987866763", "owner":"31804708@N02", "secret":"3520c35863", "server":"2441", "farm":3, "title":"Se despeja - Cleared", "ispublic":1, "isfriend":0, "isfamily":0, "safe":0, "ownername":"celta4", "latitude":-34.589525, "longitude":-58.423125, "accuracy":"15", "context":0, "place_id":"BkPyiYpSUbtortc", "woeid":"331580", "geo_is_family":0, "geo_is_friend":0, "geo_is_contact":0, "geo_is_public":1, "media":"photo", "media_status":"ready"}, {"id":"12986745413", "owner":"38214975@N05", "secret":"1872b67b9c", "server":"7452", "farm":8, "title":"Glass Art  (Explored)", "ispublic":1, "isfriend":0, "isfamily":0, "safe":1, "ownername":"louise peters", "latitude":52.202294, "longitude":5.151268, "accuracy":"15", "context":0, "place_id":"0fWrFHlWUbpccts", "woeid":"730138", "geo_is_family":0, "geo_is_friend":0, "geo_is_contact":0, "geo_is_public":1, "media":"photo", "media_status":"ready"}, {"id":"12986422563", "owner":"64110713@N05", "secret":"a6852ca9f9", "server":"7359", "farm":8, "title":"He knows I'm here", "ispublic":1, "isfriend":0, "isfamily":0, "safe":0, "ownername":"Just Ard", "latitude":51.480253, "longitude":-3.177881, "accuracy":"16", "context":0, "place_id":"SJJTd3tVUb2lRw", "woeid":"43724", "geo_is_family":0, "geo_is_friend":0, "geo_is_contact":0, "geo_is_public":1, "media":"photo", "media_status":"ready"}, {"id":"12986238003", "owner":"45686660@N02", "secret":"c6865e7013", "server":"7367", "farm":8, "title":"una voglia di pioggia", "ispublic":1, "isfriend":0, "isfamily":0, "safe":1, "ownername":"forastico", "latitude":43.885658, "longitude":10.520799, "accuracy":"11", "context":0, "place_id":"cD6V1TFWULn847M", "woeid":"723078", "geo_is_family":0, "geo_is_friend":0, "geo_is_contact":0, "geo_is_public":1, "media":"photo", "media_status":"ready"}, {"id":"12985857395", "owner":"85081332@N00", "secret":"347d3507e2", "server":"7337", "farm":8, "title":"Eremitage castle in Bayreuth", "ispublic":1, "isfriend":0, "isfamily":0, "safe":1, "ownername":"pe_ha45", "latitude":49.949135, "longitude":11.623502, "accuracy":"16", "context":0, "place_id":"InEZpuZTUrt5aKaRrw", "woeid":"20172910", "geo_is_family":0, "geo_is_friend":0, "geo_is_contact":0, "geo_is_public":1, "media":"photo", "media_status":"ready"}, {"id":"12985709955", "owner":"16854222@N05", "secret":"1861e10975", "server":"3325", "farm":4, "title":"Happy Feathery Friday", "ispublic":1, "isfriend":0, "isfamily":0, "safe":0, "ownername":"AnyMotion", "latitude":-24.514171, "longitude":30.905227, "accuracy":"13", "context":0, "place_id":"cQIoWFBUV7NSkfdOMA", "woeid":"55921371", "geo_is_family":0, "geo_is_friend":0, "geo_is_contact":0, "geo_is_public":1, "media":"photo", "media_status":"ready"}, {"id":"12985204913", "owner":"11539069@N02", "secret":"56f229f9b8", "server":"3359", "farm":4, "title":"A red story", "ispublic":1, "isfriend":0, "isfamily":0, "safe":0, "ownername":"-hndrk-", "latitude":52.360086, "longitude":4.885461, "accuracy":"15", "context":0, "place_id":"xfcEFYhWULKtjYI", "woeid":"728410", "geo_is_family":0, "geo_is_friend":0, "geo_is_contact":0, "geo_is_public":1, "media":"photo", "media_status":"ready"}, {"id":"12984465694", "owner":"34911734@N07", "secret":"14f398e457", "server":"7305", "farm":8, "title":"Clinging to the Hillside", "ispublic":1, "isfriend":0, "isfamily":0, "safe":0, "ownername":"Worthing Wanderer", "latitude":36.900312, "longitude":-1.986647, "accuracy":"13", "context":0, "place_id":"MDgttfBWVbmHfDo", "woeid":"773268", "geo_is_family":0, "geo_is_friend":0, "geo_is_contact":0, "geo_is_public":1, "media":"photo", "media_status":"ready"}, {"id":"12984441794", "owner":"52735684@N07", "secret":"eccf8faf04", "server":"3023", "farm":4, "title":"Kippelsteg - 19091206", "ispublic":1, "isfriend":0, "isfamily":0, "safe":1, "ownername":"Klaus Kehrls", "latitude":53.544451, "longitude":9.993031, "accuracy":"16", "context":0, "place_id":"cksTdXBXV7yTmdw", "woeid":"656958", "geo_is_family":0, "geo_is_friend":0, "geo_is_contact":0, "geo_is_public":1, "media":"photo", "media_status":"ready"}, {"id":"12981202805", "owner":"29533288@N02", "secret":"a49ab11af8", "server":"2325", "farm":3, "title":"42\/365 Fortaleza Canyon (Explore)", "ispublic":1, "isfriend":0, "isfamily":0, "safe":1, "ownername":"Juliana Lauletta", "latitude":-29.065772, "longitude":-49.974975, "accuracy":"10", "context":0, "place_id":"prsl0_VTUb5jDFW7", "woeid":"2344864", "geo_is_family":0, "geo_is_friend":0, "geo_is_contact":0, "geo_is_public":1, "media":"photo", "media_status":"ready"}, {"id":"12979734113", "owner":"21775664@N07", "secret":"05b21dd037", "server":"3526", "farm":4, "title":"City Architecture at Night", "ispublic":1, "isfriend":0, "isfamily":0, "safe":1, "ownername":"david gutierrez [ www.davidgutierrez.co.uk ]", "latitude":52.478062, "longitude":-1.893691, "accuracy":"15", "context":0, "place_id":"85e3WK9TUrpXk_F1Ow", "woeid":"20094185", "geo_is_family":0, "geo_is_friend":0, "geo_is_contact":0, "geo_is_public":1, "media":"photo", "media_status":"ready"}, {"id":"12978091544", "owner":"26849514@N06", "secret":"4b3a20a336", "server":"7399", "farm":8, "title":"Sultan Qaboos Grand Mosque, Musqat, Oman", "ispublic":1, "isfriend":0, "isfamily":0, "safe":1, "ownername":"Frans.Sellies", "latitude":23.583634, "longitude":58.388922, "accuracy":"16", "context":0, "place_id":"2XXe5a5TULzc3aqP", "woeid":"2267091", "geo_is_family":0, "geo_is_friend":0, "geo_is_contact":0, "geo_is_public":1, "media":"photo", "media_status":"ready"}, {"id":"12977597825", "owner":"11539069@N02", "secret":"74c6171a7a", "server":"3231", "farm":4, "title":"Couple in black", "ispublic":1, "isfriend":0, "isfamily":0, "safe":0, "ownername":"-hndrk-", "latitude":52.360112, "longitude":4.88559, "accuracy":"15", "context":0, "place_id":"xQ4tawtWUL1NrOY", "woeid":"727232", "geo_is_family":0, "geo_is_friend":0, "geo_is_contact":0, "geo_is_public":1, "media":"photo", "media_status":"ready"}, {"id":"12977229515", "owner":"62529443@N07", "secret":"6a194ff322", "server":"3224", "farm":4, "title":"Golden", "ispublic":1, "isfriend":0, "isfamily":0, "safe":0, "ownername":"MarDiet", "latitude":50.106597, "longitude":8.663685, "accuracy":"16", "context":0, "place_id":"Z0FRRfRXV7oIeew", "woeid":"650272", "geo_is_family":0, "geo_is_friend":0, "geo_is_contact":0, "geo_is_public":1, "media":"photo", "media_status":"ready"}]}, "stat":"ok"}