{"photos":{"page":54,"pages":26696,"perpage":60,"total":"1601723","photo":[{"id":"14008097998","owner":"48415713@N04","secret":"aca909dc6b","server":"7425","farm":8,"title":"G-TUIA Boeing B787-8 Dreamliner Thomson Airways","ispublic":1,"isfriend":0,"isfamily":0,"safe":0,"ownername":"kw2p","latitude":55.863994,"longitude":-4.441114,"accuracy":"16","context":0,"place_id":"RSIXnJFSU7nLBA","woeid":"31342","geo_is_family":0,"geo_is_friend":0,"geo_is_contact":0,"geo_is_public":1,"media":"photo","media_status":"ready"},{"id":"14007509737","owner":"35232195@N06","secret":"f89332d938","server":"7338","farm":8,"title":"Viewpoint","ispublic":1,"isfriend":0,"isfamily":0,"safe":0,"ownername":"Julio L\u00f3pez Saguar","latitude":28.17086,"longitude":-16.797889,"accuracy":"16","context":0,"place_id":"PR7AJYVQV7reTwRQaA","woeid":"15003699","geo_is_family":0,"geo_is_friend":0,"geo_is_contact":0,"geo_is_public":1,"media":"photo","media_status":"ready"},{"id":"14193630524","owner":"88795127@N02","secret":"f8e4162180","server":"7329","farm":8,"title":"Dans le tunnel...","ispublic":1,"isfriend":0,"isfamily":0,"safe":0,"ownername":"LPiH","latitude":48.855002,"longitude":2.345237,"accuracy":"11","context":0,"place_id":"EsIQUYZXU79_kEA","woeid":"615702","geo_is_family":0,"geo_is_friend":0,"geo_is_contact":0,"geo_is_public":1,"media":"photo","media_status":"ready"},{"id":"14192464784","owner":"81287358@N05","secret":"2789137d22","server":"2903","farm":3,"title":"Goldenes Prag - Zlat\u00e1 Praha (Explore)","ispublic":1,"isfriend":0,"isfamily":0,"safe":0,"ownername":"Martin Fischhaber","latitude":50.079078,"longitude":14.433219,"accuracy":"11","context":0,"place_id":"L9tJ2elTUro9dIjzTg","woeid":"20070472","geo_is_family":0,"geo_is_friend":0,"geo_is_contact":0,"geo_is_public":1,"media":"photo","media_status":"ready"},{"id":"14005708669","owner":"87649553@N02","secret":"4c0a254742","server":"5570","farm":6,"title":"Altocumulus Stratiformis","ispublic":1,"isfriend":0,"isfamily":0,"safe":0,"ownername":"goat1412","latitude":49.454456,"longitude":-2.53179,"accuracy":"15","context":0,"place_id":"Gq7LSudUUbIvhaI","woeid":"538498","geo_is_family":0,"geo_is_friend":0,"geo_is_contact":0,"geo_is_public":1,"media":"photo","media_status":"ready"},{"id":"14168220156","owner":"58473623@N03","secret":"19fa571911","server":"7404","farm":8,"title":"Y la luz","ispublic":1,"isfriend":0,"isfamily":0,"safe":0,"ownername":"Soledad Bezanilla","latitude":43.469864,"longitude":-3.808822,"accuracy":"11","context":0,"place_id":"niyOQXpWVbleETI","woeid":"773964","geo_is_family":0,"geo_is_friend":0,"geo_is_contact":0,"geo_is_public":1,"media":"photo","media_status":"ready"},{"id":"14191161934","owner":"44161305@N02","secret":"167989cbae","server":"2907","farm":3,"title":"G\u00f6reme, Cappadocia (Kapadokya, Turkey) 972","ispublic":1,"isfriend":0,"isfamily":0,"safe":0,"ownername":"tango-","latitude":38.645567,"longitude":34.830265,"accuracy":"12","context":0,"place_id":"OIvmaeNTUbmsxu00","woeid":"2339815","geo_is_family":0,"geo_is_friend":0,"geo_is_contact":0,"geo_is_public":1,"media":"photo","media_status":"ready"},{"id":"14004337800","owner":"13922644@N05","secret":"f7fefec8a4","server":"2918","farm":3,"title":"Applecross and loch Shieldaig","ispublic":1,"isfriend":0,"isfamily":0,"safe":0,"ownername":"bingleyman2","latitude":57.538265,"longitude":-5.716474,"accuracy":"15","context":0,"place_id":"YDrfUfJQUrMA8g","woeid":"10942","geo_is_family":0,"geo_is_friend":0,"geo_is_contact":0,"geo_is_public":1,"media":"photo","media_status":"ready"},{"id":"14003766789","owner":"96439392@N03","secret":"86329c81ae","server":"7366","farm":8,"title":"Under The Milky Way","ispublic":1,"isfriend":0,"isfamily":0,"safe":0,"ownername":"Kristin Van den Eede","latitude":55.969741,"longitude":12.541205,"accuracy":"16","context":0,"place_id":"pkvE4fBUV79_V8E","woeid":"555966","geo_is_family":0,"geo_is_friend":0,"geo_is_contact":0,"geo_is_public":1,"media":"photo","media_status":"ready"},{"id":"14003662940","owner":"88036501@N07","secret":"187a764a63","server":"5542","farm":6,"title":"Primavera en las lagunas de Ruidera: #EXPLORE (2014.05.14)","ispublic":1,"isfriend":0,"isfamily":0,"safe":0,"ownername":"JARCOR2012","latitude":38.965215,"longitude":-2.885628,"accuracy":"14","context":0,"place_id":"55YYebhWVbgmQrg","woeid":"772306","geo_is_family":0,"geo_is_friend":0,"geo_is_contact":0,"geo_is_public":1,"media":"photo","media_status":"ready"},{"id":"14000361587","owner":"81287358@N05","secret":"2ee46345d4","server":"5567","farm":6,"title":"Kleiber - European nuthatch (Explore)","ispublic":1,"isfriend":0,"isfamily":0,"safe":0,"ownername":"Martin Fischhaber","latitude":47.709761,"longitude":11.399002,"accuracy":"11","context":0,"place_id":"omu9cCZXUb0059U","woeid":"637690","geo_is_family":0,"geo_is_friend":0,"geo_is_contact":0,"geo_is_public":1,"media":"photo","media_status":"ready"},{"id":"14000061770","owner":"82155983@N08","secret":"61758d9c9a","server":"7429","farm":8,"title":"El Chorrituelo","ispublic":1,"isfriend":0,"isfamily":0,"safe":0,"ownername":"A trav\u00e9s del Prisma","latitude":40.316511,"longitude":-6.442108,"accuracy":"13","context":0,"place_id":"tnr7SLVWVLNet4g","woeid":"769109","geo_is_family":0,"geo_is_friend":0,"geo_is_contact":0,"geo_is_public":1,"media":"photo","media_status":"ready"},{"id":"14183174961","owner":"93608894@N02","secret":"5d11374d3b","server":"7434","farm":8,"title":"Panorama (explore)","ispublic":1,"isfriend":0,"isfamily":0,"safe":0,"ownername":"Jean-Pierre ARIBAU","latitude":41.591701,"longitude":1.837779,"accuracy":"11","context":0,"place_id":"buY2USBQUL8KB8CtqQ","woeid":"12578034","geo_is_family":0,"geo_is_friend":0,"geo_is_contact":0,"geo_is_public":1,"media":"photo","media_status":"ready"},{"id":"13999853587","owner":"62602097@N00","secret":"48baf8a532","server":"7441","farm":8,"title":"Left Is Right And Right Is Left","ispublic":1,"isfriend":0,"isfamily":0,"safe":0,"ownername":"Novowyr","latitude":46.677945,"longitude":10.16098,"accuracy":"13","context":0,"place_id":"5u.4GjRTUrs_t0RhIg","woeid":"20103557","geo_is_family":0,"geo_is_friend":0,"geo_is_contact":0,"geo_is_public":1,"media":"photo","media_status":"ready"},{"id":"13999673978","owner":"13922644@N05","secret":"00b9cee19e","server":"7415","farm":8,"title":"Storm passes over that castle.","ispublic":1,"isfriend":0,"isfamily":0,"safe":0,"ownername":"bingleyman2","latitude":57.278161,"longitude":-5.520629,"accuracy":"13","context":0,"place_id":"cIqu7CBQWrkndQ","woeid":"18345","geo_is_family":0,"geo_is_friend":0,"geo_is_contact":0,"geo_is_public":1,"media":"photo","media_status":"ready"},{"id":"13999583188","owner":"54449251@N05","secret":"d74c85e2fb","server":"7360","farm":8,"title":"Build me up buttercup .... (Explore)","ispublic":1,"isfriend":0,"isfamily":0,"safe":0,"ownername":"Sandalwood19","latitude":52.11117,"longitude":-1.535639,"accuracy":"14","context":0,"place_id":"ms3noQRSU7gteQ","woeid":"31282","geo_is_family":0,"geo_is_friend":0,"geo_is_contact":0,"geo_is_public":1,"media":"photo","media_status":"ready"},{"id":"14162926346","owner":"48078912@N05","secret":"44591419ce","server":"7439","farm":8,"title":"Kyrkfjell","ispublic":1,"isfriend":0,"isfamily":0,"safe":0,"ownername":"Henka69","latitude":64.924123,"longitude":-23.287925,"accuracy":"11","context":0,"place_id":"qlYnE6ZYWrqvBLI","woeid":"980160","geo_is_family":0,"geo_is_friend":0,"geo_is_contact":0,"geo_is_public":1,"media":"photo","media_status":"ready"},{"id":"14162874366","owner":"69817244@N02","secret":"d8fb004e78","server":"7379","farm":8,"title":"The South coast. Explored.","ispublic":1,"isfriend":0,"isfamily":0,"safe":0,"ownername":"South Devon Pixie","latitude":50.541826,"longitude":-3.497149,"accuracy":"15","context":0,"place_id":"TiLBXPNSVbrQ5Q","woeid":"37072","geo_is_family":0,"geo_is_friend":0,"geo_is_contact":0,"geo_is_public":1,"media":"photo","media_status":"ready"},{"id":"14185266824","owner":"87649553@N02","secret":"a967acb434","server":"7395","farm":8,"title":"Hazy sky Still waters","ispublic":1,"isfriend":0,"isfamily":0,"safe":0,"ownername":"goat1412","latitude":49.437519,"longitude":-2.655901,"accuracy":"15","context":0,"place_id":"BozpPtZTUr1ICApXgg","woeid":"20700933","geo_is_family":0,"geo_is_friend":0,"geo_is_contact":0,"geo_is_public":1,"media":"photo","media_status":"ready"},{"id":"13997641127","owner":"44161305@N02","secret":"ca0686e30e","server":"7351","farm":8,"title":"Sciacca, Sicily    149","ispublic":1,"isfriend":0,"isfamily":0,"safe":0,"ownername":"tango-","latitude":37.502944,"longitude":13.076482,"accuracy":"14","context":0,"place_id":"RXkhnPhWULlZY5k","woeid":"723897","geo_is_family":0,"geo_is_friend":0,"geo_is_contact":0,"geo_is_public":1,"media":"photo","media_status":"ready"},{"id":"13997014460","owner":"47626306@N00","secret":"b2653eed10","server":"2936","farm":3,"title":"Roman Bridge Cordoba at night #2","ispublic":1,"isfriend":0,"isfamily":0,"safe":0,"ownername":"geospace","latitude":37.876727,"longitude":-4.778023,"accuracy":"16","context":0,"place_id":"mlEGz0hTUrgINa0VGQ","woeid":"20220001","geo_is_family":0,"geo_is_friend":0,"geo_is_contact":0,"geo_is_public":1,"media":"photo","media_status":"ready"},{"id":"13996935679","owner":"48536876@N06","secret":"7b91fb3660","server":"2938","farm":3,"title":"\u00bfQu\u00e9 tienen de malo las BBC?","ispublic":1,"isfriend":0,"isfamily":0,"safe":0,"ownername":"Teo Barker","latitude":41.385719,"longitude":2.170049,"accuracy":"11","context":0,"place_id":"p.gvf6dWV7k1Gpg","woeid":"753692","geo_is_family":0,"geo_is_friend":0,"geo_is_contact":0,"geo_is_public":1,"media":"photo","media_status":"ready"},{"id":"13996234218","owner":"88036501@N07","secret":"3ee3e41623","server":"7442","farm":8,"title":"Un gorri\u00f3n fara\u00f3nico: #EXPLORE (2014.05.13)","ispublic":1,"isfriend":0,"isfamily":0,"safe":0,"ownername":"JARCOR2012","latitude":24.479649,"longitude":32.945242,"accuracy":"11","context":0,"place_id":"40kgeElQV7i5.t9B","woeid":"1524982","geo_is_family":0,"geo_is_friend":0,"geo_is_contact":0,"geo_is_public":1,"media":"photo","media_status":"ready"},{"id":"13996143200","owner":"93608894@N02","secret":"2bd7409d12","server":"7457","farm":8,"title":"Place du Monast\u00e8re (explore)","ispublic":1,"isfriend":0,"isfamily":0,"safe":0,"ownername":"Jean-Pierre ARIBAU","latitude":41.591701,"longitude":1.837779,"accuracy":"11","context":0,"place_id":"buY2USBQUL8KB8CtqQ","woeid":"12578034","geo_is_family":0,"geo_is_friend":0,"geo_is_contact":0,"geo_is_public":1,"media":"photo","media_status":"ready"},{"id":"13995994640","owner":"44161305@N02","secret":"81780e9a66","server":"7336","farm":8,"title":"Sciacca, Sicily 116","ispublic":1,"isfriend":0,"isfamily":0,"safe":0,"ownername":"tango-","latitude":37.502944,"longitude":13.076482,"accuracy":"14","context":0,"place_id":"RXkhnPhWULlZY5k","woeid":"723897","geo_is_family":0,"geo_is_friend":0,"geo_is_contact":0,"geo_is_public":1,"media":"photo","media_status":"ready"},{"id":"13995978567","owner":"44161305@N02","secret":"85a918433c","server":"5501","farm":6,"title":"Mothia, Sicily  230","ispublic":1,"isfriend":0,"isfamily":0,"safe":0,"ownername":"tango-","latitude":37.846934,"longitude":12.474288,"accuracy":"11","context":0,"place_id":"dkhcLsdWULkdD1k","woeid":"723582","geo_is_family":0,"geo_is_friend":0,"geo_is_contact":0,"geo_is_public":1,"media":"photo","media_status":"ready"},{"id":"13992702930","owner":"69817244@N02","secret":"d1ea717943","server":"5594","farm":6,"title":"The rolling Devon hills. Explored.","ispublic":1,"isfriend":0,"isfamily":0,"safe":0,"ownername":"South Devon Pixie","latitude":50.571804,"longitude":-3.489425,"accuracy":"15","context":0,"place_id":"3iAVWmBQVbMQ9A","woeid":"17980","geo_is_family":0,"geo_is_friend":0,"geo_is_contact":0,"geo_is_public":1,"media":"photo","media_status":"ready"},{"id":"14198717503","owner":"76458369@N07","secret":"2ecb8a39ee","server":"5159","farm":6,"title":"Red floor.........","ispublic":1,"isfriend":0,"isfamily":0,"safe":0,"ownername":"Eric Goncalves","latitude":51.768424,"longitude":-2.58861,"accuracy":"14","context":0,"place_id":"lagwUsxQW78gNg","woeid":"19502","geo_is_family":0,"geo_is_friend":0,"geo_is_contact":0,"geo_is_public":1,"media":"photo","media_status":"ready"},{"id":"13991545057","owner":"27485294@N05","secret":"64e9ce76b9","server":"7351","farm":8,"title":"Three white boats","ispublic":1,"isfriend":0,"isfamily":0,"safe":0,"ownername":"Polje\u017ei\u010danin","latitude":43.376293,"longitude":16.627979,"accuracy":"12","context":0,"place_id":"6mYfvcpZVrNNh3w","woeid":"849781","geo_is_family":0,"geo_is_friend":0,"geo_is_contact":0,"geo_is_public":1,"media":"photo","media_status":"ready"},{"id":"14153738516","owner":"60913863@N08","secret":"b43e804ffa","server":"2928","farm":3,"title":"Castello di Montegibbio (Montegibbio Castle)","ispublic":1,"isfriend":0,"isfamily":0,"safe":0,"ownername":"Goethe58","latitude":44.50708,"longitude":10.785442,"accuracy":"16","context":0,"place_id":"_GkAGPFWULkfe6Q","woeid":"723784","geo_is_family":0,"geo_is_friend":0,"geo_is_contact":0,"geo_is_public":1,"media":"photo","media_status":"ready"},{"id":"14175706305","owner":"13922644@N05","secret":"1cb7ab4090","server":"2928","farm":3,"title":"Rannoch Moor","ispublic":1,"isfriend":0,"isfamily":0,"safe":0,"ownername":"bingleyman2","latitude":56.60694,"longitude":-4.757895,"accuracy":"15","context":0,"place_id":"rdYKU1FQUrnlXw","woeid":"10319","geo_is_family":0,"geo_is_friend":0,"geo_is_contact":0,"geo_is_public":1,"media":"photo","media_status":"ready"},{"id":"14175086494","owner":"70667315@N07","secret":"0d86cf04c2","server":"7366","farm":8,"title":"Harbor lighthouse","ispublic":1,"isfriend":0,"isfamily":0,"safe":0,"ownername":"Laurent photography","latitude":47.347779,"longitude":-3.154358,"accuracy":"16","context":0,"place_id":"nJ2FkFpXUrlUSSM","woeid":"603835","geo_is_family":0,"geo_is_friend":0,"geo_is_contact":0,"geo_is_public":1,"media":"photo","media_status":"ready"},{"id":"14171545621","owner":"66644631@N05","secret":"5851daaaec","server":"7397","farm":8,"title":"Paris metro sign","ispublic":1,"isfriend":0,"isfamily":0,"safe":0,"ownername":"jmlpyt","latitude":48.856918,"longitude":2.341209,"accuracy":"11","context":0,"place_id":"EsIQUYZXU79_kEA","woeid":"615702","geo_is_family":0,"geo_is_friend":0,"geo_is_contact":0,"geo_is_public":1,"media":"photo","media_status":"ready"},{"id":"14172184665","owner":"91794896@N00","secret":"0eb9b6c68b","server":"5080","farm":6,"title":"Rosi \/ Explore # 208 \/ 12.05.2014","ispublic":1,"isfriend":0,"isfamily":0,"safe":0,"ownername":"Gerhard Singer","latitude":48.197675,"longitude":16.377182,"accuracy":"11","context":0,"place_id":"vyIUe41UV7uao.Y","woeid":"551801","geo_is_family":0,"geo_is_friend":0,"geo_is_contact":0,"geo_is_public":1,"media":"photo","media_status":"ready"},{"id":"13984954170","owner":"13922644@N05","secret":"9fbf177ffb","server":"7417","farm":8,"title":"Loch Long","ispublic":1,"isfriend":0,"isfamily":0,"safe":0,"ownername":"bingleyman2","latitude":57.311818,"longitude":-5.482478,"accuracy":"15","context":0,"place_id":"bFqWRJpSUbIgaQ","woeid":"33896","geo_is_family":0,"geo_is_friend":0,"geo_is_contact":0,"geo_is_public":1,"media":"photo","media_status":"ready"},{"id":"13984940868","owner":"53035251@N03","secret":"97a7158b73","server":"7360","farm":8,"title":"\u00cdsafj\u00f6r\u00f0ur","ispublic":1,"isfriend":0,"isfamily":0,"safe":0,"ownername":"mummibjarni","latitude":66.068204,"longitude":-23.131713,"accuracy":"9","context":0,"place_id":"QX9.D1RYWrryoTA","woeid":"980266","geo_is_family":0,"geo_is_friend":0,"geo_is_contact":0,"geo_is_public":1,"media":"photo","media_status":"ready"},{"id":"14191679393","owner":"8133060@N06","secret":"a7f92f8684","server":"5476","farm":6,"title":"Warbling Vireo (Explored)","ispublic":1,"isfriend":0,"isfamily":0,"safe":0,"ownername":"skassam","latitude":45.388414,"longitude":-75.70198,"accuracy":"14","context":0,"place_id":"vtA0.UtUV7Lg1j2lSA","woeid":"55855911","geo_is_family":0,"geo_is_friend":0,"geo_is_contact":0,"geo_is_public":1,"media":"photo","media_status":"ready"},{"id":"13984643768","owner":"69817244@N02","secret":"e823ae7d25","server":"7453","farm":8,"title":"Edge of the forest. Explored.","ispublic":1,"isfriend":0,"isfamily":0,"safe":0,"ownername":"South Devon Pixie","latitude":50.571804,"longitude":-3.489425,"accuracy":"15","context":0,"place_id":"3iAVWmBQVbMQ9A","woeid":"17980","geo_is_family":0,"geo_is_friend":0,"geo_is_contact":0,"geo_is_public":1,"media":"photo","media_status":"ready"},{"id":"14148048706","owner":"93608894@N02","secret":"e3943237c3","server":"7443","farm":8,"title":"Happy Team (explore)","ispublic":1,"isfriend":0,"isfamily":0,"safe":0,"ownername":"Jean-Pierre ARIBAU","latitude":41.591701,"longitude":1.837779,"accuracy":"11","context":0,"place_id":"buY2USBQUL8KB8CtqQ","woeid":"12578034","geo_is_family":0,"geo_is_friend":0,"geo_is_contact":0,"geo_is_public":1,"media":"photo","media_status":"ready"},{"id":"13983728127","owner":"36217762@N00","secret":"3d0fd13559","server":"7307","farm":8,"title":"Buntes Chaos","ispublic":1,"isfriend":0,"isfamily":0,"safe":0,"ownername":"Pixelm\u00e4dchen6","latitude":52.466358,"longitude":13.513253,"accuracy":"16","context":0,"place_id":"zot2ouJXUbKOJRM","woeid":"638242","geo_is_family":0,"geo_is_friend":0,"geo_is_contact":0,"geo_is_public":1,"media":"photo","media_status":"ready"},{"id":"14190386353","owner":"112897506@N05","secret":"209dec3bab","server":"7377","farm":8,"title":"MacroSpider","ispublic":1,"isfriend":0,"isfamily":0,"safe":0,"ownername":"* Frank&Devil","latitude":48.973949,"longitude":8.164408,"accuracy":"16","context":0,"place_id":"0oxMotFXUrtY7Rc","woeid":"601753","geo_is_family":0,"geo_is_friend":0,"geo_is_contact":0,"geo_is_public":1,"media":"photo","media_status":"ready"},{"id":"14146505106","owner":"87649553@N02","secret":"5b722e5bfc","server":"7382","farm":8,"title":"Guernsey sunset","ispublic":1,"isfriend":0,"isfamily":0,"safe":0,"ownername":"goat1412","latitude":49.444747,"longitude":-2.651867,"accuracy":"15","context":0,"place_id":"sOkmFRZTUr0OosZkBQ","woeid":"20700939","geo_is_family":0,"geo_is_friend":0,"geo_is_contact":0,"geo_is_public":1,"media":"photo","media_status":"ready"},{"id":"13982458067","owner":"49733424@N02","secret":"5794f5aaf6","server":"2907","farm":3,"title":"Mais um dia se vai...","ispublic":1,"isfriend":0,"isfamily":0,"safe":0,"ownername":"Gilda Tonello","latitude":-23.108176,"longitude":-46.613554,"accuracy":"11","context":0,"place_id":"jxVVrsZVV7z6kw0","woeid":"456731","geo_is_family":0,"geo_is_friend":0,"geo_is_contact":0,"geo_is_public":1,"media":"photo","media_status":"ready"},{"id":"14165398991","owner":"48686041@N02","secret":"c687c441cb","server":"7415","farm":8,"title":"#train #nyc #metronorth #hipstamatic #iphoneography (EXPLORE)","ispublic":1,"isfriend":0,"isfamily":0,"safe":0,"ownername":"ROCIO Ysapy","latitude":40.817486,"longitude":-73.925703,"accuracy":"16","context":0,"place_id":"UOYkZO9TWrhsNVJMoA","woeid":"28297827","geo_is_family":0,"geo_is_friend":0,"geo_is_contact":0,"geo_is_public":1,"media":"photo","media_status":"ready"},{"id":"13981050930","owner":"16618681@N00","secret":"763e7f6121","server":"7314","farm":8,"title":"Frivolezza","ispublic":1,"isfriend":0,"isfamily":0,"safe":0,"ownername":"marypink","latitude":28.13022,"longitude":-15.439709,"accuracy":"11","context":0,"place_id":".6cV.KhWVL796qE","woeid":"764814","geo_is_family":0,"geo_is_friend":0,"geo_is_contact":0,"geo_is_public":1,"media":"photo","media_status":"ready"},{"id":"14144400626","owner":"68792473@N04","secret":"df357bd4f0","server":"7454","farm":8,"title":"40 years ago","ispublic":1,"isfriend":0,"isfamily":0,"safe":0,"ownername":"Indian_Forever","latitude":41.884387,"longitude":12.461929,"accuracy":"11","context":0,"place_id":"uijRnjBWULsQTwc","woeid":"721943","geo_is_family":0,"geo_is_friend":0,"geo_is_contact":0,"geo_is_public":1,"media":"photo","media_status":"ready"},{"id":"14144287326","owner":"8868875@N03","secret":"52ae095b78","server":"7445","farm":8,"title":"walk in a box","ispublic":1,"isfriend":0,"isfamily":0,"safe":0,"ownername":"gato-gato-gato","latitude":47.386552,"longitude":8.527372,"accuracy":"16","context":0,"place_id":"iCPlQRNTUrtyULKpPg","woeid":"20102307","geo_is_family":0,"geo_is_friend":0,"geo_is_contact":0,"geo_is_public":1,"media":"photo","media_status":"ready"},{"id":"14167406305","owner":"96439392@N03","secret":"9b4ccd74f0","server":"2939","farm":3,"title":"Metallic Cloud","ispublic":1,"isfriend":0,"isfamily":0,"safe":0,"ownername":"Kristin Van den Eede","latitude":51.03446,"longitude":3.706127,"accuracy":"15","context":0,"place_id":"AnGxYR1YVLytsDc","woeid":"966412","geo_is_family":0,"geo_is_friend":0,"geo_is_contact":0,"geo_is_public":1,"media":"photo","media_status":"ready"},{"id":"14161568342","owner":"50607556@N04","secret":"ece6b5ff85","server":"5317","farm":6,"title":"Torture Garden Birthday Ball 2014","ispublic":1,"isfriend":0,"isfamily":0,"safe":0,"ownername":"Zara_K19","latitude":51.494944,"longitude":-0.098634,"accuracy":"16","context":0,"place_id":"kgEzJutTWrIALi44.w","woeid":"28835385","geo_is_family":0,"geo_is_friend":0,"geo_is_contact":0,"geo_is_public":1,"media":"photo","media_status":"ready"},{"id":"14184184363","owner":"91463065@N06","secret":"deaf83d1a4","server":"2899","farm":3,"title":"The Village (Explored)","ispublic":1,"isfriend":0,"isfamily":0,"safe":0,"ownername":"BennyM Photography","latitude":42.857343,"longitude":9.343185,"accuracy":"10","context":0,"place_id":"k.hdEuZUWrhU1To","woeid":"582895","geo_is_family":0,"geo_is_friend":0,"geo_is_contact":0,"geo_is_public":1,"media":"photo","media_status":"ready"},{"id":"13976831728","owner":"57240265@N03","secret":"4b10a16381","server":"7406","farm":8,"title":"View towards Boulsworth Hill(explored 12\/5\/14)","ispublic":1,"isfriend":0,"isfamily":0,"safe":0,"ownername":"stephen.riley3049 is away","latitude":53.847108,"longitude":-2.081995,"accuracy":"14","context":0,"place_id":"oWNmGjRTUrpd4mdcpQ","woeid":"20091906","geo_is_family":0,"geo_is_friend":0,"geo_is_contact":0,"geo_is_public":1,"media":"photo","media_status":"ready"},{"id":"14159775581","owner":"46134012@N08","secret":"c954f25bfd","server":"5504","farm":6,"title":"Fields","ispublic":1,"isfriend":0,"isfamily":0,"safe":0,"ownername":"KEA60","latitude":55.577247,"longitude":13.132919,"accuracy":"16","context":0,"place_id":"xkhdaXJZWr8sa.g","woeid":"885880","geo_is_family":0,"geo_is_friend":0,"geo_is_contact":0,"geo_is_public":1,"media":"photo","media_status":"ready"},{"id":"14159648002","owner":"93608894@N02","secret":"e617d5e4bd","server":"7352","farm":8,"title":"Deux (explore)","ispublic":1,"isfriend":0,"isfamily":0,"safe":0,"ownername":"Jean-Pierre ARIBAU","latitude":41.591701,"longitude":1.837779,"accuracy":"11","context":0,"place_id":"buY2USBQUL8KB8CtqQ","woeid":"12578034","geo_is_family":0,"geo_is_friend":0,"geo_is_contact":0,"geo_is_public":1,"media":"photo","media_status":"ready"},{"id":"14181752703","owner":"33725140@N03","secret":"3e405b98e8","server":"7453","farm":8,"title":"Clair de Lune  # EXPLORE 443#","ispublic":1,"isfriend":0,"isfamily":0,"safe":0,"ownername":"gigisicily45","latitude":37.934136,"longitude":13.663387,"accuracy":"16","context":0,"place_id":"fTGbL_BWU7t_wtg","woeid":"711639","geo_is_family":0,"geo_is_friend":0,"geo_is_contact":0,"geo_is_public":1,"media":"photo","media_status":"ready"},{"id":"13974856960","owner":"53035251@N03","secret":"5cdbdbd841","server":"7310","farm":8,"title":"\u00cdsafj\u00f6r\u00f0ur","ispublic":1,"isfriend":0,"isfamily":0,"safe":0,"ownername":"mummibjarni","latitude":66.071546,"longitude":-23.150939,"accuracy":"9","context":0,"place_id":"QX9.D1RYWrryoTA","woeid":"980266","geo_is_family":0,"geo_is_friend":0,"geo_is_contact":0,"geo_is_public":1,"media":"photo","media_status":"ready"},{"id":"13973734399","owner":"87649553@N02","secret":"6b2e0cdd36","server":"7387","farm":8,"title":"Dusk","ispublic":1,"isfriend":0,"isfamily":0,"safe":0,"ownername":"goat1412","latitude":49.46539,"longitude":-2.612471,"accuracy":"15","context":0,"place_id":"gRbpIa9TUr3Su_Kb6g","woeid":"20700956","geo_is_family":0,"geo_is_friend":0,"geo_is_contact":0,"geo_is_public":1,"media":"photo","media_status":"ready"},{"id":"13973673148","owner":"58319125@N06","secret":"ae71e882f2","server":"7299","farm":8,"title":"BUGLOSA O FLOR MORADA. EXPLORE MAYO","ispublic":1,"isfriend":0,"isfamily":0,"safe":0,"ownername":"Lila_MJos\u00e9","latitude":38.297548,"longitude":-6.58802,"accuracy":"13","context":0,"place_id":".qEw_5tWVbyVm9k","woeid":"776931","geo_is_family":0,"geo_is_friend":0,"geo_is_contact":0,"geo_is_public":1,"media":"photo","media_status":"ready"},{"id":"14179916303","owner":"91463065@N06","secret":"18b48f6ed7","server":"7459","farm":8,"title":"St. Florent, Corsica (Explored)","ispublic":1,"isfriend":0,"isfamily":0,"safe":0,"ownername":"BennyM Photography","latitude":42.688492,"longitude":9.315032,"accuracy":"10","context":0,"place_id":"DjD7EepXUL4aexU","woeid":"624024","geo_is_family":0,"geo_is_friend":0,"geo_is_contact":0,"geo_is_public":1,"media":"photo","media_status":"ready"},{"id":"13972393169","owner":"68792473@N04","secret":"eaa4f64747","server":"7337","farm":8,"title":"Human football","ispublic":1,"isfriend":0,"isfamily":0,"safe":0,"ownername":"Indian_Forever","latitude":43.782371,"longitude":11.254989,"accuracy":"11","context":0,"place_id":"ZPDshblWU7_DgSs","woeid":"715496","geo_is_family":0,"geo_is_friend":0,"geo_is_contact":0,"geo_is_public":1,"media":"photo","media_status":"ready"},{"id":"14158540085","owner":"65741821@N02","secret":"491cc744a8","server":"7428","farm":8,"title":"Happy Mothers' Day (Explored)","ispublic":1,"isfriend":0,"isfamily":0,"safe":0,"ownername":"Jicardee29","latitude":51.651031,"longitude":-0.708729,"accuracy":"11","context":0,"place_id":"cvqXYZJTULI5Ng","woeid":"22805","geo_is_family":0,"geo_is_friend":0,"geo_is_contact":0,"geo_is_public":1,"media":"photo","media_status":"ready"}]},"stat":"ok"}