{"photos":{"page":66,"pages":26696,"perpage":60,"total":"1601728","photo":[{"id":"14023635156","owner":"46176561@N02","secret":"2783d260a0","server":"7304","farm":8,"title":"Rapsfeld 3 - rape field 3","ispublic":1,"isfriend":0,"isfamily":0,"safe":0,"ownername":"fleckchen","latitude":50.523359,"longitude":12.422529,"accuracy":"14","context":0,"place_id":"fp9UQ6dXWrNWvqc","woeid":"689141","geo_is_family":0,"geo_is_friend":0,"geo_is_contact":0,"geo_is_public":1,"media":"photo","media_status":"ready"},{"id":"14047211924","owner":"66759125@N00","secret":"23714ec7dd","server":"7185","farm":8,"title":"","ispublic":1,"isfriend":0,"isfamily":0,"safe":0,"ownername":"Svein Nordrum","latitude":61.496491,"longitude":8.797302,"accuracy":"10","context":0,"place_id":"fCXtUSNZV7JYJsw","woeid":"858911","geo_is_family":0,"geo_is_friend":0,"geo_is_contact":0,"geo_is_public":1,"media":"photo","media_status":"ready"},{"id":"14063650953","owner":"57514386@N04","secret":"0b5d5e0e9c","server":"5102","farm":6,"title":"","ispublic":1,"isfriend":0,"isfamily":0,"safe":0,"ownername":"H\u00e9lder Santana","latitude":-8.003434,"longitude":-35.639069,"accuracy":"16","context":0,"place_id":"yFRzdeBQUL8pAnyWCg","woeid":"12580776","geo_is_family":0,"geo_is_friend":0,"geo_is_contact":0,"geo_is_public":1,"media":"photo","media_status":"ready"},{"id":"14040353695","owner":"89213194@N05","secret":"84d491fa54","server":"7364","farm":8,"title":"The Enchanting Bluebell Forest","ispublic":1,"isfriend":0,"isfamily":0,"safe":0,"ownername":"Glyn Owen Photography & Image-Art","latitude":53.339534,"longitude":-2.873954,"accuracy":"13","context":0,"place_id":"7EtNoh9SUrM_bg","woeid":"30938","geo_is_family":0,"geo_is_friend":0,"geo_is_contact":0,"geo_is_public":1,"media":"photo","media_status":"ready"},{"id":"14013977056","owner":"33408514@N07","secret":"a5219fae50","server":"5485","farm":6,"title":"Irene, \"Belle \u00c9poque\".","ispublic":1,"isfriend":0,"isfamily":0,"safe":0,"ownername":"Recesvintus","latitude":38.995322,"longitude":-1.848213,"accuracy":"16","context":0,"place_id":"yyUfjGNWV7sRr7U","woeid":"751648","geo_is_family":0,"geo_is_friend":0,"geo_is_contact":0,"geo_is_public":1,"media":"photo","media_status":"ready"},{"id":"14007937556","owner":"42645785@N04","secret":"86fb2f3324","server":"7080","farm":8,"title":"Early light in the alley","ispublic":1,"isfriend":0,"isfamily":0,"safe":0,"ownername":"dorena-wm","latitude":47.708392,"longitude":11.156736,"accuracy":"14","context":0,"place_id":"Vki1sJxWUrp5fBY","woeid":"700443","geo_is_family":0,"geo_is_friend":0,"geo_is_contact":0,"geo_is_public":1,"media":"photo","media_status":"ready"},{"id":"14043463973","owner":"29908683@N08","secret":"4d3a3fcec9","server":"7230","farm":8,"title":"Mairie d'Illkirch Graffenstaden...","ispublic":1,"isfriend":0,"isfamily":0,"safe":0,"ownername":"Daniel Jost Photography","latitude":48.527716,"longitude":7.709395,"accuracy":"16","context":0,"place_id":"SjPp39hUW7_NfR4","woeid":"595171","geo_is_family":0,"geo_is_friend":0,"geo_is_contact":0,"geo_is_public":1,"media":"photo","media_status":"ready"},{"id":"13999348006","owner":"80046198@N00","secret":"4fbcccb404","server":"5466","farm":6,"title":"A mark of character..","ispublic":1,"isfriend":0,"isfamily":0,"safe":0,"ownername":"areyarey","latitude":44.407251,"longitude":8.934116,"accuracy":"15","context":0,"place_id":"U9uHhb9TUruHgV.MKA","woeid":"20150290","geo_is_family":0,"geo_is_friend":0,"geo_is_contact":0,"geo_is_public":1,"media":"photo","media_status":"ready"},{"id":"14022045415","owner":"23012400@N03","secret":"e7634c2063","server":"7160","farm":8,"title":"Villaverde del Monte.Soria.","ispublic":1,"isfriend":0,"isfamily":0,"safe":0,"ownername":"Miguel. (respenda)","latitude":41.812523,"longitude":-2.671394,"accuracy":"16","context":0,"place_id":"SeQDtEVWVbIYPco","woeid":"778679","geo_is_family":0,"geo_is_friend":0,"geo_is_contact":0,"geo_is_public":1,"media":"photo","media_status":"ready"},{"id":"13998884786","owner":"82375888@N00","secret":"dd9cffa3fb","server":"7444","farm":8,"title":"J\u00f6kuls\u00e1rl\u00f3n-Glacier lagoon","ispublic":1,"isfriend":0,"isfamily":0,"safe":0,"ownername":"Johannes Huwe","latitude":64.046969,"longitude":-16.179943,"accuracy":"13","context":0,"place_id":"L30o2XlTUb6ZXW0u","woeid":"2345690","geo_is_family":0,"geo_is_friend":0,"geo_is_contact":0,"geo_is_public":1,"media":"photo","media_status":"ready"},{"id":"13893385240","owner":"90838864@N08","secret":"2dca5668d1","server":"2926","farm":3,"title":"","ispublic":1,"isfriend":0,"isfamily":0,"safe":0,"ownername":"JASPER VAN DEN HAM","latitude":52.085109,"longitude":4.88737,"accuracy":"11","context":0,"place_id":"BbaGTzRWUb7wkiA","woeid":"734854","geo_is_family":0,"geo_is_friend":0,"geo_is_contact":0,"geo_is_public":1,"media":"photo","media_status":"ready"},{"id":"14080339634","owner":"39870654@N04","secret":"f12238fea7","server":"2914","farm":3,"title":"Monsanto","ispublic":1,"isfriend":0,"isfamily":0,"safe":0,"ownername":"Ant\u00f3nio Alfarroba","latitude":40.037208,"longitude":-7.112617,"accuracy":"16","context":0,"place_id":"5gAck95WVrl2ny8","woeid":"743731","geo_is_family":0,"geo_is_friend":0,"geo_is_contact":0,"geo_is_public":1,"media":"photo","media_status":"ready"},{"id":"14056009106","owner":"100139134@N03","secret":"029078caef","server":"7322","farm":8,"title":"Par\u00eds Paris Parigi \u041f\u0430\u0440\u0438\u0436","ispublic":1,"isfriend":0,"isfamily":0,"safe":0,"ownername":"Jes\u00fas 56","latitude":48.863726,"longitude":2.313534,"accuracy":"16","context":0,"place_id":"WU8qo85UV7J7dLZuCw","woeid":"55843784","geo_is_family":0,"geo_is_friend":0,"geo_is_contact":0,"geo_is_public":1,"media":"photo","media_status":"ready"},{"id":"14055733366","owner":"29394931@N06","secret":"05afbb6326","server":"7188","farm":8,"title":"Kilt Rock","ispublic":1,"isfriend":0,"isfamily":0,"safe":0,"ownername":"\u2203Scape","latitude":57.612591,"longitude":-6.173791,"accuracy":"13","context":0,"place_id":"Fy1IXhlQVLulJw","woeid":"16127","geo_is_family":0,"geo_is_friend":0,"geo_is_contact":0,"geo_is_public":1,"media":"photo","media_status":"ready"},{"id":"14053605966","owner":"11644862@N06","secret":"7eeb1bbe85","server":"5504","farm":6,"title":"(0105\/14) A casa da le\u00f1a (Cambados)","ispublic":1,"isfriend":0,"isfamily":0,"safe":0,"ownername":"Pablo Arias","latitude":42.515239,"longitude":-8.81499,"accuracy":"11","context":0,"place_id":"_n.klYRWV7.agG8","woeid":"755602","geo_is_family":0,"geo_is_friend":0,"geo_is_contact":0,"geo_is_public":1,"media":"photo","media_status":"ready"},{"id":"13889475988","owner":"96667746@N04","secret":"8cb39ca31d","server":"2913","farm":3,"title":"Sun And Stripes","ispublic":1,"isfriend":0,"isfamily":0,"safe":0,"ownername":"Agrusoft Webdesign Photopage","latitude":52.715811,"longitude":5.112591,"accuracy":"16","context":0,"place_id":"1HOROYtWULOsmVo","woeid":"729769","geo_is_family":0,"geo_is_friend":0,"geo_is_contact":0,"geo_is_public":1,"media":"photo","media_status":"ready"},{"id":"13888636537","owner":"38337348@N06","secret":"bda38d5818","server":"2896","farm":3,"title":"Between elements","ispublic":1,"isfriend":0,"isfamily":0,"safe":0,"ownername":"Passie13(Ines van Megen-Thijssen)","latitude":51.983538,"longitude":4.099144,"accuracy":"16","context":0,"place_id":"LtaqaHpWUbo77K8","woeid":"730165","geo_is_family":0,"geo_is_friend":0,"geo_is_contact":0,"geo_is_public":1,"media":"photo","media_status":"ready"},{"id":"13888050179","owner":"94958489@N06","secret":"385c444db9","server":"2905","farm":3,"title":"All blacks !","ispublic":1,"isfriend":0,"isfamily":0,"safe":0,"ownername":"Les Fisher","latitude":52.956704,"longitude":1.0696,"accuracy":"15","context":0,"place_id":"rGo95ixTUb1WfA","woeid":"23743","geo_is_family":0,"geo_is_friend":0,"geo_is_contact":0,"geo_is_public":1,"media":"photo","media_status":"ready"},{"id":"13887666880","owner":"41324237@N07","secret":"99c2b92941","server":"7436","farm":8,"title":"The Bur Way","ispublic":1,"isfriend":0,"isfamily":0,"safe":0,"ownername":"Louise and Colin","latitude":52.545486,"longitude":-2.849063,"accuracy":"14","context":0,"place_id":"F8Rmi5RQVLoRww","woeid":"16062","geo_is_family":0,"geo_is_friend":0,"geo_is_contact":0,"geo_is_public":1,"media":"photo","media_status":"ready"},{"id":"14073572805","owner":"54816077@N03","secret":"f94a285c82","server":"7385","farm":8,"title":"At the Crossroads","ispublic":1,"isfriend":0,"isfamily":0,"safe":0,"ownername":"Thousand Word Images by Dustin Abbott","latitude":45.851611,"longitude":-77.203309,"accuracy":"16","context":0,"place_id":"1fQAjO9TW7m4KO1GHQ","woeid":"29375220","geo_is_family":0,"geo_is_friend":0,"geo_is_contact":0,"geo_is_public":1,"media":"photo","media_status":"ready"},{"id":"14072448605","owner":"38337348@N06","secret":"e950bc8650","server":"2901","farm":3,"title":"Constructions","ispublic":1,"isfriend":0,"isfamily":0,"safe":0,"ownername":"Passie13(Ines van Megen-Thijssen)","latitude":51.98412,"longitude":4.102234,"accuracy":"16","context":0,"place_id":"LtaqaHpWUbo77K8","woeid":"730165","geo_is_family":0,"geo_is_friend":0,"geo_is_contact":0,"geo_is_public":1,"media":"photo","media_status":"ready"},{"id":"14071806395","owner":"117425224@N04","secret":"fabceef438","server":"2908","farm":3,"title":"Freezing fog","ispublic":1,"isfriend":0,"isfamily":0,"safe":0,"ownername":"Pat=H absent 3 semaines","latitude":50.525652,"longitude":6.047838,"accuracy":"15","context":0,"place_id":"DYjnDtZWU7_mYCT6","woeid":"7153300","geo_is_family":0,"geo_is_friend":0,"geo_is_contact":0,"geo_is_public":1,"media":"photo","media_status":"ready"},{"id":"14068226212","owner":"68898571@N00","secret":"d5994229d9","server":"5236","farm":6,"title":"Touch - Varanasi, India","ispublic":1,"isfriend":0,"isfamily":0,"safe":0,"ownername":"Maciej Dakowicz","latitude":25.296741,"longitude":83.007425,"accuracy":"16","context":0,"place_id":"IHnsGfBUV7NialWVhQ","woeid":"55951408","geo_is_family":0,"geo_is_friend":0,"geo_is_contact":0,"geo_is_public":1,"media":"photo","media_status":"ready"},{"id":"13884660938","owner":"43553614@N00","secret":"69c418b2b7","server":"7339","farm":8,"title":"Diva","ispublic":1,"isfriend":0,"isfamily":0,"safe":0,"ownername":"chmeermann | www.chm-photography.com","latitude":50.960997,"longitude":6.9762,"accuracy":"16","context":0,"place_id":"uDd9M05XVLhoisA","woeid":"662833","geo_is_family":0,"geo_is_friend":0,"geo_is_contact":0,"geo_is_public":1,"media":"photo","media_status":"ready"},{"id":"14066499732","owner":"96881396@N06","secret":"4616de412c","server":"2913","farm":3,"title":"St. Paul's Cathedral from Millennium Bridge","ispublic":1,"isfriend":0,"isfamily":0,"safe":0,"ownername":"nacho bokeh","latitude":51.508501,"longitude":-0.098619,"accuracy":"16","context":0,"place_id":"OSWzL_pTUrqOB8Dpqg","woeid":"20094299","geo_is_family":0,"geo_is_friend":0,"geo_is_contact":0,"geo_is_public":1,"media":"photo","media_status":"ready"},{"id":"14088475023","owner":"34288348@N07","secret":"fcc9229254","server":"5032","farm":6,"title":"Pink and blue","ispublic":1,"isfriend":0,"isfamily":0,"safe":0,"ownername":"DameBoudicca","latitude":55.693672,"longitude":13.247441,"accuracy":"16","context":0,"place_id":"5EcsB2hZW73YErQ","woeid":"897819","geo_is_family":0,"geo_is_friend":0,"geo_is_contact":0,"geo_is_public":1,"media":"photo","media_status":"ready"},{"id":"14068046234","owner":"87453322@N00","secret":"e599cdbfb3","server":"5470","farm":6,"title":"Essing the Spider. Araschnia levana, European Map, on Anthriscus sylvestris, Queen Anne's Lace, Friescheveenseplassen, Groningen, The Netherlands","ispublic":1,"isfriend":0,"isfamily":0,"safe":0,"ownername":"Rana Pipiens","latitude":53.15655,"longitude":6.578407,"accuracy":"12","context":0,"place_id":"xbvcCQhWUbgOrKc","woeid":"732690","geo_is_family":0,"geo_is_friend":0,"geo_is_contact":0,"geo_is_public":1,"media":"photo","media_status":"ready"},{"id":"14086740933","owner":"27450769@N06","secret":"cd51efbc79","server":"2931","farm":3,"title":"\u06f0 Travel is the Only Thing You Buy that Makes You Richer \u06f0","ispublic":1,"isfriend":0,"isfamily":0,"safe":0,"ownername":"~Ranveig Marie~","latitude":41.960511,"longitude":3.229529,"accuracy":"16","context":0,"place_id":"gtdVL4FWV7my1gM","woeid":"753464","geo_is_family":0,"geo_is_friend":0,"geo_is_contact":0,"geo_is_public":1,"media":"photo","media_status":"ready"},{"id":"14064570324","owner":"42201042@N05","secret":"eaa156dd50","server":"7329","farm":8,"title":"Cudillero 1","ispublic":1,"isfriend":0,"isfamily":0,"safe":0,"ownername":"Eloy Rodr\u00edguez","latitude":43.563053,"longitude":-6.145273,"accuracy":"16","context":0,"place_id":"MBhe9oxWV7L0.qY","woeid":"758456","geo_is_family":0,"geo_is_friend":0,"geo_is_contact":0,"geo_is_public":1,"media":"photo","media_status":"ready"},{"id":"14060368381","owner":"54816077@N03","secret":"04f064cf1e","server":"7434","farm":8,"title":"Be Still","ispublic":1,"isfriend":0,"isfamily":0,"safe":0,"ownername":"Thousand Word Images by Dustin Abbott","latitude":45.852538,"longitude":-77.187003,"accuracy":"16","context":0,"place_id":"u_zIrJVSUbuN","woeid":"3316","geo_is_family":0,"geo_is_friend":0,"geo_is_contact":0,"geo_is_public":1,"media":"photo","media_status":"ready"},{"id":"14058610592","owner":"57723455@N07","secret":"d1f9c2ec1b","server":"5470","farm":6,"title":"Switzerland, Railway Station Luzern (On Explore), 14-02-2011","ispublic":1,"isfriend":0,"isfamily":0,"safe":0,"ownername":"Stone's Photography","latitude":47.049707,"longitude":8.310513,"accuracy":"16","context":0,"place_id":"b8MITN1TUrttsP2_eQ","woeid":"20102030","geo_is_family":0,"geo_is_friend":0,"geo_is_contact":0,"geo_is_public":1,"media":"photo","media_status":"ready"},{"id":"14081358433","owner":"24424426@N00","secret":"8e215287f1","server":"7395","farm":8,"title":"Cute Baby Girl - IMG_6550","ispublic":1,"isfriend":0,"isfamily":0,"safe":0,"ownername":"s0ulsurfing","latitude":50.631851,"longitude":-1.184206,"accuracy":"14","context":0,"place_id":"PNyTfURSVr4lNA","woeid":"34438","geo_is_family":0,"geo_is_friend":0,"geo_is_contact":0,"geo_is_public":1,"media":"photo","media_status":"ready"},{"id":"14061670584","owner":"36326099@N05","secret":"3a9112d679","server":"2918","farm":3,"title":"Fluidity","ispublic":1,"isfriend":0,"isfamily":0,"safe":0,"ownername":"Aaron Yeoman","latitude":41.391666,"longitude":2.164722,"accuracy":"16","context":0,"place_id":"gz1EC3hTUriN7mm2QA","woeid":"20220089","geo_is_family":0,"geo_is_friend":0,"geo_is_contact":0,"geo_is_public":1,"media":"photo","media_status":"ready"},{"id":"14061573684","owner":"62981214@N06","secret":"6b204a34c1","server":"5071","farm":6,"title":"Spring","ispublic":1,"isfriend":0,"isfamily":0,"safe":0,"ownername":"Marcin Kubiak","latitude":52.164719,"longitude":21.05298,"accuracy":"13","context":0,"place_id":"5CLRwVdTVr88xuVXtg","woeid":"24548810","geo_is_family":0,"geo_is_friend":0,"geo_is_contact":0,"geo_is_public":1,"media":"photo","media_status":"ready"},{"id":"14057268662","owner":"90378082@N07","secret":"a85a2a5145","server":"2929","farm":3,"title":"The happy photographer","ispublic":1,"isfriend":0,"isfamily":0,"safe":0,"ownername":"Baz 120","latitude":41.89568,"longitude":12.482807,"accuracy":"15","context":0,"place_id":"FphPyURWU7ux6h4","woeid":"711883","geo_is_family":0,"geo_is_friend":0,"geo_is_contact":0,"geo_is_public":1,"media":"photo","media_status":"ready"},{"id":"14054023681","owner":"23285057@N04","secret":"6443304482","server":"7327","farm":8,"title":"Bronzed Drongo","ispublic":1,"isfriend":0,"isfamily":0,"safe":0,"ownername":"SivamDesign","latitude":11.875796,"longitude":75.37445,"accuracy":"13","context":0,"place_id":"K.oDldhTULMobejz","woeid":"2295301","geo_is_family":0,"geo_is_friend":0,"geo_is_contact":0,"geo_is_public":1,"media":"photo","media_status":"ready"},{"id":"14054017121","owner":"15504446@N05","secret":"7217c4dde9","server":"2928","farm":3,"title":"Sunlight in the Forest","ispublic":1,"isfriend":0,"isfamily":0,"safe":0,"ownername":"80sgirlart","latitude":45.545192,"longitude":-65.024042,"accuracy":"13","context":0,"place_id":"rML7IhNTW7mtrEFsmQ","woeid":"29375098","geo_is_family":0,"geo_is_friend":0,"geo_is_contact":0,"geo_is_public":1,"media":"photo","media_status":"ready"},{"id":"14056122234","owner":"30054343@N07","secret":"92b3a8a456","server":"5121","farm":6,"title":"My sweet boy Puki _,,,^._.^,,,_","ispublic":1,"isfriend":0,"isfamily":0,"safe":0,"ownername":"Viola's visions \u25d5\u203f\u25d5\u2764","latitude":45.661228,"longitude":8.683639,"accuracy":"11","context":0,"place_id":"PEE0yPZTUrs1ZuttkA","woeid":"20129856","geo_is_family":0,"geo_is_friend":0,"geo_is_contact":0,"geo_is_public":1,"media":"photo","media_status":"ready"},{"id":"14075191703","owner":"42106456@N07","secret":"5e258f9d21","server":"5107","farm":6,"title":"bluebells","ispublic":1,"isfriend":0,"isfamily":0,"safe":0,"ownername":"CLIFFWALKER","latitude":53.444282,"longitude":-1.278491,"accuracy":"14","context":0,"place_id":"gmZvGctTUrjnZg","woeid":"20278","geo_is_family":0,"geo_is_friend":0,"geo_is_contact":0,"geo_is_public":1,"media":"photo","media_status":"ready"},{"id":"14054342575","owner":"56502798@N00","secret":"34af03aa3e","server":"2911","farm":3,"title":"Zoo de Barcelona.-","ispublic":1,"isfriend":0,"isfamily":0,"safe":0,"ownername":"ancama_99(toni)","latitude":41.387531,"longitude":2.188467,"accuracy":"14","context":0,"place_id":"uwgaZH9WV7kYBCo","woeid":"753693","geo_is_family":0,"geo_is_friend":0,"geo_is_contact":0,"geo_is_public":1,"media":"photo","media_status":"ready"},{"id":"14073683763","owner":"8098956@N08","secret":"14e3829ed2","server":"5249","farm":6,"title":"Eurydice bitten by a snake","ispublic":1,"isfriend":0,"isfamily":0,"safe":0,"ownername":"roodixx","latitude":48.866789,"longitude":2.339208,"accuracy":"16","context":0,"place_id":"R13rUF1UV7LQLoV4Ig","woeid":"55843751","geo_is_family":0,"geo_is_friend":0,"geo_is_contact":0,"geo_is_public":1,"media":"photo","media_status":"ready"},{"id":"14071947593","owner":"15140450@N04","secret":"db55e21d19","server":"7076","farm":8,"title":"Cuba_2014_04_0070_IMG_2166","ispublic":1,"isfriend":0,"isfamily":0,"safe":0,"ownername":"_SG_","latitude":23.135545,"longitude":-82.358794,"accuracy":"15","context":0,"place_id":"S.m5DQhXUbLn4Q","woeid":"63820","geo_is_family":0,"geo_is_friend":0,"geo_is_contact":0,"geo_is_public":1,"media":"photo","media_status":"ready"},{"id":"14048240481","owner":"34256037@N00","secret":"3d4d751ceb","server":"7212","farm":8,"title":"Hoeksche Waard","ispublic":1,"isfriend":0,"isfamily":0,"safe":0,"ownername":"Bart van Damme","latitude":51.77485,"longitude":4.555549,"accuracy":"12","context":0,"place_id":"QdFjr4pWUbsSsXI","woeid":"731483","geo_is_family":0,"geo_is_friend":0,"geo_is_contact":0,"geo_is_public":1,"media":"photo","media_status":"ready"},{"id":"14069162773","owner":"13249895@N08","secret":"945691112f","server":"7435","farm":8,"title":"Praia bela - Pitimbu - Para\u00edba - Brasil","ispublic":1,"isfriend":0,"isfamily":0,"safe":0,"ownername":"Tony Borrach","latitude":-7.476846,"longitude":-34.808678,"accuracy":"16","context":0,"place_id":"idhN33BVVr5MEcg","woeid":"444458","geo_is_family":0,"geo_is_friend":0,"geo_is_contact":0,"geo_is_public":1,"media":"photo","media_status":"ready"},{"id":"14045011592","owner":"62973218@N02","secret":"f9a3d3eab9","server":"7325","farm":8,"title":"Bivalve","ispublic":1,"isfriend":0,"isfamily":0,"safe":0,"ownername":"unslugged","latitude":51.505464,"longitude":-0.087018,"accuracy":"16","context":0,"place_id":"AggqPb1TUrohNNCS.A","woeid":"20094296","geo_is_family":0,"geo_is_friend":0,"geo_is_contact":0,"geo_is_public":1,"media":"photo","media_status":"ready"},{"id":"14044939662","owner":"67833313@N08","secret":"ece14b6c2f","server":"5286","farm":6,"title":"3io bellcando....","ispublic":1,"isfriend":0,"isfamily":0,"safe":0,"ownername":"Dimitra Kirgiannaki \u266a\u00b8.\u2022*\u00b4spring-lover \u00a8\u00b4","latitude":37.904747,"longitude":23.721233,"accuracy":"11","context":0,"place_id":"PnKW2NdYV7qeoj0","woeid":"950722","geo_is_family":0,"geo_is_friend":0,"geo_is_contact":0,"geo_is_public":1,"media":"photo","media_status":"ready"},{"id":"14047417784","owner":"38337348@N06","secret":"f0e3d85ec5","server":"5240","farm":6,"title":"Classes","ispublic":1,"isfriend":0,"isfamily":0,"safe":0,"ownername":"Passie13(Ines van Megen-Thijssen)","latitude":51.924744,"longitude":4.468774,"accuracy":"16","context":0,"place_id":"lhM3WGRWUbndGLo","woeid":"733075","geo_is_family":0,"geo_is_friend":0,"geo_is_contact":0,"geo_is_public":1,"media":"photo","media_status":"ready"},{"id":"14023724036","owner":"45783855@N00","secret":"00ab7f7e54","server":"5348","farm":6,"title":"Fr\u00fchlingswiese- spring meadow","ispublic":1,"isfriend":0,"isfamily":0,"safe":0,"ownername":"Marlis1","latitude":40.799126,"longitude":0.456275,"accuracy":"13","context":0,"place_id":"JAxqp4JWVbgGSzc","woeid":"772190","geo_is_family":0,"geo_is_friend":0,"geo_is_contact":0,"geo_is_public":1,"media":"photo","media_status":"ready"},{"id":"14045101475","owner":"63824325@N04","secret":"2b21d5d12b","server":"2934","farm":3,"title":"Till Eulenspiegel in Braunschweig","ispublic":1,"isfriend":0,"isfamily":0,"safe":0,"ownername":"Fotoamateur62","latitude":52.262205,"longitude":10.519755,"accuracy":"16","context":0,"place_id":"ceIqK2FXVLuYfjk","woeid":"661418","geo_is_family":0,"geo_is_friend":0,"geo_is_contact":0,"geo_is_public":1,"media":"photo","media_status":"ready"},{"id":"14059488943","owner":"45564437@N08","secret":"9565e68063","server":"7312","farm":8,"title":"sin mirar atras","ispublic":1,"isfriend":0,"isfamily":0,"safe":0,"ownername":"Mauricio Silerio","latitude":59.95501,"longitude":30.498046,"accuracy":"4","context":0,"place_id":"ufBbjAZTUroBm1Enww","woeid":"20070507","geo_is_family":0,"geo_is_friend":0,"geo_is_contact":0,"geo_is_public":1,"media":"photo","media_status":"ready"},{"id":"14058708373","owner":"83038235@N08","secret":"16c153a3b3","server":"7230","farm":8,"title":"The Six Pence Pub, Savannah, Georgia","ispublic":1,"isfriend":0,"isfamily":0,"safe":0,"ownername":"DawnaMoorePhotography","latitude":32.072647,"longitude":-81.09455,"accuracy":"16","context":0,"place_id":"f1UdirhUV7IlAGNDAg","woeid":"55861858","geo_is_family":0,"geo_is_friend":0,"geo_is_contact":0,"geo_is_public":1,"media":"photo","media_status":"ready"},{"id":"14039146164","owner":"67474215@N08","secret":"96d2719887","server":"7317","farm":8,"title":"Spring Moon over Stockholm","ispublic":1,"isfriend":0,"isfamily":0,"safe":0,"ownername":"Tobias Lindman","latitude":59.327454,"longitude":18.078775,"accuracy":"14","context":0,"place_id":"x1zuMFtYUr5jojY","woeid":"904382","geo_is_family":0,"geo_is_friend":0,"geo_is_contact":0,"geo_is_public":1,"media":"photo","media_status":"ready"},{"id":"14027256882","owner":"46870239@N06","secret":"d900935bd8","server":"5445","farm":6,"title":"Harbour Drama (Explore 27-4-2014)","ispublic":1,"isfriend":0,"isfamily":0,"safe":0,"ownername":"Sunset Snapper","latitude":50.831582,"longitude":-0.978547,"accuracy":"15","context":0,"place_id":"QI5ZlhhTV70BQA","woeid":"25798","geo_is_family":0,"geo_is_friend":0,"geo_is_contact":0,"geo_is_public":1,"media":"photo","media_status":"ready"},{"id":"14043027983","owner":"79193776@N03","secret":"cba8feb338","server":"5202","farm":6,"title":"Sailing blue","ispublic":1,"isfriend":0,"isfamily":0,"safe":0,"ownername":"KerKaya","latitude":48.834272,"longitude":-3.515567,"accuracy":"14","context":0,"place_id":"5o2R2mdXULO9kyc","woeid":"629159","geo_is_family":0,"geo_is_friend":0,"geo_is_contact":0,"geo_is_public":1,"media":"photo","media_status":"ready"},{"id":"14019507042","owner":"74835915@N07","secret":"998d732591","server":"7178","farm":8,"title":"Serenity Now","ispublic":1,"isfriend":0,"isfamily":0,"safe":0,"ownername":"Danny Birrell","latitude":54.839355,"longitude":-1.327457,"accuracy":"12","context":0,"place_id":"T.P1uIRSVrjR7A","woeid":"34279","geo_is_family":0,"geo_is_friend":0,"geo_is_contact":0,"geo_is_public":1,"media":"photo","media_status":"ready"},{"id":"14018984261","owner":"44161305@N02","secret":"b99beea81c","server":"7242","farm":8,"title":"Spiral staircase, Palazzo Barozzi, Vignola, Italy, -04-26 16.30.14","ispublic":1,"isfriend":0,"isfamily":0,"safe":0,"ownername":"tango-","latitude":44.479051,"longitude":11.009719,"accuracy":"15","context":0,"place_id":"9lz0wylWUL8TlDg","woeid":"725943","geo_is_family":0,"geo_is_friend":0,"geo_is_contact":0,"geo_is_public":1,"media":"photo","media_status":"ready"},{"id":"14042061663","owner":"57185576@N03","secret":"262ed3291f","server":"7395","farm":8,"title":"Mother and Foal, Dartmoor","ispublic":1,"isfriend":0,"isfamily":0,"safe":0,"ownername":"Simon Hodgkiss Photography","latitude":50.575675,"longitude":-3.773563,"accuracy":"16","context":0,"place_id":"a4Vr911VUr6VYw","woeid":"40432","geo_is_family":0,"geo_is_friend":0,"geo_is_contact":0,"geo_is_public":1,"media":"photo","media_status":"ready"},{"id":"14021512085","owner":"73270743@N02","secret":"dabb9d7dcf","server":"2914","farm":3,"title":"Gouffre n\u00b0 2 de la for\u00eat de Fertans vers Saraz","ispublic":1,"isfriend":0,"isfamily":0,"safe":0,"ownername":"Guy Decreuse 25","latitude":46.984673,"longitude":5.96373,"accuracy":"14","context":0,"place_id":"7B5c595XU7kcV.Q","woeid":"613847","geo_is_family":0,"geo_is_friend":0,"geo_is_contact":0,"geo_is_public":1,"media":"photo","media_status":"ready"},{"id":"14017680892","owner":"7132158@N07","secret":"086b3c83b1","server":"5582","farm":6,"title":"Minas de S\u00e3o Domingos","ispublic":1,"isfriend":0,"isfamily":0,"safe":0,"ownername":"Rui Almeida.","latitude":37.66901,"longitude":-7.495079,"accuracy":"14","context":0,"place_id":"MGR7WftWVrlL7YU","woeid":"743536","geo_is_family":0,"geo_is_friend":0,"geo_is_contact":0,"geo_is_public":1,"media":"photo","media_status":"ready"},{"id":"14040378433","owner":"47574723@N03","secret":"288ecb8922","server":"7320","farm":8,"title":"Interlude","ispublic":1,"isfriend":0,"isfamily":0,"safe":0,"ownername":"The Spirit of the World ( On&Off for 2 Days)","latitude":27.183799,"longitude":77.994453,"accuracy":"11","context":0,"place_id":"S4OOvxtTULO18fQG","woeid":"2295399","geo_is_family":0,"geo_is_friend":0,"geo_is_contact":0,"geo_is_public":1,"media":"photo","media_status":"ready"}]},"stat":"ok"}