{"photos":{"page":65,"pages":26696,"perpage":60,"total":"1601728","photo":[{"id":"13948441129","owner":"16854222@N05","secret":"38e943478a","server":"2927","farm":3,"title":"An Impatient Girl","ispublic":1,"isfriend":0,"isfamily":0,"safe":0,"ownername":"AnyMotion","latitude":50.123271,"longitude":8.6804,"accuracy":"16","context":0,"place_id":"Z0FRRfRXV7oIeew","woeid":"650272","geo_is_family":0,"geo_is_friend":0,"geo_is_contact":0,"geo_is_public":1,"media":"photo","media_status":"ready"},{"id":"14133990655","owner":"79193776@N03","secret":"2dee598f7b","server":"7362","farm":8,"title":"Dreamed sunset","ispublic":1,"isfriend":0,"isfamily":0,"safe":0,"ownername":"KerKaya","latitude":48.833537,"longitude":-3.515167,"accuracy":"11","context":0,"place_id":"5o2R2mdXULO9kyc","woeid":"629159","geo_is_family":0,"geo_is_friend":0,"geo_is_contact":0,"geo_is_public":1,"media":"photo","media_status":"ready"},{"id":"14129569842","owner":"8722250@N07","secret":"d3a72f37cf","server":"7428","farm":8,"title":"Solista","ispublic":1,"isfriend":0,"isfamily":0,"safe":0,"ownername":"Ibai Acevedo","latitude":41.404561,"longitude":2.155122,"accuracy":"14","context":0,"place_id":"5dsPAV9WVLtBjQ4","woeid":"761739","geo_is_family":0,"geo_is_friend":0,"geo_is_contact":0,"geo_is_public":1,"media":"photo","media_status":"ready"},{"id":"14108688616","owner":"63118615@N02","secret":"3e554e1107","server":"2932","farm":3,"title":"Roma - 2014","ispublic":1,"isfriend":0,"isfamily":0,"safe":0,"ownername":"Enzo D.","latitude":41.894913,"longitude":12.471144,"accuracy":"16","context":0,"place_id":"FphPyURWU7ux6h4","woeid":"711883","geo_is_family":0,"geo_is_friend":0,"geo_is_contact":0,"geo_is_public":1,"media":"photo","media_status":"ready"},{"id":"13945135328","owner":"66866482@N06","secret":"4eb8a89fa3","server":"7440","farm":8,"title":"The magnificent sky of Corfu","ispublic":1,"isfriend":0,"isfamily":0,"safe":0,"ownername":"Geri Grudeva","latitude":39.590807,"longitude":19.918084,"accuracy":"15","context":0,"place_id":"Bc4PDqhYVrIPFTU","woeid":"948092","geo_is_family":0,"geo_is_friend":0,"geo_is_contact":0,"geo_is_public":1,"media":"photo","media_status":"ready"},{"id":"14130511084","owner":"73414467@N02","secret":"eda5bae719","server":"5575","farm":6,"title":"Soy m\u00e1s alta que t\u00fa.","ispublic":1,"isfriend":0,"isfamily":0,"safe":0,"ownername":"Jos\u00e9 Luis Vega","latitude":40.405002,"longitude":-3.763298,"accuracy":"16","context":0,"place_id":"u2JCGChTUriEZ6WcWQ","woeid":"20219929","geo_is_family":0,"geo_is_friend":0,"geo_is_contact":0,"geo_is_public":1,"media":"photo","media_status":"ready"},{"id":"14104688136","owner":"11269250@N07","secret":"198222cfb7","server":"2940","farm":3,"title":"~ colours-under-Eiffel ~ couleurs-sous-Eiffel ~","ispublic":1,"isfriend":0,"isfamily":0,"safe":0,"ownername":"Janey Kay","latitude":48.858277,"longitude":2.294629,"accuracy":"16","context":0,"place_id":"Gh_droFUV7JfPjFofw","woeid":"55843775","geo_is_family":0,"geo_is_friend":0,"geo_is_contact":0,"geo_is_public":1,"media":"photo","media_status":"ready"},{"id":"14123346081","owner":"93600426@N04","secret":"92337e0d4c","server":"5484","farm":6,"title":"Laguna Amarga \/ Parque Nac. Torres del Paine","ispublic":1,"isfriend":0,"isfamily":0,"safe":0,"ownername":"Trenes del Desierto II","latitude":-50.973562,"longitude":-72.730865,"accuracy":"11","context":0,"place_id":"JzEwzdBTUb7aHMoo","woeid":"2345027","geo_is_family":0,"geo_is_friend":0,"geo_is_contact":0,"geo_is_public":1,"media":"photo","media_status":"ready"},{"id":"14102517916","owner":"95276574@N05","secret":"599ea4bf34","server":"5332","farm":6,"title":"Framed","ispublic":1,"isfriend":0,"isfamily":0,"safe":0,"ownername":"Jeffrey De Keyser","latitude":48.878546,"longitude":2.345838,"accuracy":"14","context":0,"place_id":"jsmd7GtUV7INJC8sVA","woeid":"55843786","geo_is_family":0,"geo_is_friend":0,"geo_is_contact":0,"geo_is_public":1,"media":"photo","media_status":"ready"},{"id":"14124750995","owner":"88420718@N03","secret":"586984aeae","server":"7326","farm":8,"title":"reflected","ispublic":1,"isfriend":0,"isfamily":0,"safe":0,"ownername":"thequietguy","latitude":41.136261,"longitude":23.220977,"accuracy":"11","context":0,"place_id":"fxqZi19YV79Wso0","woeid":"955547","geo_is_family":0,"geo_is_friend":0,"geo_is_contact":0,"geo_is_public":1,"media":"photo","media_status":"ready"},{"id":"14101354536","owner":"107257500@N03","secret":"eb1170ff9d","server":"7406","farm":8,"title":"Steering","ispublic":1,"isfriend":0,"isfamily":0,"safe":0,"ownername":"hoobgoobliin","latitude":52.950111,"longitude":0.803654,"accuracy":"15","context":0,"place_id":"rSgzh85TUrpWfwwl3Q","woeid":"20093016","geo_is_family":0,"geo_is_friend":0,"geo_is_contact":0,"geo_is_public":1,"media":"photo","media_status":"ready"},{"id":"14101298466","owner":"44161305@N02","secret":"19aebd27c2","server":"7399","farm":8,"title":"Pasabaglari, Cappadocia (Kapadokya, Turkey) 330","ispublic":1,"isfriend":0,"isfamily":0,"safe":0,"ownername":"tango-","latitude":38.680015,"longitude":34.846744,"accuracy":"13","context":0,"place_id":"3avCzqhTUb6pGgrj","woeid":"2343749","geo_is_family":0,"geo_is_friend":0,"geo_is_contact":0,"geo_is_public":1,"media":"photo","media_status":"ready"},{"id":"14121286842","owner":"27351229@N04","secret":"fb1ca18831","server":"5159","farm":6,"title":"spring Morning (repost)","ispublic":1,"isfriend":0,"isfamily":0,"safe":0,"ownername":"Aleksandr Matveev.\u0425\u0440\u0438\u0441\u0442\u043e\u0441 \u0412\u043e\u0441\u043a\u0440\u0435\u0441\u0435!","latitude":56.300634,"longitude":34.828891,"accuracy":"13","context":0,"place_id":"EzsfAIZTUrOYLf25","woeid":"2090834","geo_is_family":0,"geo_is_friend":0,"geo_is_contact":0,"geo_is_public":1,"media":"photo","media_status":"ready"},{"id":"13937620930","owner":"57530931@N04","secret":"bea4e9b860","server":"5480","farm":6,"title":"Schlichemklamm II","ispublic":1,"isfriend":0,"isfamily":0,"safe":0,"ownername":"PhiiiiiiiL","latitude":48.24213,"longitude":8.633063,"accuracy":"16","context":0,"place_id":"TXid.1lTUrs4q.3wew","woeid":"20159298","geo_is_family":0,"geo_is_friend":0,"geo_is_contact":0,"geo_is_public":1,"media":"photo","media_status":"ready"},{"id":"13937560808","owner":"87402959@N02","secret":"10a3d093bf","server":"5549","farm":6,"title":"old Beetle on modern ways","ispublic":1,"isfriend":0,"isfamily":0,"safe":0,"ownername":"Blende1.8","latitude":38.725669,"longitude":-9.150369,"accuracy":"11","context":0,"place_id":"D08qJBRWVrjs0Ek","woeid":"742676","geo_is_family":0,"geo_is_friend":0,"geo_is_contact":0,"geo_is_public":1,"media":"photo","media_status":"ready"},{"id":"13937454779","owner":"14473732@N00","secret":"26240433b5","server":"7299","farm":8,"title":"turn turn turn \u2502gira gira gira","ispublic":1,"isfriend":0,"isfamily":0,"safe":0,"ownername":"jesuscm","latitude":51.463633,"longitude":-3.164877,"accuracy":"14","context":0,"place_id":"..f_OklTUrraBzYxkw","woeid":"20094228","geo_is_family":0,"geo_is_friend":0,"geo_is_contact":0,"geo_is_public":1,"media":"photo","media_status":"ready"},{"id":"14120894452","owner":"16618681@N00","secret":"2deff62894","server":"7435","farm":8,"title":"Scinco delle Canarie","ispublic":1,"isfriend":0,"isfamily":0,"safe":0,"ownername":"marypink","latitude":27.770069,"longitude":-15.583089,"accuracy":"11","context":0,"place_id":"j67CmqNWVLyhP5c","woeid":"766774","geo_is_family":0,"geo_is_friend":0,"geo_is_contact":0,"geo_is_public":1,"media":"photo","media_status":"ready"},{"id":"14100739576","owner":"34288348@N07","secret":"bb013cdafa","server":"7295","farm":8,"title":"The Romulus temple (Explored)","ispublic":1,"isfriend":0,"isfamily":0,"safe":0,"ownername":"DameBoudicca","latitude":41.891887,"longitude":12.487109,"accuracy":"16","context":0,"place_id":"0in3o3RWULj.Ogw","woeid":"722964","geo_is_family":0,"geo_is_friend":0,"geo_is_contact":0,"geo_is_public":1,"media":"photo","media_status":"ready"},{"id":"14120758422","owner":"62816064@N04","secret":"fb1fddce7e","server":"5117","farm":6,"title":"Flower Bokeh. EXPLORED 6 May 2014 (Highest #83).","ispublic":1,"isfriend":0,"isfamily":0,"safe":0,"ownername":"D@nnyR Photogr@phics(no time for group invites)","latitude":36.507991,"longitude":-4.883299,"accuracy":"11","context":0,"place_id":"b6ANCk5WVLwQivI","woeid":"766537","geo_is_family":0,"geo_is_friend":0,"geo_is_contact":0,"geo_is_public":1,"media":"photo","media_status":"ready"},{"id":"14100486166","owner":"10273547@N02","secret":"c68620e790","server":"7326","farm":8,"title":"IMG_20140506_151354","ispublic":1,"isfriend":0,"isfamily":0,"safe":0,"ownername":"` Andrew PL","latitude":50.838619,"longitude":21.987583,"accuracy":"16","context":0,"place_id":"buQxH3lQULyTkmBnoA","woeid":"12616701","geo_is_family":0,"geo_is_friend":0,"geo_is_contact":0,"geo_is_public":1,"media":"photo","media_status":"ready"},{"id":"14119933651","owner":"25139888@N08","secret":"a838a6ea45","server":"7356","farm":8,"title":"Bernese Oberland","ispublic":1,"isfriend":0,"isfamily":0,"safe":0,"ownername":"webeagle12","latitude":46.611154,"longitude":7.942138,"accuracy":"16","context":0,"place_id":"EPu1eEdWWr5Awcs","woeid":"784678","geo_is_family":0,"geo_is_friend":0,"geo_is_contact":0,"geo_is_public":1,"media":"photo","media_status":"ready"},{"id":"14122124055","owner":"8458761@N08","secret":"8e6cb99cbe","server":"7395","farm":8,"title":"With all thy heart , enjoy the sunset ....","ispublic":1,"isfriend":0,"isfamily":0,"safe":0,"ownername":"*Lie ... on & off ... !","latitude":51.137211,"longitude":2.671108,"accuracy":"11","context":0,"place_id":"S9z6.YJTUroDtEv87A","woeid":"20098218","geo_is_family":0,"geo_is_friend":0,"geo_is_contact":0,"geo_is_public":1,"media":"photo","media_status":"ready"},{"id":"14121380354","owner":"66759125@N00","secret":"68b4e41b2a","server":"7391","farm":8,"title":"","ispublic":1,"isfriend":0,"isfamily":0,"safe":0,"ownername":"Svein Nordrum","latitude":59.888118,"longitude":10.59318,"accuracy":"15","context":0,"place_id":"b99oIP1QV7qhC5HIDA","woeid":"15000608","geo_is_family":0,"geo_is_friend":0,"geo_is_contact":0,"geo_is_public":1,"media":"photo","media_status":"ready"},{"id":"14097868616","owner":"75632071@N00","secret":"74267cd256","server":"2916","farm":3,"title":"Dropper","ispublic":1,"isfriend":0,"isfamily":0,"safe":0,"ownername":"Christine Lebrasseur","latitude":46.388099,"longitude":-0.963299,"accuracy":"11","context":0,"place_id":"_I8LgwZXUbjQ_vw","woeid":"632662","geo_is_family":0,"geo_is_friend":0,"geo_is_contact":0,"geo_is_public":1,"media":"photo","media_status":"ready"},{"id":"14117091582","owner":"68176223@N07","secret":"3189395732","server":"5119","farm":6,"title":"Glued 3","ispublic":1,"isfriend":0,"isfamily":0,"safe":0,"ownername":"Franco Beccari","latitude":43.325439,"longitude":11.33076,"accuracy":"11","context":0,"place_id":"ETlqzr1WUL6FcKo","woeid":"724196","geo_is_family":0,"geo_is_friend":0,"geo_is_contact":0,"geo_is_public":1,"media":"photo","media_status":"ready"},{"id":"14116939832","owner":"22511069@N03","secret":"8ff69186cf","server":"5554","farm":6,"title":"Chini sul fatturato!","ispublic":1,"isfriend":0,"isfamily":0,"safe":0,"ownername":"albi_tai","latitude":46.313182,"longitude":11.272584,"accuracy":"16","context":0,"place_id":"8IVOjp1WU7.wjMw","woeid":"715149","geo_is_family":0,"geo_is_friend":0,"geo_is_contact":0,"geo_is_public":1,"media":"photo","media_status":"ready"},{"id":"13932042318","owner":"75133058@N00","secret":"042906634f","server":"7304","farm":8,"title":"Est\u00e2ncia velha...","ispublic":1,"isfriend":0,"isfamily":0,"safe":0,"ownername":"Eduardo Amorim","latitude":-31.803476,"longitude":-52.34436,"accuracy":"10","context":0,"place_id":"7InFMKFVVr9I3Yg","woeid":"445748","geo_is_family":0,"geo_is_friend":0,"geo_is_contact":0,"geo_is_public":1,"media":"photo","media_status":"ready"},{"id":"13929982358","owner":"26261314@N06","secret":"4061329d81","server":"7405","farm":8,"title":"TL-X-2-Cris.3988","ispublic":1,"isfriend":0,"isfamily":0,"safe":0,"ownername":"RAFATZ","latitude":41.149059,"longitude":1.088976,"accuracy":"15","context":0,"place_id":"IIuJL6xWVbuzKdQ","woeid":"771702","geo_is_family":0,"geo_is_friend":0,"geo_is_contact":0,"geo_is_public":1,"media":"photo","media_status":"ready"},{"id":"13929912219","owner":"26261314@N06","secret":"4a4bd2fa97","server":"5118","farm":6,"title":"Darlene-2736","ispublic":1,"isfriend":0,"isfamily":0,"safe":0,"ownername":"RAFATZ","latitude":41.148672,"longitude":1.089406,"accuracy":"15","context":0,"place_id":"IIuJL6xWVbuzKdQ","woeid":"771702","geo_is_family":0,"geo_is_friend":0,"geo_is_contact":0,"geo_is_public":1,"media":"photo","media_status":"ready"},{"id":"13929840117","owner":"88795127@N02","secret":"de1a16442d","server":"7345","farm":8,"title":"Montmartre...","ispublic":1,"isfriend":0,"isfamily":0,"safe":0,"ownername":"LPiH","latitude":48.855454,"longitude":2.341117,"accuracy":"11","context":0,"place_id":"EsIQUYZXU79_kEA","woeid":"615702","geo_is_family":0,"geo_is_friend":0,"geo_is_contact":0,"geo_is_public":1,"media":"photo","media_status":"ready"},{"id":"14113119422","owner":"61188498@N06","secret":"882a23b86f","server":"2909","farm":3,"title":"Grey World","ispublic":1,"isfriend":0,"isfamily":0,"safe":0,"ownername":"barryvanede","latitude":53.394885,"longitude":5.878749,"accuracy":"14","context":0,"place_id":"ip_YwxFWUbqamUI","woeid":"730246","geo_is_family":0,"geo_is_friend":0,"geo_is_contact":0,"geo_is_public":1,"media":"photo","media_status":"ready"},{"id":"13929313089","owner":"88420718@N03","secret":"2f4e48fa6e","server":"5534","farm":6,"title":"garden rose","ispublic":1,"isfriend":0,"isfamily":0,"safe":0,"ownername":"thequietguy","latitude":41.041555,"longitude":23.315391,"accuracy":"16","context":0,"place_id":"cjCamvVYVLzXVuc","woeid":"966126","geo_is_family":0,"geo_is_friend":0,"geo_is_contact":0,"geo_is_public":1,"media":"photo","media_status":"ready"},{"id":"14135112993","owner":"8188882@N05","secret":"629774825d","server":"7187","farm":8,"title":"On the Archev\u00each\u00e9 Bridge. Sur le pont de l'Archev\u00each\u00e9","ispublic":1,"isfriend":0,"isfamily":0,"safe":0,"ownername":"DinosaursAreNotDead","latitude":48.851951,"longitude":2.351817,"accuracy":"15","context":0,"place_id":"l6ezWo1UV7J685f0sQ","woeid":"55843761","geo_is_family":0,"geo_is_friend":0,"geo_is_contact":0,"geo_is_public":1,"media":"photo","media_status":"ready"},{"id":"13927739948","owner":"16618681@N00","secret":"46c5aa38ed","server":"2925","farm":3,"title":"Elegance","ispublic":1,"isfriend":0,"isfamily":0,"safe":0,"ownername":"marypink","latitude":27.770069,"longitude":-15.583089,"accuracy":"11","context":0,"place_id":"j67CmqNWVLyhP5c","woeid":"766774","geo_is_family":0,"geo_is_friend":0,"geo_is_contact":0,"geo_is_public":1,"media":"photo","media_status":"ready"},{"id":"14113103715","owner":"19312459@N00","secret":"3be479ccbb","server":"2931","farm":3,"title":"Monday Morning Girl...   (GCC Project 52 Week #19)","ispublic":1,"isfriend":0,"isfamily":0,"safe":0,"ownername":"fearghal breathnach","latitude":53.127551,"longitude":-6.064378,"accuracy":"16","context":0,"place_id":"RWCrGuVUVLt00NE","woeid":"561075","geo_is_family":0,"geo_is_friend":0,"geo_is_contact":0,"geo_is_public":1,"media":"photo","media_status":"ready"},{"id":"14088379626","owner":"50115085@N08","secret":"0746d5a6ca","server":"2919","farm":3,"title":"Saturday travel","ispublic":1,"isfriend":0,"isfamily":0,"safe":0,"ownername":"Varvara_R","latitude":56.309788,"longitude":38.132193,"accuracy":"15","context":0,"place_id":"fi6KcMhTUrL9pmOR","woeid":"2080463","geo_is_family":0,"geo_is_friend":0,"geo_is_contact":0,"geo_is_public":1,"media":"photo","media_status":"ready"},{"id":"14108410012","owner":"34096574@N06","secret":"b4bfe9b50e","server":"7367","farm":8,"title":"Venice : Rio de San Polo \/ Torre Basilica dei Frari","ispublic":1,"isfriend":0,"isfamily":0,"safe":0,"ownername":"Pantchoa","latitude":45.438652,"longitude":12.329455,"accuracy":"16","context":0,"place_id":"qyV161RTUruqVTuLuQ","woeid":"20150614","geo_is_family":0,"geo_is_friend":0,"geo_is_contact":0,"geo_is_public":1,"media":"photo","media_status":"ready"},{"id":"13922373537","owner":"87317128@N08","secret":"8f3df72342","server":"7298","farm":8,"title":"Start Kissing","ispublic":1,"isfriend":0,"isfamily":0,"safe":0,"ownername":"Pu\u00e9rtolas","latitude":51.533816,"longitude":-0.045576,"accuracy":"14","context":0,"place_id":"i55AHjdTUrr5nC32SQ","woeid":"20089381","geo_is_family":0,"geo_is_friend":0,"geo_is_contact":0,"geo_is_public":1,"media":"photo","media_status":"ready"},{"id":"13920814308","owner":"63270671@N03","secret":"c48b9d59ca","server":"7204","farm":8,"title":"Scout Dike(2) - Flickr explore 04.05.2014","ispublic":1,"isfriend":0,"isfamily":0,"safe":0,"ownername":"S.R.Murphy","latitude":53.538879,"longitude":-1.646833,"accuracy":"13","context":0,"place_id":"fSfmxclTVrnXGQ","woeid":"24383","geo_is_family":0,"geo_is_friend":0,"geo_is_contact":0,"geo_is_public":1,"media":"photo","media_status":"ready"},{"id":"13920801660","owner":"62356909@N05","secret":"ecaa288df3","server":"7427","farm":8,"title":"just another landscape shot","ispublic":1,"isfriend":0,"isfamily":0,"safe":0,"ownername":"desomnis","latitude":48.602381,"longitude":14.091038,"accuracy":"14","context":0,"place_id":"yVoA4URQULylgCCTRg","woeid":"12674434","geo_is_family":0,"geo_is_friend":0,"geo_is_contact":0,"geo_is_public":1,"media":"photo","media_status":"ready"},{"id":"14082140966","owner":"89649434@N08","secret":"e14a1ce1b6","server":"7440","farm":8,"title":"Phaleanopsis","ispublic":1,"isfriend":0,"isfamily":0,"safe":0,"ownername":"Philippe B\u00e9laz","latitude":46.864283,"longitude":7.125686,"accuracy":"16","context":0,"place_id":"mU8j9GJTUrrc3KgHHQ","woeid":"20075498","geo_is_family":0,"geo_is_friend":0,"geo_is_contact":0,"geo_is_public":1,"media":"photo","media_status":"ready"},{"id":"13917240729","owner":"40868833@N08","secret":"32c12c1317","server":"7403","farm":8,"title":"The Crazy Piano Guy","ispublic":1,"isfriend":0,"isfamily":0,"safe":0,"ownername":"wowography.com","latitude":40.731218,"longitude":-73.997232,"accuracy":"16","context":0,"place_id":"2_YszadTUb9XNNAsIA","woeid":"23511896","geo_is_family":0,"geo_is_friend":0,"geo_is_contact":0,"geo_is_public":1,"media":"photo","media_status":"ready"},{"id":"14080744056","owner":"40962351@N00","secret":"53955589fe","server":"5595","farm":6,"title":"Starling murmuration on a rough day","ispublic":1,"isfriend":0,"isfamily":0,"safe":0,"ownername":"lomokev","latitude":50.818236,"longitude":-0.136814,"accuracy":"16","context":0,"place_id":"ix6Lu2dTUrpqJDgfVQ","woeid":"20094196","geo_is_family":0,"geo_is_friend":0,"geo_is_contact":0,"geo_is_public":1,"media":"photo","media_status":"ready"},{"id":"14122570503","owner":"47632980@N06","secret":"6a12f5d73e","server":"5077","farm":6,"title":"DSC01503","ispublic":1,"isfriend":0,"isfamily":0,"safe":0,"ownername":"typograph030","latitude":52.517761,"longitude":13.417139,"accuracy":"16","context":0,"place_id":"zot2ouJXUbKOJRM","woeid":"638242","geo_is_family":0,"geo_is_friend":0,"geo_is_contact":0,"geo_is_public":1,"media":"photo","media_status":"ready"},{"id":"14079017236","owner":"44161305@N02","secret":"3262debb82","server":"7306","farm":8,"title":"033 Sciacca, Sicily","ispublic":1,"isfriend":0,"isfamily":0,"safe":0,"ownername":"tango-","latitude":37.503325,"longitude":13.079738,"accuracy":"14","context":0,"place_id":"RXkhnPhWULlZY5k","woeid":"723897","geo_is_family":0,"geo_is_friend":0,"geo_is_contact":0,"geo_is_public":1,"media":"photo","media_status":"ready"},{"id":"14098773892","owner":"44161305@N02","secret":"0f97083db2","server":"7349","farm":8,"title":"003 Sciacca, Sicily","ispublic":1,"isfriend":0,"isfamily":0,"safe":0,"ownername":"tango-","latitude":37.503325,"longitude":13.079738,"accuracy":"14","context":0,"place_id":"RXkhnPhWULlZY5k","woeid":"723897","geo_is_family":0,"geo_is_friend":0,"geo_is_contact":0,"geo_is_public":1,"media":"photo","media_status":"ready"},{"id":"14098256414","owner":"28524283@N07","secret":"1ecb477e1a","server":"7425","farm":8,"title":"Seascape - Explored 4th May 2014","ispublic":1,"isfriend":0,"isfamily":0,"safe":0,"ownername":"Dune_UK","latitude":25.592265,"longitude":50.826648,"accuracy":"16","context":0,"place_id":"vCBAW9xTUrrI60YSwQ","woeid":"20070009","geo_is_family":0,"geo_is_friend":0,"geo_is_contact":0,"geo_is_public":1,"media":"photo","media_status":"ready"},{"id":"14096867614","owner":"28754568@N02","secret":"26d7b8eb7a","server":"7038","farm":8,"title":"Costa Amalfitana - Amalfi","ispublic":1,"isfriend":0,"isfamily":0,"safe":0,"ownername":"Jos\u00e9 M. Arboleda","latitude":40.634074,"longitude":14.602246,"accuracy":"16","context":0,"place_id":"Q7wFdU9WU7oP8E8","woeid":"710100","geo_is_family":0,"geo_is_friend":0,"geo_is_contact":0,"geo_is_public":1,"media":"photo","media_status":"ready"},{"id":"13909457549","owner":"57530931@N04","secret":"7f21602143","server":"5181","farm":6,"title":"Schlichemklamm","ispublic":1,"isfriend":0,"isfamily":0,"safe":1,"ownername":"PhiiiiiiiL","latitude":48.24208,"longitude":8.634169,"accuracy":"16","context":0,"place_id":"TXid.1lTUrs4q.3wew","woeid":"20159298","geo_is_family":0,"geo_is_friend":0,"geo_is_contact":0,"geo_is_public":1,"media":"photo","media_status":"ready"},{"id":"14095158565","owner":"54271339@N03","secret":"172074319a","server":"7418","farm":8,"title":"Going Nowhere","ispublic":1,"isfriend":0,"isfamily":0,"safe":0,"ownername":"Ross Magrath","latitude":53.3442,"longitude":-6.265673,"accuracy":"16","context":0,"place_id":"fjmHzRZUVLpKRgI","woeid":"560743","geo_is_family":0,"geo_is_friend":0,"geo_is_contact":0,"geo_is_public":1,"media":"photo","media_status":"ready"},{"id":"14095131414","owner":"11762721@N04","secret":"b9cc224504","server":"5536","farm":6,"title":"Twist","ispublic":1,"isfriend":0,"isfamily":0,"safe":0,"ownername":"Arni J.M.","latitude":51.513109,"longitude":-0.12322,"accuracy":"16","context":0,"place_id":"BBBqQlhQVbpiUw","woeid":"17043","geo_is_family":0,"geo_is_friend":0,"geo_is_contact":0,"geo_is_public":1,"media":"photo","media_status":"ready"},{"id":"14091121855","owner":"40512809@N02","secret":"e132a6597d","server":"5113","farm":6,"title":"\"Are you checking out my butt?\"","ispublic":1,"isfriend":0,"isfamily":0,"safe":0,"ownername":"PhotoJunket","latitude":52.304805,"longitude":0.287275,"accuracy":"13","context":0,"place_id":"74EXAiNQULwUDSz.tQ","woeid":"12695883","geo_is_family":0,"geo_is_friend":0,"geo_is_contact":0,"geo_is_public":1,"media":"photo","media_status":"ready"},{"id":"14107389263","owner":"67833313@N08","secret":"8f76745df7","server":"2914","farm":3,"title":"all alone am I...","ispublic":1,"isfriend":0,"isfamily":0,"safe":0,"ownername":"Dimitra Kirgiannaki \u266a\u00b8.\u2022*\u00b4spring-lover \u00a8\u00b4","latitude":37.901497,"longitude":23.7178,"accuracy":"11","context":0,"place_id":"PnKW2NdYV7qeoj0","woeid":"950722","geo_is_family":0,"geo_is_friend":0,"geo_is_contact":0,"geo_is_public":1,"media":"photo","media_status":"ready"},{"id":"13900547020","owner":"59646784@N08","secret":"782ae9b856","server":"2930","farm":3,"title":"...","ispublic":1,"isfriend":0,"isfamily":0,"safe":0,"ownername":"L'hort de la Lolo","latitude":41.3884,"longitude":2.118988,"accuracy":"11","context":0,"place_id":"PWTCPDRWVL56TVo","woeid":"764649","geo_is_family":0,"geo_is_friend":0,"geo_is_contact":0,"geo_is_public":1,"media":"photo","media_status":"ready"},{"id":"13898056659","owner":"93600426@N04","secret":"e4ae95cd2d","server":"2928","farm":3,"title":"Salar de Tara \/ Reserva Nac. Los Flamencos","ispublic":1,"isfriend":0,"isfamily":0,"safe":0,"ownername":"Trenes del Desierto II","latitude":-22.984313,"longitude":-67.315292,"accuracy":"11","context":0,"place_id":"tQJzf8FTUb5HyIx5","woeid":"2345020","geo_is_family":0,"geo_is_friend":0,"geo_is_contact":0,"geo_is_public":1,"media":"photo","media_status":"ready"},{"id":"14084248594","owner":"22897666@N00","secret":"fc532e4041","server":"7177","farm":8,"title":"Zigzag Fence  *Explore*","ispublic":1,"isfriend":0,"isfamily":0,"safe":0,"ownername":"Catskills Photography","latitude":41.994711,"longitude":-73.201904,"accuracy":"10","context":0,"place_id":"DWat4qJTVrw59Hsm","woeid":"2460387","geo_is_family":0,"geo_is_friend":0,"geo_is_contact":0,"geo_is_public":1,"media":"photo","media_status":"ready"},{"id":"14080120561","owner":"14838182@N00","secret":"3fd00499f2","server":"7414","farm":8,"title":"More of that","ispublic":1,"isfriend":0,"isfamily":0,"safe":0,"ownername":"maistora","latitude":51.479122,"longitude":-0.880187,"accuracy":"16","context":0,"place_id":"ceTvOBVSV7v0Ag","woeid":"35137","geo_is_family":0,"geo_is_friend":0,"geo_is_contact":0,"geo_is_public":1,"media":"photo","media_status":"ready"},{"id":"13896602778","owner":"42517532@N06","secret":"dfcbc63164","server":"2936","farm":3,"title":"Portos\u00edn","ispublic":1,"isfriend":0,"isfamily":0,"safe":0,"ownername":"Charl\u00f3n","latitude":42.757852,"longitude":-8.951196,"accuracy":"15","context":0,"place_id":"omLPAAZWVboIaKU","woeid":"770577","geo_is_family":0,"geo_is_friend":0,"geo_is_contact":0,"geo_is_public":1,"media":"photo","media_status":"ready"},{"id":"14131943365","owner":"45224155@N06","secret":"518d92e674","server":"7359","farm":8,"title":"Fr\u00fchlingsgef\u00fchle - spring fever   * explore *","ispublic":1,"isfriend":0,"isfamily":0,"safe":0,"ownername":"Robert Lesti","latitude":48.762359,"longitude":11.42523,"accuracy":"11","context":0,"place_id":"DZkj369XVLlHoGQ","woeid":"663545","geo_is_family":0,"geo_is_friend":0,"geo_is_contact":0,"geo_is_public":1,"media":"photo","media_status":"ready"},{"id":"14083286761","owner":"117425224@N04","secret":"10308f6297","server":"7398","farm":8,"title":"Trompe l'oeil","ispublic":1,"isfriend":0,"isfamily":0,"safe":0,"ownername":"Pat=H absent 3 semaines","latitude":43.662963,"longitude":-1.442228,"accuracy":"16","context":0,"place_id":"sLxpXX5UW76ndKQ","woeid":"594943","geo_is_family":0,"geo_is_friend":0,"geo_is_contact":0,"geo_is_public":1,"media":"photo","media_status":"ready"}]},"stat":"ok"}