{"photos":{"page":55,"pages":26696,"perpage":60,"total":"1601725","photo":[{"id":"14158284275","owner":"63239442@N06","secret":"9e9d59edcb","server":"7364","farm":8,"title":"Paisajes de Almer\u00eda","ispublic":1,"isfriend":0,"isfamily":0,"safe":0,"ownername":"Miguel Callejon","latitude":36.737534,"longitude":-2.206964,"accuracy":"16","context":0,"place_id":"qdlmJ15TW7mG.g9ZnQ","woeid":"29370586","geo_is_family":0,"geo_is_friend":0,"geo_is_contact":0,"geo_is_public":1,"media":"photo","media_status":"ready"},{"id":"14150443211","owner":"93608894@N02","secret":"0fe44f2f33","server":"5160","farm":6,"title":"Noa (explore)","ispublic":1,"isfriend":0,"isfamily":0,"safe":0,"ownername":"Jean-Pierre ARIBAU","latitude":41.591701,"longitude":1.837779,"accuracy":"11","context":0,"place_id":"buY2USBQUL8KB8CtqQ","woeid":"12578034","geo_is_family":0,"geo_is_friend":0,"geo_is_contact":0,"geo_is_public":1,"media":"photo","media_status":"ready"},{"id":"14153503314","owner":"53035251@N03","secret":"a00600bb9a","server":"2906","farm":3,"title":"Skutulsfj\u00f6r\u00f0ur","ispublic":1,"isfriend":0,"isfamily":0,"safe":0,"ownername":"mummibjarni","latitude":66.059289,"longitude":-23.167419,"accuracy":"9","context":0,"place_id":"QX9.D1RYWrryoTA","woeid":"980266","geo_is_family":0,"geo_is_friend":0,"geo_is_contact":0,"geo_is_public":1,"media":"photo","media_status":"ready"},{"id":"13966236610","owner":"8868875@N03","secret":"e522a79646","server":"5271","farm":6,"title":"boiling","ispublic":1,"isfriend":0,"isfamily":0,"safe":0,"ownername":"gato-gato-gato","latitude":47.386552,"longitude":8.527372,"accuracy":"16","context":0,"place_id":"iCPlQRNTUrtyULKpPg","woeid":"20102307","geo_is_family":0,"geo_is_friend":0,"geo_is_contact":0,"geo_is_public":1,"media":"photo","media_status":"ready"},{"id":"14148731831","owner":"22509404@N03","secret":"7d7e576c1f","server":"7299","farm":8,"title":"Roe Deer [Explored]","ispublic":1,"isfriend":0,"isfamily":0,"safe":0,"ownername":"linlaw39","latitude":57.524764,"longitude":-2.031011,"accuracy":"14","context":0,"place_id":"FJdzelNSUrMaKQ","woeid":"30909","geo_is_family":0,"geo_is_friend":0,"geo_is_contact":0,"geo_is_public":1,"media":"photo","media_status":"ready"},{"id":"13964552920","owner":"62816064@N04","secret":"65306ae668","server":"2934","farm":3,"title":"Monk Parakeet. EXPLORED 10 May 2014 (Highest #64)","ispublic":1,"isfriend":0,"isfamily":0,"safe":0,"ownername":"D@nnyR Photogr@phics(no time for group invites)","latitude":36.597889,"longitude":-4.521217,"accuracy":"11","context":0,"place_id":"C9Y3qzpWVbO9gLw","woeid":"779237","geo_is_family":0,"geo_is_friend":0,"geo_is_contact":0,"geo_is_public":1,"media":"photo","media_status":"ready"},{"id":"13963995210","owner":"35404839@N07","secret":"c16db7faf9","server":"2913","farm":3,"title":"Sunset swan 2","ispublic":1,"isfriend":0,"isfamily":0,"safe":0,"ownername":"livvy lad","latitude":55.776536,"longitude":-4.185297,"accuracy":"15","context":0,"place_id":"RkeJ6I1VUb9esw","woeid":"43589","geo_is_family":0,"geo_is_friend":0,"geo_is_contact":0,"geo_is_public":1,"media":"photo","media_status":"ready"},{"id":"14150514234","owner":"22511069@N03","secret":"bf18e572b9","server":"5074","farm":6,"title":"Velo... non velo  ^_^","ispublic":1,"isfriend":0,"isfamily":0,"safe":0,"ownername":"albi_tai","latitude":45.628369,"longitude":8.789019,"accuracy":"16","context":0,"place_id":"5cJNluRWULgjEOk","woeid":"722296","geo_is_family":0,"geo_is_friend":0,"geo_is_contact":0,"geo_is_public":1,"media":"photo","media_status":"ready"},{"id":"14149656455","owner":"57530931@N04","secret":"60564f776e","server":"5234","farm":6,"title":"Steckborn","ispublic":1,"isfriend":0,"isfamily":0,"safe":0,"ownername":"PhiiiiiiiL","latitude":47.668741,"longitude":8.981658,"accuracy":"16","context":0,"place_id":"vWX524NWWr7Amk0","woeid":"784304","geo_is_family":0,"geo_is_friend":0,"geo_is_contact":0,"geo_is_public":1,"media":"photo","media_status":"ready"},{"id":"14145545721","owner":"70891565@N05","secret":"5e123fac70","server":"5280","farm":6,"title":"IMAGE_00000000-0000-0000-0000-000000000CAE.JPG","ispublic":1,"isfriend":0,"isfamily":0,"safe":0,"ownername":"Mitch Adolph","latitude":"0.000000","longitude":"0.000000","accuracy":"16","context":0,"geo_is_family":0,"geo_is_friend":0,"geo_is_contact":0,"geo_is_public":1,"media":"photo","media_status":"ready"},{"id":"13960204450","owner":"109262173@N05","secret":"c83a2a22d3","server":"7406","farm":8,"title":"Vigelandmuseet, Oslo","ispublic":1,"isfriend":0,"isfamily":0,"safe":0,"ownername":"tnymo","latitude":59.942072,"longitude":10.704666,"accuracy":"16","context":0,"place_id":"9RNRjbdTULyrSKq9BA","woeid":"22658640","geo_is_family":0,"geo_is_friend":0,"geo_is_contact":0,"geo_is_public":1,"media":"photo","media_status":"ready"},{"id":"13959987998","owner":"13922644@N05","secret":"baa7995049","server":"7328","farm":8,"title":"Dawn at that castle.","ispublic":1,"isfriend":0,"isfamily":0,"safe":0,"ownername":"bingleyman2","latitude":57.278161,"longitude":-5.520629,"accuracy":"13","context":0,"place_id":"cIqu7CBQWrkndQ","woeid":"18345","geo_is_family":0,"geo_is_friend":0,"geo_is_contact":0,"geo_is_public":1,"media":"photo","media_status":"ready"},{"id":"14166603423","owner":"69817244@N02","secret":"7a37e6721a","server":"5480","farm":6,"title":"Looking out to sea. Explored.","ispublic":1,"isfriend":0,"isfamily":0,"safe":0,"ownername":"South Devon Pixie","latitude":50.550416,"longitude":-3.489489,"accuracy":"15","context":0,"place_id":"TiLBXPNSVbrQ5Q","woeid":"37072","geo_is_family":0,"geo_is_friend":0,"geo_is_contact":0,"geo_is_public":1,"media":"photo","media_status":"ready"},{"id":"14146458165","owner":"93608894@N02","secret":"7ed2d163df","server":"2899","farm":3,"title":"Ang\u00e9lique ... (explore)","ispublic":1,"isfriend":0,"isfamily":0,"safe":0,"ownername":"Jean-Pierre ARIBAU","latitude":41.591701,"longitude":1.837779,"accuracy":"11","context":0,"place_id":"buY2USBQUL8KB8CtqQ","woeid":"12578034","geo_is_family":0,"geo_is_friend":0,"geo_is_contact":0,"geo_is_public":1,"media":"photo","media_status":"ready"},{"id":"13959343228","owner":"53035251@N03","secret":"831f0c2d12","server":"2919","farm":3,"title":"\u00cdsafj\u00f6r\u00f0ur","ispublic":1,"isfriend":0,"isfamily":0,"safe":0,"ownername":"mummibjarni","latitude":66.061358,"longitude":-23.139953,"accuracy":"9","context":0,"place_id":"QX9.D1RYWrryoTA","woeid":"980266","geo_is_family":0,"geo_is_friend":0,"geo_is_contact":0,"geo_is_public":1,"media":"photo","media_status":"ready"},{"id":"14122232246","owner":"69361942@N06","secret":"d2c18bc966","server":"7305","farm":8,"title":"","ispublic":1,"isfriend":0,"isfamily":0,"safe":0,"ownername":"R\u00e211","latitude":43.316935,"longitude":1.940116,"accuracy":"11","context":0,"place_id":"y71txbpUWrkdSFQ","woeid":"583282","geo_is_family":0,"geo_is_friend":0,"geo_is_contact":0,"geo_is_public":1,"media":"photo","media_status":"ready"},{"id":"13958548030","owner":"106517169@N03","secret":"9415e94b01","server":"5550","farm":6,"title":"May sunset...","ispublic":1,"isfriend":0,"isfamily":0,"safe":0,"ownername":"piotrekfil","latitude":51.727144,"longitude":22.523556,"accuracy":"14","context":0,"place_id":"rqn8vFNVWr2w27Q","woeid":"487210","geo_is_family":0,"geo_is_friend":0,"geo_is_contact":0,"geo_is_public":1,"media":"photo","media_status":"ready"},{"id":"13958298968","owner":"87649553@N02","secret":"e88f878194","server":"2927","farm":3,"title":"Palisade Sunset","ispublic":1,"isfriend":0,"isfamily":0,"safe":0,"ownername":"goat1412","latitude":49.464833,"longitude":-2.614874,"accuracy":"15","context":0,"place_id":"gRbpIa9TUr3Su_Kb6g","woeid":"20700956","geo_is_family":0,"geo_is_friend":0,"geo_is_contact":0,"geo_is_public":1,"media":"photo","media_status":"ready"},{"id":"13957768778","owner":"100139134@N03","secret":"67e037f59c","server":"2904","farm":3,"title":"Dendrobium nobile stardust","ispublic":1,"isfriend":0,"isfamily":0,"safe":0,"ownername":"Jes\u00fas 56","latitude":39.475593,"longitude":-0.38706,"accuracy":"16","context":0,"place_id":"1xi6SkFTUrhFJM7Kqg","woeid":"20220215","geo_is_family":0,"geo_is_friend":0,"geo_is_contact":0,"geo_is_public":1,"media":"photo","media_status":"ready"},{"id":"13957436900","owner":"36929237@N00","secret":"b004764719","server":"2900","farm":3,"title":"Washington Monument\/Tidal Basin, Sunrise LE","ispublic":1,"isfriend":0,"isfamily":0,"safe":0,"ownername":"D. Scott McLeod","latitude":38.886306,"longitude":-77.043879,"accuracy":"15","context":0,"place_id":"yGjKdflTVrwevHjs","woeid":"2462087","geo_is_family":0,"geo_is_friend":0,"geo_is_contact":0,"geo_is_public":1,"media":"photo","media_status":"ready"},{"id":"14144006835","owner":"32208339@N04","secret":"78c5dc330e","server":"5199","farm":6,"title":"Male Great Spotted Woodpecker.","ispublic":1,"isfriend":0,"isfamily":0,"safe":0,"ownername":"Feathers (Allan)","latitude":50.992582,"longitude":0.489578,"accuracy":"11","context":0,"place_id":"ncgzwQtSUb7Bgg","woeid":"33409","geo_is_family":0,"geo_is_friend":0,"geo_is_contact":0,"geo_is_public":1,"media":"photo","media_status":"ready"},{"id":"14163985783","owner":"48843050@N08","secret":"dec5d16bcc","server":"5338","farm":6,"title":"hier encore au Louvre","ispublic":1,"isfriend":0,"isfamily":0,"safe":0,"ownername":"martinesan","latitude":48.860767,"longitude":2.337334,"accuracy":"16","context":0,"place_id":"EsIQUYZXU79_kEA","woeid":"615702","geo_is_family":0,"geo_is_friend":0,"geo_is_contact":0,"geo_is_public":1,"media":"photo","media_status":"ready"},{"id":"14144082234","owner":"62816064@N04","secret":"c706d3ec33","server":"5340","farm":6,"title":"Face to Face. EXPLORED 9 May 2014. (Highest #34)","ispublic":1,"isfriend":0,"isfamily":0,"safe":0,"ownername":"D@nnyR Photogr@phics(no time for group invites)","latitude":36.597337,"longitude":-4.521903,"accuracy":"11","context":0,"place_id":"C9Y3qzpWVbO9gLw","woeid":"779237","geo_is_family":0,"geo_is_friend":0,"geo_is_contact":0,"geo_is_public":1,"media":"photo","media_status":"ready"},{"id":"13957193990","owner":"30120194@N02","secret":"efe6bfa446","server":"7458","farm":8,"title":"Home, Delhi","ispublic":1,"isfriend":0,"isfamily":0,"safe":0,"ownername":"Marji Lang","latitude":28.581356,"longitude":77.176294,"accuracy":"13","context":0,"place_id":"mjtHMNZTW7jL0a7ODg","woeid":"29216006","geo_is_family":0,"geo_is_friend":0,"geo_is_contact":0,"geo_is_public":1,"media":"photo","media_status":"ready"},{"id":"14140466832","owner":"68792473@N04","secret":"f5b9b4e4e6","server":"7448","farm":8,"title":"Another  Rome","ispublic":1,"isfriend":0,"isfamily":0,"safe":0,"ownername":"Indian_Forever","latitude":41.888988,"longitude":12.459182,"accuracy":"11","context":0,"place_id":"uijRnjBWULsQTwc","woeid":"721943","geo_is_family":0,"geo_is_friend":0,"geo_is_contact":0,"geo_is_public":1,"media":"photo","media_status":"ready"},{"id":"13956503988","owner":"34096574@N06","secret":"cbcde7e43e","server":"2907","farm":3,"title":"Venice : Chiesa Madonna dell'Orto \/ Campo Madonna de l'Orto  - 2\/2","ispublic":1,"isfriend":0,"isfamily":0,"safe":0,"ownername":"Pantchoa","latitude":45.446252,"longitude":12.332669,"accuracy":"16","context":0,"place_id":"EzRUzuJTUrtWx_W.dw","woeid":"20150612","geo_is_family":0,"geo_is_friend":0,"geo_is_contact":0,"geo_is_public":1,"media":"photo","media_status":"ready"},{"id":"13956024277","owner":"44161305@N02","secret":"b793ae5864","server":"5156","farm":6,"title":"Canal Grande, Venice, Italy, March 30, 2014  206","ispublic":1,"isfriend":0,"isfamily":0,"safe":0,"ownername":"tango-","latitude":45.442023,"longitude":12.3291,"accuracy":"11","context":0,"place_id":"1kXEps9WUL8o6ro","woeid":"725746","geo_is_family":0,"geo_is_friend":0,"geo_is_contact":0,"geo_is_public":1,"media":"photo","media_status":"ready"},{"id":"14118201426","owner":"73244141@N06","secret":"5e4b2e2aaa","server":"7382","farm":8,"title":"sim oui ja yes s\u00ed \u0434\u0430 Inhotim","ispublic":1,"isfriend":0,"isfamily":0,"safe":0,"ownername":"ivannave","latitude":-20.151282,"longitude":-44.192848,"accuracy":"13","context":0,"place_id":".KIF3sVVV7x_nLc","woeid":"456876","geo_is_family":0,"geo_is_friend":0,"geo_is_contact":0,"geo_is_public":1,"media":"photo","media_status":"ready"},{"id":"14117867796","owner":"51058542@N02","secret":"2d95c512a1","server":"2900","farm":3,"title":"Look Into My Eyes","ispublic":1,"isfriend":0,"isfamily":0,"safe":0,"ownername":"Digital Dick Photography","latitude":45.571935,"longitude":-73.783128,"accuracy":"15","context":0,"place_id":"fKBZ8BBVUbJx","woeid":"4386","geo_is_family":0,"geo_is_friend":0,"geo_is_contact":0,"geo_is_public":1,"media":"photo","media_status":"ready"},{"id":"14159824973","owner":"71992351@N02","secret":"b5509e3936","server":"7440","farm":8,"title":"Miniature et Paysage r\u00e9el","ispublic":1,"isfriend":0,"isfamily":0,"safe":1,"ownername":"papy06200","latitude":44.325935,"longitude":6.857013,"accuracy":"12","context":0,"place_id":"03_5jAVXUr4bVUw","woeid":"604291","geo_is_family":0,"geo_is_friend":0,"geo_is_contact":0,"geo_is_public":1,"media":"photo","media_status":"ready"},{"id":"14136306682","owner":"15133799@N02","secret":"cdf65424d0","server":"2928","farm":3,"title":"Reflecting nature","ispublic":1,"isfriend":0,"isfamily":0,"safe":0,"ownername":"*Kicki*","latitude":59.301165,"longitude":18.115337,"accuracy":"16","context":0,"place_id":"D_1zJ1FTUrtKd1RDgw","woeid":"20151596","geo_is_family":0,"geo_is_friend":0,"geo_is_contact":0,"geo_is_public":1,"media":"photo","media_status":"ready"},{"id":"13952599028","owner":"64104971@N02","secret":"69e6b030f9","server":"2895","farm":3,"title":"springtime in Troms","ispublic":1,"isfriend":0,"isfamily":0,"safe":0,"ownername":"John A.Hemmingsen","latitude":69.644013,"longitude":17.989168,"accuracy":"14","context":0,"place_id":"60h0ME5ZVL6enwQ","woeid":"864148","geo_is_family":0,"geo_is_friend":0,"geo_is_contact":0,"geo_is_public":1,"media":"photo","media_status":"ready"},{"id":"14135470271","owner":"101109840@N06","secret":"3dc9491612","server":"5039","farm":6,"title":"Danger! Poles fall!!","ispublic":1,"isfriend":0,"isfamily":0,"safe":0,"ownername":"Brigante\uf8ff","latitude":45.46894,"longitude":9.18103,"accuracy":"11","context":0,"place_id":"49Gidk1WU7JxrFY","woeid":"718345","geo_is_family":0,"geo_is_friend":0,"geo_is_contact":0,"geo_is_public":1,"media":"photo","media_status":"ready"},{"id":"14135291522","owner":"62816064@N04","secret":"fc497208f0","server":"5454","farm":6,"title":"Sun Seeker. EXPLORED 8 May 2014. (Highest #46)","ispublic":1,"isfriend":0,"isfamily":0,"safe":0,"ownername":"D@nnyR Photogr@phics(no time for group invites)","latitude":36.596786,"longitude":-4.52259,"accuracy":"11","context":0,"place_id":"C9Y3qzpWVbO9gLw","woeid":"779237","geo_is_family":0,"geo_is_friend":0,"geo_is_contact":0,"geo_is_public":1,"media":"photo","media_status":"ready"},{"id":"14137727004","owner":"57269929@N00","secret":"9782a7c394","server":"7452","farm":8,"title":"Last nude for a while - always leave them wanting mo.....","ispublic":1,"isfriend":0,"isfamily":0,"safe":0,"ownername":"applemanc","latitude":27.761363,"longitude":-15.574392,"accuracy":"16","context":0,"place_id":"t5ahw1xTUrhb0Ca.nA","woeid":"20225307","geo_is_family":0,"geo_is_friend":0,"geo_is_contact":0,"geo_is_public":1,"media":"photo","media_status":"ready"},{"id":"13950147967","owner":"7132158@N07","secret":"26cddccfee","server":"5482","farm":6,"title":"Keep calm and listen to the sea","ispublic":1,"isfriend":0,"isfamily":0,"safe":0,"ownername":"Rui Almeida.","latitude":39.323807,"longitude":-9.361789,"accuracy":"16","context":0,"place_id":"T84_BaFWUbwL7Rk","woeid":"736623","geo_is_family":0,"geo_is_friend":0,"geo_is_contact":0,"geo_is_public":1,"media":"photo","media_status":"ready"},{"id":"14112897386","owner":"93608894@N02","secret":"7202da3dac","server":"5275","farm":6,"title":"Bar de la Pla\u00e7a (explore)","ispublic":1,"isfriend":0,"isfamily":0,"safe":0,"ownername":"Jean-Pierre ARIBAU","latitude":41.591701,"longitude":1.837779,"accuracy":"11","context":0,"place_id":"buY2USBQUL8KB8CtqQ","woeid":"12578034","geo_is_family":0,"geo_is_friend":0,"geo_is_contact":0,"geo_is_public":1,"media":"photo","media_status":"ready"},{"id":"14131984462","owner":"70891565@N05","secret":"3ae2e07226","server":"7323","farm":8,"title":"IMAGE_00000000-0000-0000-0000-000000000C02.JPG","ispublic":1,"isfriend":0,"isfamily":0,"safe":0,"ownername":"Mitch Adolph","latitude":"0.000000","longitude":"0.000000","accuracy":"16","context":0,"geo_is_family":0,"geo_is_friend":0,"geo_is_contact":0,"geo_is_public":1,"media":"photo","media_status":"ready"},{"id":"14152668303","owner":"58998728@N06","secret":"60b6267a69","server":"7433","farm":8,"title":"Sardinia - Porto Giunco 1","ispublic":1,"isfriend":0,"isfamily":0,"safe":0,"ownername":"tjshot","latitude":39.113629,"longitude":9.51785,"accuracy":"15","context":0,"place_id":"1nYaIFdWULwDYAA","woeid":"726201","geo_is_family":0,"geo_is_friend":0,"geo_is_contact":0,"geo_is_public":1,"media":"photo","media_status":"ready"},{"id":"13945771718","owner":"53372670@N05","secret":"8bab332184","server":"7321","farm":8,"title":"Sorayah","ispublic":1,"isfriend":0,"isfamily":0,"safe":0,"ownername":"CSHamilton","latitude":55.950464,"longitude":-3.187011,"accuracy":"16","context":0,"place_id":"A7YJ5HNVUbwIGw","woeid":"43674","geo_is_family":0,"geo_is_friend":0,"geo_is_contact":0,"geo_is_public":1,"media":"photo","media_status":"ready"},{"id":"14131586145","owner":"62529443@N07","secret":"a34e8132ab","server":"7316","farm":8,"title":"Dark Matter","ispublic":1,"isfriend":0,"isfamily":0,"safe":0,"ownername":"Martin Dietrich \u23aawww.neoprime.de","latitude":53.549589,"longitude":9.967839,"accuracy":"16","context":0,"place_id":"cksTdXBXV7yTmdw","woeid":"656958","geo_is_family":0,"geo_is_friend":0,"geo_is_contact":0,"geo_is_public":1,"media":"photo","media_status":"ready"},{"id":"14130862155","owner":"16618681@N00","secret":"5d322558dc","server":"7379","farm":8,"title":"Dune","ispublic":1,"isfriend":0,"isfamily":0,"safe":0,"ownername":"marypink","latitude":27.770069,"longitude":-15.583089,"accuracy":"11","context":0,"place_id":"j67CmqNWVLyhP5c","woeid":"766774","geo_is_family":0,"geo_is_friend":0,"geo_is_contact":0,"geo_is_public":1,"media":"photo","media_status":"ready"},{"id":"14130511684","owner":"73414467@N02","secret":"7608d20346","server":"7393","farm":8,"title":"Y tambi\u00e9n soy m\u00e1s guapa","ispublic":1,"isfriend":0,"isfamily":0,"safe":0,"ownername":"Jos\u00e9 Luis Vega","latitude":40.405069,"longitude":-3.763403,"accuracy":"16","context":0,"place_id":"u2JCGChTUriEZ6WcWQ","woeid":"20219929","geo_is_family":0,"geo_is_friend":0,"geo_is_contact":0,"geo_is_public":1,"media":"photo","media_status":"ready"},{"id":"14129293985","owner":"92686475@N00","secret":"37b3d514e3","server":"7449","farm":8,"title":"Get it while it's hot...","ispublic":1,"isfriend":0,"isfamily":0,"safe":0,"ownername":"Timothy Valentine","latitude":42.049563,"longitude":-70.962503,"accuracy":"16","context":0,"place_id":"MwvuhRtTUb984.I.","woeid":"2357318","geo_is_family":0,"geo_is_friend":0,"geo_is_contact":0,"geo_is_public":1,"media":"photo","media_status":"ready"},{"id":"14129525474","owner":"32126965@N07","secret":"57b4b01cf6","server":"7459","farm":8,"title":"White Blossom .","ispublic":1,"isfriend":0,"isfamily":0,"safe":0,"ownername":"* Janets Photos*","latitude":53.77971,"longitude":-0.303411,"accuracy":"13","context":0,"place_id":"PHxyVHBSVLy5NA","woeid":"36697","geo_is_family":0,"geo_is_friend":0,"geo_is_contact":0,"geo_is_public":1,"media":"photo","media_status":"ready"},{"id":"13942351920","owner":"47560068@N03","secret":"8c7f383d99","server":"5537","farm":6,"title":"Day off","ispublic":1,"isfriend":0,"isfamily":0,"safe":0,"ownername":"Eric Verdaasdonk","latitude":52.371003,"longitude":4.890289,"accuracy":"11","context":0,"place_id":"xQ4tawtWUL1NrOY","woeid":"727232","geo_is_family":0,"geo_is_friend":0,"geo_is_contact":0,"geo_is_public":1,"media":"photo","media_status":"ready"},{"id":"14148358853","owner":"93608894@N02","secret":"11b990615d","server":"2935","farm":3,"title":"Montserrat (explore)","ispublic":1,"isfriend":0,"isfamily":0,"safe":0,"ownername":"Jean-Pierre ARIBAU","latitude":41.591701,"longitude":1.837779,"accuracy":"11","context":0,"place_id":"buY2USBQUL8KB8CtqQ","woeid":"12578034","geo_is_family":0,"geo_is_friend":0,"geo_is_contact":0,"geo_is_public":1,"media":"photo","media_status":"ready"},{"id":"14102422076","owner":"43478677@N00","secret":"d25d4b79eb","server":"7327","farm":8,"title":"Els primers brots envoltats de boira (faigeda) - Los primeros brotes envueltas de niebla (hayedo) - The mist enveloped the first sprouts (beechwood) - Montseny","ispublic":1,"isfriend":0,"isfamily":0,"safe":0,"ownername":"ramonfrombcn","latitude":41.80323,"longitude":2.437283,"accuracy":"16","context":0,"place_id":"AhUVpmZWVL3xC5Y","woeid":"767700","geo_is_family":0,"geo_is_friend":0,"geo_is_contact":0,"geo_is_public":1,"media":"photo","media_status":"ready"},{"id":"14121858301","owner":"88795127@N02","secret":"86fc39bca6","server":"7305","farm":8,"title":"L'ombre...","ispublic":1,"isfriend":0,"isfamily":0,"safe":0,"ownername":"LPiH","latitude":48.585079,"longitude":7.73643,"accuracy":"11","context":0,"place_id":"8Xzz5ldXUL2QTnc","woeid":"627791","geo_is_family":0,"geo_is_friend":0,"geo_is_contact":0,"geo_is_public":1,"media":"photo","media_status":"ready"},{"id":"14145185643","owner":"8935325@N08","secret":"de901ccdf0","server":"7410","farm":8,"title":"Anfiteatro Flavio aka Colosseum","ispublic":1,"isfriend":0,"isfamily":0,"safe":0,"ownername":"Riccardo Maria Mantero","latitude":41.8903,"longitude":12.4923,"accuracy":"16","context":0,"place_id":"0in3o3RWULj.Ogw","woeid":"722964","geo_is_family":0,"geo_is_friend":0,"geo_is_contact":0,"geo_is_public":1,"media":"photo","media_status":"ready"},{"id":"14121080581","owner":"48078912@N05","secret":"d1fdaf8497","server":"7351","farm":8,"title":"By the sea","ispublic":1,"isfriend":0,"isfamily":0,"safe":0,"ownername":"Henka69","latitude":57.717031,"longitude":11.623878,"accuracy":"14","context":0,"place_id":"GJyjRlhYUrrmKEM","woeid":"900376","geo_is_family":0,"geo_is_friend":0,"geo_is_contact":0,"geo_is_public":1,"media":"photo","media_status":"ready"},{"id":"14142851163","owner":"57269929@N00","secret":"94c7401726","server":"2923","farm":3,"title":"","ispublic":1,"isfriend":0,"isfamily":0,"safe":0,"ownername":"applemanc","latitude":27.736436,"longitude":-15.58387,"accuracy":"16","context":0,"place_id":"t5ahw1xTUrhb0Ca.nA","woeid":"20225307","geo_is_family":0,"geo_is_friend":0,"geo_is_contact":0,"geo_is_public":1,"media":"photo","media_status":"ready"},{"id":"14118712502","owner":"32126965@N07","secret":"a858e7432c","server":"5154","farm":6,"title":"The Pier Towers ..","ispublic":1,"isfriend":0,"isfamily":0,"safe":0,"ownername":"* Janets Photos*","latitude":53.729673,"longitude":0.036478,"accuracy":"13","context":0,"place_id":".tMrpKdVUr1InA","woeid":"40786","geo_is_family":0,"geo_is_friend":0,"geo_is_contact":0,"geo_is_public":1,"media":"photo","media_status":"ready"},{"id":"13934643029","owner":"91722814@N02","secret":"4350cd34c9","server":"5330","farm":6,"title":"Lympstone","ispublic":1,"isfriend":0,"isfamily":0,"safe":1,"ownername":"nalamanpics","latitude":50.666709,"longitude":-3.46683,"accuracy":"14","context":0,"place_id":"pfnQWadQW7JVUg","woeid":"19804","geo_is_family":0,"geo_is_friend":0,"geo_is_contact":0,"geo_is_public":1,"media":"photo","media_status":"ready"},{"id":"14097869266","owner":"68792473@N04","secret":"9d0de5dd00","server":"5543","farm":6,"title":"Train de vie","ispublic":1,"isfriend":0,"isfamily":0,"safe":0,"ownername":"Indian_Forever","latitude":41.880808,"longitude":12.454376,"accuracy":"11","context":0,"place_id":"uijRnjBWULsQTwc","woeid":"721943","geo_is_family":0,"geo_is_friend":0,"geo_is_contact":0,"geo_is_public":1,"media":"photo","media_status":"ready"},{"id":"14097062326","owner":"93608894@N02","secret":"e6ac12ddd4","server":"2937","farm":3,"title":"Le temps qui passe... (explore)","ispublic":1,"isfriend":0,"isfamily":0,"safe":0,"ownername":"Jean-Pierre ARIBAU","latitude":43.946979,"longitude":4.807591,"accuracy":"15","context":0,"place_id":"tMUAxnlUVb1lkGU","woeid":"577605","geo_is_family":0,"geo_is_friend":0,"geo_is_contact":0,"geo_is_public":1,"media":"photo","media_status":"ready"},{"id":"14116453291","owner":"56975097@N05","secret":"179de5c3b3","server":"5468","farm":6,"title":"TresaithFalls - Explored 06\/05\/14 THANQ ALL","ispublic":1,"isfriend":0,"isfamily":0,"safe":0,"ownername":"Roz Walton","latitude":52.136178,"longitude":-4.517068,"accuracy":"13","context":0,"place_id":"sEJjIwlSWrtEEQ","woeid":"38126","geo_is_family":0,"geo_is_friend":0,"geo_is_contact":0,"geo_is_public":1,"media":"photo","media_status":"ready"},{"id":"14094883656","owner":"26261314@N06","secret":"6a5826ef11","server":"5544","farm":6,"title":"Laura-2357","ispublic":1,"isfriend":0,"isfamily":0,"safe":0,"ownername":"RAFATZ","latitude":41.073139,"longitude":1.138715,"accuracy":"14","context":0,"place_id":"Sg8hjXpWVbiSYTE","woeid":"772526","geo_is_family":0,"geo_is_friend":0,"geo_is_contact":0,"geo_is_public":1,"media":"photo","media_status":"ready"},{"id":"14138075473","owner":"26261314@N06","secret":"52bb604092","server":"7185","farm":8,"title":"TL-X-4-RTM-X-4-8725","ispublic":1,"isfriend":0,"isfamily":0,"safe":0,"ownername":"RAFATZ","latitude":41.205522,"longitude":1.207809,"accuracy":"11","context":0,"place_id":"EpoNibxWVb0.RTA","woeid":"777396","geo_is_family":0,"geo_is_friend":0,"geo_is_contact":0,"geo_is_public":1,"media":"photo","media_status":"ready"},{"id":"14137459753","owner":"87317128@N08","secret":"f635ac3bf1","server":"2903","farm":3,"title":"Archway Road Tilt Shifted!","ispublic":1,"isfriend":0,"isfamily":0,"safe":0,"ownername":"Pu\u00e9rtolas","latitude":51.570694,"longitude":-0.138316,"accuracy":"16","context":0,"place_id":"3kEGLedTUb7PHA","woeid":"23408","geo_is_family":0,"geo_is_friend":0,"geo_is_contact":0,"geo_is_public":1,"media":"photo","media_status":"ready"}]},"stat":"ok"}