{"photos":{"page":40,"pages":26686,"perpage":60,"total":"1601101","photo":[{"id":"14053835085","owner":"52559257@N02","secret":"25e58c0d57","server":"5030","farm":6,"title":"13986","ispublic":1,"isfriend":0,"isfamily":0,"safe":1,"ownername":"benbobjr","latitude":53.2358,"longitude":-0.542756,"accuracy":"16","context":0,"place_id":"PVL2bzRQUblosQ","woeid":"13373","geo_is_family":0,"geo_is_friend":0,"geo_is_contact":0,"geo_is_public":1,"media":"photo","media_status":"ready"},{"id":"14073176473","owner":"27450769@N06","secret":"3dccddf5f1","server":"7441","farm":8,"title":"'\u25be' Dressed to impress '\u25be'","ispublic":1,"isfriend":0,"isfamily":0,"safe":0,"ownername":"~Ranveig Marie~","latitude":62.096813,"longitude":-7.683134,"accuracy":"13","context":0,"place_id":"JZRhT_NVVbhj7R0","woeid":"472697","geo_is_family":0,"geo_is_friend":0,"geo_is_contact":0,"geo_is_public":1,"media":"photo","media_status":"ready"},{"id":"14052069625","owner":"88420718@N03","secret":"9848da7ff0","server":"2930","farm":3,"title":"old boats","ispublic":1,"isfriend":0,"isfamily":0,"safe":0,"ownername":"thequietguy","latitude":41.136778,"longitude":23.221664,"accuracy":"11","context":0,"place_id":"fxqZi19YV79Wso0","woeid":"955547","geo_is_family":0,"geo_is_friend":0,"geo_is_contact":0,"geo_is_public":1,"media":"photo","media_status":"ready"},{"id":"14049583455","owner":"60913863@N08","secret":"847fe305ea","server":"5120","farm":6,"title":"Pagaiando verso sera (paddling in the evening)","ispublic":1,"isfriend":0,"isfamily":0,"safe":0,"ownername":"Goethe58","latitude":44.667306,"longitude":10.825374,"accuracy":"16","context":0,"place_id":"Gkc0QiZWU7vinPc","woeid":"711910","geo_is_family":0,"geo_is_friend":0,"geo_is_contact":0,"geo_is_public":1,"media":"photo","media_status":"ready"},{"id":"14049233335","owner":"84106436@N06","secret":"0ea79df662","server":"5248","farm":6,"title":"Florida Sunset","ispublic":1,"isfriend":0,"isfamily":0,"safe":0,"ownername":"Jenny Onsager","latitude":26.139089,"longitude":-81.795791,"accuracy":"11","context":0,"place_id":"k1gxGv5TVr.I1dK.","woeid":"2457027","geo_is_family":0,"geo_is_friend":0,"geo_is_contact":0,"geo_is_public":1,"media":"photo","media_status":"ready"},{"id":"14024839176","owner":"41324237@N07","secret":"d32c97978c","server":"7221","farm":8,"title":"The Cottage On The Green","ispublic":1,"isfriend":0,"isfamily":0,"safe":0,"ownername":"Louise and Colin","latitude":51.149134,"longitude":-0.361325,"accuracy":"15","context":0,"place_id":"8Wij_FtSUrIrWw","woeid":"30846","geo_is_family":0,"geo_is_friend":0,"geo_is_contact":0,"geo_is_public":1,"media":"photo","media_status":"ready"},{"id":"14035108921","owner":"9730602@N07","secret":"9c75213dd9","server":"7350","farm":8,"title":"Getting to grips [Explored - 28 Apr 14]","ispublic":1,"isfriend":0,"isfamily":0,"safe":0,"ownername":"Andy Wasley","latitude":51.518041,"longitude":-0.101739,"accuracy":"16","context":0,"place_id":"wg6yQ.FTUrrXfBaklw","woeid":"20094345","geo_is_family":0,"geo_is_friend":0,"geo_is_contact":0,"geo_is_public":1,"media":"photo","media_status":"ready"},{"id":"14058193843","owner":"29908683@N08","secret":"0b930af2e0","server":"7436","farm":8,"title":"Cath\u00e9drale de Strasbourg...","ispublic":1,"isfriend":0,"isfamily":0,"safe":0,"ownername":"Daniel Jost Photography","latitude":48.581083,"longitude":7.751371,"accuracy":"16","context":0,"place_id":"hJBgNF9UVLojQ8NqMw","woeid":"56051674","geo_is_family":0,"geo_is_friend":0,"geo_is_contact":0,"geo_is_public":1,"media":"photo","media_status":"ready"},{"id":"14038468234","owner":"66552293@N00","secret":"734821e503","server":"5196","farm":6,"title":"Showing off the red Songster in the blossom (explored 27th April 2014 #69)","ispublic":1,"isfriend":0,"isfamily":0,"safe":0,"ownername":"Andrewsteeleuk","latitude":51.750759,"longitude":-1.363978,"accuracy":"14","context":0,"place_id":"2Y_HxOhTUrt67A","woeid":"20163","geo_is_family":0,"geo_is_friend":0,"geo_is_contact":0,"geo_is_public":1,"media":"photo","media_status":"ready"},{"id":"14033035714","owner":"30898814@N03","secret":"180f4b20bf","server":"7301","farm":8,"title":"Lake Red","ispublic":1,"isfriend":0,"isfamily":0,"safe":0,"ownername":"Digimist","latitude":51.127661,"longitude":1.313725,"accuracy":"16","context":0,"place_id":"MydiatRQWrmBnw","woeid":"18382","geo_is_family":0,"geo_is_friend":0,"geo_is_contact":0,"geo_is_public":1,"media":"photo","media_status":"ready"},{"id":"14052510863","owner":"60123661@N08","secret":"d4f8695b6b","server":"2924","farm":3,"title":"Villefranche sur Mer, French Riviera *Explored*","ispublic":1,"isfriend":0,"isfamily":0,"safe":0,"ownername":"Kataaku","latitude":43.69197,"longitude":7.300096,"accuracy":"15","context":0,"place_id":"ZKlBAaVXU74JgFo","woeid":"614274","geo_is_family":0,"geo_is_friend":0,"geo_is_contact":0,"geo_is_public":1,"media":"photo","media_status":"ready"},{"id":"14032386055","owner":"90451570@N07","secret":"78ff42cd6a","server":"7137","farm":8,"title":"Florence Cathedral","ispublic":1,"isfriend":0,"isfamily":0,"safe":0,"ownername":"CarolynEaton","latitude":43.763159,"longitude":11.264162,"accuracy":"15","context":0,"place_id":"utNU8bNTUrsElznJGg","woeid":"20150268","geo_is_family":0,"geo_is_friend":0,"geo_is_contact":0,"geo_is_public":1,"media":"photo","media_status":"ready"},{"id":"14027802201","owner":"58155871@N06","secret":"a4d5090110","server":"7377","farm":8,"title":"EmGD","ispublic":1,"isfriend":0,"isfamily":0,"safe":0,"ownername":"Umberto Poto","latitude":25.298095,"longitude":83.005142,"accuracy":"11","context":0,"place_id":"nEX_M9FTULMmohZs","woeid":"2295380","geo_is_family":0,"geo_is_friend":0,"geo_is_contact":0,"geo_is_public":1,"media":"photo","media_status":"ready"},{"id":"14050806293","owner":"8868875@N03","secret":"4f7f40422d","server":"2926","farm":3,"title":"ZANUSSI","ispublic":1,"isfriend":0,"isfamily":0,"safe":0,"ownername":"gato-gato-gato","latitude":47.372547,"longitude":8.517541,"accuracy":"16","context":0,"place_id":"N6mvrZ5WWrsOeBo","woeid":"781693","geo_is_family":0,"geo_is_friend":0,"geo_is_contact":0,"geo_is_public":1,"media":"photo","media_status":"ready"},{"id":"14026567325","owner":"93600426@N04","secret":"b93f987747","server":"7394","farm":8,"title":"FCA Bolivia \/ Est. Ollague","ispublic":1,"isfriend":0,"isfamily":0,"safe":0,"ownername":"Trenes del Desierto II","latitude":-21.21578,"longitude":-68.242263,"accuracy":"11","context":0,"place_id":"GYuPj1BSVrKus4c","woeid":"348778","geo_is_family":0,"geo_is_friend":0,"geo_is_contact":0,"geo_is_public":1,"media":"photo","media_status":"ready"},{"id":"14024696864","owner":"52735684@N07","secret":"6298937655","server":"2899","farm":3,"title":"Nordsee - 29031401","ispublic":1,"isfriend":0,"isfamily":0,"safe":0,"ownername":"Klaus Kehrls","latitude":54.340147,"longitude":8.591136,"accuracy":"13","context":0,"place_id":"l4PvqFpXWrmbbfE","woeid":"683364","geo_is_family":0,"geo_is_friend":0,"geo_is_contact":0,"geo_is_public":1,"media":"photo","media_status":"ready"},{"id":"14023565975","owner":"46378751@N02","secret":"98d0494082","server":"2906","farm":3,"title":"Driving in Chiantishire [EXPLORE]","ispublic":1,"isfriend":0,"isfamily":0,"safe":0,"ownername":"Antonio Cinotti \uf8ff","latitude":43.392574,"longitude":11.271972,"accuracy":"11","context":0,"place_id":"Cumkz5VWU73viJM","woeid":"717432","geo_is_family":0,"geo_is_friend":0,"geo_is_contact":0,"geo_is_public":1,"media":"photo","media_status":"ready"},{"id":"13999153936","owner":"76449899@N04","secret":"7ef3766519","server":"2915","farm":3,"title":"The Black Pearl *Explore*","ispublic":1,"isfriend":0,"isfamily":0,"safe":0,"ownername":"Alan Dow \uf8ff","latitude":53.436844,"longitude":-3.034458,"accuracy":"13","context":0,"place_id":"Tn.wk5pTW7LkKQ","woeid":"29896","geo_is_family":0,"geo_is_friend":0,"geo_is_contact":0,"geo_is_public":1,"media":"photo","media_status":"ready"},{"id":"13998825646","owner":"8491697@N05","secret":"991cb310f4","server":"2936","farm":3,"title":"Berlin waterfront: \"Feine Dahme\" Caf\u00e9 K\u00f6penick","ispublic":1,"isfriend":0,"isfamily":0,"safe":0,"ownername":"V. Koeditz","latitude":52.445364,"longitude":13.570497,"accuracy":"16","context":0,"place_id":"zot2ouJXUbKOJRM","woeid":"638242","geo_is_family":0,"geo_is_friend":0,"geo_is_contact":0,"geo_is_public":1,"media":"photo","media_status":"ready"},{"id":"14017771392","owner":"26907150@N08","secret":"1d065f922e","server":"7162","farm":8,"title":"Peony \/ Pfingstrose","ispublic":1,"isfriend":0,"isfamily":0,"safe":0,"ownername":"Habub3","latitude":48.828791,"longitude":9.323101,"accuracy":"13","context":0,"place_id":"6dWmL2hWUrnlziE","woeid":"703274","geo_is_family":0,"geo_is_friend":0,"geo_is_contact":0,"geo_is_public":1,"media":"photo","media_status":"ready"},{"id":"14021296404","owner":"60527135@N02","secret":"eb6be520a6","server":"5202","farm":6,"title":"La gioia di poche cose-The joy of little things","ispublic":1,"isfriend":0,"isfamily":0,"safe":0,"ownername":"giuseppe1957","latitude":7.027842,"longitude":-1.616088,"accuracy":"7","context":0,"place_id":"Uh.cIOJTUb5rF93U","woeid":"2345463","geo_is_family":0,"geo_is_friend":0,"geo_is_contact":0,"geo_is_public":1,"media":"photo","media_status":"ready"},{"id":"13996932816","owner":"121182662@N02","secret":"532165a3e5","server":"7216","farm":8,"title":"Starememore","ispublic":1,"isfriend":0,"isfamily":0,"safe":0,"ownername":"Pannonius Rex","latitude":47.436056,"longitude":19.179468,"accuracy":"15","context":0,"place_id":"fSJ3doZZU7mZ1oM","woeid":"813754","geo_is_family":0,"geo_is_friend":0,"geo_is_contact":0,"geo_is_public":1,"media":"photo","media_status":"ready"},{"id":"13995805446","owner":"24061413@N04","secret":"c20bf554af","server":"5536","farm":6,"title":"and finally shooting. \/ et enfin shooting.","ispublic":1,"isfriend":0,"isfamily":0,"safe":0,"ownername":"french_lolita","latitude":48.851924,"longitude":2.347565,"accuracy":"16","context":0,"place_id":"EsIQUYZXU79_kEA","woeid":"615702","geo_is_family":0,"geo_is_friend":0,"geo_is_contact":0,"geo_is_public":1,"media":"photo","media_status":"ready"},{"id":"13995568096","owner":"37708438@N05","secret":"74b71200fe","server":"7410","farm":8,"title":"no.9 dream","ispublic":1,"isfriend":0,"isfamily":0,"safe":0,"ownername":"kenny barker","latitude":56.003583,"longitude":-3.808341,"accuracy":"12","context":0,"place_id":"39QYR7JQULxENCi9dQ","woeid":"12696196","geo_is_family":0,"geo_is_friend":0,"geo_is_contact":0,"geo_is_public":1,"media":"photo","media_status":"ready"},{"id":"14015381642","owner":"42766545@N07","secret":"792e570b0e","server":"5253","farm":6,"title":"Apple blossoms","ispublic":1,"isfriend":0,"isfamily":0,"safe":0,"ownername":"PeterCH51","latitude":47.196784,"longitude":8.289592,"accuracy":"16","context":0,"place_id":"7t5ycxNTUrtt47dZgQ","woeid":"20102398","geo_is_family":0,"geo_is_friend":0,"geo_is_contact":0,"geo_is_public":1,"media":"photo","media_status":"ready"},{"id":"14014906941","owner":"26953621@N03","secret":"ef7e0f61f0","server":"7328","farm":8,"title":"Satsuma smile [EXPLORE 26.4.14 No 35]","ispublic":1,"isfriend":0,"isfamily":0,"safe":0,"ownername":"Zenas M","latitude":51.500688,"longitude":-2.640624,"accuracy":"16","context":0,"place_id":"sY2EuVBQVLLusA","woeid":"16807","geo_is_family":0,"geo_is_friend":0,"geo_is_contact":0,"geo_is_public":1,"media":"photo","media_status":"ready"},{"id":"14037918143","owner":"28031776@N03","secret":"13c487d4c2","server":"7383","farm":8,"title":"Stazione di Reggio Emilia AV Mediopadana I","ispublic":1,"isfriend":0,"isfamily":0,"safe":0,"ownername":"Torsten Wolf","latitude":44.724641,"longitude":10.653541,"accuracy":"16","context":0,"place_id":"fYfVz79TUrv9dxYpqw","woeid":"20150512","geo_is_family":0,"geo_is_friend":0,"geo_is_contact":0,"geo_is_public":1,"media":"photo","media_status":"ready"},{"id":"14037684253","owner":"44161305@N02","secret":"ec31aa12da","server":"7448","farm":8,"title":"G\u00f6reme, Cappadocia (Kapadokya, Turkey) 1010","ispublic":1,"isfriend":0,"isfamily":0,"safe":0,"ownername":"tango-","latitude":38.645567,"longitude":34.830265,"accuracy":"12","context":0,"place_id":"OIvmaeNTUbmsxu00","woeid":"2339815","geo_is_family":0,"geo_is_friend":0,"geo_is_contact":0,"geo_is_public":1,"media":"photo","media_status":"ready"},{"id":"14017341094","owner":"112711738@N06","secret":"02371d47be","server":"2902","farm":3,"title":"Sirens At Night.","ispublic":1,"isfriend":0,"isfamily":0,"safe":0,"ownername":"dasanes77","latitude":36.722209,"longitude":-2.192159,"accuracy":"11","context":0,"place_id":"SW3.oBBTULzVYAHv4w","woeid":"22661164","geo_is_family":0,"geo_is_friend":0,"geo_is_contact":0,"geo_is_public":1,"media":"photo","media_status":"ready"},{"id":"13993659696","owner":"76806538@N03","secret":"de9b8f0717","server":"7386","farm":8,"title":"Porto","ispublic":1,"isfriend":0,"isfamily":0,"safe":0,"ownername":"Matty\u00b4s - Fotoseite","latitude":41.139763,"longitude":-8.609392,"accuracy":"16","context":0,"place_id":"ui1PahRWVrk7or8","woeid":"743001","geo_is_family":0,"geo_is_friend":0,"geo_is_contact":0,"geo_is_public":1,"media":"photo","media_status":"ready"},{"id":"13986065966","owner":"20939707@N02","secret":"f1b9a51c12","server":"2917","farm":3,"title":"Andrea","ispublic":1,"isfriend":0,"isfamily":0,"safe":0,"ownername":"matteoprez","latitude":4.691286,"longitude":-74.032552,"accuracy":"16","context":0,"place_id":"gjB0f7ZSVLOBPtM","woeid":"369514","geo_is_family":0,"geo_is_friend":0,"geo_is_contact":0,"geo_is_public":1,"media":"photo","media_status":"ready"},{"id":"13985542586","owner":"27485294@N05","secret":"f089c47dce","server":"7199","farm":8,"title":"Morning's sea flickering","ispublic":1,"isfriend":0,"isfamily":0,"safe":0,"ownername":"Polje\u017ei\u010danin","latitude":43.376293,"longitude":16.627979,"accuracy":"12","context":0,"place_id":"6mYfvcpZVrNNh3w","woeid":"849781","geo_is_family":0,"geo_is_friend":0,"geo_is_contact":0,"geo_is_public":1,"media":"photo","media_status":"ready"},{"id":"14008595905","owner":"89213194@N05","secret":"01093661d3","server":"7067","farm":8,"title":"Between The Cracks - Perch Rock Lighthouse","ispublic":1,"isfriend":0,"isfamily":0,"safe":0,"ownername":"Glyn Owen Photography & Image-Art","latitude":53.4428,"longitude":-3.041281,"accuracy":"14","context":0,"place_id":"Tn.wk5pTW7LkKQ","woeid":"29896","geo_is_family":0,"geo_is_friend":0,"geo_is_contact":0,"geo_is_public":1,"media":"photo","media_status":"ready"},{"id":"14006186235","owner":"60913863@N08","secret":"b449cd843a","server":"2908","farm":3,"title":"H  (Hell?)","ispublic":1,"isfriend":0,"isfamily":0,"safe":0,"ownername":"Goethe58","latitude":44.96055,"longitude":12.487571,"accuracy":"16","context":0,"place_id":"RxlDKKxTUrsH63JMhA","woeid":"20136649","geo_is_family":0,"geo_is_friend":0,"geo_is_contact":0,"geo_is_public":1,"media":"photo","media_status":"ready"},{"id":"14005712075","owner":"7977981@N06","secret":"3da8291965","server":"7069","farm":8,"title":"Dreams of the Future [Explored]","ispublic":1,"isfriend":0,"isfamily":0,"safe":0,"ownername":"Rickydavid","latitude":41.890553,"longitude":12.491573,"accuracy":"16","context":0,"place_id":"0in3o3RWULj.Ogw","woeid":"722964","geo_is_family":0,"geo_is_friend":0,"geo_is_contact":0,"geo_is_public":1,"media":"photo","media_status":"ready"},{"id":"14001259571","owner":"90835422@N04","secret":"c33be9bef9","server":"2916","farm":3,"title":"Sunshine Tulips","ispublic":1,"isfriend":0,"isfamily":0,"safe":0,"ownername":"Pixelglo Photography","latitude":53.251247,"longitude":-0.498504,"accuracy":"10","context":0,"place_id":"PWBu96BTVLixtA","woeid":"26279","geo_is_family":0,"geo_is_friend":0,"geo_is_contact":0,"geo_is_public":1,"media":"photo","media_status":"ready"},{"id":"14002782834","owner":"67414582@N07","secret":"d9ca4bc8e1","server":"7248","farm":8,"title":"Empire State Skyline SC","ispublic":1,"isfriend":0,"isfamily":0,"safe":0,"ownername":"Mabry Campbell","latitude":40.744925,"longitude":-73.994177,"accuracy":"16","context":0,"place_id":"reA9WOJTWr13XtAqxw","woeid":"28751245","geo_is_family":0,"geo_is_friend":0,"geo_is_contact":0,"geo_is_public":1,"media":"photo","media_status":"ready"},{"id":"14000557015","owner":"75133058@N00","secret":"ef87bcd73e","server":"5308","farm":6,"title":"El lunarejo","ispublic":1,"isfriend":0,"isfamily":0,"safe":0,"ownername":"Eduardo Amorim","latitude":-34.233802,"longitude":-59.499206,"accuracy":"11","context":0,"place_id":"K.q5MK9SUbg4DZE","woeid":"332504","geo_is_family":0,"geo_is_friend":0,"geo_is_contact":0,"geo_is_public":1,"media":"photo","media_status":"ready"},{"id":"13975994936","owner":"68503259@N02","secret":"2ba3763d27","server":"7089","farm":8,"title":"Unfurling","ispublic":1,"isfriend":0,"isfamily":0,"safe":0,"ownername":"Michael Andrew Reynolds","latitude":51.744356,"longitude":-1.18927,"accuracy":"13","context":0,"place_id":"CTytLqBSVr1kOg","woeid":"34734","geo_is_family":0,"geo_is_friend":0,"geo_is_contact":0,"geo_is_public":1,"media":"photo","media_status":"ready"},{"id":"13999366024","owner":"7428283@N05","secret":"ed352596e8","server":"7095","farm":8,"title":"Forest in spring.","ispublic":1,"isfriend":0,"isfamily":0,"safe":0,"ownername":"la1cna","latitude":58.869309,"longitude":9.415004,"accuracy":"16","context":0,"place_id":"BkdkzbpZVLqP6sQ","woeid":"860801","geo_is_family":0,"geo_is_friend":0,"geo_is_contact":0,"geo_is_public":1,"media":"photo","media_status":"ready"},{"id":"13995080911","owner":"85178107@N08","secret":"b4c7fb658b","server":"5148","farm":6,"title":"Mortensbukt (Explore 2014\/4\/25)","ispublic":1,"isfriend":0,"isfamily":0,"safe":0,"ownername":"\u00d8yvind Bjerkholt (Thanks for 2,4 million+ views)","latitude":58.422797,"longitude":8.768548,"accuracy":"15","context":0,"place_id":"NnMlF.BZV7Mk8U4","woeid":"859796","geo_is_family":0,"geo_is_friend":0,"geo_is_contact":0,"geo_is_public":1,"media":"photo","media_status":"ready"},{"id":"13997063355","owner":"8089996@N06","secret":"355ccbcfa3","server":"7057","farm":8,"title":"Windows of Edinburgh","ispublic":1,"isfriend":0,"isfamily":0,"safe":0,"ownername":"DaveKav","latitude":55.949095,"longitude":-3.195029,"accuracy":"16","context":0,"place_id":"A7YJ5HNVUbwIGw","woeid":"43674","geo_is_family":0,"geo_is_friend":0,"geo_is_contact":0,"geo_is_public":1,"media":"photo","media_status":"ready"},{"id":"14015779473","owner":"8935325@N08","secret":"f6fa89b080","server":"7335","farm":8,"title":"Sunday morning","ispublic":1,"isfriend":0,"isfamily":0,"safe":0,"ownername":"Riccardo Maria Mantero","latitude":41.90256,"longitude":12.46792,"accuracy":"16","context":0,"place_id":"FphPyURWU7ux6h4","woeid":"711883","geo_is_family":0,"geo_is_friend":0,"geo_is_contact":0,"geo_is_public":1,"media":"photo","media_status":"ready"},{"id":"13991525602","owner":"48888412@N02","secret":"b033348b32","server":"5073","farm":6,"title":"Poup\u00e9e de Jade","ispublic":1,"isfriend":0,"isfamily":0,"safe":0,"ownername":"aminefassi","latitude":34.013111,"longitude":-6.842079,"accuracy":"11","context":0,"place_id":"FldE0_ZQV7mL1Dpk","woeid":"1539359","geo_is_family":0,"geo_is_friend":0,"geo_is_contact":0,"geo_is_public":1,"media":"photo","media_status":"ready"},{"id":"13994639975","owner":"83053402@N05","secret":"9c6561b6c9","server":"5507","farm":6,"title":"Orange - Tip (m)","ispublic":1,"isfriend":0,"isfamily":0,"safe":0,"ownername":"beaconschris","latitude":50.929182,"longitude":-2.016677,"accuracy":"15","context":0,"place_id":"XooWFg9TULoIvw","woeid":"22029","geo_is_family":0,"geo_is_friend":0,"geo_is_contact":0,"geo_is_public":1,"media":"photo","media_status":"ready"},{"id":"13991010332","owner":"48888412@N02","secret":"938f79d5ff","server":"7077","farm":8,"title":"Poup\u00e9e de jade","ispublic":1,"isfriend":0,"isfamily":0,"safe":0,"ownername":"aminefassi","latitude":34.019372,"longitude":-6.837959,"accuracy":"11","context":0,"place_id":"FldE0_ZQV7mL1Dpk","woeid":"1539359","geo_is_family":0,"geo_is_friend":0,"geo_is_contact":0,"geo_is_public":1,"media":"photo","media_status":"ready"},{"id":"13993176715","owner":"58328306@N03","secret":"1805e40074","server":"2905","farm":3,"title":"Grain Power Station Sunset","ispublic":1,"isfriend":0,"isfamily":0,"safe":0,"ownername":"Olly Plumstead","latitude":51.451439,"longitude":0.731105,"accuracy":"14","context":0,"place_id":"jyL.425TU76vMg","woeid":"21467","geo_is_family":0,"geo_is_friend":0,"geo_is_contact":0,"geo_is_public":1,"media":"photo","media_status":"ready"},{"id":"13989989231","owner":"59552935@N07","secret":"60e4b2a588","server":"7359","farm":8,"title":"Gossip girls - Explored #5!!!","ispublic":1,"isfriend":0,"isfamily":0,"safe":0,"ownername":"*Glaukopis*","latitude":42.63449,"longitude":11.671779,"accuracy":"11","context":0,"place_id":"GU0E6HZWULp1Crc","woeid":"720649","geo_is_family":0,"geo_is_friend":0,"geo_is_contact":0,"geo_is_public":1,"media":"photo","media_status":"ready"},{"id":"13993100354","owner":"67995615@N03","secret":"6a9418110c","server":"7297","farm":8,"title":"Dubai Burj Khalifa","ispublic":1,"isfriend":0,"isfamily":0,"safe":0,"ownername":"claudecastor","latitude":25.205407,"longitude":55.272903,"accuracy":"16","context":0,"place_id":"eQtoeghQW77HLrTB","woeid":"1940345","geo_is_family":0,"geo_is_friend":0,"geo_is_contact":0,"geo_is_public":1,"media":"photo","media_status":"ready"},{"id":"13992120705","owner":"34096574@N06","secret":"2ab2acf73c","server":"5347","farm":6,"title":"Venice : Rialto Mercato \/ Venetian working deliveryman","ispublic":1,"isfriend":0,"isfamily":0,"safe":0,"ownername":"Pantchoa","latitude":45.439188,"longitude":12.335391,"accuracy":"16","context":0,"place_id":"qyV161RTUruqVTuLuQ","woeid":"20150614","geo_is_family":0,"geo_is_friend":0,"geo_is_contact":0,"geo_is_public":1,"media":"photo","media_status":"ready"},{"id":"14010514643","owner":"60527064@N00","secret":"7f5aeb7a5e","server":"7265","farm":8,"title":"Spring thaw, Vieux-Port de Montr\u00e9al","ispublic":1,"isfriend":0,"isfamily":0,"safe":0,"ownername":"Eric Flexyourhead","latitude":45.510173,"longitude":-73.548671,"accuracy":"16","context":0,"place_id":"c94OYkVTVLnxoj8tzw","woeid":"26332791","geo_is_family":0,"geo_is_friend":0,"geo_is_contact":0,"geo_is_public":1,"media":"photo","media_status":"ready"},{"id":"13985218352","owner":"91553093@N02","secret":"8bd5be58d4","server":"7149","farm":8,"title":"The Two Towers","ispublic":1,"isfriend":0,"isfamily":0,"safe":0,"ownername":"Sebastian Waszak Photography","latitude":51.217394,"longitude":6.777684,"accuracy":"16","context":0,"place_id":"MA8Ke4hXVrwlyVI","woeid":"646099","geo_is_family":0,"geo_is_friend":0,"geo_is_contact":0,"geo_is_public":1,"media":"photo","media_status":"ready"},{"id":"13964293926","owner":"14442041@N04","secret":"72424d3342","server":"2924","farm":3,"title":"Herthasee bei Diez, Hessen","ispublic":1,"isfriend":0,"isfamily":0,"safe":0,"ownername":"Quasebart","latitude":50.359369,"longitude":7.900716,"accuracy":"13","context":0,"place_id":"oV4GSKFWU7.yUp2w","woeid":"7153301","geo_is_family":0,"geo_is_friend":0,"geo_is_contact":0,"geo_is_public":1,"media":"photo","media_status":"ready"},{"id":"13963328556","owner":"14279081@N08","secret":"5dc58eac86","server":"7201","farm":8,"title":"up in the sky","ispublic":1,"isfriend":0,"isfamily":0,"safe":0,"ownername":"\u039eSS\u039e\u00ae\u00ae\u039e","latitude":41.949492,"longitude":12.847094,"accuracy":"16","context":0,"place_id":"4wIrb3xTUrso1yq7YQ","woeid":"20109990","geo_is_family":0,"geo_is_friend":0,"geo_is_contact":0,"geo_is_public":1,"media":"photo","media_status":"ready"},{"id":"13982754355","owner":"113694784@N07","secret":"663acfb382","server":"2932","farm":3,"title":"Something in her eyes","ispublic":1,"isfriend":0,"isfamily":0,"safe":0,"ownername":"Sabine L\u00f6wenthal","latitude":47.3806,"longitude":8.5495,"accuracy":"16","context":0,"place_id":"Zr3KQphWWrkaQps","woeid":"783620","geo_is_family":0,"geo_is_friend":0,"geo_is_contact":0,"geo_is_public":1,"media":"photo","media_status":"ready"},{"id":"13978044652","owner":"90451570@N07","secret":"857ddf588b","server":"2918","farm":3,"title":"Manarola","ispublic":1,"isfriend":0,"isfamily":0,"safe":0,"ownername":"CarolynEaton","latitude":44.10734,"longitude":9.725646,"accuracy":"14","context":0,"place_id":"V82f9lFQULzNNNVHcg","woeid":"12678917","geo_is_family":0,"geo_is_friend":0,"geo_is_contact":0,"geo_is_public":1,"media":"photo","media_status":"ready"},{"id":"14001069023","owner":"23012400@N03","secret":"a3abe4219d","server":"2897","farm":3,"title":"Viaducto de Guardo.Palencia.","ispublic":1,"isfriend":0,"isfamily":0,"safe":0,"ownername":"Miguel. (respenda)","latitude":42.782866,"longitude":-4.849605,"accuracy":"14","context":0,"place_id":"OSbD0KVWVLtP5NU","woeid":"761918","geo_is_family":0,"geo_is_friend":0,"geo_is_contact":0,"geo_is_public":1,"media":"photo","media_status":"ready"},{"id":"13977624071","owner":"33888243@N04","secret":"2bb5087fdd","server":"2936","farm":3,"title":"Boite \u00e0 couleurs","ispublic":1,"isfriend":0,"isfamily":0,"safe":0,"ownername":"bernard78br","latitude":48.887548,"longitude":2.343081,"accuracy":"16","context":0,"place_id":"IFTbeKJUV7LF35bKtA","woeid":"55843852","geo_is_family":0,"geo_is_friend":0,"geo_is_contact":0,"geo_is_public":1,"media":"photo","media_status":"ready"},{"id":"13957305416","owner":"54058333@N05","secret":"0011e99d71","server":"2936","farm":3,"title":"41\/2014 - La piccola cascata","ispublic":1,"isfriend":0,"isfamily":0,"safe":0,"ownername":"celestino2011","latitude":44.805301,"longitude":7.09531,"accuracy":"11","context":0,"place_id":"p_oqCR1TUruro0h3Cg","woeid":"20130316","geo_is_family":0,"geo_is_friend":0,"geo_is_contact":0,"geo_is_public":1,"media":"photo","media_status":"ready"},{"id":"13976663651","owner":"90835422@N04","secret":"41868e4f0f","server":"7157","farm":8,"title":"Tulips Without Colour","ispublic":1,"isfriend":0,"isfamily":0,"safe":0,"ownername":"Pixelglo Photography","latitude":53.251247,"longitude":-0.498504,"accuracy":"10","context":0,"place_id":"PWBu96BTVLixtA","woeid":"26279","geo_is_family":0,"geo_is_friend":0,"geo_is_contact":0,"geo_is_public":1,"media":"photo","media_status":"ready"}]},"stat":"ok"}