{"photos":{"page":4, "pages":24250, "perpage":60, "total":"1454995", "photo":[{"id":"12773313664", "owner":"43155663@N07", "secret":"c9e90a0dd9", "server":"7358", "farm":8, "title":"young explorer - part III", "ispublic":1, "isfriend":0, "isfamily":0, "safe":0, "ownername":"city\/human\/life", "latitude":51.388829, "longitude":6.998977, "accuracy":"16", "context":0, "place_id":"UZIHF3RXVrIRFRQ", "woeid":"648820", "geo_is_family":0, "geo_is_friend":0, "geo_is_contact":0, "geo_is_public":1, "media":"photo", "media_status":"ready"}, {"id":"12769096263", "owner":"37182073@N06", "secret":"714d52b786", "server":"7436", "farm":8, "title":"noir city", "ispublic":1, "isfriend":0, "isfamily":0, "safe":0, "ownername":"i k o", "latitude":45.94445, "longitude":13.625106, "accuracy":"16", "context":0, "place_id":"DPSlFU1WU7wEWv0", "woeid":"716283", "geo_is_family":0, "geo_is_friend":0, "geo_is_contact":0, "geo_is_public":1, "media":"photo", "media_status":"ready"}, {"id":"12759937934", "owner":"61874975@N05", "secret":"8bfe857919", "server":"5485", "farm":6, "title":"The Quiet Life", "ispublic":1, "isfriend":0, "isfamily":0, "safe":1, "ownername":"\u2740\u10e6 Poetic Outlook (Anne)", "latitude":52.588649, "longitude":-2.12167, "accuracy":"11", "context":0, "place_id":"qetZ.tZVUrKGsg", "woeid":"40859", "geo_is_family":0, "geo_is_friend":0, "geo_is_contact":0, "geo_is_public":1, "media":"photo", "media_status":"ready"}, {"id":"12749236553", "owner":"79956697@N06", "secret":"eaef926559", "server":"2876", "farm":3, "title":"The Eternal Wait", "ispublic":1, "isfriend":0, "isfamily":0, "safe":1, "ownername":"B.B.H.70", "latitude":40.411209, "longitude":-3.708224, "accuracy":"16", "context":0, "place_id":"OXIubk9TUrjieFR4aA", "woeid":"20219949", "geo_is_family":0, "geo_is_friend":0, "geo_is_contact":0, "geo_is_public":1, "media":"photo", "media_status":"ready"}, {"id":"12740165434", "owner":"22461382@N00", "secret":"7f1f5bb627", "server":"3790", "farm":4, "title":"the caribbean waters of the arctic circle | hamn\u00f8y, norway", "ispublic":1, "isfriend":0, "isfamily":0, "safe":1, "ownername":"elmofoto", "latitude":67.944997, "longitude":13.124847, "accuracy":"16", "context":0, "place_id":".Rko95lZVLj.cwQ", "woeid":"862886", "geo_is_family":0, "geo_is_friend":0, "geo_is_contact":0, "geo_is_public":1, "media":"photo", "media_status":"ready"}, {"id":"12715728303", "owner":"66792513@N07", "secret":"67dd9aee5e", "server":"7299", "farm":8, "title":"Athens - Greece", "ispublic":1, "isfriend":0, "isfamily":0, "safe":1, "ownername":"Ioannisdg", "latitude":37.945011, "longitude":23.155747, "accuracy":"16", "context":0, "place_id":"LlWKOOdUV7Irs9C9SQ", "woeid":"55869477", "geo_is_family":0, "geo_is_friend":0, "geo_is_contact":0, "geo_is_public":1, "media":"photo", "media_status":"ready"}, {"id":"12698535283", "owner":"37517453@N08", "secret":"300b3de93a", "server":"5499", "farm":6, "title":"Schiffsverkehr \/ Explore", "ispublic":1, "isfriend":0, "isfamily":0, "safe":0, "ownername":"MK|PHOTOGRAPHY", "latitude":53.542175, "longitude":9.859113, "accuracy":"16", "context":0, "place_id":"cksTdXBXV7yTmdw", "woeid":"656958", "geo_is_family":0, "geo_is_friend":0, "geo_is_contact":0, "geo_is_public":1, "media":"photo", "media_status":"ready"}, {"id":"12694978975", "owner":"90256147@N04", "secret":"5275c51c5d", "server":"7340", "farm":8, "title":"Audience and Cheers", "ispublic":1, "isfriend":0, "isfamily":0, "safe":0, "ownername":"dmjames58", "latitude":24.496521, "longitude":54.609603, "accuracy":"11", "context":0, "place_id":"UCx_GMBUV7K0ApCSUA", "woeid":"55872474", "geo_is_family":0, "geo_is_friend":0, "geo_is_contact":0, "geo_is_public":1, "media":"photo", "media_status":"ready"}, {"id":"12692065933", "owner":"48988488@N04", "secret":"67d8477d47", "server":"3747", "farm":4, "title":"spirito d'Ambiez", "ispublic":1, "isfriend":0, "isfamily":0, "safe":0, "ownername":"claudius1954", "latitude":46.123105, "longitude":10.87552, "accuracy":"14", "context":0, "place_id":"FV1KfNpTUruF9kD0Eg", "woeid":"20141499", "geo_is_family":0, "geo_is_friend":0, "geo_is_contact":0, "geo_is_public":1, "media":"photo", "media_status":"ready"}, {"id":"12678020425", "owner":"62815410@N04", "secret":"541519240a", "server":"3725", "farm":4, "title":"the hypochondriac's laundry day (brescia, italy)", "ispublic":1, "isfriend":0, "isfamily":0, "safe":1, "ownername":"bloodybee", "latitude":45.53549, "longitude":10.235545, "accuracy":"16", "context":0, "place_id":"WO1uGLRWU7u69ps", "woeid":"711410", "geo_is_family":0, "geo_is_friend":0, "geo_is_contact":0, "geo_is_public":1, "media":"photo", "media_status":"ready"}, {"id":"12675307955", "owner":"79688583@N03", "secret":"96cd601635", "server":"5542", "farm":6, "title":"All Roads Lead to Rome", "ispublic":1, "isfriend":0, "isfamily":0, "safe":0, "ownername":"Jamie Frith", "latitude":41.911092, "longitude":12.478194, "accuracy":"15", "context":0, "place_id":"62ufGyBUUb26u2g", "woeid":"537842", "geo_is_family":0, "geo_is_friend":0, "geo_is_contact":0, "geo_is_public":1, "media":"photo", "media_status":"ready"}, {"id":"12661738853", "owner":"59269150@N08", "secret":"e2392ef145", "server":"7313", "farm":8, "title":"K\u00f6-Bogen", "ispublic":1, "isfriend":0, "isfamily":0, "safe":0, "ownername":"TablinumCarlson", "latitude":51.215629, "longitude":6.77605, "accuracy":"11", "context":0, "place_id":"MA8Ke4hXVrwlyVI", "woeid":"646099", "geo_is_family":0, "geo_is_friend":0, "geo_is_contact":0, "geo_is_public":1, "media":"photo", "media_status":"ready"}, {"id":"12655032355", "owner":"47035764@N03", "secret":"ba4b1b8b15", "server":"7452", "farm":8, "title":"Dwarf crocodile, Dierenpark Emmen, Drenthe, Netherlands - 1584", "ispublic":1, "isfriend":0, "isfamily":0, "safe":0, "ownername":"HereIsTom", "latitude":52.784914, "longitude":6.897091, "accuracy":"16", "context":0, "place_id":"gXqIvEVWULNNZww", "woeid":"729113", "geo_is_family":0, "geo_is_friend":0, "geo_is_contact":0, "geo_is_public":1, "media":"photo", "media_status":"ready"}, {"id":"12652072194", "owner":"34096574@N06", "secret":"04a88efb2a", "server":"3709", "farm":4, "title":"La Ciotat : The beach dogs", "ispublic":1, "isfriend":0, "isfamily":0, "safe":0, "ownername":"Pantchoa", "latitude":43.182294, "longitude":5.615616, "accuracy":"16", "context":0, "place_id":"rRzMLmFTUrpBVrXmpw", "woeid":"20075059", "geo_is_family":0, "geo_is_friend":0, "geo_is_contact":0, "geo_is_public":1, "media":"photo", "media_status":"ready"}, {"id":"12638353633", "owner":"62815410@N04", "secret":"afee872e48", "server":"7293", "farm":8, "title":"unzip me (brescia, italy)", "ispublic":1, "isfriend":0, "isfamily":0, "safe":1, "ownername":"bloodybee", "latitude":45.53552, "longitude":10.234837, "accuracy":"16", "context":0, "place_id":"WO1uGLRWU7u69ps", "woeid":"711410", "geo_is_family":0, "geo_is_friend":0, "geo_is_contact":0, "geo_is_public":1, "media":"photo", "media_status":"ready"}, {"id":"12631745545", "owner":"38922255@N08", "secret":"f50a67f79b", "server":"7326", "farm":8, "title":"Serenity", "ispublic":1, "isfriend":0, "isfamily":0, "safe":1, "ownername":"Foto Pau", "latitude":39.350162, "longitude":-0.323753, "accuracy":"13", "context":0, "place_id":"LYYZXdZTUb5fJQlUlQ", "woeid":"23414062", "geo_is_family":0, "geo_is_friend":0, "geo_is_contact":0, "geo_is_public":1, "media":"photo", "media_status":"ready"}, {"id":"12631706653", "owner":"92527397@N02", "secret":"540889f6e0", "server":"3714", "farm":4, "title":"Calme soir\u00e9e", "ispublic":1, "isfriend":0, "isfamily":0, "safe":1, "ownername":"Corinne Queme", "latitude":48.648576, "longitude":-2.029252, "accuracy":"16", "context":0, "place_id":"etJASYhXUL.sLu8", "woeid":"625391", "geo_is_family":0, "geo_is_friend":0, "geo_is_contact":0, "geo_is_public":1, "media":"photo", "media_status":"ready"}, {"id":"12618147754", "owner":"90076467@N07", "secret":"0024f315e9", "server":"7410", "farm":8, "title":"... POV!!!", "ispublic":1, "isfriend":0, "isfamily":0, "safe":0, "ownername":"Fede Falces (... slow as snail!!!)", "latitude":41.385719, "longitude":2.170049, "accuracy":"11", "context":0, "place_id":"p.gvf6dWV7k1Gpg", "woeid":"753692", "geo_is_family":0, "geo_is_friend":0, "geo_is_contact":0, "geo_is_public":1, "media":"photo", "media_status":"ready"}, {"id":"12614261534", "owner":"15200836@N02", "secret":"8054999048", "server":"7392", "farm":8, "title":"RETRATO : LUZ EN UN D\u00cdA GRIS  ( EXPLORE )", "ispublic":1, "isfriend":0, "isfamily":0, "safe":0, "ownername":"marthinotf", "latitude":41.60296, "longitude":-4.763088, "accuracy":"14", "context":0, "place_id":"gEupuu5QULzLkOQlsg", "woeid":"12693081", "geo_is_family":0, "geo_is_friend":0, "geo_is_contact":0, "geo_is_public":1, "media":"photo", "media_status":"ready"}, {"id":"12610629664", "owner":"12039065@N00", "secret":"eabafcf53c", "server":"3824", "farm":4, "title":"Vista Huerquehue", "ispublic":1, "isfriend":0, "isfamily":0, "safe":1, "ownername":"Mono Andes", "latitude":-39.14883, "longitude":-71.688517, "accuracy":"15", "context":0, "place_id":"88RTUdRTVL3MvINs4Q", "woeid":"26793983", "geo_is_family":0, "geo_is_friend":0, "geo_is_contact":0, "geo_is_public":1, "media":"photo", "media_status":"ready"}, {"id":"12608844843", "owner":"37708438@N05", "secret":"7e70867caf", "server":"7396", "farm":8, "title":"A slaverin' coo in the Cuillins", "ispublic":1, "isfriend":0, "isfamily":0, "safe":1, "ownername":"kenny barker", "latitude":57.17348, "longitude":-5.874939, "accuracy":"9", "context":0, "place_id":"pM_KSatQWr_Nww", "woeid":"18526", "geo_is_family":0, "geo_is_friend":0, "geo_is_contact":0, "geo_is_public":1, "media":"photo", "media_status":"ready"}, {"id":"12599645624", "owner":"39427637@N04", "secret":"e3c6275d8d", "server":"3687", "farm":4, "title":"Sheep in fog", "ispublic":1, "isfriend":0, "isfamily":0, "safe":1, "ownername":"**EDV**", "latitude":48.626895, "longitude":-1.519117, "accuracy":"13", "context":0, "place_id":"9jg6l1lXUrkXjao", "woeid":"603714", "geo_is_family":0, "geo_is_friend":0, "geo_is_contact":0, "geo_is_public":1, "media":"photo", "media_status":"ready"}, {"id":"12596911083", "owner":"90634379@N06", "secret":"df80585cfa", "server":"5542", "farm":6, "title":"\"Tomorrow is another day. I learned that yesterday.\"", "ispublic":1, "isfriend":0, "isfamily":0, "safe":0, "ownername":"Lilian_Anadan", "latitude":18.4867, "longitude":-69.94049, "accuracy":"11", "context":0, "place_id":"2lvIdjlWVL70mQ", "woeid":"76456", "geo_is_family":0, "geo_is_friend":0, "geo_is_contact":0, "geo_is_public":1, "media":"photo", "media_status":"ready"}, {"id":"12587440144", "owner":"36426732@N05", "secret":"0fd5950bba", "server":"2858", "farm":3, "title":"Chino & Michael denicola", "ispublic":1, "isfriend":0, "isfamily":0, "safe":1, "ownername":"ZUCCONY", "latitude":40.723538, "longitude":-73.989078, "accuracy":"16", "context":0, "place_id":"m0PuqOpTWr1949WuAw", "woeid":"28751503", "geo_is_family":0, "geo_is_friend":0, "geo_is_contact":0, "geo_is_public":1, "media":"photo", "media_status":"ready"}, {"id":"12585796544", "owner":"76805638@N07", "secret":"282dc6cccd", "server":"3679", "farm":4, "title":"winter night in ekaterinburg", "ispublic":1, "isfriend":0, "isfamily":0, "safe":0, "ownername":"Sergey S Ponomarev", "latitude":56.835685, "longitude":60.614102, "accuracy":"15", "context":0, "place_id":"RAtebQNTU7tYCYj2", "woeid":"2112237", "geo_is_family":0, "geo_is_friend":0, "geo_is_contact":0, "geo_is_public":1, "media":"photo", "media_status":"ready"}, {"id":"12583891813", "owner":"43301211@N03", "secret":"19f7e19d33", "server":"3699", "farm":4, "title":"Rise & Shine..", "ispublic":1, "isfriend":0, "isfamily":0, "safe":0, "ownername":"klythawk", "latitude":52.978622, "longitude":-1.107988, "accuracy":"15", "context":0, "place_id":"Vv0e6IRTUrPHhg", "woeid":"20974", "geo_is_family":0, "geo_is_friend":0, "geo_is_contact":0, "geo_is_public":1, "media":"photo", "media_status":"ready"}, {"id":"12580204845", "owner":"44855005@N04", "secret":"f52d1ca5ea", "server":"7290", "farm":8, "title":"Nightly shower 130812", "ispublic":1, "isfriend":0, "isfamily":0, "safe":0, "ownername":"PeteHuu", "latitude":60.198843, "longitude":25.184285, "accuracy":"16", "context":0, "place_id":"S47LSRtTV7NRXcaEAQ", "woeid":"25945244", "geo_is_family":0, "geo_is_friend":0, "geo_is_contact":0, "geo_is_public":1, "media":"photo", "media_status":"ready"}, {"id":"12560717723", "owner":"58013555@N07", "secret":"4d5d363a6a", "server":"7455", "farm":8, "title":"Wibbly Wobbly Building   Explored 17th Feb 2014  Thank you !!!!", "ispublic":1, "isfriend":0, "isfamily":0, "safe":1, "ownername":"Vide Cor Meum Images", "latitude":51.529779, "longitude":-0.125501, "accuracy":"15", "context":0, "place_id":"v1MXwDpSV702hQ", "woeid":"35759", "geo_is_family":0, "geo_is_friend":0, "geo_is_contact":0, "geo_is_public":1, "media":"photo", "media_status":"ready"}, {"id":"12549879233", "owner":"21775664@N07", "secret":"ba12d279a7", "server":"3816", "farm":4, "title":"Jan Kaplicky Architecture", "ispublic":1, "isfriend":0, "isfamily":0, "safe":1, "ownername":"david gutierrez [ www.davidgutierrez.co.uk ]", "latitude":52.478588, "longitude":-1.908599, "accuracy":"11", "context":0, "place_id":"KbEnpbtQUL32Yw", "woeid":"12723", "geo_is_family":0, "geo_is_friend":0, "geo_is_contact":0, "geo_is_public":1, "media":"photo", "media_status":"ready"}, {"id":"12547113874", "owner":"31721215@N05", "secret":"de1b44b5bc", "server":"3773", "farm":4, "title":"Cactus de Lanzarote", "ispublic":1, "isfriend":0, "isfamily":0, "safe":1, "ownername":"nuska2008", "latitude":29.080588, "longitude":-13.475403, "accuracy":"15", "context":0, "place_id":"FONgU5lWVLv7SxM", "woeid":"761931", "geo_is_family":0, "geo_is_friend":0, "geo_is_contact":0, "geo_is_public":1, "media":"photo", "media_status":"ready"}, {"id":"12546139674", "owner":"82831944@N02", "secret":"e097861b1a", "server":"2826", "farm":3, "title":"rosso su rosso fa chic [Explored 16.02.2014]", "ispublic":1, "isfriend":0, "isfamily":0, "safe":1, "ownername":"Antonio Iacobelli (Jacobson-2012)", "latitude":41.113374, "longitude":16.864013, "accuracy":"16", "context":0, "place_id":"Jy3mj1NTUrhNi5ZOnQ", "woeid":"20229558", "geo_is_family":0, "geo_is_friend":0, "geo_is_contact":0, "geo_is_public":1, "media":"photo", "media_status":"ready"}, {"id":"12522868963", "owner":"73414467@N02", "secret":"ff3e4eaa89", "server":"2887", "farm":3, "title":"Banco de Espa\u00f1a", "ispublic":1, "isfriend":0, "isfamily":0, "safe":1, "ownername":"Jos\u00e9 Luis Vega", "latitude":40.419197, "longitude":-3.694659, "accuracy":"16", "context":0, "place_id":"XrSazRhTUrh4j1shyQ", "woeid":"20219885", "geo_is_family":0, "geo_is_friend":0, "geo_is_contact":0, "geo_is_public":1, "media":"photo", "media_status":"ready"}, {"id":"12520052555", "owner":"79688583@N03", "secret":"33abee8277", "server":"3763", "farm":4, "title":"Let it Snow", "ispublic":1, "isfriend":0, "isfamily":0, "safe":0, "ownername":"Jamie Frith", "latitude":51.500635, "longitude":-0.119969, "accuracy":"16", "context":0, "place_id":"9bQqh4JVVr5RVw", "woeid":"44417", "geo_is_family":0, "geo_is_friend":0, "geo_is_contact":0, "geo_is_public":1, "media":"photo", "media_status":"ready"}, {"id":"12517897025", "owner":"53340207@N07", "secret":"3ac1568f1b", "server":"7454", "farm":8, "title":"Love is all you need", "ispublic":1, "isfriend":0, "isfamily":0, "safe":0, "ownername":"Pifou 2010", "latitude":43.551969, "longitude":7.026529, "accuracy":"13", "context":0, "place_id":"PxZHsoJUWrivuRw", "woeid":"582935", "geo_is_family":0, "geo_is_friend":0, "geo_is_contact":0, "geo_is_public":1, "media":"photo", "media_status":"ready"}, {"id":"12465131185", "owner":"93269402@N08", "secret":"836de6efc5", "server":"2877", "farm":3, "title":"Mjau..", "ispublic":1, "isfriend":0, "isfamily":0, "safe":1, "ownername":"Bhalalhaika", "latitude":59.972044, "longitude":10.663046, "accuracy":"14", "context":0, "place_id":"cr5WCcRZV7OxEyo", "woeid":"859936", "geo_is_family":0, "geo_is_friend":0, "geo_is_contact":0, "geo_is_public":1, "media":"photo", "media_status":"ready"}, {"id":"12436470325", "owner":"50946938@N03", "secret":"99cf374449", "server":"5539", "farm":6, "title":"Flower in the mirror..", "ispublic":1, "isfriend":0, "isfamily":0, "safe":1, "ownername":"anton\u00e8 A MILLION......KISSES!!!", "latitude":40.588928, "longitude":9.02362, "accuracy":"9", "context":0, "place_id":"oWPQmXlWU7NyasE", "woeid":"719724", "geo_is_family":0, "geo_is_friend":0, "geo_is_contact":0, "geo_is_public":1, "media":"photo", "media_status":"ready"}, {"id":"12372248473", "owner":"27278265@N02", "secret":"2da4171559", "server":"3720", "farm":4, "title":"Poudrerie \u00e0 la campagne", "ispublic":1, "isfriend":0, "isfamily":0, "safe":1, "ownername":"monilague", "latitude":45.710526, "longitude":-74.020729, "accuracy":"11", "context":0, "place_id":"pIoFNf5SV7jB", "woeid":"3523", "geo_is_family":0, "geo_is_friend":0, "geo_is_contact":0, "geo_is_public":1, "media":"photo", "media_status":"ready"}, {"id":"12106692086", "owner":"26849514@N06", "secret":"281ff8afb0", "server":"5500", "farm":6, "title":"Dubai creek", "ispublic":1, "isfriend":0, "isfamily":0, "safe":1, "ownername":"Frans.Sellies", "latitude":25.256338, "longitude":55.31994, "accuracy":"14", "context":0, "place_id":"eQtoeghQW77HLrTB", "woeid":"1940345", "geo_is_family":0, "geo_is_friend":0, "geo_is_contact":0, "geo_is_public":1, "media":"photo", "media_status":"ready"}, {"id":"11609315726", "owner":"93269402@N08", "secret":"2b59695871", "server":"7440", "farm":8, "title":"Same same but different", "ispublic":1, "isfriend":0, "isfamily":0, "safe":0, "ownername":"Bhalalhaika", "latitude":59.945852, "longitude":10.680334, "accuracy":"14", "context":0, "place_id":"9RNRjbdTULyrSKq9BA", "woeid":"22658640", "geo_is_family":0, "geo_is_friend":0, "geo_is_contact":0, "geo_is_public":1, "media":"photo", "media_status":"ready"}, {"id":"10404105374", "owner":"35895492@N05", "secret":"e913773f7c", "server":"2806", "farm":3, "title":"Olvera. C\u00e1diz. Andaluc\u00eda. Spain", "ispublic":1, "isfriend":0, "isfamily":0, "safe":1, "ownername":"Z\u00fa S\u00e1nchez", "latitude":36.935989, "longitude":-5.25565, "accuracy":"11", "context":0, "place_id":"lTg5v1dWVLKUlfs", "woeid":"768778", "geo_is_family":0, "geo_is_friend":0, "geo_is_contact":0, "geo_is_public":1, "media":"photo", "media_status":"ready"}, {"id":"10346281305", "owner":"84873895@N08", "secret":"eacdbd2062", "server":"5474", "farm":6, "title":"Ins\u00e9parables", "ispublic":1, "isfriend":0, "isfamily":0, "safe":1, "ownername":"Marie Jestin", "latitude":48.651964, "longitude":-4.195404, "accuracy":"10", "context":0, "place_id":"ZSPSl7BXU7xM9ZU", "woeid":"616986", "geo_is_family":0, "geo_is_friend":0, "geo_is_contact":0, "geo_is_public":1, "media":"photo", "media_status":"ready"}, {"id":"9651686807", "owner":"84873895@N08", "secret":"3985067bf7", "server":"5453", "farm":6, "title":"Vite, allons voir la nouvelle p\u00e2ture", "ispublic":1, "isfriend":0, "isfamily":0, "safe":1, "ownername":"Marie Jestin", "latitude":48.651056, "longitude":-4.191284, "accuracy":"10", "context":0, "place_id":"ZSPSl7BXU7xM9ZU", "woeid":"616986", "geo_is_family":0, "geo_is_friend":0, "geo_is_contact":0, "geo_is_public":1, "media":"photo", "media_status":"ready"}, {"id":"9556588742", "owner":"93269402@N08", "secret":"41b4afe05d", "server":"3744", "farm":4, "title":"Hopsj\u00f8brygga, Hitra, Norway.", "ispublic":1, "isfriend":0, "isfamily":0, "safe":1, "ownername":"Bhalalhaika", "latitude":63.628755, "longitude":8.721518, "accuracy":"16", "context":0, "place_id":"QaO293xUV7Lk9Jmvtg", "woeid":"55871644", "geo_is_family":0, "geo_is_friend":0, "geo_is_contact":0, "geo_is_public":1, "media":"photo", "media_status":"ready"}, {"id":"9335909733", "owner":"25959337@N00", "secret":"3a1b3a22f7", "server":"3681", "farm":4, "title":"Partly fogged on J\u00f6kulsarlon", "ispublic":1, "isfriend":0, "isfamily":0, "safe":1, "ownername":"Martin Ystenes", "latitude":64.052077, "longitude":-16.169815, "accuracy":"10", "context":0, "place_id":"L30o2XlTUb6ZXW0u", "woeid":"2345690", "geo_is_family":0, "geo_is_friend":0, "geo_is_contact":0, "geo_is_public":1, "media":"photo", "media_status":"ready"}, {"id":"9280346831", "owner":"25959337@N00", "secret":"8cb09dbeec", "server":"3709", "farm":4, "title":"Lupines, Hekla and horses", "ispublic":1, "isfriend":0, "isfamily":0, "safe":1, "ownername":"Martin Ystenes", "latitude":64.043588, "longitude":-19.818477, "accuracy":"16", "context":0, "place_id":"7m1CyztTUb7Ng2Ot", "woeid":"2345687", "geo_is_family":0, "geo_is_friend":0, "geo_is_contact":0, "geo_is_public":1, "media":"photo", "media_status":"ready"}, {"id":"8961329024", "owner":"26849514@N06", "secret":"1613b56b8f", "server":"3829", "farm":4, "title":"Take the bike in Bukhara, Uzbekistan ( Unesco  world  heritage)", "ispublic":1, "isfriend":0, "isfamily":0, "safe":0, "ownername":"Frans.Sellies", "latitude":39.776277, "longitude":64.41245, "accuracy":"16", "context":0, "place_id":"JoHiONxTUL18fCkf", "woeid":"2272540", "geo_is_family":0, "geo_is_friend":0, "geo_is_contact":0, "geo_is_public":1, "media":"photo", "media_status":"ready"}, {"id":"8853356413", "owner":"46154217@N07", "secret":"18bf4e1e8a", "server":"7410", "farm":8, "title":"framed, to keep  for a rainy day", "ispublic":1, "isfriend":0, "isfamily":0, "safe":0, "ownername":"jjamv", "latitude":40.703164, "longitude":14.482041, "accuracy":"14", "context":0, "place_id":"wd2xQ0FWU7mn5PQ", "woeid":"713330", "geo_is_family":0, "geo_is_friend":0, "geo_is_contact":0, "geo_is_public":1, "media":"photo", "media_status":"ready"}, {"id":"8740510523", "owner":"35895492@N05", "secret":"418df45881", "server":"7281", "farm":8, "title":"ElCalifaEnSuPatio", "ispublic":1, "isfriend":0, "isfamily":0, "safe":1, "ownername":"Z\u00fa S\u00e1nchez", "latitude":37.880273, "longitude":-4.780426, "accuracy":"11", "context":0, "place_id":"4O2OmxZWV7JVhFk", "woeid":"758007", "geo_is_family":0, "geo_is_friend":0, "geo_is_contact":0, "geo_is_public":1, "media":"photo", "media_status":"ready"}, {"id":"8435847698", "owner":"76550850@N04", "secret":"fd0f0f5454", "server":"8088", "farm":9, "title":"piensa con el coraz\u00f3n", "ispublic":1, "isfriend":0, "isfamily":0, "safe":0, "ownername":"mesana62", "latitude":37.282901, "longitude":-5.92813, "accuracy":"11", "context":0, "place_id":"HuUh..hWV7ICcwo", "woeid":"758816", "geo_is_family":0, "geo_is_friend":0, "geo_is_contact":0, "geo_is_public":1, "media":"photo", "media_status":"ready"}, {"id":"8433964310", "owner":"40760810@N05", "secret":"bd288dd1a9", "server":"8509", "farm":9, "title":"Buon S.Valentino !", "ispublic":1, "isfriend":0, "isfamily":0, "safe":1, "ownername":"Orione Photographer\uf8ff", "latitude":43.552921, "longitude":10.319999, "accuracy":"11", "context":0, "place_id":"tbXvxZBWU71IssI", "woeid":"717348", "geo_is_family":0, "geo_is_friend":0, "geo_is_contact":0, "geo_is_public":1, "media":"photo", "media_status":"ready"}, {"id":"8087263765", "owner":"70139913@N02", "secret":"de79f9b5e7", "server":"8473", "farm":9, "title":"Leuchtturm Hohe Weg (Bild 2)", "ispublic":1, "isfriend":0, "isfamily":0, "safe":1, "ownername":"MaiGoede", "latitude":53.8483, "longitude":8.031349, "accuracy":"10", "context":0, "place_id":"2R.syuxTUb70Hr7G", "woeid":"2345483", "geo_is_family":0, "geo_is_friend":0, "geo_is_contact":0, "geo_is_public":1, "media":"photo", "media_status":"ready"}, {"id":"8011354993", "owner":"25959337@N00", "secret":"d2bbf6ab1a", "server":"8295", "farm":9, "title":"Sykkylven sett fra s\u00f8r", "ispublic":1, "isfriend":0, "isfamily":0, "safe":0, "ownername":"Martin Ystenes", "latitude":62.285165, "longitude":6.612224, "accuracy":"13", "context":0, "place_id":"JygFF8hZVL_4YIY", "woeid":"865644", "geo_is_family":0, "geo_is_friend":0, "geo_is_contact":0, "geo_is_public":1, "media":"photo", "media_status":"ready"}, {"id":"7822870438", "owner":"84873895@N08", "secret":"945f382ee2", "server":"8290", "farm":9, "title":"Dirinon fete de la moisson 2012", "ispublic":1, "isfriend":0, "isfamily":0, "safe":1, "ownername":"Marie Jestin", "latitude":48.390914, "longitude":-4.345092, "accuracy":"9", "context":0, "place_id":"1SmlSWVUWrIBZsY", "woeid":"588797", "geo_is_family":0, "geo_is_friend":0, "geo_is_contact":0, "geo_is_public":1, "media":"photo", "media_status":"ready"}, {"id":"7693859818", "owner":"67430875@N03", "secret":"b39a8a66e0", "server":"8142", "farm":9, "title":"Ventana abierta \/ Open window", "ispublic":1, "isfriend":0, "isfamily":0, "safe":0, "ownername":"Hernan Pi\u00f1era", "latitude":-34.610853, "longitude":-58.378257, "accuracy":"14", "context":0, "place_id":"k0_HEaJSUbv68z0", "woeid":"331513", "geo_is_family":0, "geo_is_friend":0, "geo_is_contact":0, "geo_is_public":1, "media":"photo", "media_status":"ready"}, {"id":"7487831352", "owner":"38583880@N00", "secret":"3bf154b009", "server":"7137", "farm":8, "title":"Rio de Janeiro sob uma camada de polui\u00e7\u00e3o - Rio de Janeiro under pollution", "ispublic":1, "isfriend":0, "isfamily":0, "safe":0, "ownername":"rbpdesigner", "latitude":-22.945114, "longitude":-43.196387, "accuracy":"16", "context":0, "place_id":"3zn3YeVUV7M7GCXybA", "woeid":"55944356", "geo_is_family":0, "geo_is_friend":0, "geo_is_contact":0, "geo_is_public":1, "media":"photo", "media_status":"ready"}, {"id":"6860805302", "owner":"32438882@N07", "secret":"b4d30b7138", "server":"7244", "farm":8, "title":"Romulea clusiana por TeresalaLoba", "ispublic":1, "isfriend":0, "isfamily":0, "safe":1, "ownername":"TeresalaLoba", "latitude":42.16046, "longitude":-8.819553, "accuracy":"16", "context":0, "place_id":"IKGLe9RTULwvNgSAtA", "woeid":"22661272", "geo_is_family":0, "geo_is_friend":0, "geo_is_contact":0, "geo_is_public":1, "media":"photo", "media_status":"ready"}, {"id":"6433716773", "owner":"71208464@N08", "secret":"03af0ba5bf", "server":"7154", "farm":8, "title":"sleeping duckling", "ispublic":1, "isfriend":0, "isfamily":0, "safe":1, "ownername":"Jake Blues Photography", "latitude":50.125599, "longitude":8.667719, "accuracy":"14", "context":0, "place_id":"Z0FRRfRXV7oIeew", "woeid":"650272", "geo_is_family":0, "geo_is_friend":0, "geo_is_contact":0, "geo_is_public":1, "media":"photo", "media_status":"ready"}, {"id":"6165186077", "owner":"29394931@N06", "secret":"e18277755b", "server":"6158", "farm":7, "title":"Grand Central Terminal, New York", "ispublic":1, "isfriend":0, "isfamily":0, "safe":1, "ownername":"\u2203Scape", "latitude":40.752747, "longitude":-73.977196, "accuracy":"16", "context":0, "place_id":"96sb7fdTWr18qKQRBg", "woeid":"28751381", "geo_is_family":0, "geo_is_friend":0, "geo_is_contact":0, "geo_is_public":1, "media":"photo", "media_status":"ready"}, {"id":"6159534506", "owner":"25341432@N08", "secret":"fd1b4bf8ee", "server":"6195", "farm":7, "title":"I \u2665 Oxford Street", "ispublic":1, "isfriend":0, "isfamily":0, "safe":0, "ownername":"jonron239", "latitude":51.515299, "longitude":-0.142328, "accuracy":"15", "context":0, "place_id":"GVul7FhTUrps5khJOA", "woeid":"20094361", "geo_is_family":0, "geo_is_friend":0, "geo_is_contact":0, "geo_is_public":1, "media":"photo", "media_status":"ready"}, {"id":"6120074279", "owner":"61674778@N07", "secret":"77a0a5bc63", "server":"6185", "farm":7, "title":"Mari\u00eblle, Cotswolds 2011: Tall lady", "ispublic":1, "isfriend":0, "isfamily":0, "safe":1, "ownername":"mdiepraam", "latitude":52.107664, "longitude":-1.465129, "accuracy":"12", "context":0, "place_id":"jqCC0XNSWr0egQ", "woeid":"38790", "geo_is_family":0, "geo_is_friend":0, "geo_is_contact":0, "geo_is_public":1, "media":"photo", "media_status":"ready"}]}, "stat":"ok"}