{"photos":{"page":24,"pages":26135,"perpage":60,"total":"1568046","photo":[{"id":"14030173856","owner":"57761648@N02","secret":"bc2d40a55c","server":"7424","farm":8,"title":"the splendour of my court state ...","ispublic":1,"isfriend":0,"isfamily":0,"safe":0,"ownername":"David Kracht","latitude":48.803149,"longitude":2.119063,"accuracy":"16","context":0,"place_id":"5Xc3i_tQULwf7aPCGQ","woeid":"12640325","geo_is_family":0,"geo_is_friend":0,"geo_is_contact":0,"geo_is_public":1,"media":"photo","media_status":"ready"},{"id":"14028711496","owner":"100063725@N06","secret":"f3ff45e3cb","server":"7179","farm":8,"title":"Remando al atardecer","ispublic":1,"isfriend":0,"isfamily":0,"safe":0,"ownername":"Antonio Chac","latitude":36.505126,"longitude":-4.891104,"accuracy":"16","context":0,"place_id":"b6ANCk5WVLwQivI","woeid":"766537","geo_is_family":0,"geo_is_friend":0,"geo_is_contact":0,"geo_is_public":1,"media":"photo","media_status":"ready"},{"id":"14043980911","owner":"95549570@N00","secret":"1dc64a1ac9","server":"7061","farm":8,"title":"Friendship doesn't know skin color","ispublic":1,"isfriend":0,"isfamily":0,"safe":0,"ownername":"Giulio Magnifico","latitude":46.07402,"longitude":13.229622,"accuracy":"16","context":0,"place_id":"VnV_nEJWUL_PH4Y","woeid":"725383","geo_is_family":0,"geo_is_friend":0,"geo_is_contact":0,"geo_is_public":1,"media":"photo","media_status":"ready"},{"id":"14040973305","owner":"90634379@N06","secret":"51ab09ab44","server":"5502","farm":6,"title":"Just close your eyes and forget ...","ispublic":1,"isfriend":0,"isfamily":0,"safe":0,"ownername":"Lilian_Anadan","latitude":-22.880769,"longitude":-43.103889,"accuracy":"11","context":0,"place_id":"ZiIkumVVV7_X.Ug","woeid":"455891","geo_is_family":0,"geo_is_friend":0,"geo_is_contact":0,"geo_is_public":1,"media":"photo","media_status":"ready"},{"id":"14036743494","owner":"36217762@N00","secret":"0af1349c2b","server":"7098","farm":8,"title":"Dreamland .....","ispublic":1,"isfriend":0,"isfamily":0,"safe":0,"ownername":"Pixelm\u00e4dchen6","latitude":52.532866,"longitude":13.386368,"accuracy":"15","context":0,"place_id":"zot2ouJXUbKOJRM","woeid":"638242","geo_is_family":0,"geo_is_friend":0,"geo_is_contact":0,"geo_is_public":1,"media":"photo","media_status":"ready"},{"id":"14012205386","owner":"57761648@N02","secret":"582d01292b","server":"7459","farm":8,"title":"stereotyped sujet...","ispublic":1,"isfriend":0,"isfamily":0,"safe":0,"ownername":"David Kracht","latitude":48.862252,"longitude":2.288858,"accuracy":"16","context":0,"place_id":"hytGYNFUV7LeiExhTQ","woeid":"55843834","geo_is_family":0,"geo_is_friend":0,"geo_is_contact":0,"geo_is_public":1,"media":"photo","media_status":"ready"},{"id":"14030018711","owner":"98265926@N00","secret":"e7cbe4aba2","server":"7441","farm":8,"title":"9","ispublic":1,"isfriend":0,"isfamily":0,"safe":0,"ownername":"barbera*","latitude":43.304116,"longitude":5.367786,"accuracy":"15","context":0,"place_id":"McLkVNVXU7pI4ks","woeid":"610264","geo_is_family":0,"geo_is_friend":0,"geo_is_contact":0,"geo_is_public":1,"media":"photo","media_status":"ready"},{"id":"14029248082","owner":"8618958@N06","secret":"e0d6415918","server":"2937","farm":3,"title":"LANDMANNALAUGAR","ispublic":1,"isfriend":0,"isfamily":0,"safe":0,"ownername":"euskadi 69","latitude":63.919265,"longitude":-19.047546,"accuracy":"7","context":0,"place_id":"7m1CyztTUb7Ng2Ot","woeid":"2345687","geo_is_family":0,"geo_is_friend":0,"geo_is_contact":0,"geo_is_public":1,"media":"photo","media_status":"ready"},{"id":"14028761932","owner":"11994078@N04","secret":"c4ba8fca60","server":"2895","farm":3,"title":"DSCF9928 ibis and me - ON EXPLORE # 66","ispublic":1,"isfriend":0,"isfamily":0,"safe":0,"ownername":"pinktigger","latitude":46.130765,"longitude":13.087849,"accuracy":"16","context":0,"place_id":"u4l0eP5WU79rtso","woeid":"715230","geo_is_family":0,"geo_is_friend":0,"geo_is_contact":0,"geo_is_public":1,"media":"photo","media_status":"ready"},{"id":"14027648771","owner":"48988488@N04","secret":"d2985c9d85","server":"7103","farm":8,"title":"asterischi","ispublic":1,"isfriend":0,"isfamily":0,"safe":0,"ownername":"claudius1954","latitude":45.960935,"longitude":9.16294,"accuracy":"16","context":0,"place_id":"SG_Qwv1TUrvR7MN.CQ","woeid":"20134320","geo_is_family":0,"geo_is_friend":0,"geo_is_contact":0,"geo_is_public":1,"media":"photo","media_status":"ready"},{"id":"14022074941","owner":"48470761@N07","secret":"e28af996a2","server":"7417","farm":8,"title":"erikharstrom-Spring 2014-0149","ispublic":1,"isfriend":0,"isfamily":0,"safe":0,"ownername":"Erik Harstr\u00f6m","latitude":46.352615,"longitude":6.405715,"accuracy":"11","context":0,"place_id":"rI0GGzNTW7lDxZPHkA","woeid":"29329893","geo_is_family":0,"geo_is_friend":0,"geo_is_contact":0,"geo_is_public":1,"media":"photo","media_status":"ready"},{"id":"14022324484","owner":"57761648@N02","secret":"1dc5561278","server":"2934","farm":3,"title":"a lithic angel is floating up ...","ispublic":1,"isfriend":0,"isfamily":0,"safe":0,"ownername":"David Kracht","latitude":48.886552,"longitude":2.342622,"accuracy":"16","context":0,"place_id":"IFTbeKJUV7LF35bKtA","woeid":"55843852","geo_is_family":0,"geo_is_friend":0,"geo_is_contact":0,"geo_is_public":1,"media":"photo","media_status":"ready"},{"id":"14036793013","owner":"46176561@N02","secret":"82552f0f34","server":"7079","farm":8,"title":"Rapsfeld 2 - rape field 2","ispublic":1,"isfriend":0,"isfamily":0,"safe":0,"ownername":"fleckchen","latitude":50.565112,"longitude":12.34833,"accuracy":"15","context":0,"place_id":"8SBHncRXVbuYf.4","woeid":"671206","geo_is_family":0,"geo_is_friend":0,"geo_is_contact":0,"geo_is_public":1,"media":"photo","media_status":"ready"},{"id":"14036173493","owner":"60123661@N08","secret":"50174d8506","server":"7434","farm":8,"title":"Newborn","ispublic":1,"isfriend":0,"isfamily":0,"safe":0,"ownername":"Kataaku","latitude":43.58015,"longitude":7.12123,"accuracy":"11","context":0,"place_id":"pyk5L_ZUVbzvfUs","woeid":"576272","geo_is_family":0,"geo_is_friend":0,"geo_is_contact":0,"geo_is_public":1,"media":"photo","media_status":"ready"},{"id":"14012425221","owner":"66644631@N05","secret":"4457acf601","server":"7182","farm":8,"title":"pad saumaon and vegetables [03042014-IMG_1469]","ispublic":1,"isfriend":0,"isfamily":0,"safe":0,"ownername":"jmlpyt","latitude":48.856918,"longitude":2.341209,"accuracy":"11","context":0,"place_id":"EsIQUYZXU79_kEA","woeid":"615702","geo_is_family":0,"geo_is_friend":0,"geo_is_contact":0,"geo_is_public":1,"media":"photo","media_status":"ready"},{"id":"14015604185","owner":"57761648@N02","secret":"4bdfd41410","server":"5065","farm":6,"title":"the consumer's black hole ...","ispublic":1,"isfriend":0,"isfamily":0,"safe":0,"ownername":"David Kracht","latitude":48.873433,"longitude":2.333338,"accuracy":"16","context":0,"place_id":"9s06vldUV7JEzx_hgA","woeid":"55843788","geo_is_family":0,"geo_is_friend":0,"geo_is_contact":0,"geo_is_public":1,"media":"photo","media_status":"ready"},{"id":"14004645242","owner":"11514937@N03","secret":"bfb50f71ec","server":"2916","farm":3,"title":"Facing to the Indian (2) - IMG_3515","ispublic":1,"isfriend":0,"isfamily":0,"safe":0,"ownername":"wegstudio","latitude":18.492613,"longitude":-66.641875,"accuracy":"16","context":0,"place_id":"Zgz8RxdQVLt5Kwc","woeid":"161225","geo_is_family":0,"geo_is_friend":0,"geo_is_contact":0,"geo_is_public":1,"media":"photo","media_status":"ready"},{"id":"14005890314","owner":"53340207@N07","secret":"140ec4a555","server":"2930","farm":3,"title":"L' Envol","ispublic":1,"isfriend":0,"isfamily":0,"safe":0,"ownername":"Pifou 2010","latitude":48.862759,"longitude":2.335571,"accuracy":"16","context":0,"place_id":"R13rUF1UV7LQLoV4Ig","woeid":"55843751","geo_is_family":0,"geo_is_friend":0,"geo_is_contact":0,"geo_is_public":1,"media":"photo","media_status":"ready"},{"id":"13993873344","owner":"8645675@N02","secret":"0bf7e4ab3d","server":"7093","farm":8,"title":"not again a Dandelion","ispublic":1,"isfriend":0,"isfamily":0,"safe":0,"ownername":"Drachenfanger","latitude":36.84703,"longitude":-76.104787,"accuracy":"16","context":0,"place_id":"GNLKBZtTVr550_Tz","woeid":"2444457","geo_is_family":0,"geo_is_friend":0,"geo_is_contact":0,"geo_is_public":1,"media":"photo","media_status":"ready"},{"id":"13969874226","owner":"12039065@N00","secret":"4dbd367bfd","server":"7108","farm":8,"title":"Laguna Huinfiuca + video","ispublic":1,"isfriend":0,"isfamily":0,"safe":0,"ownername":"Mono Andes","latitude":-39.579413,"longitude":-71.534578,"accuracy":"16","context":0,"place_id":"7GKvwPdTUrrmSk.s2A","woeid":"20071043","geo_is_family":0,"geo_is_friend":0,"geo_is_contact":0,"geo_is_public":1,"media":"photo","media_status":"ready"},{"id":"13992402875","owner":"86976227@N04","secret":"58c0f608f3","server":"7317","farm":8,"title":"Moineau domestique","ispublic":1,"isfriend":0,"isfamily":0,"safe":0,"ownername":"JeanJoachim","latitude":43.488571,"longitude":4.405887,"accuracy":"16","context":0,"place_id":".iecQEtXUL2VZGE","woeid":"627780","geo_is_family":0,"geo_is_friend":0,"geo_is_contact":0,"geo_is_public":1,"media":"photo","media_status":"ready"},{"id":"13984296454","owner":"72738192@N00","secret":"86af65cb39","server":"5275","farm":6,"title":"S H A D O W S. Marrakesh","ispublic":1,"isfriend":0,"isfamily":0,"safe":0,"ownername":"Claude Renault Photography","latitude":31.635844,"longitude":-8.003196,"accuracy":"12","context":0,"place_id":"BB5YC1tQV7m3SIVd","woeid":"1537782","geo_is_family":0,"geo_is_friend":0,"geo_is_contact":0,"geo_is_public":1,"media":"photo","media_status":"ready"},{"id":"13971967971","owner":"16892655@N07","secret":"7304474725","server":"7310","farm":8,"title":"Virgen de la Paz","ispublic":1,"isfriend":0,"isfamily":0,"safe":0,"ownername":"anrapu","latitude":37.385912,"longitude":-5.993,"accuracy":"16","context":0,"place_id":"wS127mJTUrigW8AezQ","woeid":"20220182","geo_is_family":0,"geo_is_friend":0,"geo_is_contact":0,"geo_is_public":1,"media":"photo","media_status":"ready"},{"id":"13974788525","owner":"65949682@N00","secret":"8e8acf0f12","server":"7222","farm":8,"title":"Just remember nothings brighter","ispublic":1,"isfriend":0,"isfamily":0,"safe":0,"ownername":"OR_U","latitude":39.471781,"longitude":-0.37508,"accuracy":"16","context":0,"place_id":"aOaiaoRTUrjdUgVu0g","woeid":"20220220","geo_is_family":0,"geo_is_friend":0,"geo_is_contact":0,"geo_is_public":1,"media":"photo","media_status":"ready"},{"id":"13973782615","owner":"59852454@N03","secret":"4c0fff1380","server":"2905","farm":3,"title":"Don't Leave Me Waiting","ispublic":1,"isfriend":0,"isfamily":0,"safe":0,"ownername":"Pavel P.","latitude":49.849866,"longitude":18.270019,"accuracy":"16","context":0,"place_id":"IXEXJcZWW7yT6Jk","woeid":"796798","geo_is_family":0,"geo_is_friend":0,"geo_is_contact":0,"geo_is_public":1,"media":"photo","media_status":"ready"},{"id":"13969921302","owner":"48988488@N04","secret":"ffa6b91480","server":"7272","farm":8,"title":"non molla","ispublic":1,"isfriend":0,"isfamily":0,"safe":0,"ownername":"claudius1954","latitude":46.035019,"longitude":9.640116,"accuracy":"15","context":0,"place_id":"YxkVrDhWU7IvIHk","woeid":"718305","geo_is_family":0,"geo_is_friend":0,"geo_is_contact":0,"geo_is_public":1,"media":"photo","media_status":"ready"},{"id":"13948782526","owner":"22342784@N04","secret":"816a8368f5","server":"7438","farm":8,"title":"Le phare de Port La Nouvelle [Explore #21 23\/4\/2014]","ispublic":1,"isfriend":0,"isfamily":0,"safe":0,"ownername":"l'absinthe (www.vipiesse-foto.com)","latitude":43.013224,"longitude":3.067302,"accuracy":"15","context":0,"place_id":"inZAWydQULxYswPo1Q","woeid":"12663858","geo_is_family":0,"geo_is_friend":0,"geo_is_contact":0,"geo_is_public":1,"media":"photo","media_status":"ready"},{"id":"13948085656","owner":"66460484@N06","secret":"c476ffbf31","server":"5056","farm":6,"title":"Val Badia","ispublic":1,"isfriend":0,"isfamily":0,"safe":0,"ownername":"David Ruiz Luna","latitude":46.551418,"longitude":11.87415,"accuracy":"11","context":0,"place_id":"0849Ol5WU74lK0Q","woeid":"714736","geo_is_family":0,"geo_is_friend":0,"geo_is_contact":0,"geo_is_public":1,"media":"photo","media_status":"ready"},{"id":"13989312233","owner":"95549570@N00","secret":"f2f6e79a6d","server":"2898","farm":3,"title":"The light drinker","ispublic":1,"isfriend":0,"isfamily":0,"safe":0,"ownername":"Giulio Magnifico","latitude":46.07402,"longitude":13.229622,"accuracy":"16","context":0,"place_id":"VnV_nEJWUL_PH4Y","woeid":"725383","geo_is_family":0,"geo_is_friend":0,"geo_is_contact":0,"geo_is_public":1,"media":"photo","media_status":"ready"},{"id":"13964031001","owner":"33159605@N07","secret":"e569f485b3","server":"7328","farm":8,"title":"A walk in the Park.","ispublic":1,"isfriend":0,"isfamily":0,"safe":0,"ownername":"Tobysmum","latitude":43.337617,"longitude":3.220646,"accuracy":"15","context":0,"place_id":"udb0vQJUVbMpSRs","woeid":"579813","geo_is_family":0,"geo_is_friend":0,"geo_is_contact":0,"geo_is_public":1,"media":"photo","media_status":"ready"},{"id":"13014481093","owner":"26849514@N06","secret":"ac5716caa6","server":"7430","farm":8,"title":"Fortress in Muiden, the Netherlands (Part of the Unesco site: Defence line of Amsterdam)","ispublic":1,"isfriend":0,"isfamily":0,"safe":1,"ownername":"Frans.Sellies","latitude":52.335981,"longitude":5.067025,"accuracy":"16","context":0,"place_id":"t7qEM01WUbsiajU","woeid":"731817","geo_is_family":0,"geo_is_friend":0,"geo_is_contact":0,"geo_is_public":1,"media":"photo","media_status":"ready"},{"id":"12817395155","owner":"26849514@N06","secret":"0f99f97f05","server":"7301","farm":8,"title":"Wadi Darbat, Oman","ispublic":1,"isfriend":0,"isfamily":0,"safe":1,"ownername":"Frans.Sellies","latitude":17.06236,"longitude":54.44149,"accuracy":"11","context":0,"place_id":"Qe9hBk5TULy6niYI","woeid":"2267156","geo_is_family":0,"geo_is_friend":0,"geo_is_contact":0,"geo_is_public":1,"media":"photo","media_status":"ready"},{"id":"11432676163","owner":"54612410@N05","secret":"4b4f9e6eaa","server":"5543","farm":6,"title":"Lofoten - Reine - Norwegen - Norway - Norge","ispublic":1,"isfriend":0,"isfamily":0,"safe":1,"ownername":"gurou45","latitude":67.940038,"longitude":13.07682,"accuracy":"16","context":0,"place_id":".Rko95lZVLj.cwQ","woeid":"862886","geo_is_family":0,"geo_is_friend":0,"geo_is_contact":0,"geo_is_public":1,"media":"photo","media_status":"ready"},{"id":"10740627793","owner":"7649805@N07","secret":"8ea74705de","server":"3715","farm":4,"title":"Notre-Dame Paris","ispublic":1,"isfriend":0,"isfamily":0,"safe":0,"ownername":"pattoise","latitude":48.852065,"longitude":2.344207,"accuracy":"9","context":0,"place_id":"EsIQUYZXU79_kEA","woeid":"615702","geo_is_family":0,"geo_is_friend":0,"geo_is_contact":0,"geo_is_public":1,"media":"photo","media_status":"ready"},{"id":"10419989713","owner":"44743466@N05","secret":"c35cc6b6d6","server":"7318","farm":8,"title":"il capo - the chief","ispublic":1,"isfriend":0,"isfamily":0,"safe":1,"ownername":"_esse_","latitude":39.221732,"longitude":9.15016,"accuracy":"13","context":0,"place_id":"aojulMtWU7svHzc","woeid":"711665","geo_is_family":0,"geo_is_friend":0,"geo_is_contact":0,"geo_is_public":1,"media":"photo","media_status":"ready"},{"id":"9894503335","owner":"25959337@N00","secret":"f63e59e4f1","server":"3736","farm":4,"title":"\u00d8rsta, litt vest for sentrum","ispublic":1,"isfriend":0,"isfamily":0,"safe":1,"ownername":"Martin Ystenes - celebrating 5 million views","latitude":62.190058,"longitude":6.082048,"accuracy":"13","context":0,"place_id":"Af4iZx9QV7oYKHAyVA","woeid":"15000782","geo_is_family":0,"geo_is_friend":0,"geo_is_contact":0,"geo_is_public":1,"media":"photo","media_status":"ready"},{"id":"9712926048","owner":"100063725@N06","secret":"0903dc3502","server":"2807","farm":3,"title":"Acantilados de la costa de Lagos (Algarve portugu\u00e9s)","ispublic":1,"isfriend":0,"isfamily":0,"safe":1,"ownername":"Antonio Chac","latitude":37.082023,"longitude":-8.690185,"accuracy":"11","context":0,"place_id":"wZ4Y8ERWVri4rPY","woeid":"742418","geo_is_family":0,"geo_is_friend":0,"geo_is_contact":0,"geo_is_public":1,"media":"photo","media_status":"ready"},{"id":"9372229541","owner":"25959337@N00","secret":"4e2f5e642e","server":"7455","farm":8,"title":"Stakkholtsgj\u00e1 in Thorsm\u00f6rk","ispublic":1,"isfriend":0,"isfamily":0,"safe":1,"ownername":"Martin Ystenes - celebrating 5 million views","latitude":63.683878,"longitude":-19.623985,"accuracy":"11","context":0,"place_id":"LQtxGLZTUb61KmtE","woeid":"2345700","geo_is_family":0,"geo_is_friend":0,"geo_is_contact":0,"geo_is_public":1,"media":"photo","media_status":"ready"},{"id":"9278250563","owner":"25959337@N00","secret":"b092b592d9","server":"5463","farm":6,"title":"Kverkfj\u00f6ll road","ispublic":1,"isfriend":0,"isfamily":0,"safe":1,"ownername":"Martin Ystenes - celebrating 5 million views","latitude":64.781147,"longitude":-16.586608,"accuracy":"10","context":0,"place_id":"ZtQTQ_hTUb6uqVhu","woeid":"2345705","geo_is_family":0,"geo_is_friend":0,"geo_is_contact":0,"geo_is_public":1,"media":"photo","media_status":"ready"},{"id":"9207025452","owner":"29394931@N06","secret":"e8fef260cf","server":"5537","farm":6,"title":"Staircase","ispublic":1,"isfriend":0,"isfamily":0,"safe":1,"ownername":"\u2203Scape","latitude":48.861101,"longitude":2.337867,"accuracy":"16","context":0,"place_id":"R13rUF1UV7LQLoV4Ig","woeid":"55843751","geo_is_family":0,"geo_is_friend":0,"geo_is_contact":0,"geo_is_public":1,"media":"photo","media_status":"ready"},{"id":"8735269740","owner":"35895492@N05","secret":"543816dca7","server":"7311","farm":8,"title":"Cordoba, que m\u00e1s","ispublic":1,"isfriend":0,"isfamily":0,"safe":1,"ownername":"Z\u00fa S\u00e1nchez","latitude":37.877941,"longitude":-4.778399,"accuracy":"11","context":0,"place_id":"4O2OmxZWV7JVhFk","woeid":"758007","geo_is_family":0,"geo_is_friend":0,"geo_is_contact":0,"geo_is_public":1,"media":"photo","media_status":"ready"},{"id":"8716988010","owner":"34726560@N00","secret":"14ac8cb512","server":"7358","farm":8,"title":"Red and gold","ispublic":1,"isfriend":0,"isfamily":0,"safe":0,"ownername":"Steve-h","latitude":53.338127,"longitude":-6.259079,"accuracy":"16","context":0,"place_id":"fjmHzRZUVLpKRgI","woeid":"560743","geo_is_family":0,"geo_is_friend":0,"geo_is_contact":0,"geo_is_public":1,"media":"photo","media_status":"ready"},{"id":"8521156615","owner":"27964309@N06","secret":"db89eeabba","server":"8088","farm":9,"title":"The landscape","ispublic":1,"isfriend":0,"isfamily":0,"safe":1,"ownername":"vittorio vida","latitude":46.431389,"longitude":13.593292,"accuracy":"10","context":0,"place_id":"aqlMVzNWU7.UyAwA","woeid":"7153335","geo_is_family":0,"geo_is_friend":0,"geo_is_contact":0,"geo_is_public":1,"media":"photo","media_status":"ready"},{"id":"8458236592","owner":"29394931@N06","secret":"e81c96f4a5","server":"8388","farm":9,"title":"Musee Gustave Moreau (EXPLORE! Feb.9 2013)","ispublic":1,"isfriend":0,"isfamily":0,"safe":1,"ownername":"\u2203Scape","latitude":48.877909,"longitude":2.33456,"accuracy":"16","context":0,"place_id":"hoV6GA5UV7LuY1viMQ","woeid":"55843787","geo_is_family":0,"geo_is_friend":0,"geo_is_contact":0,"geo_is_public":1,"media":"photo","media_status":"ready"},{"id":"8278200087","owner":"56398981@N03","secret":"45bbd2906b","server":"8081","farm":9,"title":"civilt\u00e0","ispublic":1,"isfriend":0,"isfamily":0,"safe":1,"ownername":"Tobia Scandolara Photographer","latitude":45.785758,"longitude":9.510459,"accuracy":"11","context":0,"place_id":"gDVQShhWUL.DO4g","woeid":"725480","geo_is_family":0,"geo_is_friend":0,"geo_is_contact":0,"geo_is_public":1,"media":"photo","media_status":"ready"},{"id":"8268234077","owner":"29394931@N06","secret":"50fa5521fd","server":"8351","farm":9,"title":"Rue des Barres (EXPLORE! Dec.12 2012)","ispublic":1,"isfriend":0,"isfamily":0,"safe":1,"ownername":"\u2203Scape","latitude":48.854868,"longitude":2.355059,"accuracy":"16","context":0,"place_id":"GPoA4aBUV7LCk1SJeQ","woeid":"55843763","geo_is_family":0,"geo_is_friend":0,"geo_is_contact":0,"geo_is_public":1,"media":"photo","media_status":"ready"},{"id":"7849154768","owner":"26849514@N06","secret":"c5b8577cc7","server":"8290","farm":9,"title":"Anne Frank, 1929 - 1945","ispublic":1,"isfriend":0,"isfamily":0,"safe":1,"ownername":"Frans.Sellies","latitude":52.767669,"longitude":9.927864,"accuracy":"13","context":0,"place_id":"7p0sxu5XUb0sqX0","woeid":"637661","geo_is_family":0,"geo_is_friend":0,"geo_is_contact":0,"geo_is_public":1,"media":"photo","media_status":"ready"},{"id":"6221633890","owner":"36426732@N05","secret":"e89ca3a9b4","server":"6166","farm":7,"title":"Notre dame church","ispublic":1,"isfriend":0,"isfamily":0,"safe":1,"ownername":"ZUCCONY","latitude":45.504339,"longitude":-73.556009,"accuracy":"16","context":0,"place_id":"xwkKkThTVLnn_qYMRA","woeid":"26332783","geo_is_family":0,"geo_is_friend":0,"geo_is_contact":0,"geo_is_public":1,"media":"photo","media_status":"ready"},{"id":"5706865168","owner":"8930636@N05","secret":"a1b76ba259","server":"2724","farm":3,"title":"Inde - Mumbai","ispublic":1,"isfriend":0,"isfamily":0,"safe":0,"ownername":"jmboyer","latitude":18.983895,"longitude":72.818756,"accuracy":"10","context":0,"place_id":"Y2r_yNpTULN66Mfu","woeid":"2295411","geo_is_family":0,"geo_is_friend":0,"geo_is_contact":0,"geo_is_public":1,"media":"photo","media_status":"ready"},{"id":"5689264969","owner":"11925274@N02","secret":"860b2423fe","server":"5150","farm":6,"title":"MARIETTA 15.1","ispublic":1,"isfriend":0,"isfamily":0,"safe":0,"ownername":"liontas-Andreas Droussiotis","latitude":34.750639,"longitude":32.47055,"accuracy":"11","context":0,"place_id":"HTlhO0JZVrvyjqc","woeid":"841401","geo_is_family":0,"geo_is_friend":0,"geo_is_contact":0,"geo_is_public":1,"media":"photo","media_status":"ready"},{"id":"5664553168","owner":"29394931@N06","secret":"b8f1e88583","server":"5022","farm":6,"title":"Salle de l'Op\u00e9ra Garnier, Paris","ispublic":1,"isfriend":0,"isfamily":0,"safe":0,"ownername":"\u2203Scape","latitude":48.871955,"longitude":2.331815,"accuracy":"15","context":0,"place_id":"9s06vldUV7JEzx_hgA","woeid":"55843788","geo_is_family":0,"geo_is_friend":0,"geo_is_contact":0,"geo_is_public":1,"media":"photo","media_status":"ready"},{"id":"4897195205","owner":"25959337@N00","secret":"aceaa68b93","server":"4073","farm":5,"title":"Good morning, Sweden","ispublic":1,"isfriend":0,"isfamily":0,"safe":0,"ownername":"Martin Ystenes - celebrating 5 million views","latitude":63.288078,"longitude":12.326488,"accuracy":"9","context":0,"place_id":"HzbouL5ZWrJGcRA","woeid":"888950","geo_is_family":0,"geo_is_friend":0,"geo_is_contact":0,"geo_is_public":1,"media":"photo","media_status":"ready"},{"id":"4892953063","owner":"40681760@N07","secret":"99664f917d","server":"4079","farm":5,"title":"Holy Mothers day","ispublic":1,"isfriend":0,"isfamily":0,"safe":1,"ownername":"alexandros9","latitude":36.419072,"longitude":25.488281,"accuracy":"7","context":0,"place_id":"WyitErpQUL_poaIfxw","woeid":"12591117","geo_is_family":0,"geo_is_friend":0,"geo_is_contact":0,"geo_is_public":1,"media":"photo","media_status":"ready"},{"id":"2917898739","owner":"68898571@N00","secret":"2f0e3ce144","server":"3107","farm":4,"title":"Naked Cowboy at Times Square - New York, USA","ispublic":1,"isfriend":0,"isfamily":0,"safe":0,"ownername":"Maciej Dakowicz","latitude":40.757513,"longitude":-73.98571,"accuracy":"15","context":0,"place_id":"byMt1GpTWrhtqOpahg","woeid":"28288823","geo_is_family":0,"geo_is_friend":0,"geo_is_contact":0,"geo_is_public":1,"media":"photo","media_status":"ready"},{"id":"2682504440","owner":"88482099@N00","secret":"5e766631c7","server":"3021","farm":4,"title":"The Eiffel tower in blue - 2","ispublic":1,"isfriend":0,"isfamily":0,"safe":0,"ownername":"jmvnoos in Paris","latitude":48.85647,"longitude":2.352511,"accuracy":"15","context":0,"place_id":"EsIQUYZXU79_kEA","woeid":"615702","geo_is_family":0,"geo_is_friend":0,"geo_is_contact":0,"geo_is_public":1,"media":"photo","media_status":"ready"},{"id":"14256536323","owner":"34288348@N07","secret":"22148156a2","server":"2898","farm":3,"title":"Sant'Ambrogio e Carlo al Corso (Explored)","ispublic":1,"isfriend":0,"isfamily":0,"safe":0,"ownername":"DameBoudicca","latitude":41.905423,"longitude":12.477775,"accuracy":"16","context":0,"place_id":"FphPyURWU7ux6h4","woeid":"711883","geo_is_family":0,"geo_is_friend":0,"geo_is_contact":0,"geo_is_public":1,"media":"photo","media_status":"ready"},{"id":"14048708690","owner":"38134034@N04","secret":"7836fce92b","server":"5536","farm":6,"title":"Once upon a time...","ispublic":1,"isfriend":0,"isfamily":0,"safe":0,"ownername":"blavandmaster","latitude":52.303092,"longitude":8.739251,"accuracy":"16","context":0,"place_id":"raqnreFXW7whJMc","woeid":"696564","geo_is_family":0,"geo_is_friend":0,"geo_is_contact":0,"geo_is_public":1,"media":"photo","media_status":"ready"},{"id":"14234786564","owner":"9196994@N08","secret":"490e01ea9c","server":"2921","farm":3,"title":"gira el mundo gira","ispublic":1,"isfriend":0,"isfamily":0,"safe":0,"ownername":"Ra\u00falRuiz","latitude":51.501062,"longitude":-0.122866,"accuracy":"15","context":0,"place_id":"9bQqh4JVVr5RVw","woeid":"44417","geo_is_family":0,"geo_is_friend":0,"geo_is_contact":0,"geo_is_public":1,"media":"photo","media_status":"ready"},{"id":"14233666885","owner":"73921696@N00","secret":"2f7be870e3","server":"2907","farm":3,"title":"Virginia Sweetspire","ispublic":1,"isfriend":0,"isfamily":0,"safe":0,"ownername":"marc50","latitude":34.285437,"longitude":-80.517876,"accuracy":"16","context":0,"place_id":"_d4iRmpTVrhS74LJ","woeid":"2426274","geo_is_family":0,"geo_is_friend":0,"geo_is_contact":0,"geo_is_public":1,"media":"photo","media_status":"ready"},{"id":"14046244740","owner":"49475392@N04","secret":"1329389dff","server":"5505","farm":6,"title":"As Is Tampa","ispublic":1,"isfriend":0,"isfamily":0,"safe":0,"ownername":"theo0023","latitude":27.939365,"longitude":-82.459173,"accuracy":"14","context":0,"place_id":"xRi6iFBUV7P.M8NsaA","woeid":"55982034","geo_is_family":0,"geo_is_friend":0,"geo_is_contact":0,"geo_is_public":1,"media":"photo","media_status":"ready"}]},"stat":"ok"}