{"photos":{"page":29,"pages":26138,"perpage":60,"total":"1568243","photo":[{"id":"14154092343","owner":"8231395@N04","secret":"028784dbbc","server":"7326","farm":8,"title":"Osprey returning to nest","ispublic":1,"isfriend":0,"isfamily":0,"safe":0,"ownername":"Ed Rosack","latitude":28.437358,"longitude":-81.730042,"accuracy":"16","context":0,"place_id":"qzBrfqRUV7PPgW4M2A","woeid":"55976141","geo_is_family":0,"geo_is_friend":0,"geo_is_contact":0,"geo_is_public":1,"media":"photo","media_status":"ready"},{"id":"13946647689","owner":"34731278@N05","secret":"b2859827c8","server":"2925","farm":3,"title":"Transported Heat II","ispublic":1,"isfriend":0,"isfamily":0,"safe":0,"ownername":"Adabo!","latitude":50.84115,"longitude":12.920587,"accuracy":"15","context":0,"place_id":"_.hlgz9XVrm_BLM","woeid":"643134","geo_is_family":0,"geo_is_friend":0,"geo_is_contact":0,"geo_is_public":1,"media":"photo","media_status":"ready"},{"id":"14129029381","owner":"96802108@N07","secret":"7366038836","server":"2920","farm":3,"title":"Scholeiou str.Plaka Athens","ispublic":1,"isfriend":0,"isfamily":0,"safe":0,"ownername":"mtritaki","latitude":37.973403,"longitude":23.729415,"accuracy":"16","context":0,"place_id":"PpgyISJYVLoAD9M","woeid":"960143","geo_is_family":0,"geo_is_friend":0,"geo_is_contact":0,"geo_is_public":1,"media":"photo","media_status":"ready"},{"id":"13945226009","owner":"66759125@N00","secret":"5590104b09","server":"2938","farm":3,"title":"","ispublic":1,"isfriend":0,"isfamily":0,"safe":0,"ownername":"Svein Nordrum","latitude":59.900991,"longitude":10.623435,"accuracy":"11","context":0,"place_id":"b99oIP1QV7qhC5HIDA","woeid":"15000608","geo_is_family":0,"geo_is_friend":0,"geo_is_contact":0,"geo_is_public":1,"media":"photo","media_status":"ready"},{"id":"13944655997","owner":"34619038@N00","secret":"91df7af0b4","server":"2939","farm":3,"title":"peaks.island \u2022 inukshuk","ispublic":1,"isfriend":0,"isfamily":0,"safe":0,"ownername":"origamidon","latitude":43.654405,"longitude":-70.198398,"accuracy":"16","context":0,"place_id":"7_uDfS9TVriPVDiN","woeid":"2429848","geo_is_family":0,"geo_is_friend":0,"geo_is_contact":0,"geo_is_public":1,"media":"photo","media_status":"ready"},{"id":"14130164375","owner":"72339619@N05","secret":"1ee8a5af4a","server":"7431","farm":8,"title":"To you.... because I trust you","ispublic":1,"isfriend":0,"isfamily":0,"safe":0,"ownername":"doniflo","latitude":41.040851,"longitude":28.986179,"accuracy":"11","context":0,"place_id":"l02DEdJTUb5XGlLZ","woeid":"2344116","geo_is_family":0,"geo_is_friend":0,"geo_is_contact":0,"geo_is_public":1,"media":"photo","media_status":"ready"},{"id":"13943220350","owner":"100063725@N06","secret":"8640994fa2","server":"2922","farm":3,"title":"Azul marino","ispublic":1,"isfriend":0,"isfamily":0,"safe":0,"ownername":"Antonio Chac","latitude":36.507419,"longitude":-4.874625,"accuracy":"16","context":0,"place_id":"b6ANCk5WVLwQivI","woeid":"766537","geo_is_family":0,"geo_is_friend":0,"geo_is_contact":0,"geo_is_public":1,"media":"photo","media_status":"ready"},{"id":"14128862314","owner":"57866871@N03","secret":"563dbe7821","server":"5465","farm":6,"title":"Colourful countryside","ispublic":1,"isfriend":0,"isfamily":0,"safe":1,"ownername":"snowyturner","latitude":50.348149,"longitude":-3.870792,"accuracy":"12","context":0,"place_id":"YtG3VTFQULyI68kL4Q","woeid":"12695918","geo_is_family":0,"geo_is_friend":0,"geo_is_contact":0,"geo_is_public":1,"media":"photo","media_status":"ready"},{"id":"14119461031","owner":"72339619@N05","secret":"a30283b529","server":"7434","farm":8,"title":"Aditus","ispublic":1,"isfriend":0,"isfamily":0,"safe":0,"ownername":"doniflo","latitude":41.028089,"longitude":28.97025,"accuracy":"11","context":0,"place_id":"l02DEdJTUb5XGlLZ","woeid":"2344116","geo_is_family":0,"geo_is_friend":0,"geo_is_contact":0,"geo_is_public":1,"media":"photo","media_status":"ready"},{"id":"13935841709","owner":"48988488@N04","secret":"c1ec77078f","server":"7333","farm":8,"title":"l'iglu\u0300","ispublic":1,"isfriend":0,"isfamily":0,"safe":0,"ownername":"claudius1954","latitude":45.898416,"longitude":9.448885,"accuracy":"16","context":0,"place_id":"lkW1yxJWU7Mni8g","woeid":"719138","geo_is_family":0,"geo_is_friend":0,"geo_is_contact":0,"geo_is_public":1,"media":"photo","media_status":"ready"},{"id":"14097974756","owner":"35084357@N06","secret":"f1d50e78a0","server":"5580","farm":6,"title":"Pont Aven","ispublic":1,"isfriend":0,"isfamily":0,"safe":0,"ownername":"flo 59","latitude":47.854291,"longitude":-3.748483,"accuracy":"14","context":0,"place_id":"nL5YgPNXU73sG_4","woeid":"617326","geo_is_family":0,"geo_is_friend":0,"geo_is_contact":0,"geo_is_public":1,"media":"photo","media_status":"ready"},{"id":"14117743772","owner":"17913004@N06","secret":"2e1bb25ec8","server":"7191","farm":8,"title":"Orange","ispublic":1,"isfriend":0,"isfamily":0,"safe":0,"ownername":"G.hostbuster","latitude":47.506939,"longitude":19.047482,"accuracy":"16","context":0,"place_id":"OxLxbfJZU71vnc4","woeid":"817488","geo_is_family":0,"geo_is_friend":0,"geo_is_contact":0,"geo_is_public":1,"media":"photo","media_status":"ready"},{"id":"14117275385","owner":"93461361@N05","secret":"1140027fc1","server":"2916","farm":3,"title":"shifting light","ispublic":1,"isfriend":0,"isfamily":0,"safe":0,"ownername":"Van Luvender","latitude":40.154966,"longitude":-75.865359,"accuracy":"15","context":0,"place_id":"jzn21ARTVr9SGg7D","woeid":"2454109","geo_is_family":0,"geo_is_friend":0,"geo_is_contact":0,"geo_is_public":1,"media":"photo","media_status":"ready"},{"id":"14135107063","owner":"59852454@N03","secret":"f1ab205ef9","server":"7062","farm":8,"title":"Car Wash","ispublic":1,"isfriend":0,"isfamily":0,"safe":0,"ownername":"Pavel P.","latitude":49.840468,"longitude":18.260633,"accuracy":"15","context":0,"place_id":"ud2d5W5WW7ndf2M","woeid":"793597","geo_is_family":0,"geo_is_friend":0,"geo_is_contact":0,"geo_is_public":1,"media":"photo","media_status":"ready"},{"id":"14133002583","owner":"29976933@N00","secret":"b00bc946a6","server":"7377","farm":8,"title":"Pesaro.","ispublic":1,"isfriend":0,"isfamily":0,"safe":0,"ownername":"Davide Filippini \u30c0\u30d3\u30c7\u30fb\u30d5\u30a3\u30ea\u30c3\u30d4\u30fc\u30cb","latitude":43.907632,"longitude":12.90945,"accuracy":"14","context":0,"place_id":"vROgxhdWULq3EF0","woeid":"720190","geo_is_family":0,"geo_is_friend":0,"geo_is_contact":0,"geo_is_public":1,"media":"photo","media_status":"ready"},{"id":"14132378543","owner":"27420180@N08","secret":"5d5cb5668f","server":"5536","farm":6,"title":"Paris","ispublic":1,"isfriend":0,"isfamily":0,"safe":0,"ownername":"A.G. Photographe","latitude":48.856357,"longitude":2.297687,"accuracy":"16","context":0,"place_id":"Gh_droFUV7JfPjFofw","woeid":"55843775","geo_is_family":0,"geo_is_friend":0,"geo_is_contact":0,"geo_is_public":1,"media":"photo","media_status":"ready"},{"id":"14112307485","owner":"33000359@N05","secret":"d237cbbe3a","server":"7066","farm":8,"title":"Crete","ispublic":1,"isfriend":0,"isfamily":0,"safe":0,"ownername":"derScheuch","latitude":43.194414,"longitude":11.520538,"accuracy":"11","context":0,"place_id":"Txy_tk1WU79uo4MR","woeid":"7153336","geo_is_family":0,"geo_is_friend":0,"geo_is_contact":0,"geo_is_public":1,"media":"photo","media_status":"ready"},{"id":"14132299053","owner":"8958205@N05","secret":"f777e05ec3","server":"2927","farm":3,"title":"Spain, Sevill, Europ","ispublic":1,"isfriend":0,"isfamily":0,"safe":0,"ownername":"juliachocis","latitude":37.382485,"longitude":-5.996321,"accuracy":"16","context":0,"place_id":"FhjD6wJTUriYZ5rdQw","woeid":"20220181","geo_is_family":0,"geo_is_friend":0,"geo_is_contact":0,"geo_is_public":1,"media":"photo","media_status":"ready"},{"id":"14084150916","owner":"20905078@N04","secret":"591aef0fd8","server":"5536","farm":6,"title":"","ispublic":1,"isfriend":0,"isfamily":0,"safe":0,"ownername":"patrickjoust","latitude":39.310535,"longitude":-76.641182,"accuracy":"16","context":0,"place_id":"xYkqt5BTW7ht1P7A4Q","woeid":"29229426","geo_is_family":0,"geo_is_friend":0,"geo_is_contact":0,"geo_is_public":1,"media":"photo","media_status":"ready"},{"id":"13919881449","owner":"38181284@N06","secret":"d62541d3d6","server":"2919","farm":3,"title":"seljalandsfoss","ispublic":1,"isfriend":0,"isfamily":0,"safe":0,"ownername":"vulture labs","latitude":64.963943,"longitude":-19.02116,"accuracy":"2","context":0,"place_id":"jPn7LAVTUb5tyPnsog","woeid":"23424845","geo_is_family":0,"geo_is_friend":0,"geo_is_contact":0,"geo_is_public":1,"media":"photo","media_status":"ready"},{"id":"13919658309","owner":"37034324@N05","secret":"ecde2d5b69","server":"7209","farm":8,"title":"Somewhere in Poland 2014","ispublic":1,"isfriend":0,"isfamily":0,"safe":0,"ownername":"Smo_Q busy ;\/","latitude":50.456192,"longitude":16.96392,"accuracy":"11","context":0,"place_id":".0X8MsJUU7v6pPU","woeid":"511453","geo_is_family":0,"geo_is_friend":0,"geo_is_contact":0,"geo_is_public":1,"media":"photo","media_status":"ready"},{"id":"14103014332","owner":"19685823@N00","secret":"a1a00f120e","server":"7301","farm":8,"title":"Leica M9 & Super-Elmar-M 1:3.4\/21 Asph. @ Ponte dei Salti . Valle Verzasca","ispublic":1,"isfriend":0,"isfamily":0,"safe":0,"ownername":"Toni_V","latitude":46.258509,"longitude":8.837878,"accuracy":"16","context":0,"place_id":"IdHlnsNWWrm.nrU","woeid":"783061","geo_is_family":0,"geo_is_friend":0,"geo_is_contact":0,"geo_is_public":1,"media":"photo","media_status":"ready"},{"id":"13918922868","owner":"49214499@N06","secret":"52e558dee1","server":"2895","farm":3,"title":"White wild flower","ispublic":1,"isfriend":0,"isfamily":0,"safe":0,"ownername":"Jurek.P","latitude":52.289563,"longitude":20.970085,"accuracy":"13","context":0,"place_id":"cSMamrBTUL24htuzlw","woeid":"22724249","geo_is_family":0,"geo_is_friend":0,"geo_is_contact":0,"geo_is_public":1,"media":"photo","media_status":"ready"},{"id":"13918301690","owner":"92686475@N00","secret":"9085bd19f4","server":"7439","farm":8,"title":"Art Deco - HSS","ispublic":1,"isfriend":0,"isfamily":0,"safe":0,"ownername":"Timothy Valentine","latitude":25.774477,"longitude":-80.134012,"accuracy":"16","context":0,"place_id":"Np7Cd8JUV7KELhk3RQ","woeid":"55862560","geo_is_family":0,"geo_is_friend":0,"geo_is_contact":0,"geo_is_public":1,"media":"photo","media_status":"ready"},{"id":"14080052816","owner":"63412147@N05","secret":"822b0f5f76","server":"7394","farm":8,"title":"EL CORD\u00d3N UMBILICAL -EXPLORE- (4\/MAYO\/2014)","ispublic":1,"isfriend":0,"isfamily":0,"safe":0,"ownername":"Susana M.L.","latitude":40.964218,"longitude":-5.663849,"accuracy":"11","context":0,"place_id":"S1ti_DhWVbjLtSw","woeid":"772416","geo_is_family":0,"geo_is_friend":0,"geo_is_contact":0,"geo_is_public":1,"media":"photo","media_status":"ready"},{"id":"14102893655","owner":"100063725@N06","secret":"7ca417b2ae","server":"5197","farm":6,"title":"Reflejos de primavera","ispublic":1,"isfriend":0,"isfamily":0,"safe":0,"ownername":"Antonio Chac","latitude":36.501107,"longitude":-4.831109,"accuracy":"16","context":0,"place_id":"b6ANCk5WVLwQivI","woeid":"766537","geo_is_family":0,"geo_is_friend":0,"geo_is_contact":0,"geo_is_public":1,"media":"photo","media_status":"ready"},{"id":"14102171975","owner":"17913004@N06","secret":"37394ac288","server":"5495","farm":6,"title":"Liquid - Ponte della Libert\u00e0 (Szabads\u00e1g h\u00edd) - Budapest","ispublic":1,"isfriend":0,"isfamily":0,"safe":0,"ownername":"G.hostbuster","latitude":47.485627,"longitude":19.054841,"accuracy":"15","context":0,"place_id":"ScoSG.RZUr1FhB0","woeid":"807020","geo_is_family":0,"geo_is_friend":0,"geo_is_contact":0,"geo_is_public":1,"media":"photo","media_status":"ready"},{"id":"14119463923","owner":"87737189@N04","secret":"9e7c3b81ef","server":"5271","farm":6,"title":"Les Baux de Provence","ispublic":1,"isfriend":0,"isfamily":0,"safe":0,"ownername":"stephprad","latitude":43.742824,"longitude":4.803085,"accuracy":"11","context":0,"place_id":"gMAopjZXUr8PBmQ","woeid":"605420","geo_is_family":0,"geo_is_friend":0,"geo_is_contact":0,"geo_is_public":1,"media":"photo","media_status":"ready"},{"id":"14074239016","owner":"64799538@N07","secret":"73686cbfae","server":"7402","farm":8,"title":"- Frozen time -","ispublic":1,"isfriend":0,"isfamily":0,"safe":0,"ownername":"Mar Diaz -korama- OFF POR UN TIEMPO","latitude":36.348867,"longitude":-5.234991,"accuracy":"11","context":0,"place_id":"2_2VprRTULz73VX3OQ","woeid":"22661120","geo_is_family":0,"geo_is_friend":0,"geo_is_contact":0,"geo_is_public":1,"media":"photo","media_status":"ready"},{"id":"14096622235","owner":"92686475@N00","secret":"56ac67ebe3","server":"5312","farm":6,"title":"Vacation is Over - HCS","ispublic":1,"isfriend":0,"isfamily":0,"safe":0,"ownername":"Timothy Valentine","latitude":42.052947,"longitude":-70.92782,"accuracy":"16","context":0,"place_id":"lHON35tTVrzMD4YH","woeid":"2462059","geo_is_family":0,"geo_is_friend":0,"geo_is_contact":0,"geo_is_public":1,"media":"photo","media_status":"ready"},{"id":"13909335578","owner":"106517169@N03","secret":"278db90332","server":"7336","farm":8,"title":"Wild river 3","ispublic":1,"isfriend":0,"isfamily":0,"safe":0,"ownername":"piotrekfil","latitude":51.610096,"longitude":22.439481,"accuracy":"13","context":0,"place_id":"H.Dd7FlUUL_h_jw","woeid":"525817","geo_is_family":0,"geo_is_friend":0,"geo_is_contact":0,"geo_is_public":1,"media":"photo","media_status":"ready"},{"id":"13909331028","owner":"97004099@N05","secret":"c18e9e2ff3","server":"7429","farm":8,"title":"L'innocence est dans l'ombre","ispublic":1,"isfriend":0,"isfamily":0,"safe":0,"ownername":"Fonk De","latitude":14.5241,"longitude":-60.979442,"accuracy":"13","context":0,"place_id":"RaVwtuNQU7qzXdc","woeid":"110782","geo_is_family":0,"geo_is_friend":0,"geo_is_contact":0,"geo_is_public":1,"media":"photo","media_status":"ready"},{"id":"14091307211","owner":"72339619@N05","secret":"1373cbcfff","server":"2939","farm":3,"title":"Da un ponte...all'altro (Explore)","ispublic":1,"isfriend":0,"isfamily":0,"safe":0,"ownername":"doniflo","latitude":41.029126,"longitude":28.966154,"accuracy":"11","context":0,"place_id":"l02DEdJTUb5XGlLZ","woeid":"2344116","geo_is_family":0,"geo_is_friend":0,"geo_is_contact":0,"geo_is_public":1,"media":"photo","media_status":"ready"},{"id":"13907421117","owner":"36217762@N00","secret":"62d4807257","server":"2909","farm":3,"title":"Blinds painting in Berlin Kreuzberg \/ Mariona","ispublic":1,"isfriend":0,"isfamily":0,"safe":0,"ownername":"Pixelm\u00e4dchen6","latitude":52.499397,"longitude":13.431813,"accuracy":"16","context":0,"place_id":"jUbH3sxTW7noys3swg","woeid":"29352517","geo_is_family":0,"geo_is_friend":0,"geo_is_contact":0,"geo_is_public":1,"media":"photo","media_status":"ready"},{"id":"14113937343","owner":"66460484@N06","secret":"93dc7c49ff","server":"7180","farm":8,"title":"Campo San Mois\u00e8","ispublic":1,"isfriend":0,"isfamily":0,"safe":0,"ownername":"David Ruiz Luna","latitude":45.433063,"longitude":12.335602,"accuracy":"16","context":0,"place_id":"UQEdl5BTUrv2TyTgZw","woeid":"20150616","geo_is_family":0,"geo_is_friend":0,"geo_is_contact":0,"geo_is_public":1,"media":"photo","media_status":"ready"},{"id":"14088197152","owner":"93704958@N03","secret":"3b79294862","server":"5199","farm":6,"title":"Black Blossom","ispublic":1,"isfriend":0,"isfamily":0,"safe":0,"ownername":"Jazzteffe","latitude":58.59479,"longitude":16.190714,"accuracy":"16","context":0,"place_id":"DuZHagpZW7P6e4I","woeid":"899981","geo_is_family":0,"geo_is_friend":0,"geo_is_contact":0,"geo_is_public":1,"media":"photo","media_status":"ready"},{"id":"14086943001","owner":"37797486@N06","secret":"dc49540630","server":"5466","farm":6,"title":"The bluesman","ispublic":1,"isfriend":0,"isfamily":0,"safe":0,"ownername":"margot 52","latitude":44.312118,"longitude":8.484792,"accuracy":"14","context":0,"place_id":"ENLmKCNWULmD01I","woeid":"723812","geo_is_family":0,"geo_is_friend":0,"geo_is_contact":0,"geo_is_public":1,"media":"photo","media_status":"ready"},{"id":"13902901630","owner":"24448805@N07","secret":"aca7f41ffa","server":"2936","farm":3,"title":"Setnor Auditorium, Syracuse University","ispublic":1,"isfriend":0,"isfamily":0,"safe":0,"ownername":"Tony Shi.","latitude":43.038583,"longitude":-76.136927,"accuracy":"15","context":0,"place_id":"jvuFsttUV7ISONb7fQ","woeid":"55862056","geo_is_family":0,"geo_is_friend":0,"geo_is_contact":0,"geo_is_public":1,"media":"photo","media_status":"ready"},{"id":"13901989219","owner":"32126965@N07","secret":"bd3a8c4892","server":"5520","farm":6,"title":"Beautiful Assortment ..","ispublic":1,"isfriend":0,"isfamily":0,"safe":0,"ownername":"* Janets Photos*","latitude":53.744193,"longitude":-0.337057,"accuracy":"13","context":0,"place_id":"KjFlu9NTV7jyiw","woeid":"25211","geo_is_family":0,"geo_is_friend":0,"geo_is_contact":0,"geo_is_public":1,"media":"photo","media_status":"ready"},{"id":"14107579893","owner":"67995615@N03","secret":"36ca5f457a","server":"2930","farm":3,"title":"Dubai - Castles made of Sand","ispublic":1,"isfriend":0,"isfamily":0,"safe":0,"ownername":"claudecastor","latitude":25.226062,"longitude":55.673217,"accuracy":"9","context":0,"place_id":"yNLwBXtTUb6Wqgwi","woeid":"2347111","geo_is_family":0,"geo_is_friend":0,"geo_is_contact":0,"geo_is_public":1,"media":"photo","media_status":"ready"},{"id":"13900315580","owner":"50027776@N05","secret":"d2abb0dec1","server":"5112","farm":6,"title":"Castelluccio di Norcia","ispublic":1,"isfriend":0,"isfamily":0,"safe":0,"ownername":"Luigi Alesi","latitude":42.828299,"longitude":13.206467,"accuracy":"14","context":0,"place_id":"IcB85V1WU7lCiZ8","woeid":"713407","geo_is_family":0,"geo_is_friend":0,"geo_is_contact":0,"geo_is_public":1,"media":"photo","media_status":"ready"},{"id":"14081247432","owner":"50068146@N02","secret":"9a53e57fd3","server":"7069","farm":8,"title":"Sortie 31 (Explore du 1er Mai 2014)","ispublic":1,"isfriend":0,"isfamily":0,"safe":0,"ownername":"JDAMI","latitude":49.858349,"longitude":2.282152,"accuracy":"13","context":0,"place_id":"6licNoxUWrNXMSE","woeid":"589326","geo_is_family":0,"geo_is_friend":0,"geo_is_contact":0,"geo_is_public":1,"media":"photo","media_status":"ready"},{"id":"13896282930","owner":"42979952@N02","secret":"91633a63c4","server":"2909","farm":3,"title":"Soller","ispublic":1,"isfriend":0,"isfamily":0,"safe":0,"ownername":"Andy WXx2009","latitude":39.767908,"longitude":2.713794,"accuracy":"12","context":0,"place_id":"cyZu.7tWVb4SCnA","woeid":"774764","geo_is_family":0,"geo_is_friend":0,"geo_is_contact":0,"geo_is_public":1,"media":"photo","media_status":"ready"},{"id":"14056025076","owner":"24355450@N07","secret":"2d3e0200ea","server":"5481","farm":6,"title":"The Wee Loch Ewe Arch..","ispublic":1,"isfriend":0,"isfamily":0,"safe":0,"ownername":"Gordie Broon.","latitude":57.857721,"longitude":-5.690402,"accuracy":"16","context":0,"place_id":"qucHGnRQVbpZBQ","woeid":"17031","geo_is_family":0,"geo_is_friend":0,"geo_is_contact":0,"geo_is_public":1,"media":"photo","media_status":"ready"},{"id":"14099017273","owner":"62448022@N00","secret":"695f2903fa","server":"7298","farm":8,"title":"Shades Of Green","ispublic":1,"isfriend":0,"isfamily":0,"safe":0,"ownername":"Aerial Photography","latitude":48.52543,"longitude":12.209888,"accuracy":"16","context":0,"place_id":"sadFzxpXUb7Sx5g","woeid":"634038","geo_is_family":0,"geo_is_friend":0,"geo_is_contact":0,"geo_is_public":1,"media":"photo","media_status":"ready"},{"id":"14054340856","owner":"75133058@N00","secret":"9e0cfca47c","server":"5231","farm":6,"title":"La madrina oscura","ispublic":1,"isfriend":0,"isfamily":0,"safe":0,"ownername":"Eduardo Amorim","latitude":-34.233802,"longitude":-59.499206,"accuracy":"11","context":0,"place_id":"K.q5MK9SUbg4DZE","woeid":"332504","geo_is_family":0,"geo_is_friend":0,"geo_is_contact":0,"geo_is_public":1,"media":"photo","media_status":"ready"},{"id":"13890602528","owner":"36426732@N05","secret":"34a93dc8c5","server":"5510","farm":6,"title":"Walking in Brooklyn NY","ispublic":1,"isfriend":0,"isfamily":0,"safe":0,"ownername":"ZUCCONY","latitude":40.690533,"longitude":-73.954226,"accuracy":"16","context":0,"place_id":"reXfi5hTUb_WXbnDIg","woeid":"23511848","geo_is_family":0,"geo_is_friend":0,"geo_is_contact":0,"geo_is_public":1,"media":"photo","media_status":"ready"},{"id":"14095565623","owner":"90634379@N06","secret":"515c2995e5","server":"5155","farm":6,"title":"\"For everything there is a fixed time, and a time for every business under the sun.\" (Eclesiastes 3:1)","ispublic":1,"isfriend":0,"isfamily":0,"safe":0,"ownername":"Lilian_Anadan","latitude":-23.56287,"longitude":-46.654659,"accuracy":"11","context":0,"place_id":"RANHF.pTUb7n07l1","woeid":"2344868","geo_is_family":0,"geo_is_friend":0,"geo_is_contact":0,"geo_is_public":1,"media":"photo","media_status":"ready"},{"id":"13888366178","owner":"71300943@N03","secret":"ffe4cb33ce","server":"2900","farm":3,"title":"Waterlilies","ispublic":1,"isfriend":0,"isfamily":0,"safe":0,"ownername":"R\u00fcdigerF","latitude":52.393745,"longitude":9.697836,"accuracy":"15","context":0,"place_id":"Xd0Pu.dXV72_au8","woeid":"657169","geo_is_family":0,"geo_is_friend":0,"geo_is_contact":0,"geo_is_public":1,"media":"photo","media_status":"ready"},{"id":"14094680843","owner":"74835915@N07","secret":"94689c8524","server":"7067","farm":8,"title":"Sunshine","ispublic":1,"isfriend":0,"isfamily":0,"safe":0,"ownername":"Danny Birrell","latitude":54.838169,"longitude":-1.515426,"accuracy":"12","context":0,"place_id":"OGgYMGhTUrq7SbBbkg","woeid":"20091644","geo_is_family":0,"geo_is_friend":0,"geo_is_contact":0,"geo_is_public":1,"media":"photo","media_status":"ready"},{"id":"13887056370","owner":"89213194@N05","secret":"186beef687","server":"5446","farm":6,"title":"Helsby Junction Signal","ispublic":1,"isfriend":0,"isfamily":0,"safe":0,"ownername":"Glyn Owen Photography & Image-Art","latitude":53.276069,"longitude":-2.770099,"accuracy":"15","context":0,"place_id":"sdamizVTUryf0Q","woeid":"20676","geo_is_family":0,"geo_is_friend":0,"geo_is_contact":0,"geo_is_public":1,"media":"photo","media_status":"ready"},{"id":"13886724619","owner":"50027776@N05","secret":"811d7a66f5","server":"7454","farm":8,"title":"lago di Caccamo (MC)","ispublic":1,"isfriend":0,"isfamily":0,"safe":0,"ownername":"Luigi Alesi","latitude":43.146964,"longitude":13.202304,"accuracy":"13","context":0,"place_id":"SOuHKp5TUruiM67myQ","woeid":"20143041","geo_is_family":0,"geo_is_friend":0,"geo_is_contact":0,"geo_is_public":1,"media":"photo","media_status":"ready"},{"id":"13885501977","owner":"67995615@N03","secret":"4b8904c6b2","server":"2914","farm":3,"title":"Dubai - Burj Khalifa during Sunset","ispublic":1,"isfriend":0,"isfamily":0,"safe":1,"ownername":"claudecastor","latitude":25.207348,"longitude":55.271358,"accuracy":"13","context":0,"place_id":"eQtoeghQW77HLrTB","woeid":"1940345","geo_is_family":0,"geo_is_friend":0,"geo_is_contact":0,"geo_is_public":1,"media":"photo","media_status":"ready"},{"id":"13883243027","owner":"93461361@N05","secret":"c41384ee4d","server":"5178","farm":6,"title":"floating","ispublic":1,"isfriend":0,"isfamily":0,"safe":0,"ownername":"Van Luvender","latitude":40.029766,"longitude":-75.043294,"accuracy":"16","context":0,"place_id":"9gVzNWtTV7qrsRD6","woeid":"2503553","geo_is_family":0,"geo_is_friend":0,"geo_is_contact":0,"geo_is_public":1,"media":"photo","media_status":"ready"},{"id":"14089648493","owner":"92686475@N00","secret":"455261f6c8","server":"7405","farm":8,"title":"Indian Creek","ispublic":1,"isfriend":0,"isfamily":0,"safe":0,"ownername":"Timothy Valentine","latitude":25.809916,"longitude":-80.12465,"accuracy":"16","context":0,"place_id":"gmm1JfFTUbzk4CRA","woeid":"2360399","geo_is_family":0,"geo_is_friend":0,"geo_is_contact":0,"geo_is_public":1,"media":"photo","media_status":"ready"},{"id":"14088450003","owner":"26849514@N06","secret":"ec67fc24b0","server":"5518","farm":6,"title":"Royal palace of Laeken (Brussels)","ispublic":1,"isfriend":0,"isfamily":0,"safe":0,"ownername":"Frans.Sellies","latitude":50.886385,"longitude":4.359834,"accuracy":"16","context":0,"place_id":"p23F6IZYVbjm2mI","woeid":"972842","geo_is_family":0,"geo_is_friend":0,"geo_is_contact":0,"geo_is_public":1,"media":"photo","media_status":"ready"},{"id":"14063560382","owner":"50321054@N08","secret":"bff39ff9e4","server":"7396","farm":8,"title":"Sunrise in Iona [EXPLORED - 30\/04\/2014]","ispublic":1,"isfriend":0,"isfamily":0,"safe":0,"ownername":"spanishjohnny72","latitude":56.335097,"longitude":-6.38795,"accuracy":"16","context":0,"place_id":"JeccjW1TVr8UBw","woeid":"24564","geo_is_family":0,"geo_is_friend":0,"geo_is_contact":0,"geo_is_public":1,"media":"photo","media_status":"ready"},{"id":"14062162381","owner":"88420718@N03","secret":"284705bcf5","server":"7206","farm":8,"title":"sunset poppies","ispublic":1,"isfriend":0,"isfamily":0,"safe":0,"ownername":"thequietguy","latitude":41.217403,"longitude":23.085021,"accuracy":"11","context":0,"place_id":"UrcwlPhYV7jGFiI","woeid":"952864","geo_is_family":0,"geo_is_friend":0,"geo_is_contact":0,"geo_is_public":1,"media":"photo","media_status":"ready"},{"id":"14060377422","owner":"112711738@N06","secret":"aa40c7f826","server":"7450","farm":8,"title":"Another Worlds II.","ispublic":1,"isfriend":0,"isfamily":0,"safe":0,"ownername":"dasanes77","latitude":36.803558,"longitude":-2.06339,"accuracy":"11","context":0,"place_id":"poxx0jxWVL9Ary0","woeid":"765734","geo_is_family":0,"geo_is_friend":0,"geo_is_contact":0,"geo_is_public":1,"media":"photo","media_status":"ready"},{"id":"14062326135","owner":"50965130@N08","secret":"48de7fa65d","server":"7064","farm":8,"title":"Work!!!","ispublic":1,"isfriend":0,"isfamily":0,"safe":0,"ownername":"Dr. Imran Sohail.","latitude":32.65871,"longitude":74.502754,"accuracy":"13","context":0,"place_id":"37caX1FTULpJMdYo","woeid":"2203074","geo_is_family":0,"geo_is_friend":0,"geo_is_contact":0,"geo_is_public":1,"media":"photo","media_status":"ready"}]},"stat":"ok"}