{"photos":{"page":11,"pages":26122,"perpage":60,"total":"1567311","photo":[{"id":"13907879929","owner":"25593324@N06","secret":"0a274c405c","server":"7358","farm":8,"title":"Pont de Verdun - Angers","ispublic":1,"isfriend":0,"isfamily":0,"safe":0,"ownername":"pgauti","latitude":47.473215,"longitude":-0.558459,"accuracy":"16","context":0,"place_id":"s4Jk.3BUVbyKNHw","woeid":"576106","geo_is_family":0,"geo_is_friend":0,"geo_is_contact":0,"geo_is_public":1,"media":"photo","media_status":"ready"},{"id":"13907815309","owner":"47532811@N03","secret":"736971cf82","server":"7181","farm":8,"title":"great stamp Poland Polska 80 Gr Protoceratops (Dinosaur Dinosaurier \u0414\u0438\u043d\u043e\u0437\u0430\u0432\u0440\u044b \u062f\u064a\u0646\u0627\u0635\u0648\u0631) znaczki znaczk\u00f3w pocztowych Polska b\u00e9lyeg Lengyelorsz\u00e1g Briefmarken Polen \u043c\u0430\u0440\u043a\u0438 \u041f\u043e\u043b\u044c\u0448\u0430 80 gr bollo francobolli Polonia \u0627\u0644\u0637\u0648\u0627\u0628\u0639 \u0627\u0644\u0628\u0631\u064a\u062f\u064a\u0629 \u0628\u0648\u0644\u0646\u062f\u0627 timbres Pologne \u0921\u093e\u0915","ispublic":1,"isfriend":0,"isfamily":0,"safe":0,"ownername":"stampolina - thanks to all for sending stamps!! :)","latitude":52.235351,"longitude":21.009389,"accuracy":"11","context":0,"place_id":"7VcHRkJUULmTDVQ","woeid":"523920","geo_is_family":0,"geo_is_friend":0,"geo_is_contact":0,"geo_is_public":1,"media":"photo","media_status":"ready"},{"id":"14094878534","owner":"95077606@N03","secret":"527fdeaa15","server":"7362","farm":8,"title":"Urban Advice","ispublic":1,"isfriend":0,"isfamily":0,"safe":0,"ownername":"J_Care","latitude":51.523137,"longitude":-0.078363,"accuracy":"15","context":0,"place_id":"m3hb5ZZSVr3OFg","woeid":"34709","geo_is_family":0,"geo_is_friend":0,"geo_is_contact":0,"geo_is_public":1,"media":"photo","media_status":"ready"},{"id":"14091049892","owner":"50027776@N05","secret":"70c6aa2b55","server":"5497","farm":6,"title":"Sibillini - Pian Grande","ispublic":1,"isfriend":0,"isfamily":0,"safe":0,"ownername":"Luigi Alesi","latitude":42.828299,"longitude":13.206467,"accuracy":"14","context":0,"place_id":"IcB85V1WU7lCiZ8","woeid":"713407","geo_is_family":0,"geo_is_friend":0,"geo_is_contact":0,"geo_is_public":1,"media":"photo","media_status":"ready"},{"id":"14092270035","owner":"97004099@N05","secret":"0dd4cd3a2e","server":"7438","farm":8,"title":"BIR HAKEIM VIEW _ PARIS","ispublic":1,"isfriend":0,"isfamily":0,"safe":0,"ownername":"Fonk De","latitude":48.855905,"longitude":2.287559,"accuracy":"13","context":0,"place_id":"UVz7HM1UV7J2fJYrrw","woeid":"55843836","geo_is_family":0,"geo_is_friend":0,"geo_is_contact":0,"geo_is_public":1,"media":"photo","media_status":"ready"},{"id":"14091667735","owner":"13592518@N03","secret":"5c34fd7aa0","server":"5539","farm":6,"title":"Pescadores da Praia da Boca da Barra","ispublic":1,"isfriend":0,"isfamily":0,"safe":0,"ownername":"Pedro Correa","latitude":-8.778021,"longitude":-35.106189,"accuracy":"16","context":0,"place_id":"cGACqmxVVLvUnSQ","woeid":"461334","geo_is_family":0,"geo_is_friend":0,"geo_is_contact":0,"geo_is_public":1,"media":"photo","media_status":"ready"},{"id":"13904971650","owner":"42014801@N04","secret":"8eefb9b91d","server":"7057","farm":8,"title":"Behind the cloud \/ Hinter der Wolke","ispublic":1,"isfriend":0,"isfamily":0,"safe":0,"ownername":"Caledoniafan","latitude":50.795885,"longitude":12.440943,"accuracy":"16","context":0,"place_id":"n0oQdrVXVboUJ6Q","woeid":"670571","geo_is_family":0,"geo_is_friend":0,"geo_is_contact":0,"geo_is_public":1,"media":"photo","media_status":"ready"},{"id":"14091528775","owner":"95486729@N04","secret":"be509d70c4","server":"2900","farm":3,"title":"John Hancock Tower Boston, Extreme Day LE from Copley Square","ispublic":1,"isfriend":0,"isfamily":0,"safe":0,"ownername":"Greg DuBois Photography","latitude":42.349814,"longitude":-71.077466,"accuracy":"16","context":0,"place_id":"tyg5vJ5TUb.WE4Mw","woeid":"2358123","geo_is_family":0,"geo_is_friend":0,"geo_is_contact":0,"geo_is_public":1,"media":"photo","media_status":"ready"},{"id":"13904758557","owner":"63939407@N03","secret":"b06c54a831","server":"7420","farm":8,"title":"Una Panoramica sulla Baia di Cannes ... Le Isole Lerins ... Explore !","ispublic":1,"isfriend":0,"isfamily":0,"safe":0,"ownername":"Giuliana 57","latitude":43.550493,"longitude":7.01683,"accuracy":"11","context":0,"place_id":"PxZHsoJUWrivuRw","woeid":"582935","geo_is_family":0,"geo_is_friend":0,"geo_is_contact":0,"geo_is_public":1,"media":"photo","media_status":"ready"},{"id":"14087744061","owner":"81035653@N00","secret":"66c3206ebd","server":"7185","farm":8,"title":"Queensday becomes King's Day","ispublic":1,"isfriend":0,"isfamily":0,"safe":0,"ownername":"B\u212en","latitude":52.372219,"longitude":4.882714,"accuracy":"16","context":0,"place_id":"xfcEFYhWULKtjYI","woeid":"728410","geo_is_family":0,"geo_is_friend":0,"geo_is_contact":0,"geo_is_public":1,"media":"photo","media_status":"ready"},{"id":"13904006770","owner":"25122972@N04","secret":"f9b10fa1e2","server":"5186","farm":6,"title":"Misty Woodland","ispublic":1,"isfriend":0,"isfamily":0,"safe":0,"ownername":"jactoll","latitude":52.283289,"longitude":-2.062222,"accuracy":"16","context":0,"place_id":"_SxwxpZQU71UpA","woeid":"11784","geo_is_family":0,"geo_is_friend":0,"geo_is_contact":0,"geo_is_public":1,"media":"photo","media_status":"ready"},{"id":"14090945214","owner":"48033223@N04","secret":"3e676b386a","server":"2895","farm":3,"title":"May the 4th be with you","ispublic":1,"isfriend":0,"isfamily":0,"safe":0,"ownername":"Legoagogo","latitude":50.836258,"longitude":-0.779192,"accuracy":"16","context":0,"place_id":"lYy0e95QV7Lt1w","woeid":"15871","geo_is_family":0,"geo_is_friend":0,"geo_is_contact":0,"geo_is_public":1,"media":"photo","media_status":"ready"},{"id":"13903507409","owner":"95077606@N03","secret":"b9ee7fca1e","server":"2905","farm":3,"title":"Perimeter Check","ispublic":1,"isfriend":0,"isfamily":0,"safe":0,"ownername":"J_Care","latitude":51.522429,"longitude":-0.076689,"accuracy":"15","context":0,"place_id":"m3hb5ZZSVr3OFg","woeid":"34709","geo_is_family":0,"geo_is_friend":0,"geo_is_contact":0,"geo_is_public":1,"media":"photo","media_status":"ready"},{"id":"14066907156","owner":"7345382@N06","secret":"651433c02a","server":"2905","farm":3,"title":"My boys","ispublic":1,"isfriend":0,"isfamily":0,"safe":0,"ownername":"GeirB,","latitude":70.078447,"longitude":29.727372,"accuracy":"16","context":0,"place_id":"CotG3rRZVL_ov5g","woeid":"865409","geo_is_family":0,"geo_is_friend":0,"geo_is_contact":0,"geo_is_public":1,"media":"photo","media_status":"ready"},{"id":"13903358580","owner":"16854222@N05","secret":"7e96b9c1ce","server":"7194","farm":8,"title":"Rainy Impressions","ispublic":1,"isfriend":0,"isfamily":0,"safe":0,"ownername":"AnyMotion","latitude":50.123271,"longitude":8.6804,"accuracy":"16","context":0,"place_id":"Z0FRRfRXV7oIeew","woeid":"650272","geo_is_family":0,"geo_is_friend":0,"geo_is_contact":0,"geo_is_public":1,"media":"photo","media_status":"ready"},{"id":"14110029273","owner":"42574877@N06","secret":"ebbcac0f22","server":"7371","farm":8,"title":"The Hall","ispublic":1,"isfriend":0,"isfamily":0,"safe":0,"ownername":"Olympe B.","latitude":51.482745,"longitude":-0.0056,"accuracy":"15","context":0,"place_id":"9l0yiMFTVrI4L8XwTw","woeid":"24875641","geo_is_family":0,"geo_is_friend":0,"geo_is_contact":0,"geo_is_public":1,"media":"photo","media_status":"ready"},{"id":"14066636236","owner":"96844815@N03","secret":"54e7d851f7","server":"2904","farm":3,"title":"Stranger 26\/100 'Martin'","ispublic":1,"isfriend":0,"isfamily":0,"safe":0,"ownername":"LKB Photographic","latitude":55.860146,"longitude":-4.253436,"accuracy":"16","context":0,"place_id":"qN2GlNNVUbxcsw","woeid":"43621","geo_is_family":0,"geo_is_friend":0,"geo_is_contact":0,"geo_is_public":1,"media":"photo","media_status":"ready"},{"id":"14109704633","owner":"35084357@N06","secret":"40ae1a4926","server":"7330","farm":8,"title":"Pont Aven","ispublic":1,"isfriend":0,"isfamily":0,"safe":0,"ownername":"flo 59","latitude":47.85481,"longitude":-3.748655,"accuracy":"14","context":0,"place_id":"nL5YgPNXU73sG_4","woeid":"617326","geo_is_family":0,"geo_is_friend":0,"geo_is_contact":0,"geo_is_public":1,"media":"photo","media_status":"ready"},{"id":"14089443985","owner":"66644631@N05","secret":"ddee7127e9","server":"7434","farm":8,"title":"temp\u00eate sur la plaine [IMG_6811].jpg","ispublic":1,"isfriend":0,"isfamily":0,"safe":0,"ownername":"jmlpyt","latitude":48.870178,"longitude":2.471896,"accuracy":"15","context":0,"place_id":"6fi1bwpUV7JFTLqnog","woeid":"55863564","geo_is_family":0,"geo_is_friend":0,"geo_is_contact":0,"geo_is_public":1,"media":"photo","media_status":"ready"},{"id":"14066320026","owner":"59269150@N08","secret":"3f679a2b25","server":"2923","farm":3,"title":"Nights Of Copacabana","ispublic":1,"isfriend":0,"isfamily":0,"safe":0,"ownername":"TablinumCarlson","latitude":-22.97673,"longitude":-43.195079,"accuracy":"11","context":0,"place_id":"mAqmHW5VV78OT5o","woeid":"455825","geo_is_family":0,"geo_is_friend":0,"geo_is_contact":0,"geo_is_public":1,"media":"photo","media_status":"ready"},{"id":"14089730264","owner":"43155663@N07","secret":"73ef601b6f","server":"7411","farm":8,"title":"framed frames","ispublic":1,"isfriend":0,"isfamily":0,"safe":0,"ownername":"city\/human\/life","latitude":51.523364,"longitude":7.032086,"accuracy":"16","context":0,"place_id":"es8R3pBXV7hSfpo","woeid":"652038","geo_is_family":0,"geo_is_friend":0,"geo_is_contact":0,"geo_is_public":1,"media":"photo","media_status":"ready"},{"id":"13901227650","owner":"87402959@N02","secret":"53a1bafd5f","server":"7337","farm":8,"title":"bright light","ispublic":1,"isfriend":0,"isfamily":0,"safe":0,"ownername":"Blende1.8","latitude":38.725669,"longitude":-9.150369,"accuracy":"11","context":0,"place_id":"D08qJBRWVrjs0Ek","woeid":"742676","geo_is_family":0,"geo_is_friend":0,"geo_is_contact":0,"geo_is_public":1,"media":"photo","media_status":"ready"},{"id":"14064582926","owner":"8288986@N06","secret":"3e17507b6e","server":"7038","farm":8,"title":"\u00c7aykara","ispublic":1,"isfriend":0,"isfamily":0,"safe":0,"ownername":"aycasan","latitude":40.747256,"longitude":40.242919,"accuracy":"10","context":0,"place_id":"zVUVoaxTUbuR9Zbp","woeid":"2314454","geo_is_family":0,"geo_is_friend":0,"geo_is_contact":0,"geo_is_public":1,"media":"photo","media_status":"ready"},{"id":"13901039989","owner":"34256037@N00","secret":"cd13bba21d","server":"7317","farm":8,"title":"Rotterdam Feyenoord","ispublic":1,"isfriend":0,"isfamily":0,"safe":0,"ownername":"Bart van Damme","latitude":51.897773,"longitude":4.517011,"accuracy":"15","context":0,"place_id":"aThca2NTUrpznnqbyQ","woeid":"20063970","geo_is_family":0,"geo_is_friend":0,"geo_is_contact":0,"geo_is_public":1,"media":"photo","media_status":"ready"},{"id":"14084490482","owner":"47035764@N03","secret":"10e8a45756","server":"7426","farm":8,"title":"Munsterse Poort, Bourtange, Groningen, Netherlands - 1759","ispublic":1,"isfriend":0,"isfamily":0,"safe":0,"ownername":"HereIsTom","latitude":53.006858,"longitude":7.192184,"accuracy":"16","context":0,"place_id":"ewwUmXlWUL0Nh5o","woeid":"727918","geo_is_family":0,"geo_is_friend":0,"geo_is_contact":0,"geo_is_public":1,"media":"photo","media_status":"ready"},{"id":"14107501103","owner":"27420180@N08","secret":"27930d802e","server":"2896","farm":3,"title":"Napoleon's tomb II","ispublic":1,"isfriend":0,"isfamily":0,"safe":0,"ownername":"A.G. Photographe","latitude":48.855009,"longitude":2.312584,"accuracy":"16","context":0,"place_id":"CyyjQfRUV7Kth7ctCA","woeid":"55843776","geo_is_family":0,"geo_is_friend":0,"geo_is_contact":0,"geo_is_public":1,"media":"photo","media_status":"ready"},{"id":"14083890082","owner":"17913004@N06","secret":"da689d2c6e","server":"7341","farm":8,"title":"Blue Hour in Parliament - Budapest","ispublic":1,"isfriend":0,"isfamily":0,"safe":0,"ownername":"G.hostbuster","latitude":47.507084,"longitude":19.045658,"accuracy":"15","context":0,"place_id":"GJVbCZFZUr7hlhE","woeid":"804365","geo_is_family":0,"geo_is_friend":0,"geo_is_contact":0,"geo_is_public":1,"media":"photo","media_status":"ready"},{"id":"14083549611","owner":"59852454@N03","secret":"e8fa45f65e","server":"7067","farm":8,"title":"Blue Pill II","ispublic":1,"isfriend":0,"isfamily":0,"safe":0,"ownername":"Pavel P.","latitude":49.372062,"longitude":17.288918,"accuracy":"14","context":0,"place_id":"qIcPQQlZUrprFhE","woeid":"800136","geo_is_family":0,"geo_is_friend":0,"geo_is_contact":0,"geo_is_public":1,"media":"photo","media_status":"ready"},{"id":"14083296212","owner":"70667315@N07","secret":"8b79678d2f","server":"7444","farm":8,"title":"The Lighthouse","ispublic":1,"isfriend":0,"isfamily":0,"safe":0,"ownername":"Laurent photography","latitude":47.301933,"longitude":-3.229894,"accuracy":"13","context":0,"place_id":"XLbyV0lTW7nk8oePiQ","woeid":"29330883","geo_is_family":0,"geo_is_friend":0,"geo_is_contact":0,"geo_is_public":1,"media":"photo","media_status":"ready"},{"id":"14063142096","owner":"16854222@N05","secret":"7210e9e0e5","server":"5186","farm":6,"title":"Finally We've Got Some Rain","ispublic":1,"isfriend":0,"isfamily":0,"safe":0,"ownername":"AnyMotion","latitude":50.123271,"longitude":8.6804,"accuracy":"16","context":0,"place_id":"Z0FRRfRXV7oIeew","woeid":"650272","geo_is_family":0,"geo_is_friend":0,"geo_is_contact":0,"geo_is_public":1,"media":"photo","media_status":"ready"},{"id":"14086033275","owner":"85150392@N05","secret":"00efc79ab8","server":"7456","farm":8,"title":"The tree of knowledge of good and evil","ispublic":1,"isfriend":0,"isfamily":0,"safe":0,"ownername":"Manuel.Martin_72","latitude":47.111905,"longitude":7.239213,"accuracy":"16","context":0,"place_id":"P7uWUrdQULwW6Qzbnw","woeid":"12684876","geo_is_family":0,"geo_is_friend":0,"geo_is_contact":0,"geo_is_public":1,"media":"photo","media_status":"ready"},{"id":"14105141423","owner":"46334878@N03","secret":"a90e78f61f","server":"7303","farm":8,"title":"Dona Flor de Maio, Comunidade Raiz - MG","ispublic":1,"isfriend":0,"isfamily":0,"safe":0,"ownername":"\u00adAna Caroline de Lima","latitude":-18.576982,"longitude":-43.603792,"accuracy":"14","context":0,"place_id":"PWAB_u1VVLvTU4o","woeid":"461673","geo_is_family":0,"geo_is_friend":0,"geo_is_contact":0,"geo_is_public":1,"media":"photo","media_status":"ready"},{"id":"14081013741","owner":"53752545@N02","secret":"521dbe5758","server":"7185","farm":8,"title":"Sunset to the Cap Dramont #17 ~ Var \/ France ~","ispublic":1,"isfriend":0,"isfamily":0,"safe":0,"ownername":"Yannick Lefevre","latitude":43.415132,"longitude":6.846381,"accuracy":"16","context":0,"place_id":"UFMKUHVTW7lSTbic8A","woeid":"29329902","geo_is_family":0,"geo_is_friend":0,"geo_is_contact":0,"geo_is_public":1,"media":"photo","media_status":"ready"},{"id":"13897470480","owner":"42014801@N04","secret":"9d26e54bcc","server":"5531","farm":6,"title":"Red sunset \/ Roter Sonnenuntergang (Explore)","ispublic":1,"isfriend":0,"isfamily":0,"safe":0,"ownername":"Caledoniafan","latitude":50.761952,"longitude":12.385368,"accuracy":"16","context":0,"place_id":"r9H.bU5XVbrk1KA","woeid":"670681","geo_is_family":0,"geo_is_friend":0,"geo_is_contact":0,"geo_is_public":1,"media":"photo","media_status":"ready"},{"id":"13897167290","owner":"63210487@N05","secret":"9a9a1c4905","server":"7369","farm":8,"title":"Spettacolo YMF - Gaeta 2014","ispublic":1,"isfriend":0,"isfamily":0,"safe":0,"ownername":"Ferdosky","latitude":41.209784,"longitude":13.589315,"accuracy":"14","context":0,"place_id":"hayP7ZFWU7_4JmA","woeid":"715891","geo_is_family":0,"geo_is_friend":0,"geo_is_contact":0,"geo_is_public":1,"media":"photo","media_status":"ready"},{"id":"13897114150","owner":"59269150@N08","secret":"6aa11a1fea","server":"5473","farm":6,"title":"Come In!","ispublic":1,"isfriend":0,"isfamily":0,"safe":0,"ownername":"TablinumCarlson","latitude":-23.217368,"longitude":-44.720535,"accuracy":"11","context":0,"place_id":"bFZZOQtVV7xtTD0","woeid":"456392","geo_is_family":0,"geo_is_friend":0,"geo_is_contact":0,"geo_is_public":1,"media":"photo","media_status":"ready"},{"id":"14080134191","owner":"24578303@N07","secret":"be699d23a6","server":"7392","farm":8,"title":"Castle reflections (explored)","ispublic":1,"isfriend":0,"isfamily":0,"safe":0,"ownername":"Alan10eden","latitude":52.041471,"longitude":-9.531562,"accuracy":"15","context":0,"place_id":"8YRSB2ZTUrpbhLgsqA","woeid":"20072668","geo_is_family":0,"geo_is_friend":0,"geo_is_contact":0,"geo_is_public":1,"media":"photo","media_status":"ready"},{"id":"13896635659","owner":"7345382@N06","secret":"53ec598e6a","server":"2934","farm":3,"title":"1st of may 2014","ispublic":1,"isfriend":0,"isfamily":0,"safe":0,"ownername":"GeirB,","latitude":70.078436,"longitude":29.727505,"accuracy":"16","context":0,"place_id":"CotG3rRZVL_ov5g","woeid":"865409","geo_is_family":0,"geo_is_friend":0,"geo_is_contact":0,"geo_is_public":1,"media":"photo","media_status":"ready"},{"id":"14080050041","owner":"20905078@N04","secret":"9c14b1c389","server":"7346","farm":8,"title":"","ispublic":1,"isfriend":0,"isfamily":0,"safe":0,"ownername":"patrickjoust","latitude":39.309215,"longitude":-76.667457,"accuracy":"16","context":0,"place_id":"3KsYJ35TV7u86uQU","woeid":"2513305","geo_is_family":0,"geo_is_friend":0,"geo_is_contact":0,"geo_is_public":1,"media":"photo","media_status":"ready"},{"id":"14079778672","owner":"107254823@N07","secret":"885f6b88ee","server":"7424","farm":8,"title":"Ciudad de las artes y las ciencias (Valencia)","ispublic":1,"isfriend":0,"isfamily":0,"safe":0,"ownername":"Fleccki","latitude":39.458098,"longitude":-0.356808,"accuracy":"16","context":0,"place_id":"vSl0.s1TUrhu33kroQ","woeid":"20220217","geo_is_family":0,"geo_is_friend":0,"geo_is_contact":0,"geo_is_public":1,"media":"photo","media_status":"ready"},{"id":"14083328524","owner":"42979952@N02","secret":"e436d86681","server":"2925","farm":3,"title":"lamplight","ispublic":1,"isfriend":0,"isfamily":0,"safe":0,"ownername":"Andy WXx2009","latitude":51.482665,"longitude":-3.180541,"accuracy":"11","context":0,"place_id":"NPhsmjBQV7uWhA","woeid":"15127","geo_is_family":0,"geo_is_friend":0,"geo_is_contact":0,"geo_is_public":1,"media":"photo","media_status":"ready"},{"id":"14083323134","owner":"93704958@N03","secret":"bf21f933a3","server":"7322","farm":8,"title":"Swedish Spring Blossom","ispublic":1,"isfriend":0,"isfamily":0,"safe":0,"ownername":"Jazzteffe","latitude":58.59479,"longitude":16.190714,"accuracy":"16","context":0,"place_id":"DuZHagpZW7P6e4I","woeid":"899981","geo_is_family":0,"geo_is_friend":0,"geo_is_contact":0,"geo_is_public":1,"media":"photo","media_status":"ready"},{"id":"14079448341","owner":"26963648@N05","secret":"e52aa5f7d0","server":"7383","farm":8,"title":"Zebra House","ispublic":1,"isfriend":0,"isfamily":0,"safe":0,"ownername":"MrBlackSun","latitude":-26.71004,"longitude":15.225977,"accuracy":"14","context":0,"place_id":"4PuO.rVQVrwgShIH","woeid":"1465229","geo_is_family":0,"geo_is_friend":0,"geo_is_contact":0,"geo_is_public":1,"media":"photo","media_status":"ready"},{"id":"13895560087","owner":"63679096@N08","secret":"152f7f28c3","server":"2940","farm":3,"title":"WORKING CLASS HERO #2 [Explore]","ispublic":1,"isfriend":0,"isfamily":0,"safe":0,"ownername":"Claudia Ioan","latitude":34.453727,"longitude":76.64154,"accuracy":"4","context":0,"place_id":"yaeAsMFTUb7qV4_k","woeid":"2345746","geo_is_family":0,"geo_is_friend":0,"geo_is_contact":0,"geo_is_public":1,"media":"photo","media_status":"ready"},{"id":"14082100165","owner":"87402959@N02","secret":"45d43b5781","server":"7318","farm":8,"title":"Stargate","ispublic":1,"isfriend":0,"isfamily":0,"safe":0,"ownername":"Blende1.8","latitude":38.725669,"longitude":-9.150369,"accuracy":"11","context":0,"place_id":"D08qJBRWVrjs0Ek","woeid":"742676","geo_is_family":0,"geo_is_friend":0,"geo_is_contact":0,"geo_is_public":1,"media":"photo","media_status":"ready"},{"id":"14081526315","owner":"29350952@N06","secret":"23ed86c2f0","server":"5335","farm":6,"title":"\u2318","ispublic":1,"isfriend":0,"isfamily":0,"safe":0,"ownername":"melquiades1898","latitude":49.868986,"longitude":8.651394,"accuracy":"16","context":0,"place_id":"y0Hg9w1XVrmm8AY","woeid":"643787","geo_is_family":0,"geo_is_friend":0,"geo_is_contact":0,"geo_is_public":1,"media":"photo","media_status":"ready"},{"id":"14101354073","owner":"53247049@N07","secret":"3ba4d254d2","server":"5229","farm":6,"title":"MASKED FLOWERPIERCER Diglossopis cyanea Looking Good in the Yanacocha Reserve in ECUADOR. Photo by Peter Wendelken.","ispublic":1,"isfriend":0,"isfamily":0,"safe":0,"ownername":"Neotropical Pete","latitude":-0.116214,"longitude":-78.582801,"accuracy":"13","context":0,"place_id":"H.9PID5TUb5dvk.P","woeid":"2345219","geo_is_family":0,"geo_is_friend":0,"geo_is_contact":0,"geo_is_public":1,"media":"photo","media_status":"ready"},{"id":"14057942866","owner":"54086289@N03","secret":"42358aa298","server":"5156","farm":6,"title":"Force of Nature","ispublic":1,"isfriend":0,"isfamily":0,"safe":0,"ownername":"Ania.Photography","latitude":-51.100109,"longitude":-72.578491,"accuracy":"11","context":0,"place_id":"QM8Bi5BSV7qTMv0","woeid":"350152","geo_is_family":0,"geo_is_friend":0,"geo_is_contact":0,"geo_is_public":1,"media":"photo","media_status":"ready"},{"id":"13894436510","owner":"96439392@N03","secret":"7b953cc179","server":"7303","farm":8,"title":"Stars","ispublic":1,"isfriend":0,"isfamily":0,"safe":0,"ownername":"Kristin Van den Eede","latitude":55.969741,"longitude":12.541205,"accuracy":"16","context":0,"place_id":"pkvE4fBUV79_V8E","woeid":"555966","geo_is_family":0,"geo_is_friend":0,"geo_is_contact":0,"geo_is_public":1,"media":"photo","media_status":"ready"},{"id":"13894249100","owner":"24773750@N08","secret":"d59bd74b17","server":"7438","farm":8,"title":"Erdbeeren","ispublic":1,"isfriend":0,"isfamily":0,"safe":0,"ownername":"G\u00fcnter Hentschel","latitude":50.855701,"longitude":6.193449,"accuracy":"11","context":0,"place_id":"NAvGNnpTUrswd5pWrQ","woeid":"20169054","geo_is_family":0,"geo_is_friend":0,"geo_is_contact":0,"geo_is_public":1,"media":"photo","media_status":"ready"},{"id":"14080729485","owner":"60913863@N08","secret":"eef4fba9a3","server":"2897","farm":3,"title":"Verso il capolinea (Towards Terminus)","ispublic":1,"isfriend":0,"isfamily":0,"safe":0,"ownername":"Goethe58","latitude":44.908307,"longitude":12.485017,"accuracy":"16","context":0,"place_id":"43JSZIRWULmQYnk","woeid":"723862","geo_is_family":0,"geo_is_friend":0,"geo_is_contact":0,"geo_is_public":1,"media":"photo","media_status":"ready"},{"id":"14080574945","owner":"79688583@N03","secret":"65e10a480a","server":"5229","farm":6,"title":"Pantheon, Rome","ispublic":1,"isfriend":0,"isfamily":0,"safe":0,"ownername":"Jamie Frith","latitude":41.899098,"longitude":12.476713,"accuracy":"15","context":0,"place_id":"FphPyURWU7ux6h4","woeid":"711883","geo_is_family":0,"geo_is_friend":0,"geo_is_contact":0,"geo_is_public":1,"media":"photo","media_status":"ready"},{"id":"14057474076","owner":"31804708@N02","secret":"38dca7f4e4","server":"7409","farm":8,"title":"Buenos Aires desde la legislatura IX - Buenos Aires from the City Council building IX","ispublic":1,"isfriend":0,"isfamily":0,"safe":0,"ownername":"celta4","latitude":-34.609493,"longitude":-58.374567,"accuracy":"16","context":0,"place_id":"RgCaT.9TUL9QKn3R3A","woeid":"22530019","geo_is_family":0,"geo_is_friend":0,"geo_is_contact":0,"geo_is_public":1,"media":"photo","media_status":"ready"},{"id":"14100466853","owner":"41324237@N07","secret":"2e92bf77e4","server":"7449","farm":8,"title":"January Light","ispublic":1,"isfriend":0,"isfamily":0,"safe":0,"ownername":"Louise and Colin","latitude":52.42425,"longitude":-2.654142,"accuracy":"13","context":0,"place_id":"jKHnT4JTUbIcYg","woeid":"23871","geo_is_family":0,"geo_is_friend":0,"geo_is_contact":0,"geo_is_public":1,"media":"photo","media_status":"ready"},{"id":"14077250882","owner":"77963612@N02","secret":"ca9271a210","server":"7036","farm":8,"title":"112 Landgoed Clingendael - De Japanse Tuin - \u30ac\u30fc\u30c7\u30f3 ( explore )","ispublic":1,"isfriend":0,"isfamily":0,"safe":0,"ownername":"Bas1953","latitude":52.099941,"longitude":4.333806,"accuracy":"15","context":0,"place_id":"XCe_qOxTUrpCVnaTkA","woeid":"20063900","geo_is_family":0,"geo_is_friend":0,"geo_is_contact":0,"geo_is_public":1,"media":"photo","media_status":"ready"},{"id":"14076943081","owner":"60712898@N05","secret":"b35b6624d3","server":"2936","farm":3,"title":"Riflessi","ispublic":1,"isfriend":0,"isfamily":0,"safe":0,"ownername":"MaOrI1563","latitude":43.698565,"longitude":11.118764,"accuracy":"14","context":0,"place_id":"Zn8Lw2NTUrvRNwLxZA","woeid":"20141655","geo_is_family":0,"geo_is_friend":0,"geo_is_contact":0,"geo_is_public":1,"media":"photo","media_status":"ready"},{"id":"13893459560","owner":"31798876@N02","secret":"402cd72f66","server":"7440","farm":8,"title":"","ispublic":1,"isfriend":0,"isfamily":0,"safe":0,"ownername":"alant79","latitude":52.635858,"longitude":-1.134723,"accuracy":"16","context":0,"place_id":"0bs9mAtQULxX0NuJFw","woeid":"12696154","geo_is_family":0,"geo_is_friend":0,"geo_is_contact":0,"geo_is_public":1,"media":"photo","media_status":"ready"},{"id":"14099752303","owner":"47035764@N03","secret":"9f14fcb432","server":"5533","farm":6,"title":"Sparrow, Bourtange, Groningen, Netherlands - 1757","ispublic":1,"isfriend":0,"isfamily":0,"safe":0,"ownername":"HereIsTom","latitude":53.006576,"longitude":7.192141,"accuracy":"16","context":0,"place_id":"ewwUmXlWUL0Nh5o","woeid":"727918","geo_is_family":0,"geo_is_friend":0,"geo_is_contact":0,"geo_is_public":1,"media":"photo","media_status":"ready"},{"id":"13893029217","owner":"30420396@N03","secret":"4d9d50fe2f","server":"5508","farm":6,"title":"Best smelling place in Ljungby","ispublic":1,"isfriend":0,"isfamily":0,"safe":0,"ownername":"'Ajnagraphy'","latitude":56.836062,"longitude":13.966627,"accuracy":"13","context":0,"place_id":"AtzXFHtZW70vzR8","woeid":"897466","geo_is_family":0,"geo_is_friend":0,"geo_is_contact":0,"geo_is_public":1,"media":"photo","media_status":"ready"},{"id":"13892817859","owner":"34256037@N00","secret":"754777428e","server":"5530","farm":6,"title":"Hoeksche Waard","ispublic":1,"isfriend":0,"isfamily":0,"safe":0,"ownername":"Bart van Damme","latitude":51.747252,"longitude":4.594388,"accuracy":"14","context":0,"place_id":"GmX0hYFWUbvYoS8","woeid":"731789","geo_is_family":0,"geo_is_friend":0,"geo_is_contact":0,"geo_is_public":1,"media":"photo","media_status":"ready"}]},"stat":"ok"}