{"photos":{"page":64,"pages":26696,"perpage":60,"total":"1601728","photo":[{"id":"13997776717","owner":"21692577@N02","secret":"78945abcbd","server":"2897","farm":3,"title":"Orange Sunrise on the farm. Gasp\u00e9sie, Canada. #299","ispublic":1,"isfriend":0,"isfamily":0,"safe":0,"ownername":"Danny VB","latitude":48.394561,"longitude":-64.487915,"accuracy":"11","context":0,"place_id":"2Tr2iDlSVbny","woeid":"3732","geo_is_family":0,"geo_is_friend":0,"geo_is_contact":0,"geo_is_public":1,"media":"photo","media_status":"ready"},{"id":"14181094531","owner":"44161305@N02","secret":"1ca63198c6","server":"2910","farm":3,"title":"Sciacca, Sicily  007","ispublic":1,"isfriend":0,"isfamily":0,"safe":0,"ownername":"tango-","latitude":37.50421,"longitude":13.086776,"accuracy":"13","context":0,"place_id":"RXkhnPhWULlZY5k","woeid":"723897","geo_is_family":0,"geo_is_friend":0,"geo_is_contact":0,"geo_is_public":1,"media":"photo","media_status":"ready"},{"id":"13997600998","owner":"47227085@N07","secret":"f14ee463f0","server":"7418","farm":8,"title":"Making Pizza","ispublic":1,"isfriend":0,"isfamily":0,"safe":0,"ownername":"Andrea Borx","latitude":44.292523,"longitude":11.033535,"accuracy":"12","context":0,"place_id":"fLBuQLpTUrvrZtohMA","woeid":"20139760","geo_is_family":0,"geo_is_friend":0,"geo_is_contact":0,"geo_is_public":1,"media":"photo","media_status":"ready"},{"id":"14160092066","owner":"8868875@N03","secret":"b025ec7b1b","server":"7360","farm":8,"title":"looking for jewels","ispublic":1,"isfriend":0,"isfamily":0,"safe":0,"ownername":"gato-gato-gato","latitude":47.371722,"longitude":8.542188,"accuracy":"16","context":0,"place_id":"Fwr4QC5WWrh4E64","woeid":"782466","geo_is_family":0,"geo_is_friend":0,"geo_is_contact":0,"geo_is_public":1,"media":"photo","media_status":"ready"},{"id":"14182305555","owner":"72848627@N05","secret":"f48dba81a0","server":"5236","farm":6,"title":"Roadside Rainstorm  [Explored]","ispublic":1,"isfriend":0,"isfamily":0,"safe":0,"ownername":"Abstracted Eye","latitude":51.52418,"longitude":-0.114414,"accuracy":"16","context":0,"place_id":"oWcPbVBTUrrITsIGlw","woeid":"20094312","geo_is_family":0,"geo_is_friend":0,"geo_is_contact":0,"geo_is_public":1,"media":"photo","media_status":"ready"},{"id":"13994947458","owner":"75133058@N00","secret":"40a0d97b5f","server":"7441","farm":8,"title":"El encuentro","ispublic":1,"isfriend":0,"isfamily":0,"safe":0,"ownername":"Eduardo Amorim","latitude":-34.856636,"longitude":-56.210002,"accuracy":"12","context":0,"place_id":"2qpp5YdSWrpjQno","woeid":"380653","geo_is_family":0,"geo_is_friend":0,"geo_is_contact":0,"geo_is_public":1,"media":"photo","media_status":"ready"},{"id":"14180692185","owner":"79193776@N03","secret":"a0a1e257f7","server":"5157","farm":6,"title":"Set fire to the water","ispublic":1,"isfriend":0,"isfamily":0,"safe":0,"ownername":"KerKaya","latitude":49.933986,"longitude":1.086044,"accuracy":"11","context":0,"place_id":"pV.zH89UWrJRJ4Y","woeid":"588732","geo_is_family":0,"geo_is_friend":0,"geo_is_contact":0,"geo_is_public":1,"media":"photo","media_status":"ready"},{"id":"14180504515","owner":"53196512@N07","secret":"b52343c026","server":"7334","farm":8,"title":"Frozen Light (In Camera Light Painting), Logarska Dolina","ispublic":1,"isfriend":0,"isfamily":0,"safe":0,"ownername":"flatworldsedge","latitude":46.368425,"longitude":14.588627,"accuracy":"15","context":0,"place_id":"zeGYFNlUUbuHgDE","woeid":"531066","geo_is_family":0,"geo_is_friend":0,"geo_is_contact":0,"geo_is_public":1,"media":"photo","media_status":"ready"},{"id":"14176591932","owner":"34885474@N03","secret":"ae9ce239f2","server":"7414","farm":8,"title":"esa ma\u00f1ana por Jandia","ispublic":1,"isfriend":0,"isfamily":0,"safe":0,"ownername":"alcachofa1960","latitude":28.085384,"longitude":-14.285681,"accuracy":"15","context":0,"place_id":"2ZOzsrlUVLqeWs4NCQ","woeid":"56065277","geo_is_family":0,"geo_is_friend":0,"geo_is_contact":0,"geo_is_public":1,"media":"photo","media_status":"ready"},{"id":"14199124683","owner":"61033692@N00","secret":"ddcbb45bc2","server":"7410","farm":8,"title":"Crocodile?","ispublic":1,"isfriend":0,"isfamily":0,"safe":0,"ownername":"magellano","latitude":36.165596,"longitude":28.095474,"accuracy":"11","context":0,"place_id":"eUBZ2iFUVLptl8H8ww","woeid":"56024006","geo_is_family":0,"geo_is_friend":0,"geo_is_contact":0,"geo_is_public":1,"media":"photo","media_status":"ready"},{"id":"14178848474","owner":"59092338@N07","secret":"9ee37d21cc","server":"7398","farm":8,"title":"Metropoli.","ispublic":1,"isfriend":0,"isfamily":0,"safe":0,"ownername":"Stefano Domenici","latitude":40.689099,"longitude":-74.002532,"accuracy":"16","context":0,"place_id":".skCPTpTVr.Q3WKW","woeid":"2459115","geo_is_family":0,"geo_is_friend":0,"geo_is_contact":0,"geo_is_public":1,"media":"photo","media_status":"ready"},{"id":"14175498932","owner":"30812694@N03","secret":"5b1c74562b","server":"7373","farm":8,"title":"Senna, 20 a\u00f1os.","ispublic":1,"isfriend":0,"isfamily":0,"safe":0,"ownername":"Ricardo Alguacil","latitude":44.491867,"longitude":11.343319,"accuracy":"16","context":0,"place_id":"OpIp4IBWU7vidc0","woeid":"711080","geo_is_family":0,"geo_is_friend":0,"geo_is_contact":0,"geo_is_public":1,"media":"photo","media_status":"ready"},{"id":"14153977836","owner":"34648518@N00","secret":"6cf6157736","server":"7379","farm":8,"title":"Estaci\u00f3n de trenes Valdivia","ispublic":1,"isfriend":0,"isfamily":0,"safe":0,"ownername":"Don Vacomano","latitude":-39.82393,"longitude":-73.221001,"accuracy":"15","context":0,"place_id":"x16ZkLZSVrPe0XQ","woeid":"349872","geo_is_family":0,"geo_is_friend":0,"geo_is_contact":0,"geo_is_public":1,"media":"photo","media_status":"ready"},{"id":"14175789695","owner":"22543235@N05","secret":"efe26b430d","server":"7395","farm":8,"title":"Lough Ash - County Tyrone","ispublic":1,"isfriend":0,"isfamily":0,"safe":0,"ownername":"Gareth Wray Photography -Thanks = 1.5 Million Hits","latitude":54.844994,"longitude":-7.250195,"accuracy":"16","context":0,"place_id":"KUhB6nZVVr9JNA","woeid":"44591","geo_is_family":0,"geo_is_friend":0,"geo_is_contact":0,"geo_is_public":1,"media":"photo","media_status":"ready"},{"id":"13989038860","owner":"21675317@N07","secret":"282b428e8e","server":"2923","farm":3,"title":"Godafoss","ispublic":1,"isfriend":0,"isfamily":0,"safe":0,"ownername":"klOrklOr","latitude":65.684299,"longitude":-17.552032,"accuracy":"11","context":0,"place_id":"ZtQTQ_hTUb6uqVhu","woeid":"2345705","geo_is_family":0,"geo_is_friend":0,"geo_is_contact":0,"geo_is_public":1,"media":"photo","media_status":"ready"},{"id":"14172022331","owner":"16874065@N00","secret":"4336ba63a1","server":"7335","farm":8,"title":"171venise-n&b","ispublic":1,"isfriend":0,"isfamily":0,"safe":0,"ownername":"R E M I B R I D O T","latitude":45.43328,"longitude":12.340311,"accuracy":"16","context":0,"place_id":"UQEdl5BTUrv2TyTgZw","woeid":"20150616","geo_is_family":0,"geo_is_friend":0,"geo_is_contact":0,"geo_is_public":1,"media":"photo","media_status":"ready"},{"id":"14171407814","owner":"101109840@N06","secret":"61a3704b9f","server":"7399","farm":8,"title":"Omega Seamaster_","ispublic":1,"isfriend":0,"isfamily":0,"safe":0,"ownername":"Brigante\uf8ff","latitude":45.46894,"longitude":9.18103,"accuracy":"11","context":0,"place_id":"49Gidk1WU7JxrFY","woeid":"718345","geo_is_family":0,"geo_is_friend":0,"geo_is_contact":0,"geo_is_public":1,"media":"photo","media_status":"ready"},{"id":"14147670676","owner":"44161305@N02","secret":"dbec1e0c63","server":"7407","farm":8,"title":"381 Riserva dello Zingaro, Sicily","ispublic":1,"isfriend":0,"isfamily":0,"safe":0,"ownername":"tango-","latitude":38.072622,"longitude":12.822074,"accuracy":"12","context":0,"place_id":"l.nJXP9WULlBl10","woeid":"723924","geo_is_family":0,"geo_is_friend":0,"geo_is_contact":0,"geo_is_public":1,"media":"photo","media_status":"ready"},{"id":"13982512259","owner":"89218664@N00","secret":"1519cc8a31","server":"7330","farm":8,"title":"View from the cliff","ispublic":1,"isfriend":0,"isfamily":0,"safe":0,"ownername":"Tati@","latitude":39.315706,"longitude":8.430633,"accuracy":"11","context":0,"place_id":"sfODhYxTUruwiwo5_Q","woeid":"20133631","geo_is_family":0,"geo_is_friend":0,"geo_is_contact":0,"geo_is_public":1,"media":"photo","media_status":"ready"},{"id":"13981971090","owner":"33618837@N02","secret":"ee47268430","server":"7403","farm":8,"title":"Joseph Mallord William Turner, pride of Tate Britain (5 pictures)","ispublic":1,"isfriend":0,"isfamily":0,"safe":0,"ownername":"jackfre2","latitude":51.490821,"longitude":-0.127189,"accuracy":"15","context":0,"place_id":"3RXCwoVTVrJAqDS.jw","woeid":"24875642","geo_is_family":0,"geo_is_friend":0,"geo_is_contact":0,"geo_is_public":1,"media":"photo","media_status":"ready"},{"id":"14188587823","owner":"105002963@N07","secret":"28e945ff98","server":"7299","farm":8,"title":"After the Shower #4","ispublic":1,"isfriend":0,"isfamily":0,"safe":0,"ownername":"god_save_the_green","latitude":43.401555,"longitude":3.694152,"accuracy":"11","context":0,"place_id":"0KMneDNXULjTEuo","woeid":"622033","geo_is_family":0,"geo_is_friend":0,"geo_is_contact":0,"geo_is_public":1,"media":"photo","media_status":"ready"},{"id":"13981840138","owner":"67833313@N08","secret":"8b617e32bb","server":"7321","farm":8,"title":"colors, fishing, Greece....","ispublic":1,"isfriend":0,"isfamily":0,"safe":0,"ownername":"Dimitra Kirgiannaki \u266a\u00b8.\u2022*\u00b4spring-lover \u00a8\u00b4","latitude":37.930207,"longitude":23.695827,"accuracy":"11","context":0,"place_id":"0PhejEpYVL9ZXy4","woeid":"965854","geo_is_family":0,"geo_is_friend":0,"geo_is_contact":0,"geo_is_public":1,"media":"photo","media_status":"ready"},{"id":"13981759379","owner":"40922941@N00","secret":"b2be34961b","server":"2898","farm":3,"title":"Spiegelrei en Spinolarei","ispublic":1,"isfriend":0,"isfamily":0,"safe":0,"ownername":"Umberto Luparelli","latitude":51.212273,"longitude":3.227974,"accuracy":"16","context":0,"place_id":"w92F8KhTUrrvq..Fag","woeid":"20098369","geo_is_family":0,"geo_is_friend":0,"geo_is_contact":0,"geo_is_public":1,"media":"photo","media_status":"ready"},{"id":"13981474309","owner":"26429763@N08","secret":"a26c97b521","server":"7400","farm":8,"title":"Simply HDR","ispublic":1,"isfriend":0,"isfamily":0,"safe":0,"ownername":"Born in The 40's.. Explored again!","latitude":52.783285,"longitude":0.153958,"accuracy":"15","context":0,"place_id":"bJzmkqBTVLy5Ng","woeid":"26640","geo_is_family":0,"geo_is_friend":0,"geo_is_contact":0,"geo_is_public":1,"media":"photo","media_status":"ready"},{"id":"14164742352","owner":"41687112@N06","secret":"91e8bb2ed7","server":"7325","farm":8,"title":"Hidden Gems !![Explored-13-may-2014]","ispublic":1,"isfriend":0,"isfamily":0,"safe":0,"ownername":"pankaj.anand","latitude":34.161321,"longitude":77.579698,"accuracy":"13","context":0,"place_id":"9gBPz6FTULP.b1Kx","woeid":"2290496","geo_is_family":0,"geo_is_friend":0,"geo_is_contact":0,"geo_is_public":1,"media":"photo","media_status":"ready"},{"id":"14163048051","owner":"65746156@N08","secret":"e536887cb6","server":"7398","farm":8,"title":"San Giovanni in Laterano IMGP5183camraw+bnwboost","ispublic":1,"isfriend":0,"isfamily":0,"safe":0,"ownername":"shammuramat","latitude":41.90311,"longitude":12.495759,"accuracy":"11","context":0,"place_id":"uijRnjBWULsQTwc","woeid":"721943","geo_is_family":0,"geo_is_friend":0,"geo_is_contact":0,"geo_is_public":1,"media":"photo","media_status":"ready"},{"id":"14166225995","owner":"16854222@N05","secret":"bb101d5449","server":"2927","farm":3,"title":"Blues Breakout","ispublic":1,"isfriend":0,"isfamily":0,"safe":0,"ownername":"AnyMotion","latitude":50.123271,"longitude":8.6804,"accuracy":"16","context":0,"place_id":"Z0FRRfRXV7oIeew","woeid":"650272","geo_is_family":0,"geo_is_friend":0,"geo_is_contact":0,"geo_is_public":1,"media":"photo","media_status":"ready"},{"id":"13974890110","owner":"46033453@N03","secret":"d4195c27a5","server":"7333","farm":8,"title":"Terre di Canossa - Sulle tracce di Matilde","ispublic":1,"isfriend":0,"isfamily":0,"safe":0,"ownername":"Dancing Flowers by Gio'","latitude":44.602201,"longitude":10.408515,"accuracy":"11","context":0,"place_id":"p04qLKdWU752Bio","woeid":"714057","geo_is_family":0,"geo_is_friend":0,"geo_is_contact":0,"geo_is_public":1,"media":"photo","media_status":"ready"},{"id":"14137427356","owner":"52431791@N08","secret":"45ec14e7e9","server":"5542","farm":6,"title":"\"WORMHOLE\" (Physics) [explored]","ispublic":1,"isfriend":0,"isfamily":0,"safe":0,"ownername":"ipon1","latitude":43.449678,"longitude":4.4347,"accuracy":"11","context":0,"place_id":".iecQEtXUL2VZGE","woeid":"627780","geo_is_family":0,"geo_is_friend":0,"geo_is_contact":0,"geo_is_public":1,"media":"photo","media_status":"ready"},{"id":"13971505738","owner":"70231077@N06","secret":"34f1a36b1a","server":"5547","farm":6,"title":"Sawfish","ispublic":1,"isfriend":0,"isfamily":0,"safe":0,"ownername":"mjw...","latitude":53.738863,"longitude":-0.330641,"accuracy":"15","context":0,"place_id":"KjFlu9NTV7jyiw","woeid":"25211","geo_is_family":0,"geo_is_friend":0,"geo_is_contact":0,"geo_is_public":1,"media":"photo","media_status":"ready"},{"id":"13967436680","owner":"30627003@N08","secret":"577b5d0fa3","server":"7411","farm":8,"title":"Burgruine Hohenberneck","ispublic":1,"isfriend":0,"isfamily":0,"safe":0,"ownername":"Regina_Hoer","latitude":50.05306,"longitude":11.676084,"accuracy":"15","context":0,"place_id":"zjLZuV1XUbxgKlM","woeid":"636393","geo_is_family":0,"geo_is_friend":0,"geo_is_contact":0,"geo_is_public":1,"media":"photo","media_status":"ready"},{"id":"13967151859","owner":"53853135@N08","secret":"76c2b9b8f6","server":"7447","farm":8,"title":"Sissinghurst Castle","ispublic":1,"isfriend":0,"isfamily":0,"safe":0,"ownername":"niloc's pic's","latitude":51.115939,"longitude":0.581685,"accuracy":"16","context":0,"place_id":"oIskxGhSVrJQfQ","woeid":"34865","geo_is_family":0,"geo_is_friend":0,"geo_is_contact":0,"geo_is_public":1,"media":"photo","media_status":"ready"},{"id":"13967058139","owner":"81035653@N00","secret":"c11b10afb5","server":"2921","farm":3,"title":"Put your hands in the air","ispublic":1,"isfriend":0,"isfamily":0,"safe":0,"ownername":"B\u212en","latitude":52.37628,"longitude":4.884774,"accuracy":"16","context":0,"place_id":"xQ4tawtWUL1NrOY","woeid":"727232","geo_is_family":0,"geo_is_friend":0,"geo_is_contact":0,"geo_is_public":1,"media":"photo","media_status":"ready"},{"id":"14149568881","owner":"44161305@N02","secret":"12db925936","server":"5584","farm":6,"title":"Sciacca, May, 2014 039","ispublic":1,"isfriend":0,"isfamily":0,"safe":0,"ownername":"tango-","latitude":37.502944,"longitude":13.076482,"accuracy":"14","context":0,"place_id":"RXkhnPhWULlZY5k","woeid":"723897","geo_is_family":0,"geo_is_friend":0,"geo_is_contact":0,"geo_is_public":1,"media":"photo","media_status":"ready"},{"id":"14151057784","owner":"22543235@N05","secret":"3443d8f604","server":"7414","farm":8,"title":"Knockavoe","ispublic":1,"isfriend":0,"isfamily":0,"safe":0,"ownername":"Gareth Wray Photography -Thanks = 1.5 Million Hits","latitude":54.824738,"longitude":-7.420614,"accuracy":"16","context":0,"place_id":"DfFjAU1UVLsREGU","woeid":"561535","geo_is_family":0,"geo_is_friend":0,"geo_is_contact":0,"geo_is_public":1,"media":"photo","media_status":"ready"},{"id":"14150656375","owner":"44161305@N02","secret":"6715cf5406","server":"7421","farm":8,"title":"Sciacca, Sicily,  May,  2014 165","ispublic":1,"isfriend":0,"isfamily":0,"safe":0,"ownername":"tango-","latitude":37.502944,"longitude":13.076482,"accuracy":"14","context":0,"place_id":"RXkhnPhWULlZY5k","woeid":"723897","geo_is_family":0,"geo_is_friend":0,"geo_is_contact":0,"geo_is_public":1,"media":"photo","media_status":"ready"},{"id":"14148495934","owner":"75133058@N00","secret":"d187c3d118","server":"2926","farm":3,"title":"Overos, todav\u00eda...","ispublic":1,"isfriend":0,"isfamily":0,"safe":0,"ownername":"Eduardo Amorim","latitude":-34.233802,"longitude":-59.499206,"accuracy":"11","context":0,"place_id":"K.q5MK9SUbg4DZE","woeid":"332504","geo_is_family":0,"geo_is_friend":0,"geo_is_contact":0,"geo_is_public":1,"media":"photo","media_status":"ready"},{"id":"13959852088","owner":"96667746@N04","secret":"1a90eacf35","server":"5074","farm":6,"title":"Light, Shadows And Bad Weather","ispublic":1,"isfriend":0,"isfamily":0,"safe":0,"ownername":"Agrusoft Webdesign Photopage","latitude":52.6922,"longitude":4.994316,"accuracy":"16","context":0,"place_id":"bExynE1WUb5ajCs","woeid":"734865","geo_is_family":0,"geo_is_friend":0,"geo_is_contact":0,"geo_is_public":1,"media":"photo","media_status":"ready"},{"id":"13959582417","owner":"31052408@N04","secret":"b2f3f052da","server":"7452","farm":8,"title":"The way...","ispublic":1,"isfriend":0,"isfamily":0,"safe":0,"ownername":"Perez Alonso Photography","latitude":43.403301,"longitude":-2.971801,"accuracy":"11","context":0,"place_id":"C4IcSOJTUrhqhqeiqg","woeid":"20220803","geo_is_family":0,"geo_is_friend":0,"geo_is_contact":0,"geo_is_public":1,"media":"photo","media_status":"ready"},{"id":"14144960845","owner":"49010317@N07","secret":"63135a52c5","server":"7369","farm":8,"title":"snorkeling ...","ispublic":1,"isfriend":0,"isfamily":0,"safe":0,"ownername":"miriam259","latitude":44.270279,"longitude":9.400849,"accuracy":"11","context":0,"place_id":"qAPzkyhWUL5EdTA","woeid":"724146","geo_is_family":0,"geo_is_friend":0,"geo_is_contact":0,"geo_is_public":1,"media":"photo","media_status":"ready"},{"id":"14164676553","owner":"63239442@N06","secret":"06eb3f619c","server":"2906","farm":3,"title":"Paisajes de Almer\u00eda","ispublic":1,"isfriend":0,"isfamily":0,"safe":0,"ownername":"Miguel Callejon","latitude":36.796845,"longitude":-2.060021,"accuracy":"16","context":0,"place_id":"poxx0jxWVL9Ary0","woeid":"765734","geo_is_family":0,"geo_is_friend":0,"geo_is_contact":0,"geo_is_public":1,"media":"photo","media_status":"ready"},{"id":"13957886730","owner":"44161305@N02","secret":"6ff5bd296c","server":"2901","farm":3,"title":"Venice, Italy, March 30,  2014 439","ispublic":1,"isfriend":0,"isfamily":0,"safe":0,"ownername":"tango-","latitude":45.436384,"longitude":12.317237,"accuracy":"12","context":0,"place_id":"1N.fFnxTUruM4fC_Dw","woeid":"20150615","geo_is_family":0,"geo_is_friend":0,"geo_is_contact":0,"geo_is_public":1,"media":"photo","media_status":"ready"},{"id":"14144700954","owner":"17454344@N08","secret":"d1371e063f","server":"7422","farm":8,"title":"Llantarnam Abbey Wood","ispublic":1,"isfriend":0,"isfamily":0,"safe":0,"ownername":"Dave Roberts3","latitude":51.630218,"longitude":-3.005104,"accuracy":"13","context":0,"place_id":"S6kMAb1TVbsyrQ","woeid":"27115","geo_is_family":0,"geo_is_friend":0,"geo_is_contact":0,"geo_is_public":1,"media":"photo","media_status":"ready"},{"id":"14120044886","owner":"66759125@N00","secret":"5d01d05799","server":"2933","farm":3,"title":"","ispublic":1,"isfriend":0,"isfamily":0,"safe":0,"ownername":"Svein Nordrum","latitude":59.907447,"longitude":10.762739,"accuracy":"15","context":0,"place_id":"RS2PeHBTUb0Tv.wcpQ","woeid":"23701346","geo_is_family":0,"geo_is_friend":0,"geo_is_contact":0,"geo_is_public":1,"media":"photo","media_status":"ready"},{"id":"14139534461","owner":"90378082@N07","secret":"f2f0812dd5","server":"5539","farm":6,"title":"Young love","ispublic":1,"isfriend":0,"isfamily":0,"safe":0,"ownername":"Baz 120","latitude":41.900025,"longitude":12.473344,"accuracy":"15","context":0,"place_id":"FphPyURWU7ux6h4","woeid":"711883","geo_is_family":0,"geo_is_friend":0,"geo_is_contact":0,"geo_is_public":1,"media":"photo","media_status":"ready"},{"id":"13954233120","owner":"91063876@N05","secret":"a47996792c","server":"7357","farm":8,"title":"The Falls","ispublic":1,"isfriend":0,"isfamily":0,"safe":0,"ownername":"JMHart2","latitude":41.22557,"longitude":-73.057627,"accuracy":"13","context":0,"place_id":"PF5LRFxTVrp6hTxj","woeid":"2405990","geo_is_family":0,"geo_is_friend":0,"geo_is_contact":0,"geo_is_public":1,"media":"photo","media_status":"ready"},{"id":"14140397474","owner":"58319125@N06","secret":"1b51486518","server":"7365","farm":8,"title":"JUNTO AL RIO, UNAS AMAPOLAS. EXPLORE MAYO","ispublic":1,"isfriend":0,"isfamily":0,"safe":0,"ownername":"Lila_MJos\u00e9","latitude":38.301724,"longitude":-6.574287,"accuracy":"13","context":0,"place_id":".qEw_5tWVbyVm9k","woeid":"776931","geo_is_family":0,"geo_is_friend":0,"geo_is_contact":0,"geo_is_public":1,"media":"photo","media_status":"ready"},{"id":"14139888484","owner":"82831944@N02","secret":"5ee315491d","server":"7413","farm":8,"title":"Net!","ispublic":1,"isfriend":0,"isfamily":0,"safe":0,"ownername":"Antonio Iacobelli (Jacobson-2012)","latitude":41.113277,"longitude":16.864056,"accuracy":"15","context":0,"place_id":"4EezEdZWU7r5KMc","woeid":"710722","geo_is_family":0,"geo_is_friend":0,"geo_is_contact":0,"geo_is_public":1,"media":"photo","media_status":"ready"},{"id":"14115906936","owner":"44752279@N02","secret":"9b80a85db6","server":"5032","farm":6,"title":"Saint Aignan sur Cher","ispublic":1,"isfriend":0,"isfamily":0,"safe":0,"ownername":"Yolanda Miel","latitude":47.271192,"longitude":1.376166,"accuracy":"14","context":0,"place_id":"_wvf4uZXULgK_iA","woeid":"622799","geo_is_family":0,"geo_is_friend":0,"geo_is_contact":0,"geo_is_public":1,"media":"photo","media_status":"ready"},{"id":"14138825195","owner":"36609145@N02","secret":"a93da26c12","server":"2932","farm":3,"title":"AGIRA CANADIAN WAR CEMETERY","ispublic":1,"isfriend":0,"isfamily":0,"safe":0,"ownername":"costagar51","latitude":37.654572,"longitude":14.550266,"accuracy":"16","context":0,"place_id":"dl8zlCZWUrP3Oos","woeid":"709837","geo_is_family":0,"geo_is_friend":0,"geo_is_contact":0,"geo_is_public":1,"media":"photo","media_status":"ready"},{"id":"14158657843","owner":"8868875@N03","secret":"df8b31a293","server":"7435","farm":8,"title":"\"I like the results...\"","ispublic":1,"isfriend":0,"isfamily":0,"safe":0,"ownername":"gato-gato-gato","latitude":47.481077,"longitude":8.300463,"accuracy":"16","context":0,"place_id":"1R8aqcVTUrt6iQOVaw","woeid":"20103813","geo_is_family":0,"geo_is_friend":0,"geo_is_contact":0,"geo_is_public":1,"media":"photo","media_status":"ready"},{"id":"13951562658","owner":"87649553@N02","secret":"1a48b502b9","server":"7396","farm":8,"title":"Galene's Realm","ispublic":1,"isfriend":0,"isfamily":0,"safe":0,"ownername":"goat1412","latitude":49.444523,"longitude":-2.653584,"accuracy":"15","context":0,"place_id":"sOkmFRZTUr0OosZkBQ","woeid":"20700939","geo_is_family":0,"geo_is_friend":0,"geo_is_contact":0,"geo_is_public":1,"media":"photo","media_status":"ready"},{"id":"14134032521","owner":"96927438@N03","secret":"4e43c2b4bd","server":"7370","farm":8,"title":"enjaulada.","ispublic":1,"isfriend":0,"isfamily":0,"safe":0,"ownername":"Mr. Hakuna Matata","latitude":43.229195,"longitude":-2.736968,"accuracy":"10","context":0,"place_id":"J_fM5YNWV7jgpWQ","woeid":"752395","geo_is_family":0,"geo_is_friend":0,"geo_is_contact":0,"geo_is_public":1,"media":"photo","media_status":"ready"},{"id":"14137599674","owner":"46154217@N07","secret":"a952603b9f","server":"7431","farm":8,"title":"acqua azzurra acqua chiara","ispublic":1,"isfriend":0,"isfamily":0,"safe":0,"ownername":"jjamv","latitude":40.695288,"longitude":14.478475,"accuracy":"16","context":0,"place_id":"wd2xQ0FWU7mn5PQ","woeid":"713330","geo_is_family":0,"geo_is_friend":0,"geo_is_contact":0,"geo_is_public":1,"media":"photo","media_status":"ready"},{"id":"14114077226","owner":"44161305@N02","secret":"d70a7d5793","server":"7433","farm":8,"title":"\u00c7avu\u015fin, Cappadocia (Kapadokya, Turkey) 544","ispublic":1,"isfriend":0,"isfamily":0,"safe":0,"ownername":"tango-","latitude":38.674052,"longitude":34.84168,"accuracy":"13","context":0,"place_id":"3avCzqhTUb6pGgrj","woeid":"2343749","geo_is_family":0,"geo_is_friend":0,"geo_is_contact":0,"geo_is_public":1,"media":"photo","media_status":"ready"},{"id":"14133890641","owner":"63239442@N06","secret":"30d88bbc5c","server":"2897","farm":3,"title":"Atardecer en el cabo","ispublic":1,"isfriend":0,"isfamily":0,"safe":0,"ownername":"Miguel Callejon","latitude":36.723982,"longitude":-2.193639,"accuracy":"16","context":0,"place_id":"SW3.oBBTULzVYAHv4w","woeid":"22661164","geo_is_family":0,"geo_is_friend":0,"geo_is_contact":0,"geo_is_public":1,"media":"photo","media_status":"ready"},{"id":"13950276159","owner":"49010317@N07","secret":"6284d66e56","server":"7330","farm":8,"title":"la vie en rose ...","ispublic":1,"isfriend":0,"isfamily":0,"safe":0,"ownername":"miriam259","latitude":44.268293,"longitude":9.398789,"accuracy":"11","context":0,"place_id":"qAPzkyhWUL5EdTA","woeid":"724146","geo_is_family":0,"geo_is_friend":0,"geo_is_contact":0,"geo_is_public":1,"media":"photo","media_status":"ready"},{"id":"14133196241","owner":"65788104@N08","secret":"1274ab5b68","server":"7432","farm":8,"title":"Pearl Bordered Fritillary.(EXPLORED 08-05-2014)","ispublic":1,"isfriend":0,"isfamily":0,"safe":0,"ownername":"Natures Art Photography.Updated Profile, Read.","latitude":50.72805,"longitude":-3.719249,"accuracy":"5","context":0,"place_id":"2eIY2QFTVr_DwWZNLg","woeid":"24554868","geo_is_family":0,"geo_is_friend":0,"geo_is_contact":0,"geo_is_public":1,"media":"photo","media_status":"ready"},{"id":"14155879003","owner":"42761333@N07","secret":"bea1dc6e8c","server":"2914","farm":3,"title":"The Arab Room - Lumix LX7 - EXPLORED! Thank you :-)","ispublic":1,"isfriend":0,"isfamily":0,"safe":0,"ownername":"Ricardodaforce","latitude":51.481907,"longitude":-3.182451,"accuracy":"15","context":0,"place_id":"GLf5WyBVUb2oHg","woeid":"43723","geo_is_family":0,"geo_is_friend":0,"geo_is_contact":0,"geo_is_public":1,"media":"photo","media_status":"ready"},{"id":"14113891466","owner":"90076467@N07","secret":"8d70bf4402","server":"5112","farm":6,"title":"... entre las sombras!!! \/ ... between the shadows!!!","ispublic":1,"isfriend":0,"isfamily":0,"safe":0,"ownername":"Fede Falces (OFF & ON)","latitude":41.362689,"longitude":2.105489,"accuracy":"11","context":0,"place_id":"fDMsPiZWVLjFtAI","woeid":"762338","geo_is_family":0,"geo_is_friend":0,"geo_is_contact":0,"geo_is_public":1,"media":"photo","media_status":"ready"}]},"stat":"ok"}