{"photos":{"page":2, "pages":24242, "perpage":60, "total":"1454502", "photo":[{"id":"4508054075", "owner":"27420180@N08", "secret":"fdd3cd1534", "server":"4029", "farm":5, "title":"J'\u2665 la barbe \u00e0 papa", "ispublic":1, "isfriend":0, "isfamily":0, "safe":1, "ownername":"A.G. Photographe", "latitude":48.830712, "longitude":2.406198, "accuracy":"15", "context":0, "place_id":"VbLguiBUV7JM.oxu2A", "woeid":"55843807", "geo_is_family":0, "geo_is_friend":0, "geo_is_contact":0, "geo_is_public":1, "media":"photo", "media_status":"ready"}, {"id":"4477286504", "owner":"25959337@N00", "secret":"c15d94a450", "server":"4056", "farm":5, "title":"Sunset in Sykkylven, Norway", "ispublic":1, "isfriend":0, "isfamily":0, "safe":0, "ownername":"Martin Ystenes", "latitude":62.395182, "longitude":6.581497, "accuracy":"13", "context":0, "place_id":"QNHb8wVZVL7wGOo", "woeid":"864838", "geo_is_family":0, "geo_is_friend":0, "geo_is_contact":0, "geo_is_public":1, "media":"photo", "media_status":"ready"}, {"id":"4421576483", "owner":"39070943@N04", "secret":"eab4c13c60", "server":"4057", "farm":5, "title":"Faith makes all things possible....", "ispublic":1, "isfriend":0, "isfamily":0, "safe":0, "ownername":"Zino2009 (bob van den berg)", "latitude":52.249454, "longitude":6.243023, "accuracy":"14", "context":0, "place_id":"SFlNloVWULI.2CU", "woeid":"728214", "geo_is_family":0, "geo_is_friend":0, "geo_is_contact":0, "geo_is_public":1, "media":"photo", "media_status":"ready"}, {"id":"3997972414", "owner":"34726560@N00", "secret":"a595eaee98", "server":"3460", "farm":4, "title":"Gaiety pastels", "ispublic":1, "isfriend":0, "isfamily":0, "safe":0, "ownername":"Steve-h", "latitude":53.340316, "longitude":-6.262164, "accuracy":"14", "context":0, "place_id":"fjmHzRZUVLpKRgI", "woeid":"560743", "geo_is_family":0, "geo_is_friend":0, "geo_is_contact":0, "geo_is_public":1, "media":"photo", "media_status":"ready"}, {"id":"3305280075", "owner":"25959337@N00", "secret":"3e99be7c1e", "server":"3653", "farm":4, "title":"Straumshornet og t\u00e5ke", "ispublic":1, "isfriend":0, "isfamily":0, "safe":0, "ownername":"Martin Ystenes", "latitude":62.376364, "longitude":6.551284, "accuracy":"10", "context":0, "place_id":"yxxwR8hZVLqCKFM", "woeid":"860228", "geo_is_family":0, "geo_is_friend":0, "geo_is_contact":0, "geo_is_public":1, "media":"photo", "media_status":"ready"}, {"id":"3190112039", "owner":"29958169@N03", "secret":"af9de3d853", "server":"3465", "farm":4, "title":"Women - The sound of Silence", "ispublic":1, "isfriend":0, "isfamily":0, "safe":1, "ownername":"Carmelo61 PhotoPassion Thanks", "latitude":45.871455, "longitude":11.493501, "accuracy":"14", "context":0, "place_id":"SiNxFBdTUrscqhmTAA", "woeid":"20106935", "geo_is_family":0, "geo_is_friend":0, "geo_is_contact":0, "geo_is_public":1, "media":"photo", "media_status":"ready"}, {"id":"3149219360", "owner":"25959337@N00", "secret":"b9c1146d53", "server":"3116", "farm":4, "title":"The black hole", "ispublic":1, "isfriend":0, "isfamily":0, "safe":0, "ownername":"Martin Ystenes", "latitude":64.053804, "longitude":-16.188354, "accuracy":"11", "context":0, "place_id":"L30o2XlTUb6ZXW0u", "woeid":"2345690", "geo_is_family":0, "geo_is_friend":0, "geo_is_contact":0, "geo_is_public":1, "media":"photo", "media_status":"ready"}, {"id":"3073496223", "owner":"29958169@N03", "secret":"8941c35e87", "server":"3155", "farm":4, "title":"Image (Thanks x 1700 comments)", "ispublic":1, "isfriend":0, "isfamily":0, "safe":0, "ownername":"Carmelo61 PhotoPassion Thanks", "latitude":45.550782, "longitude":12.068138, "accuracy":"13", "context":0, "place_id":"aiCjM.9WU7OuRRc", "woeid":"719341", "geo_is_family":0, "geo_is_friend":0, "geo_is_contact":0, "geo_is_public":1, "media":"photo", "media_status":"ready"}, {"id":"2630535974", "owner":"34726560@N00", "secret":"d5a0c70135", "server":"3127", "farm":4, "title":"Togetherness", "ispublic":1, "isfriend":0, "isfamily":0, "safe":0, "ownername":"Steve-h", "latitude":53.339105, "longitude":-6.259514, "accuracy":"16", "context":0, "place_id":"jpdeaE5UV7PA13A", "woeid":"559641", "geo_is_family":0, "geo_is_friend":0, "geo_is_contact":0, "geo_is_public":1, "media":"photo", "media_status":"ready"}, {"id":"2619641501", "owner":"34726560@N00", "secret":"072d9a9a26", "server":"3234", "farm":4, "title":"Mother love", "ispublic":1, "isfriend":0, "isfamily":0, "safe":0, "ownername":"Steve-h", "latitude":53.339002, "longitude":-6.259406, "accuracy":"16", "context":0, "place_id":"fjmHzRZUVLpKRgI", "woeid":"560743", "geo_is_family":0, "geo_is_friend":0, "geo_is_contact":0, "geo_is_public":1, "media":"photo", "media_status":"ready"}, {"id":"2165038342", "owner":"35699605@N00", "secret":"5e0458f8e8", "server":"2044", "farm":3, "title":"Everest Rio Hotel - Ipanema - Rio de Janeiro Brasil Brazil Restaurante Grill 360\u00b0 Entardecer visto da cobertura", "ispublic":1, "isfriend":0, "isfamily":0, "safe":0, "ownername":"seLusaVa", "latitude":-22.985518, "longitude":-43.20735, "accuracy":"16", "context":0, "place_id":"lwC0oLVVULM3kVU", "woeid":"429040", "geo_is_family":0, "geo_is_friend":0, "geo_is_contact":0, "geo_is_public":1, "media":"photo", "media_status":"ready"}, {"id":"13097111834", "owner":"25163007@N07", "secret":"319e48018e", "server":"3826", "farm":4, "title":"Crimson Storm", "ispublic":1, "isfriend":0, "isfamily":0, "safe":1, "ownername":"JonHall18", "latitude":51.503596, "longitude":-0.120822, "accuracy":"9", "context":0, "place_id":"hP_s5s9VVr5Qcg", "woeid":"44418", "geo_is_family":0, "geo_is_friend":0, "geo_is_contact":0, "geo_is_public":1, "media":"photo", "media_status":"ready"}, {"id":"12883902115", "owner":"21775664@N07", "secret":"cd34297210", "server":"3690", "farm":4, "title":"London Eye Reflection in a Panorama view of London", "ispublic":1, "isfriend":0, "isfamily":0, "safe":1, "ownername":"david gutierrez [ www.davidgutierrez.co.uk ]", "latitude":51.503239, "longitude":-0.118707, "accuracy":"14", "context":0, "place_id":"up5njGVTUrqg4WUNsw", "woeid":"20094347", "geo_is_family":0, "geo_is_friend":0, "geo_is_contact":0, "geo_is_public":1, "media":"photo", "media_status":"ready"}, {"id":"12680923634", "owner":"46096859@N07", "secret":"7a62e63f0d", "server":"7307", "farm":8, "title":"boundaries", "ispublic":1, "isfriend":0, "isfamily":0, "safe":0, "ownername":"1crzqbn", "latitude":42.246492, "longitude":3.117164, "accuracy":"13", "context":0, "place_id":"4d07vJpWVbPcOyU", "woeid":"779225", "geo_is_family":0, "geo_is_friend":0, "geo_is_contact":0, "geo_is_public":1, "media":"photo", "media_status":"ready"}, {"id":"13130961363", "owner":"81035653@N00", "secret":"4332ba0a94", "server":"2880", "farm":3, "title":"On our way to the highest cave of Europe", "ispublic":1, "isfriend":0, "isfamily":0, "safe":0, "ownername":"B\u212en", "latitude":47.137601, "longitude":11.638896, "accuracy":"14", "context":0, "place_id":"t5B7qptUV7rA21I", "woeid":"550710", "geo_is_family":0, "geo_is_friend":0, "geo_is_contact":0, "geo_is_public":1, "media":"photo", "media_status":"ready"}, {"id":"13123745824", "owner":"56936646@N07", "secret":"5f44450c4c", "server":"7318", "farm":8, "title":"\u2261 Winds of Winter \u2261", "ispublic":1, "isfriend":0, "isfamily":0, "safe":1, "ownername":"Frank van Dongen", "latitude":51.570583, "longitude":3.508702, "accuracy":"16", "context":0, "place_id":"16c6lA1WULLuYTk", "woeid":"728767", "geo_is_family":0, "geo_is_friend":0, "geo_is_contact":0, "geo_is_public":1, "media":"photo", "media_status":"ready"}, {"id":"13079531134", "owner":"48988488@N04", "secret":"5b8958a3bb", "server":"3487", "farm":4, "title":"oceano", "ispublic":1, "isfriend":0, "isfamily":0, "safe":1, "ownername":"claudius1954", "latitude":46.241839, "longitude":9.69655, "accuracy":"14", "context":0, "place_id":"RxGn_1VTUL0mB1REKA", "woeid":"22745697", "geo_is_family":0, "geo_is_friend":0, "geo_is_contact":0, "geo_is_public":1, "media":"photo", "media_status":"ready"}, {"id":"13066331693", "owner":"36621592@N06", "secret":"8c0781a32c", "server":"3424", "farm":4, "title":"Lago di Resia", "ispublic":1, "isfriend":0, "isfamily":0, "safe":1, "ownername":"Pilar Aza\u00f1a", "latitude":46.810655, "longitude":10.537752, "accuracy":"16", "context":0, "place_id":"OeBid7JWU74wHDk", "woeid":"714936", "geo_is_family":0, "geo_is_friend":0, "geo_is_contact":0, "geo_is_public":1, "media":"photo", "media_status":"ready"}, {"id":"12967979374", "owner":"93846482@N08", "secret":"9bb1e55d23", "server":"2175", "farm":3, "title":"The Temple of Poseidon at Dusk, Cape Sounion, Greece", "ispublic":1, "isfriend":0, "isfamily":0, "safe":0, "ownername":"Bathsheba 1", "latitude":37.650053, "longitude":24.02785, "accuracy":"16", "context":0, "place_id":"k7Im6tpQUL9bun6_ig", "woeid":"12577879", "geo_is_family":0, "geo_is_friend":0, "geo_is_contact":0, "geo_is_public":1, "media":"photo", "media_status":"ready"}, {"id":"12952733733", "owner":"80516886@N00", "secret":"6bea531084", "server":"7414", "farm":8, "title":"Cristo Redentor - Christ the Redeemer - Rio de Janeiro", "ispublic":1, "isfriend":0, "isfamily":0, "safe":1, "ownername":".**rickipanema**.", "latitude":-22.949878, "longitude":-43.223312, "accuracy":"16", "context":0, "place_id":"cw_rvIlUV7M21kN9tQ", "woeid":"55943717", "geo_is_family":0, "geo_is_friend":0, "geo_is_contact":0, "geo_is_public":1, "media":"photo", "media_status":"ready"}, {"id":"12948104864", "owner":"22576765@N02", "secret":"93ebb8bf19", "server":"3749", "farm":4, "title":"il castello di Rapallo", "ispublic":1, "isfriend":0, "isfamily":0, "safe":1, "ownername":"big camera", "latitude":44.348216, "longitude":9.234008, "accuracy":"16", "context":0, "place_id":"lQPe4KxWULsOgFA", "woeid":"721511", "geo_is_family":0, "geo_is_friend":0, "geo_is_contact":0, "geo_is_public":1, "media":"photo", "media_status":"ready"}, {"id":"12924755695", "owner":"32768071@N06", "secret":"a2be3f629d", "server":"7397", "farm":8, "title":"Seven Sisters and Birling Gap", "ispublic":1, "isfriend":0, "isfamily":0, "safe":0, "ownername":"Alan MacKenzie", "latitude":50.742647, "longitude":0.198526, "accuracy":"13", "context":0, "place_id":"aDQWQdBTUrqS.P_i8Q", "woeid":"20093507", "geo_is_family":0, "geo_is_friend":0, "geo_is_contact":0, "geo_is_public":1, "media":"photo", "media_status":"ready"}, {"id":"12903522344", "owner":"93846482@N08", "secret":"5c89f43d6a", "server":"2836", "farm":3, "title":"Greek sunset", "ispublic":1, "isfriend":0, "isfamily":0, "safe":0, "ownername":"Bathsheba 1", "latitude":37.714516, "longitude":23.950195, "accuracy":"13", "context":0, "place_id":"k7Im6tpQUL9bun6_ig", "woeid":"12577879", "geo_is_family":0, "geo_is_friend":0, "geo_is_contact":0, "geo_is_public":1, "media":"photo", "media_status":"ready"}, {"id":"12859534233", "owner":"21207178@N07", "secret":"e259d8fe37", "server":"7397", "farm":8, "title":"Way of Human Rights", "ispublic":1, "isfriend":0, "isfamily":0, "safe":0, "ownername":"Batikart", "latitude":49.449825, "longitude":11.076965, "accuracy":"11", "context":0, "place_id":"zFjtAiFXWrr04Es", "woeid":"680564", "geo_is_family":0, "geo_is_friend":0, "geo_is_contact":0, "geo_is_public":1, "media":"photo", "media_status":"ready"}, {"id":"12829439834", "owner":"52735684@N07", "secret":"eb8a7d98f4", "server":"7434", "farm":8, "title":"Hafencity - 03021312", "ispublic":1, "isfriend":0, "isfamily":0, "safe":1, "ownername":"Klaus Kehrls", "latitude":53.542525, "longitude":9.991142, "accuracy":"16", "context":0, "place_id":"cksTdXBXV7yTmdw", "woeid":"656958", "geo_is_family":0, "geo_is_friend":0, "geo_is_contact":0, "geo_is_public":1, "media":"photo", "media_status":"ready"}, {"id":"12819610333", "owner":"63377227@N05", "secret":"af66b1223b", "server":"3764", "farm":4, "title":"Fabulous world of insects.", "ispublic":1, "isfriend":0, "isfamily":0, "safe":1, "ownername":"halina.reshetova", "latitude":52.101444, "longitude":29.424133, "accuracy":"8", "context":0, "place_id":"Wr9F6BNTUb56Kwvp", "woeid":"2344831", "geo_is_family":0, "geo_is_friend":0, "geo_is_contact":0, "geo_is_public":1, "media":"photo", "media_status":"ready"}, {"id":"12788862223", "owner":"67877697@N07", "secret":"61aa520ce4", "server":"7389", "farm":8, "title":"New Perspectives", "ispublic":1, "isfriend":0, "isfamily":0, "safe":1, "ownername":"_flowtation", "latitude":50.106377, "longitude":8.711235, "accuracy":"16", "context":0, "place_id":"Z0FRRfRXV7oIeew", "woeid":"650272", "geo_is_family":0, "geo_is_friend":0, "geo_is_contact":0, "geo_is_public":1, "media":"photo", "media_status":"ready"}, {"id":"12766178403", "owner":"93846482@N08", "secret":"88175225f2", "server":"2878", "farm":3, "title":"Stone Jetty and Beach, Otter Ferry", "ispublic":1, "isfriend":0, "isfamily":0, "safe":1, "ownername":"Bathsheba 1", "latitude":56.008911, "longitude":-5.324592, "accuracy":"15", "context":0, "place_id":"biT1Lu9SU7vjxQ", "woeid":"31149", "geo_is_family":0, "geo_is_friend":0, "geo_is_contact":0, "geo_is_public":1, "media":"photo", "media_status":"ready"}, {"id":"12766286144", "owner":"29557420@N05", "secret":"4128313370", "server":"7365", "farm":8, "title":"Europe looking to Asia", "ispublic":1, "isfriend":0, "isfamily":0, "safe":1, "ownername":"hgviola \u266b", "latitude":41.031003, "longitude":28.974144, "accuracy":"16", "context":0, "place_id":"HFaxo9lTUL2Ype1azQ", "woeid":"22724077", "geo_is_family":0, "geo_is_friend":0, "geo_is_contact":0, "geo_is_public":1, "media":"photo", "media_status":"ready"}, {"id":"12752678644", "owner":"100063725@N06", "secret":"8f0a227713", "server":"7355", "farm":8, "title":"Puesta de sol en el Mediterr\u00e1neo", "ispublic":1, "isfriend":0, "isfamily":0, "safe":0, "ownername":"Antonio Chac", "latitude":36.505727, "longitude":-4.876468, "accuracy":"15", "context":0, "place_id":"b6ANCk5WVLwQivI", "woeid":"766537", "geo_is_family":0, "geo_is_friend":0, "geo_is_contact":0, "geo_is_public":1, "media":"photo", "media_status":"ready"}, {"id":"12722821485", "owner":"45389964@N06", "secret":"bdc9a6f90a", "server":"7414", "farm":8, "title":"Sled dog racing - M\u00e9audre, France", "ispublic":1, "isfriend":0, "isfamily":0, "safe":0, "ownername":"My Planet Experience", "latitude":45.129713, "longitude":5.528855, "accuracy":"11", "context":0, "place_id":"zS_vMO9XU7rQt4M", "woeid":"610792", "geo_is_family":0, "geo_is_friend":0, "geo_is_contact":0, "geo_is_public":1, "media":"photo", "media_status":"ready"}, {"id":"12705142053", "owner":"26849514@N06", "secret":"e41386c99f", "server":"7357", "farm":8, "title":"Stop political repressions  - Freedom for Yulia Tymoshenko", "ispublic":1, "isfriend":0, "isfamily":0, "safe":1, "ownername":"Frans.Sellies", "latitude":50.450194, "longitude":30.524021, "accuracy":"16", "context":0, "place_id":"5I6w0q5YUL586B8", "woeid":"924938", "geo_is_family":0, "geo_is_friend":0, "geo_is_contact":0, "geo_is_public":1, "media":"photo", "media_status":"ready"}, {"id":"12699377905", "owner":"60712898@N05", "secret":"e907a55c83", "server":"3832", "farm":4, "title":"\"specchio, specchio delle mie brame, chi ha la bicicletta pi\u00f9 bella del reame?\"", "ispublic":1, "isfriend":0, "isfamily":0, "safe":0, "ownername":"MaOrI1563", "latitude":43.768742, "longitude":11.253293, "accuracy":"16", "context":0, "place_id":"drN1SbBTUrsvdwZ2VA", "woeid":"20150265", "geo_is_family":0, "geo_is_friend":0, "geo_is_contact":0, "geo_is_public":1, "media":"photo", "media_status":"ready"}, {"id":"12674784673", "owner":"91248320@N04", "secret":"1e3be32052", "server":"3809", "farm":4, "title":"Racing through the streets of Havana", "ispublic":1, "isfriend":0, "isfamily":0, "safe":1, "ownername":"Jekurantodistaja", "latitude":23.139728, "longitude":-82.355779, "accuracy":"16", "context":0, "place_id":"S.m5DQhXUbLn4Q", "woeid":"63820", "geo_is_family":0, "geo_is_friend":0, "geo_is_contact":0, "geo_is_public":1, "media":"photo", "media_status":"ready"}, {"id":"12663828703", "owner":"61874975@N05", "secret":"b7562d6fe3", "server":"5540", "farm":6, "title":"Earth and Sky . .", "ispublic":1, "isfriend":0, "isfamily":0, "safe":1, "ownername":"\u2740\u10e6 Poetic Outlook (Anne)", "latitude":27.78646, "longitude":-15.714409, "accuracy":"11", "context":0, "place_id":"bpf6O9FWVbNLUqc", "woeid":"779199", "geo_is_family":0, "geo_is_friend":0, "geo_is_contact":0, "geo_is_public":1, "media":"photo", "media_status":"ready"}, {"id":"12656334915", "owner":"42812461@N00", "secret":"2054a6a925", "server":"7374", "farm":8, "title":"Sitting on a bench waiting for the train to come", "ispublic":1, "isfriend":0, "isfamily":0, "safe":0, "ownername":"Akbar Simonse", "latitude":51.924823, "longitude":4.469314, "accuracy":"15", "context":0, "place_id":"lhM3WGRWUbndGLo", "woeid":"733075", "geo_is_family":0, "geo_is_friend":0, "geo_is_contact":0, "geo_is_public":1, "media":"photo", "media_status":"ready"}, {"id":"12637265704", "owner":"43155663@N07", "secret":"e05fe229e7", "server":"7354", "farm":8, "title":"peak", "ispublic":1, "isfriend":0, "isfamily":0, "safe":0, "ownername":"city\/human\/life", "latitude":51.387945, "longitude":6.998827, "accuracy":"16", "context":0, "place_id":"UZIHF3RXVrIRFRQ", "woeid":"648820", "geo_is_family":0, "geo_is_friend":0, "geo_is_contact":0, "geo_is_public":1, "media":"photo", "media_status":"ready"}, {"id":"12616822463", "owner":"23766806@N00", "secret":"77f5d15d81", "server":"2881", "farm":3, "title":"1410218_365_Queensway Silhouettes", "ispublic":1, "isfriend":0, "isfamily":0, "safe":0, "ownername":"Damien Walmsley", "latitude":52.485643, "longitude":-1.897137, "accuracy":"16", "context":0, "place_id":"_BTroVRVUb3hdg", "woeid":"43787", "geo_is_family":0, "geo_is_friend":0, "geo_is_contact":0, "geo_is_public":1, "media":"photo", "media_status":"ready"}, {"id":"12614643155", "owner":"58306119@N07", "secret":"34bbaaa969", "server":"7297", "farm":8, "title":"Enlightened", "ispublic":1, "isfriend":0, "isfamily":0, "safe":1, "ownername":"Tore Thiis Fjeld", "latitude":59.957781, "longitude":10.756902, "accuracy":"15", "context":0, "place_id":"arXGPnJZVLopXwM", "woeid":"860793", "geo_is_family":0, "geo_is_friend":0, "geo_is_contact":0, "geo_is_public":1, "media":"photo", "media_status":"ready"}, {"id":"12590373055", "owner":"42812461@N00", "secret":"69c6c78a14", "server":"2882", "farm":3, "title":"Meepakker (Take away)", "ispublic":1, "isfriend":0, "isfamily":0, "safe":0, "ownername":"Akbar Simonse", "latitude":52.006524, "longitude":4.356907, "accuracy":"16", "context":0, "place_id":"34vYBMhWULIVUpw", "woeid":"728612", "geo_is_family":0, "geo_is_friend":0, "geo_is_contact":0, "geo_is_public":1, "media":"photo", "media_status":"ready"}, {"id":"12557398624", "owner":"52735684@N07", "secret":"c0d286b619", "server":"3744", "farm":4, "title":"Seebr\u00fccke G\u00f6hren - 16051301", "ispublic":1, "isfriend":0, "isfamily":0, "safe":0, "ownername":"Klaus Kehrls", "latitude":54.346951, "longitude":13.741407, "accuracy":"15", "context":0, "place_id":"Ur1oNHVXV7mgh6U", "woeid":"653094", "geo_is_family":0, "geo_is_friend":0, "geo_is_contact":0, "geo_is_public":1, "media":"photo", "media_status":"ready"}, {"id":"12544114824", "owner":"56936646@N07", "secret":"91038ecee5", "server":"7447", "farm":8, "title":"Florence  -  Firenze #Retro", "ispublic":1, "isfriend":0, "isfamily":0, "safe":0, "ownername":"Frank van Dongen", "latitude":43.763198, "longitude":11.263958, "accuracy":"16", "context":0, "place_id":"ZPDshblWU7_DgSs", "woeid":"715496", "geo_is_family":0, "geo_is_friend":0, "geo_is_contact":0, "geo_is_public":1, "media":"photo", "media_status":"ready"}, {"id":"12519150175", "owner":"21207178@N07", "secret":"a8c0a58eff", "server":"2810", "farm":3, "title":"Happy Valentine's Day !", "ispublic":1, "isfriend":0, "isfamily":0, "safe":0, "ownername":"Batikart", "latitude":48.809188, "longitude":9.27665, "accuracy":"11", "context":0, "place_id":"q.j3YtZXVrMMKvI", "woeid":"649530", "geo_is_family":0, "geo_is_friend":0, "geo_is_contact":0, "geo_is_public":1, "media":"photo", "media_status":"ready"}, {"id":"12437278863", "owner":"45389964@N06", "secret":"496c755363", "server":"7355", "farm":8, "title":"Sled dog racing - M\u00e9audre, France", "ispublic":1, "isfriend":0, "isfamily":0, "safe":0, "ownername":"My Planet Experience", "latitude":45.12722, "longitude":5.52711, "accuracy":"11", "context":0, "place_id":"zS_vMO9XU7rQt4M", "woeid":"610792", "geo_is_family":0, "geo_is_friend":0, "geo_is_contact":0, "geo_is_public":1, "media":"photo", "media_status":"ready"}, {"id":"12157001215", "owner":"100063725@N06", "secret":"0b2500a735", "server":"5493", "farm":6, "title":"Nubes del atardecer", "ispublic":1, "isfriend":0, "isfamily":0, "safe":1, "ownername":"Antonio Chac", "latitude":36.500133, "longitude":-4.925684, "accuracy":"15", "context":0, "place_id":"b6ANCk5WVLwQivI", "woeid":"766537", "geo_is_family":0, "geo_is_friend":0, "geo_is_contact":0, "geo_is_public":1, "media":"photo", "media_status":"ready"}, {"id":"11736700676", "owner":"100063725@N06", "secret":"c84a85407a", "server":"7322", "farm":8, "title":"Los caprichos de las nubes", "ispublic":1, "isfriend":0, "isfamily":0, "safe":0, "ownername":"Antonio Chac", "latitude":36.505013, "longitude":-4.891147, "accuracy":"15", "context":0, "place_id":"b6ANCk5WVLwQivI", "woeid":"766537", "geo_is_family":0, "geo_is_friend":0, "geo_is_contact":0, "geo_is_public":1, "media":"photo", "media_status":"ready"}, {"id":"9253651633", "owner":"46154217@N07", "secret":"ede1ae3f53", "server":"5337", "farm":6, "title":"both beached for the night", "ispublic":1, "isfriend":0, "isfamily":0, "safe":1, "ownername":"jjamv", "latitude":40.702413, "longitude":14.482136, "accuracy":"16", "context":0, "place_id":"wd2xQ0FWU7mn5PQ", "woeid":"713330", "geo_is_family":0, "geo_is_friend":0, "geo_is_contact":0, "geo_is_public":1, "media":"photo", "media_status":"ready"}, {"id":"8723199034", "owner":"26849514@N06", "secret":"5490887532", "server":"7401", "farm":8, "title":"Tashkent twilight, Uzbekistan (Khast Imam)", "ispublic":1, "isfriend":0, "isfamily":0, "safe":1, "ownername":"Frans.Sellies", "latitude":41.305221, "longitude":69.268959, "accuracy":"11", "context":0, "place_id":"mxZc5bNTUL0gZXOh", "woeid":"2272113", "geo_is_family":0, "geo_is_friend":0, "geo_is_contact":0, "geo_is_public":1, "media":"photo", "media_status":"ready"}, {"id":"7883238498", "owner":"67430875@N03", "secret":"8aa61d8e61", "server":"8297", "farm":9, "title":"Chiaroscuro", "ispublic":1, "isfriend":0, "isfamily":0, "safe":0, "ownername":"Hernan Pi\u00f1era", "latitude":-34.604389, "longitude":-58.422546, "accuracy":"10", "context":0, "place_id":"sAebeFlVVLJkVlo", "woeid":"468739", "geo_is_family":0, "geo_is_friend":0, "geo_is_contact":0, "geo_is_public":1, "media":"photo", "media_status":"ready"}, {"id":"7109985063", "owner":"26849514@N06", "secret":"13cba8c384", "server":"7106", "farm":8, "title":"A pink dream - For all wonderful women on Flickr!", "ispublic":1, "isfriend":0, "isfamily":0, "safe":1, "ownername":"Frans.Sellies", "latitude":52.250364, "longitude":4.534137, "accuracy":"12", "context":0, "place_id":"ihVd539WUbgd9Wc", "woeid":"732769", "geo_is_family":0, "geo_is_friend":0, "geo_is_contact":0, "geo_is_public":1, "media":"photo", "media_status":"ready"}, {"id":"6987816705", "owner":"37287055@N02", "secret":"016b719caf", "server":"7036", "farm":8, "title":"What a wonderfull world....", "ispublic":1, "isfriend":0, "isfamily":0, "safe":0, "ownername":"nanettesol #M4M", "latitude":41.90311, "longitude":12.495759, "accuracy":"11", "context":0, "place_id":"uijRnjBWULsQTwc", "woeid":"721943", "geo_is_family":0, "geo_is_friend":0, "geo_is_contact":0, "geo_is_public":1, "media":"photo", "media_status":"ready"}, {"id":"6626753569", "owner":"32438882@N07", "secret":"f2184f78ea", "server":"7152", "farm":8, "title":"Y se hizo la luz.......por TeresalaLoba", "ispublic":1, "isfriend":0, "isfamily":0, "safe":1, "ownername":"TeresalaLoba", "latitude":42.044352, "longitude":-8.779835, "accuracy":"15", "context":0, "place_id":"WP.Vu.hTW7noT0uB5g", "woeid":"29371386", "geo_is_family":0, "geo_is_friend":0, "geo_is_contact":0, "geo_is_public":1, "media":"photo", "media_status":"ready"}, {"id":"6325994505", "owner":"34726560@N00", "secret":"0775870ebd", "server":"6102", "farm":7, "title":"Liquid gold", "ispublic":1, "isfriend":0, "isfamily":0, "safe":0, "ownername":"Steve-h", "latitude":53.330011, "longitude":-6.265358, "accuracy":"16", "context":0, "place_id":"BGb4.IxUVLhxr1w", "woeid":"562040", "geo_is_family":0, "geo_is_friend":0, "geo_is_contact":0, "geo_is_public":1, "media":"photo", "media_status":"ready"}, {"id":"6166011121", "owner":"7649805@N07", "secret":"30045f24bd", "server":"6161", "farm":7, "title":"Mother's love", "ispublic":1, "isfriend":0, "isfamily":0, "safe":1, "ownername":"pattoise", "latitude":47.235888, "longitude":-1.211929, "accuracy":"10", "context":0, "place_id":"AdboZhtQV7r5RAd_tw", "woeid":"15003204", "geo_is_family":0, "geo_is_friend":0, "geo_is_contact":0, "geo_is_public":1, "media":"photo", "media_status":"ready"}, {"id":"6080135135", "owner":"25959337@N00", "secret":"8fa32ca994", "server":"6084", "farm":7, "title":"Fet, Sykkylven", "ispublic":1, "isfriend":0, "isfamily":0, "safe":0, "ownername":"Martin Ystenes", "latitude":62.317567, "longitude":6.613941, "accuracy":"16", "context":0, "place_id":"r0tScGNQV7pA2lKJOQ", "woeid":"15000785", "geo_is_family":0, "geo_is_friend":0, "geo_is_contact":0, "geo_is_public":1, "media":"photo", "media_status":"ready"}, {"id":"5813240872", "owner":"12090378@N05", "secret":"726560ac95", "server":"2561", "farm":3, "title":"Atardecer, reba\u00f1o y tormenta", "ispublic":1, "isfriend":0, "isfamily":0, "safe":1, "ownername":"Jabi Artaraz", "latitude":43.112481, "longitude":-2.670278, "accuracy":"13", "context":0, "place_id":"p.TvJaNWVbxm9N8", "woeid":"776334", "geo_is_family":0, "geo_is_friend":0, "geo_is_contact":0, "geo_is_public":1, "media":"photo", "media_status":"ready"}, {"id":"5276894593", "owner":"29958169@N03", "secret":"6ab028927e", "server":"5164", "farm":6, "title":"Horizons", "ispublic":1, "isfriend":0, "isfamily":0, "safe":1, "ownername":"Carmelo61 PhotoPassion Thanks", "latitude":38.030075, "longitude":12.539026, "accuracy":"14", "context":0, "place_id":"tw2BwQ5WU7.Abvw", "woeid":"715188", "geo_is_family":0, "geo_is_friend":0, "geo_is_contact":0, "geo_is_public":1, "media":"photo", "media_status":"ready"}, {"id":"5102320512", "owner":"46226755@N04", "secret":"b10573f8b3", "server":"1352", "farm":2, "title":"\u201cThe only reason for time is so that everything doesn't happen at once.\"", "ispublic":1, "isfriend":0, "isfamily":0, "safe":0, "ownername":"** Nico **", "latitude":37.441677, "longitude":25.327219, "accuracy":"14", "context":0, "place_id":"XGx48RBYV71cUzc", "woeid":"957831", "geo_is_family":0, "geo_is_friend":0, "geo_is_contact":0, "geo_is_public":1, "media":"photo", "media_status":"ready"}, {"id":"4813257105", "owner":"25959337@N00", "secret":"70c64ca220", "server":"4114", "farm":5, "title":"Iceland road: Between Bolungarvik and Sk\u00e1lavik", "ispublic":1, "isfriend":0, "isfamily":0, "safe":0, "ownername":"Martin Ystenes", "latitude":66.068204, "longitude":-23.291015, "accuracy":"3", "context":0, "place_id":"btF2xX9TUb7ZKpUE", "woeid":"2345697", "geo_is_family":0, "geo_is_friend":0, "geo_is_contact":0, "geo_is_public":1, "media":"photo", "media_status":"ready"}, {"id":"12777014115", "owner":"62815410@N04", "secret":"47d82b213e", "server":"7367", "farm":8, "title":"untitled (brescia, italy)", "ispublic":1, "isfriend":0, "isfamily":0, "safe":1, "ownername":"bloodybee", "latitude":45.53522, "longitude":10.23576, "accuracy":"16", "context":0, "place_id":"WO1uGLRWU7u69ps", "woeid":"711410", "geo_is_family":0, "geo_is_friend":0, "geo_is_contact":0, "geo_is_public":1, "media":"photo", "media_status":"ready"}]}, "stat":"ok"}