{"photos":{"page":41,"pages":26686,"perpage":60,"total":"1601101","photo":[{"id":"13978416515","owner":"9468291@N03","secret":"4556cd054a","server":"2918","farm":3,"title":"Intangible","ispublic":1,"isfriend":0,"isfamily":0,"safe":0,"ownername":"snapdragginphoto","latitude":36.138888,"longitude":-81.731704,"accuracy":"16","context":0,"place_id":"NQY39z9TVr90UUyt","woeid":"2451129","geo_is_family":0,"geo_is_friend":0,"geo_is_contact":0,"geo_is_public":1,"media":"photo","media_status":"ready"},{"id":"13976346374","owner":"10040703@N06","secret":"1f0f49926c","server":"7248","farm":8,"title":"Sid","ispublic":1,"isfriend":0,"isfamily":0,"safe":0,"ownername":"pollyblue (on hols)","latitude":51.551752,"longitude":-0.113983,"accuracy":"14","context":0,"place_id":"FlFXjv5TVb1lfg","woeid":"27727","geo_is_family":0,"geo_is_friend":0,"geo_is_contact":0,"geo_is_public":1,"media":"photo","media_status":"ready"},{"id":"13974696095","owner":"35884794@N04","secret":"6bce23605e","server":"2920","farm":3,"title":"Shillito Wood Cross","ispublic":1,"isfriend":0,"isfamily":0,"safe":0,"ownername":"l4ts","latitude":53.269935,"longitude":-1.558856,"accuracy":"13","context":0,"place_id":"4wjl8Q1TUrpmc4YQJA","woeid":"20092809","geo_is_family":0,"geo_is_friend":0,"geo_is_contact":0,"geo_is_public":1,"media":"photo","media_status":"ready"},{"id":"13974808564","owner":"63947313@N03","secret":"0a29a6b485","server":"7442","farm":8,"title":"Awakenings (Risvegli)","ispublic":1,"isfriend":0,"isfamily":0,"safe":0,"ownername":"Angius2004 (Angiolo Manetti)","latitude":43.056596,"longitude":11.609802,"accuracy":"11","context":0,"place_id":"efmaKclWULnXU.M","woeid":"723077","geo_is_family":0,"geo_is_friend":0,"geo_is_contact":0,"geo_is_public":1,"media":"photo","media_status":"ready"},{"id":"13949330416","owner":"44161305@N02","secret":"cac7439a79","server":"5548","farm":6,"title":"(Explored) Mothia, Sicily,   234","ispublic":1,"isfriend":0,"isfamily":0,"safe":0,"ownername":"tango-","latitude":37.884405,"longitude":12.471542,"accuracy":"13","context":0,"place_id":"xBURoUJWU7tAde0","woeid":"711004","geo_is_family":0,"geo_is_friend":0,"geo_is_contact":0,"geo_is_public":1,"media":"photo","media_status":"ready"},{"id":"13948830746","owner":"29225114@N08","secret":"363a4d3228","server":"2916","farm":3,"title":"Finching world-wide: Purple grenadier","ispublic":1,"isfriend":0,"isfamily":0,"safe":0,"ownername":"Sergei Golyshev","latitude":-2.399124,"longitude":34.80915,"accuracy":"16","context":0,"place_id":"0r2bQrZTUb7SUIZ0","woeid":"2347359","geo_is_family":0,"geo_is_friend":0,"geo_is_contact":0,"geo_is_public":1,"media":"photo","media_status":"ready"},{"id":"13948458746","owner":"53794995@N05","secret":"94f0f69737","server":"2936","farm":3,"title":"Enamorats de la cultura i l'amor","ispublic":1,"isfriend":0,"isfamily":0,"safe":0,"ownername":"Helena de Riquer","latitude":41.584578,"longitude":1.616077,"accuracy":"14","context":0,"place_id":"sJNwmcpWVLih7.A","woeid":"762550","geo_is_family":0,"geo_is_friend":0,"geo_is_contact":0,"geo_is_public":1,"media":"photo","media_status":"ready"},{"id":"13969241364","owner":"66907392@N08","secret":"93deaa77e1","server":"7149","farm":8,"title":"Suene Fernandes","ispublic":1,"isfriend":0,"isfamily":0,"safe":0,"ownername":"Suene Fernandes Photography","latitude":-7.040607,"longitude":-34.855241,"accuracy":"15","context":0,"place_id":"Uo.ca.pVV7wj.4c","woeid":"456889","geo_is_family":0,"geo_is_friend":0,"geo_is_contact":0,"geo_is_public":1,"media":"photo","media_status":"ready"},{"id":"13566947753","owner":"101295317@N06","secret":"bedf8f69fe","server":"3761","farm":4,"title":"Froggy went a courtin'","ispublic":1,"isfriend":0,"isfamily":0,"safe":1,"ownername":"d_salter","latitude":53.576703,"longitude":-0.175673,"accuracy":"16","context":0,"place_id":"fFL91yhTULJKGw","woeid":"22834","geo_is_family":0,"geo_is_friend":0,"geo_is_contact":0,"geo_is_public":1,"media":"photo","media_status":"ready"},{"id":"12683317093","owner":"52047112@N03","secret":"dd35e104d0","server":"2829","farm":3,"title":"OUR FIELDS IN WINTER","ispublic":1,"isfriend":0,"isfamily":0,"safe":1,"ownername":"M.G.N - Marcel","latitude":39.587974,"longitude":2.599289,"accuracy":"16","context":0,"place_id":"RXb61uFWVLMyD18","woeid":"769293","geo_is_family":0,"geo_is_friend":0,"geo_is_contact":0,"geo_is_public":1,"media":"photo","media_status":"ready"},{"id":"12613517485","owner":"53247049@N07","secret":"dccc8a05a5","server":"7453","farm":8,"title":"PURPLE-THROATED WOODSTAR (hummingbird) MALE Calliphlox mitchellii near Mindo in Northwestern ECUADOR. Hummingbird Photo by Peter Wendelken.","ispublic":1,"isfriend":0,"isfamily":0,"safe":0,"ownername":"Neotropical Pete","latitude":-0.005493,"longitude":-78.73764,"accuracy":"13","context":0,"place_id":"6GbmDgRSVbxC0M0","woeid":"376133","geo_is_family":0,"geo_is_friend":0,"geo_is_contact":0,"geo_is_public":1,"media":"photo","media_status":"ready"},{"id":"12443753923","owner":"52047112@N03","secret":"3caa98b4c4","server":"2812","farm":3,"title":"BRIDGE","ispublic":1,"isfriend":0,"isfamily":0,"safe":0,"ownername":"M.G.N - Marcel","latitude":39.605547,"longitude":2.648026,"accuracy":"16","context":0,"place_id":"x8D4aUJTW7l0mrtd2w","woeid":"29369593","geo_is_family":0,"geo_is_friend":0,"geo_is_contact":0,"geo_is_public":1,"media":"photo","media_status":"ready"},{"id":"12016692184","owner":"88402723@N03","secret":"927b555e3f","server":"3789","farm":4,"title":"Puente","ispublic":1,"isfriend":0,"isfamily":0,"safe":1,"ownername":"_flucio6","latitude":42.67139,"longitude":-1.81294,"accuracy":"11","context":0,"place_id":"cLpKLAtWVbqbBXs","woeid":"770914","geo_is_family":0,"geo_is_friend":0,"geo_is_contact":0,"geo_is_public":1,"media":"photo","media_status":"ready"},{"id":"11888311344","owner":"35110249@N05","secret":"0e17e2c2b0","server":"2884","farm":3,"title":"Juvenile Great Cormorant","ispublic":1,"isfriend":0,"isfamily":0,"safe":1,"ownername":"Foto Martien","latitude":51.951433,"longitude":5.919873,"accuracy":"15","context":0,"place_id":"5nFzkyJWUL3NZbY","woeid":"727349","geo_is_family":0,"geo_is_friend":0,"geo_is_contact":0,"geo_is_public":1,"media":"photo","media_status":"ready"},{"id":"10859432485","owner":"10326907@N00","secret":"e8a812b600","server":"5471","farm":6,"title":"Marine de Langevin, \u00cele de la R\u00e9union","ispublic":1,"isfriend":0,"isfamily":0,"safe":1,"ownername":"Vins 64","latitude":-21.386989,"longitude":55.644121,"accuracy":"15","context":0,"place_id":"WByGJqlQVrvy9pXP","woeid":"1410235","geo_is_family":0,"geo_is_friend":0,"geo_is_contact":0,"geo_is_public":1,"media":"photo","media_status":"ready"},{"id":"9388951634","owner":"25959337@N00","secret":"f4900f9100","server":"5550","farm":6,"title":"Walking on water - carefully","ispublic":1,"isfriend":0,"isfamily":0,"safe":0,"ownername":"Martin Ystenes - celebrating 5 million views","latitude":63.824771,"longitude":-16.678276,"accuracy":"11","context":0,"place_id":"L30o2XlTUb6ZXW0u","woeid":"2345690","geo_is_family":0,"geo_is_friend":0,"geo_is_contact":0,"geo_is_public":1,"media":"photo","media_status":"ready"},{"id":"9385500313","owner":"25959337@N00","secret":"97e7bdfe41","server":"5535","farm":6,"title":"\u00d6xararfoss Thingvellir","ispublic":1,"isfriend":0,"isfamily":0,"safe":0,"ownername":"Martin Ystenes - celebrating 5 million views","latitude":64.265407,"longitude":-21.116902,"accuracy":"15","context":0,"place_id":"D9vxVWxYWrrZWjE","woeid":"980497","geo_is_family":0,"geo_is_friend":0,"geo_is_contact":0,"geo_is_public":1,"media":"photo","media_status":"ready"},{"id":"8995606341","owner":"95143399@N04","secret":"81bedb0af6","server":"3812","farm":4,"title":"Sunrise in the Durmitor N. P. - Montenegro","ispublic":1,"isfriend":0,"isfamily":0,"safe":1,"ownername":"PhotoGSuS","latitude":43.148342,"longitude":19.080162,"accuracy":"16","context":0,"place_id":"pQhy945UUb3toMY","woeid":"537656","geo_is_family":0,"geo_is_friend":0,"geo_is_contact":0,"geo_is_public":1,"media":"photo","media_status":"ready"},{"id":"8754700231","owner":"25959337@N00","secret":"b2bfd4eed4","server":"2831","farm":3,"title":"Geirangerfjorden fra Lj\u00f8en","ispublic":1,"isfriend":0,"isfamily":0,"safe":1,"ownername":"Martin Ystenes - celebrating 5 million views","latitude":62.114482,"longitude":6.915206,"accuracy":"11","context":0,"place_id":"BJuCf5hZV7OM3BA","woeid":"859677","geo_is_family":0,"geo_is_friend":0,"geo_is_contact":0,"geo_is_public":1,"media":"photo","media_status":"ready"},{"id":"8720021522","owner":"36416879@N02","secret":"0352bffeae","server":"7367","farm":8,"title":"\u00bfQue mira usted?","ispublic":1,"isfriend":0,"isfamily":0,"safe":0,"ownername":"Di Gutti","latitude":35.166671,"longitude":-5.26667,"accuracy":"11","context":0,"place_id":"KEjBGm5QV7l4UTkL","woeid":"1532799","geo_is_family":0,"geo_is_friend":0,"geo_is_contact":0,"geo_is_public":1,"media":"photo","media_status":"ready"},{"id":"8713004097","owner":"32208367@N04","secret":"a38eab5339","server":"8260","farm":9,"title":"Jemima and friend","ispublic":1,"isfriend":0,"isfamily":0,"safe":0,"ownername":"mentalPICTURE","latitude":51.79211,"longitude":-2.608619,"accuracy":"11","context":0,"place_id":"wpy0k69QVL9RBQ","woeid":"16592","geo_is_family":0,"geo_is_friend":0,"geo_is_contact":0,"geo_is_public":1,"media":"photo","media_status":"ready"},{"id":"8591078067","owner":"36992803@N02","secret":"8dd926610e","server":"8520","farm":9,"title":"Profumo di Fresia - Scent of Freesia","ispublic":1,"isfriend":0,"isfamily":0,"safe":0,"ownername":"L. Diletti","latitude":42.949001,"longitude":13.877739,"accuracy":"11","context":0,"place_id":"R6bkHjFWULhs4nA","woeid":"722347","geo_is_family":0,"geo_is_friend":0,"geo_is_contact":0,"geo_is_public":1,"media":"photo","media_status":"ready"},{"id":"8588796697","owner":"25959337@N00","secret":"77bb9c1893","server":"8529","farm":9,"title":"Hj\u00f8rundfjorden","ispublic":1,"isfriend":0,"isfamily":0,"safe":0,"ownername":"Martin Ystenes - celebrating 5 million views","latitude":62.358609,"longitude":6.402111,"accuracy":"13","context":0,"place_id":"8WEeaQBZVLrRCrQ","woeid":"860142","geo_is_family":0,"geo_is_friend":0,"geo_is_contact":0,"geo_is_public":1,"media":"photo","media_status":"ready"},{"id":"7393540210","owner":"43678068@N04","secret":"2b70d9b013","server":"7240","farm":8,"title":"costa gallega","ispublic":1,"isfriend":0,"isfamily":0,"safe":0,"ownername":"feniche","latitude":39.398115,"longitude":-0.408575,"accuracy":"16","context":0,"place_id":"Ey5AYF5WV7sZ_a4","woeid":"751654","geo_is_family":0,"geo_is_friend":0,"geo_is_contact":0,"geo_is_public":1,"media":"photo","media_status":"ready"},{"id":"6450385081","owner":"71208464@N08","secret":"eb1df85399","server":"7167","farm":8,"title":"the vortex of lamp","ispublic":1,"isfriend":0,"isfamily":0,"safe":1,"ownername":"Jake Blues Photography","latitude":49.988235,"longitude":8.265624,"accuracy":"13","context":0,"place_id":"jPqHgPdXVblaJHs","woeid":"673515","geo_is_family":0,"geo_is_friend":0,"geo_is_contact":0,"geo_is_public":1,"media":"photo","media_status":"ready"},{"id":"5223070409","owner":"41924773@N03","secret":"1ff5bdebc8","server":"4147","farm":5,"title":"Once Upon A Time A Siren That Touched The Sky :: HDR :: DRI","ispublic":1,"isfriend":0,"isfamily":0,"safe":1,"ownername":"servalpe","latitude":40.4175,"longitude":-3.683334,"accuracy":"16","context":0,"place_id":"Z2U_zedTUri7YVepxQ","woeid":"20219886","geo_is_family":0,"geo_is_friend":0,"geo_is_contact":0,"geo_is_public":1,"media":"photo","media_status":"ready"},{"id":"5120726137","owner":"43678068@N04","secret":"fdf83e20d7","server":"1247","farm":2,"title":"imagenes de venecia 4","ispublic":1,"isfriend":0,"isfamily":0,"safe":0,"ownername":"feniche","latitude":39.398115,"longitude":-0.408575,"accuracy":"16","context":0,"place_id":"Ey5AYF5WV7sZ_a4","woeid":"751654","geo_is_family":0,"geo_is_friend":0,"geo_is_contact":0,"geo_is_public":1,"media":"photo","media_status":"ready"},{"id":"5030917143","owner":"40122107@N07","secret":"7d385d5793","server":"4108","farm":5,"title":"Glorious orange.","ispublic":1,"isfriend":0,"isfamily":0,"safe":1,"ownername":"Bearded iris.","latitude":55.576648,"longitude":-5.147689,"accuracy":"9","context":0,"place_id":"DerIahRQVrpMfg","woeid":"14088","geo_is_family":0,"geo_is_friend":0,"geo_is_contact":0,"geo_is_public":1,"media":"photo","media_status":"ready"},{"id":"4734722037","owner":"25134615@N03","secret":"48b8c05a90","server":"4119","farm":5,"title":"Switzerland, Bernese Oberland - Like I imagined it","ispublic":1,"isfriend":0,"isfamily":0,"safe":1,"ownername":"lovemyblackcat","latitude":47.025323,"longitude":8.51612,"accuracy":"12","context":0,"place_id":"vfhwsN5TUrvkdzuaLg","woeid":"20103834","geo_is_family":0,"geo_is_friend":0,"geo_is_contact":0,"geo_is_public":1,"media":"photo","media_status":"ready"},{"id":"3449893343","owner":"12275982@N06","secret":"90cfbff70a","server":"3599","farm":4,"title":"6767- Sainte-Adresse France La Chapelle Notre-Dame-des-Flots  \u793c\u62dc\u5802  \u6559\u5802","ispublic":1,"isfriend":0,"isfamily":0,"safe":1,"ownername":"Rolye","latitude":49.505241,"longitude":0.085809,"accuracy":"11","context":0,"place_id":"hzY7b9FXUL0bfOE","woeid":"627359","geo_is_family":0,"geo_is_friend":0,"geo_is_contact":0,"geo_is_public":1,"media":"photo","media_status":"ready"},{"id":"3109195746","owner":"25959337@N00","secret":"2f67e424b0","server":"3191","farm":4,"title":"Shadow on the mountain top","ispublic":1,"isfriend":0,"isfamily":0,"safe":0,"ownername":"Martin Ystenes - celebrating 5 million views","latitude":62.279582,"longitude":6.580295,"accuracy":"12","context":0,"place_id":"a_gfBlFQV7p9cZhBjw","woeid":"15000783","geo_is_family":0,"geo_is_friend":0,"geo_is_contact":0,"geo_is_public":1,"media":"photo","media_status":"ready"},{"id":"3090519231","owner":"28600449@N02","secret":"10ecf95baa","server":"3234","farm":4,"title":"Tough Days","ispublic":1,"isfriend":0,"isfamily":0,"safe":0,"ownername":"Mez\u0151, Korn\u00e9l (mostly away)","latitude":42.251265,"longitude":-71.522369,"accuracy":"12","context":0,"place_id":"TFQqMDBTUbKEBa.L","woeid":"2384950","geo_is_family":0,"geo_is_friend":0,"geo_is_contact":0,"geo_is_public":1,"media":"photo","media_status":"ready"},{"id":"3021707691","owner":"24822386@N02","secret":"396618222d","server":"3021","farm":4,"title":"Remando..., un a\u00f1o m\u00e1s. \/ Rowing, another year.","ispublic":1,"isfriend":0,"isfamily":0,"safe":1,"ownername":"berpala","latitude":42.597031,"longitude":-5.579981,"accuracy":"15","context":0,"place_id":"kfFzcjVWVL98rn4","woeid":"765099","geo_is_family":0,"geo_is_friend":0,"geo_is_contact":0,"geo_is_public":1,"media":"photo","media_status":"ready"},{"id":"2755279322","owner":"15605437@N08","secret":"19c20be2b2","server":"3078","farm":4,"title":"Catching Rays","ispublic":1,"isfriend":0,"isfamily":0,"safe":0,"ownername":"Kevin Borland","latitude":38.562566,"longitude":-78.382955,"accuracy":"16","context":0,"place_id":"Zltk5.dTVrz7pTGD","woeid":"2465219","geo_is_family":0,"geo_is_friend":0,"geo_is_contact":0,"geo_is_public":1,"media":"photo","media_status":"ready"},{"id":"2614887925","owner":"88482099@N00","secret":"6ee6161627","server":"3107","farm":4,"title":"Circular reflections going nowhere - 1","ispublic":1,"isfriend":0,"isfamily":0,"safe":0,"ownername":"jmvnoos in Paris","latitude":48.85647,"longitude":2.352511,"accuracy":"15","context":0,"place_id":"EsIQUYZXU79_kEA","woeid":"615702","geo_is_family":0,"geo_is_friend":0,"geo_is_contact":0,"geo_is_public":1,"media":"photo","media_status":"ready"},{"id":"2349605159","owner":"24822386@N02","secret":"213bf0e1ec","server":"2269","farm":3,"title":"LE\u00d3N.- Sinfon\u00eda en azul.\/ Symphony in blue.","ispublic":1,"isfriend":0,"isfamily":0,"safe":1,"ownername":"berpala","latitude":42.598093,"longitude":-5.571881,"accuracy":"16","context":0,"place_id":"kfFzcjVWVL98rn4","woeid":"765099","geo_is_family":0,"geo_is_friend":0,"geo_is_contact":0,"geo_is_public":1,"media":"photo","media_status":"ready"},{"id":"2154724465","owner":"46442093@N00","secret":"17fc22ab4a","server":"2154","farm":3,"title":"[o primeiro dia do resto das...]","ispublic":1,"isfriend":0,"isfamily":0,"safe":0,"ownername":"lia costa carvalho\u00a9","latitude":38.725669,"longitude":-9.150369,"accuracy":"11","context":0,"place_id":"D08qJBRWVrjs0Ek","woeid":"742676","geo_is_family":0,"geo_is_friend":0,"geo_is_contact":0,"geo_is_public":1,"media":"photo","media_status":"ready"},{"id":"2106366938","owner":"46442093@N00","secret":"0d6904f457","server":"2100","farm":3,"title":"[break]","ispublic":1,"isfriend":0,"isfamily":0,"safe":0,"ownername":"lia costa carvalho\u00a9","latitude":38.719104,"longitude":-9.155621,"accuracy":"15","context":0,"place_id":"D08qJBRWVrjs0Ek","woeid":"742676","geo_is_family":0,"geo_is_friend":0,"geo_is_contact":0,"geo_is_public":1,"media":"photo","media_status":"ready"},{"id":"1390207573","owner":"11925274@N02","secret":"06a0333892","server":"1048","farm":2,"title":"BERENGARIA 1.0","ispublic":1,"isfriend":0,"isfamily":0,"safe":1,"ownername":"liontas-Andreas Droussiotis","latitude":34.953774,"longitude":32.835502,"accuracy":"11","context":0,"place_id":"jK3FkJlZVrsIMXE","woeid":"841314","geo_is_family":0,"geo_is_friend":0,"geo_is_contact":0,"geo_is_public":1,"media":"photo","media_status":"ready"},{"id":"462057945","owner":"46442093@N00","secret":"97b9a4d3ed","server":"178","farm":1,"title":"[persona]","ispublic":1,"isfriend":0,"isfamily":0,"safe":1,"ownername":"lia costa carvalho\u00a9","latitude":-23.56287,"longitude":-46.654659,"accuracy":"11","context":0,"place_id":"0RylrWxVV79p49E","woeid":"455827","geo_is_family":0,"geo_is_friend":0,"geo_is_contact":0,"geo_is_public":1,"media":"photo","media_status":"ready"},{"id":"236299644","owner":"40645538@N00","secret":"e95e287f0a","server":"97","farm":1,"title":"Happy Girl Hopscotch in Strawberry Free Creative Commons","ispublic":1,"isfriend":0,"isfamily":0,"safe":1,"ownername":"Pink Sherbet Photography","latitude":42.457169,"longitude":-71.278706,"accuracy":"16","context":0,"place_id":"xU1pQmNTVrwcOdEC","woeid":"2461270","geo_is_family":0,"geo_is_friend":0,"geo_is_contact":0,"geo_is_public":1,"media":"photo","media_status":"ready"},{"id":"14236344154","owner":"11527886@N00","secret":"9f4364fa15","server":"5592","farm":6,"title":"MUSAC reflejado","ispublic":1,"isfriend":0,"isfamily":0,"safe":0,"ownername":"Javier D\u00edaz Barrera (javierdiazbarrera.es)","latitude":42.606719,"longitude":-5.582964,"accuracy":"16","context":0,"place_id":"kfFzcjVWVL98rn4","woeid":"765099","geo_is_family":0,"geo_is_friend":0,"geo_is_contact":0,"geo_is_public":1,"media":"photo","media_status":"ready"},{"id":"14043583689","owner":"92532546@N00","secret":"9d5bf35c24","server":"2904","farm":3,"title":"Luz trazadora","ispublic":1,"isfriend":0,"isfamily":0,"safe":0,"ownername":"Amataki","latitude":42.774791,"longitude":-4.167109,"accuracy":"13","context":0,"place_id":"1jHIJZZWVbqMTVo","woeid":"770448","geo_is_family":0,"geo_is_friend":0,"geo_is_contact":0,"geo_is_public":1,"media":"photo","media_status":"ready"},{"id":"14043230189","owner":"62990032@N03","secret":"7c8ee365a4","server":"2915","farm":3,"title":"Surrender","ispublic":1,"isfriend":0,"isfamily":0,"safe":0,"ownername":"John St John Photography","latitude":40.73121,"longitude":-73.997147,"accuracy":"16","context":0,"place_id":"C519PWNTVru_efdS","woeid":"2414665","geo_is_family":0,"geo_is_friend":0,"geo_is_contact":0,"geo_is_public":1,"media":"photo","media_status":"ready"},{"id":"14204927326","owner":"59464817@N02","secret":"f848338cd9","server":"5555","farm":6,"title":"Germani","ispublic":1,"isfriend":0,"isfamily":0,"safe":0,"ownername":"fausto.deseri","latitude":44.610695,"longitude":11.130781,"accuracy":"15","context":0,"place_id":"iILbhGdTUruv10dsYw","woeid":"20145783","geo_is_family":0,"geo_is_friend":0,"geo_is_contact":0,"geo_is_public":1,"media":"photo","media_status":"ready"},{"id":"14223711425","owner":"8188882@N05","secret":"c0273d25fd","server":"5160","farm":6,"title":"...","ispublic":1,"isfriend":0,"isfamily":0,"safe":0,"ownername":"DinosaursAreNotDead","latitude":48.871517,"longitude":2.35451,"accuracy":"16","context":0,"place_id":".kLzbx9UV7IrR0pxZA","woeid":"55843794","geo_is_family":0,"geo_is_friend":0,"geo_is_contact":0,"geo_is_public":1,"media":"photo","media_status":"ready"},{"id":"14200277596","owner":"59852454@N03","secret":"bfbbf89d73","server":"2924","farm":3,"title":"Underground Garages Entrance","ispublic":1,"isfriend":0,"isfamily":0,"safe":0,"ownername":"Pavel P.","latitude":49.828097,"longitude":18.286069,"accuracy":"16","context":0,"place_id":"6MlaPKlWW7Jg9Xg","woeid":"798296","geo_is_family":0,"geo_is_friend":0,"geo_is_contact":0,"geo_is_public":1,"media":"photo","media_status":"ready"},{"id":"14029445820","owner":"43917849@N08","secret":"80c79450a3","server":"2923","farm":3,"title":"Utmaning f\u00f6r en kameradoktor","ispublic":1,"isfriend":0,"isfamily":0,"safe":0,"ownername":"Dirigentens","latitude":57.694842,"longitude":11.948415,"accuracy":"16","context":0,"place_id":"523M7K9TUrslEIcvYA","woeid":"20151452","geo_is_family":0,"geo_is_friend":0,"geo_is_contact":0,"geo_is_public":1,"media":"photo","media_status":"ready"},{"id":"14027432537","owner":"47487330@N05","secret":"022a56592d","server":"2912","farm":3,"title":"100_7208","ispublic":1,"isfriend":0,"isfamily":0,"safe":0,"ownername":"Cassiop\u00e9e2010","latitude":44.274213,"longitude":4.128198,"accuracy":"13","context":0,"place_id":"TnWjqq9XU7MJJd4","woeid":"619611","geo_is_family":0,"geo_is_friend":0,"geo_is_contact":0,"geo_is_public":1,"media":"photo","media_status":"ready"},{"id":"14026382420","owner":"20687176@N04","secret":"e5046671ee","server":"5196","farm":6,"title":"Agra, India - Taj Mahal Entrance Gate","ispublic":1,"isfriend":0,"isfamily":0,"safe":0,"ownername":"GlobeTrotter 2000","latitude":27.17782,"longitude":78.031019,"accuracy":"10","context":0,"place_id":"S4OOvxtTULO18fQG","woeid":"2295399","geo_is_family":0,"geo_is_friend":0,"geo_is_contact":0,"geo_is_public":1,"media":"photo","media_status":"ready"},{"id":"14212418015","owner":"60913863@N08","secret":"5f1f6919a7","server":"2938","farm":3,"title":"Parma Palazzo della Pilotta  (Parma: Palace of Pilotta)","ispublic":1,"isfriend":0,"isfamily":0,"safe":0,"ownername":"Goethe58","latitude":44.805605,"longitude":10.326848,"accuracy":"16","context":0,"place_id":"MqqSTjNWU7PaH38","woeid":"719975","geo_is_family":0,"geo_is_friend":0,"geo_is_contact":0,"geo_is_public":1,"media":"photo","media_status":"ready"},{"id":"14208727291","owner":"66403925@N03","secret":"91d7d6abd1","server":"2909","farm":3,"title":"Melro-d'\u00e1gua, White-throated Dipper(Cinclus cinclus)-em Liberdade [in Wild]","ispublic":1,"isfriend":0,"isfamily":0,"safe":0,"ownername":"ana & xavier (1.100.000 views - Obg \/ thanks)","latitude":41.44643,"longitude":-8.181539,"accuracy":"11","context":0,"place_id":"K20fkvpWVro9TNU","woeid":"740803","geo_is_family":0,"geo_is_friend":0,"geo_is_contact":0,"geo_is_public":1,"media":"photo","media_status":"ready"},{"id":"14220722613","owner":"26085061@N05","secret":"2e15c8e7cb","server":"2900","farm":3,"title":"Boat #Explored 16 May 2014, Nr.266#","ispublic":1,"isfriend":0,"isfamily":0,"safe":0,"ownername":"ATSICHLAS (Busy)","latitude":38.435841,"longitude":21.355705,"accuracy":"11","context":0,"place_id":"0Vg7GFpYVL9A8cg","woeid":"965976","geo_is_family":0,"geo_is_friend":0,"geo_is_contact":0,"geo_is_public":1,"media":"photo","media_status":"ready"},{"id":"14013763237","owner":"34297088@N02","secret":"52fd00d936","server":"7338","farm":8,"title":"Tribute to Spring","ispublic":1,"isfriend":0,"isfamily":0,"safe":0,"ownername":"pyrospawn","latitude":39.058769,"longitude":-77.034728,"accuracy":"16","context":0,"place_id":"rMvllOJTVrtxN9Qx","woeid":"2410934","geo_is_family":0,"geo_is_friend":0,"geo_is_contact":0,"geo_is_public":1,"media":"photo","media_status":"ready"},{"id":"14012402997","owner":"29826595@N06","secret":"713f88d03a","server":"7452","farm":8,"title":"Another of my horny friends","ispublic":1,"isfriend":0,"isfamily":0,"safe":0,"ownername":"themadbirdlady - anne cotton","latitude":56.200401,"longitude":-3.889503,"accuracy":"11","context":0,"place_id":"cmuSWVhQWrwfIg","woeid":"18626","geo_is_family":0,"geo_is_friend":0,"geo_is_contact":0,"geo_is_public":1,"media":"photo","media_status":"ready"},{"id":"14193842262","owner":"52735684@N07","secret":"1eab2b8c68","server":"7457","farm":8,"title":"Chioggia - 14051402","ispublic":1,"isfriend":0,"isfamily":0,"safe":0,"ownername":"Klaus Kehrls","latitude":45.220304,"longitude":12.279925,"accuracy":"16","context":0,"place_id":"HAN1d5VWU77v0Fk","woeid":"714016","geo_is_family":0,"geo_is_friend":0,"geo_is_contact":0,"geo_is_public":1,"media":"photo","media_status":"ready"},{"id":"14195080235","owner":"92036053@N06","secret":"35b38a95f9","server":"5507","farm":6,"title":"Subesta\u00e7\u00e3o CTEEP Santo Angelo 440 kv, Mogi das Cruzes - SP, Brazil. foto ano 2003.","ispublic":1,"isfriend":0,"isfamily":0,"safe":0,"ownername":"IVOLINES","latitude":-23.52244,"longitude":-46.198869,"accuracy":"10","context":0,"place_id":"fRz9ys5VVrofPbM","woeid":"440495","geo_is_family":0,"geo_is_friend":0,"geo_is_contact":0,"geo_is_public":1,"media":"photo","media_status":"ready"},{"id":"14212808993","owner":"94579059@N05","secret":"1f5182dceb","server":"5570","farm":6,"title":"Coucher de soleil \u00e0 la station pont du Garigliano \/ Sunset at Pont du Garigliano tram station","ispublic":1,"isfriend":0,"isfamily":0,"safe":0,"ownername":"m43photos","latitude":48.832464,"longitude":2.288954,"accuracy":"16","context":0,"place_id":"aNcTRp5UV7IFMTyePA","woeid":"55843830","geo_is_family":0,"geo_is_friend":0,"geo_is_contact":0,"geo_is_public":1,"media":"photo","media_status":"ready"},{"id":"14192180155","owner":"26583258@N08","secret":"715841d53e","server":"7460","farm":8,"title":"14 mai 2014 : d'heure en heure","ispublic":1,"isfriend":0,"isfamily":0,"safe":0,"ownername":"alain-paris","latitude":48.862486,"longitude":2.44343,"accuracy":"16","context":0,"place_id":"mhvABkxUV7LMOiC.aw","woeid":"55843870","geo_is_family":0,"geo_is_friend":0,"geo_is_contact":0,"geo_is_public":1,"media":"photo","media_status":"ready"},{"id":"10113873983","owner":"70667315@N07","secret":"607121b059","server":"5497","farm":6,"title":"Landing Gear : Check down","ispublic":1,"isfriend":0,"isfamily":0,"safe":0,"ownername":"Laurent photography","latitude":49.084547,"longitude":2.022964,"accuracy":"15","context":0,"place_id":"vi3ULGhUWr1gKE4","woeid":"587009","geo_is_family":0,"geo_is_friend":0,"geo_is_contact":0,"geo_is_public":1,"media":"photo","media_status":"ready"}]},"stat":"ok"}