{"photos":{"page":45,"pages":26689,"perpage":60,"total":"1601297","photo":[{"id":"14226847535","owner":"62448022@N00","secret":"0801e44fd6","server":"5578","farm":6,"title":"Farm In The Rape Field","ispublic":1,"isfriend":0,"isfamily":0,"safe":0,"ownername":"Aerial Photography","latitude":48.45495,"longitude":12.070219,"accuracy":"16","context":0,"place_id":"IrJ9Bs5XV7qSqF4","woeid":"650441","geo_is_family":0,"geo_is_friend":0,"geo_is_contact":0,"geo_is_public":1,"media":"photo","media_status":"ready"},{"id":"14221728944","owner":"49475392@N04","secret":"96f517b177","server":"5277","farm":6,"title":"Cypress Point Park Tampa","ispublic":1,"isfriend":0,"isfamily":0,"safe":0,"ownername":"theo0023","latitude":27.951686,"longitude":-82.545518,"accuracy":"14","context":0,"place_id":"BilXWgZUV7MMQmVC4w","woeid":"55983382","geo_is_family":0,"geo_is_friend":0,"geo_is_contact":0,"geo_is_public":1,"media":"photo","media_status":"ready"},{"id":"14241549133","owner":"68621070@N06","secret":"edb947d5c8","server":"2934","farm":3,"title":"kerchiefed","ispublic":1,"isfriend":0,"isfamily":0,"safe":0,"ownername":"Bj\u00f6rn Bechstein","latitude":41.040851,"longitude":28.986179,"accuracy":"11","context":0,"place_id":"l02DEdJTUb5XGlLZ","woeid":"2344116","geo_is_family":0,"geo_is_friend":0,"geo_is_contact":0,"geo_is_public":1,"media":"photo","media_status":"ready"},{"id":"14220889524","owner":"96404105@N08","secret":"6a66d4f2e8","server":"5573","farm":6,"title":"000135UA-F \u00d6hringen","ispublic":1,"isfriend":0,"isfamily":0,"safe":0,"ownername":"Impressionen-Digital","latitude":49.201789,"longitude":9.505809,"accuracy":"11","context":0,"place_id":"BglfFWdXWrkyOsY","woeid":"683119","geo_is_family":0,"geo_is_friend":0,"geo_is_contact":0,"geo_is_public":1,"media":"photo","media_status":"ready"},{"id":"14033494698","owner":"96439392@N03","secret":"07291e5d23","server":"5274","farm":6,"title":"","ispublic":1,"isfriend":0,"isfamily":0,"safe":0,"ownername":"Kristin Van den Eede","latitude":51.516349,"longitude":-0.131491,"accuracy":"15","context":0,"place_id":"6_3fh4dTUrq3gOi.uA","woeid":"20094350","geo_is_family":0,"geo_is_friend":0,"geo_is_contact":0,"geo_is_public":1,"media":"photo","media_status":"ready"},{"id":"14192419686","owner":"45886150@N02","secret":"7923772f28","server":"2919","farm":3,"title":"The Wave","ispublic":1,"isfriend":0,"isfamily":0,"safe":0,"ownername":"@Thierry","latitude":43.396792,"longitude":-1.680554,"accuracy":"16","context":0,"place_id":"bJpbo1BXULj_ccw","woeid":"622260","geo_is_family":0,"geo_is_friend":0,"geo_is_contact":0,"geo_is_public":1,"media":"photo","media_status":"ready"},{"id":"14212988292","owner":"16045772@N08","secret":"4160e7ba14","server":"5502","farm":6,"title":"National September 11 Memorial Pool","ispublic":1,"isfriend":0,"isfamily":0,"safe":0,"ownername":"jkc916","latitude":40.711352,"longitude":-74.013392,"accuracy":"16","context":0,"place_id":"ESZup0BTUbx9zTrQ","woeid":"2360037","geo_is_family":0,"geo_is_friend":0,"geo_is_contact":0,"geo_is_public":1,"media":"photo","media_status":"ready"},{"id":"14026105318","owner":"35328181@N03","secret":"e392ed6173","server":"5576","farm":6,"title":"Veery","ispublic":1,"isfriend":0,"isfamily":0,"safe":0,"ownername":"RonG58","latitude":44.350096,"longitude":-70.056679,"accuracy":"16","context":0,"place_id":"Pf2esiVTV7u5j4s8","woeid":"2515620","geo_is_family":0,"geo_is_friend":0,"geo_is_contact":0,"geo_is_public":1,"media":"photo","media_status":"ready"},{"id":"14025757698","owner":"42108906@N04","secret":"69cbdc2ca2","server":"2912","farm":3,"title":"Palazzo Berri-Meregalli","ispublic":1,"isfriend":0,"isfamily":0,"safe":0,"ownername":"Fil.ippo","latitude":45.470287,"longitude":9.20212,"accuracy":"15","context":0,"place_id":"49Gidk1WU7JxrFY","woeid":"718345","geo_is_family":0,"geo_is_friend":0,"geo_is_contact":0,"geo_is_public":1,"media":"photo","media_status":"ready"},{"id":"14204679071","owner":"56105315@N07","secret":"d24d649748","server":"2901","farm":3,"title":"Ok, enough of the bluebells...........Explored","ispublic":1,"isfriend":0,"isfamily":0,"safe":0,"ownername":"Nick Stewart2","latitude":51.743541,"longitude":-2.512892,"accuracy":"13","context":0,"place_id":"bhGFs59TWrol7g","woeid":"28033","geo_is_family":0,"geo_is_friend":0,"geo_is_contact":0,"geo_is_public":1,"media":"photo","media_status":"ready"},{"id":"14021061268","owner":"41944783@N08","secret":"a091dd8381","server":"2908","farm":3,"title":"Fiore di campo... rosso sgargiante !  (2 immagini)","ispublic":1,"isfriend":0,"isfamily":0,"safe":0,"ownername":"gabri58","latitude":45.657581,"longitude":9.9636,"accuracy":"5","context":0,"place_id":"GuxuuU5WU78KYF2H","woeid":"7153338","geo_is_family":0,"geo_is_friend":0,"geo_is_contact":0,"geo_is_public":1,"media":"photo","media_status":"ready"},{"id":"14020447870","owner":"53794995@N05","secret":"411cc50003","server":"2938","farm":3,"title":"Roses","ispublic":1,"isfriend":0,"isfamily":0,"safe":0,"ownername":"Helena de Riquer","latitude":41.983483,"longitude":2.81639,"accuracy":"11","context":0,"place_id":"PIBwCahWVLtJ_i4","woeid":"761600","geo_is_family":0,"geo_is_friend":0,"geo_is_contact":0,"geo_is_public":1,"media":"photo","media_status":"ready"},{"id":"14203811125","owner":"62084353@N08","secret":"a796afe5d3","server":"5152","farm":6,"title":"The lost garden (Explore 2014-05-17)","ispublic":1,"isfriend":0,"isfamily":0,"safe":0,"ownername":"diez.david","latitude":40.554814,"longitude":-4.073824,"accuracy":"15","context":0,"place_id":"z1N32XdQUL_NGlw7Tw","woeid":"12578024","geo_is_family":0,"geo_is_friend":0,"geo_is_contact":0,"geo_is_public":1,"media":"photo","media_status":"ready"},{"id":"14017069910","owner":"34096574@N06","secret":"c88df39e78","server":"5542","farm":6,"title":"Venice : Ponte Rosso o dei Trasti \/ Fondamenta de la Sensa \/ Rio de la Sensa \/ Ponte de la Malvasia","ispublic":1,"isfriend":0,"isfamily":0,"safe":1,"ownername":"Pantchoa","latitude":45.445913,"longitude":12.3299,"accuracy":"16","context":0,"place_id":"EzRUzuJTUrtWx_W.dw","woeid":"20150612","geo_is_family":0,"geo_is_friend":0,"geo_is_contact":0,"geo_is_public":1,"media":"photo","media_status":"ready"},{"id":"14195639322","owner":"96404105@N08","secret":"a3babbe67c","server":"5527","farm":6,"title":"000131LS-F Platzhof","ispublic":1,"isfriend":0,"isfamily":0,"safe":0,"ownername":"Impressionen-Digital","latitude":49.24319,"longitude":9.528989,"accuracy":"11","context":0,"place_id":"od321fdXV7rXGjk","woeid":"650824","geo_is_family":0,"geo_is_friend":0,"geo_is_contact":0,"geo_is_public":1,"media":"photo","media_status":"ready"},{"id":"14197732154","owner":"34905382@N08","secret":"aa8421139f","server":"2930","farm":3,"title":"_5040878 Amapolas","ispublic":1,"isfriend":0,"isfamily":0,"safe":0,"ownername":"penalopezp","latitude":40.484298,"longitude":-3.374176,"accuracy":"11","context":0,"place_id":"SIiRGKdWV7uXOrQ","woeid":"751768","geo_is_family":0,"geo_is_friend":0,"geo_is_contact":0,"geo_is_public":1,"media":"photo","media_status":"ready"},{"id":"14008085057","owner":"69414137@N00","secret":"134f87fd1f","server":"5515","farm":6,"title":"Enigmatico","ispublic":1,"isfriend":0,"isfamily":0,"safe":0,"ownername":"fiumeazzurro","latitude":43.669858,"longitude":10.868225,"accuracy":"9","context":0,"place_id":"DuIaV7BWULh4fVc","woeid":"722915","geo_is_family":0,"geo_is_friend":0,"geo_is_contact":0,"geo_is_public":1,"media":"photo","media_status":"ready"},{"id":"14006769050","owner":"62529443@N07","secret":"e72537c096","server":"2939","farm":3,"title":"A delicate sense of balance","ispublic":1,"isfriend":0,"isfamily":0,"safe":0,"ownername":"Martin Dietrich \u23aawww.neoprime.de","latitude":50.106432,"longitude":8.663835,"accuracy":"14","context":0,"place_id":"Z0FRRfRXV7oIeew","woeid":"650272","geo_is_family":0,"geo_is_friend":0,"geo_is_contact":0,"geo_is_public":1,"media":"photo","media_status":"ready"},{"id":"14212501353","owner":"62815410@N04","secret":"43c82fa267","server":"7362","farm":8,"title":"a matter of balance (brescia, italy)","ispublic":1,"isfriend":0,"isfamily":0,"safe":0,"ownername":"bloodybee","latitude":45.535889,"longitude":10.23458,"accuracy":"15","context":0,"place_id":"WO1uGLRWU7u69ps","woeid":"711410","geo_is_family":0,"geo_is_friend":0,"geo_is_contact":0,"geo_is_public":1,"media":"photo","media_status":"ready"},{"id":"14192133815","owner":"92375404@N08","secret":"237af6dfc9","server":"7334","farm":8,"title":"Medieval and modern Times","ispublic":1,"isfriend":0,"isfamily":0,"safe":0,"ownername":"tobias142","latitude":51.340386,"longitude":9.939925,"accuracy":"16","context":0,"place_id":"1q_IuBhXWrIK.Kw","woeid":"688752","geo_is_family":0,"geo_is_friend":0,"geo_is_contact":0,"geo_is_public":1,"media":"photo","media_status":"ready"},{"id":"14191409464","owner":"96404105@N08","secret":"96fa16b5c8","server":"5564","farm":6,"title":"000125UA-M Forchtenberg","ispublic":1,"isfriend":0,"isfamily":0,"safe":0,"ownername":"Impressionen-Digital","latitude":49.287258,"longitude":9.562159,"accuracy":"11","context":0,"place_id":"GIo2pGxXV7qJ1ec","woeid":"650078","geo_is_family":0,"geo_is_friend":0,"geo_is_contact":0,"geo_is_public":1,"media":"photo","media_status":"ready"},{"id":"14207638573","owner":"43592720@N08","secret":"6bdf02fc46","server":"5520","farm":6,"title":"Evening in the Park","ispublic":1,"isfriend":0,"isfamily":0,"safe":0,"ownername":"GeraldGrote","latitude":52.271427,"longitude":10.520416,"accuracy":"16","context":0,"place_id":"jQ2kMpNTUrs5A1LrAA","woeid":"20166095","geo_is_family":0,"geo_is_friend":0,"geo_is_contact":0,"geo_is_public":1,"media":"photo","media_status":"ready"},{"id":"14164111796","owner":"69414137@N00","secret":"2496f7f67e","server":"7375","farm":8,"title":"Shakespeariana","ispublic":1,"isfriend":0,"isfamily":0,"safe":0,"ownername":"fiumeazzurro","latitude":43.675818,"longitude":10.859985,"accuracy":"9","context":0,"place_id":"DuIaV7BWULh4fVc","woeid":"722915","geo_is_family":0,"geo_is_friend":0,"geo_is_contact":0,"geo_is_public":1,"media":"photo","media_status":"ready"},{"id":"14184006802","owner":"34630497@N02","secret":"9ccd36b8a2","server":"2912","farm":3,"title":"TEST Samyang 85 mm \/ F 1,4 ASP IF \/ OLYMPUS OM-D M5","ispublic":1,"isfriend":0,"isfamily":0,"safe":0,"ownername":"photobeam ( Better grays through research \u00a9 )","latitude":49.462559,"longitude":6.73352,"accuracy":"15","context":0,"place_id":"0hsZ7txXV7069Hk","woeid":"657305","geo_is_family":0,"geo_is_friend":0,"geo_is_contact":0,"geo_is_public":1,"media":"photo","media_status":"ready"},{"id":"13999619779","owner":"42108906@N04","secret":"5c224a0bbb","server":"5231","farm":6,"title":"The man and the city","ispublic":1,"isfriend":0,"isfamily":0,"safe":0,"ownername":"Fil.ippo","latitude":45.487786,"longitude":9.195814,"accuracy":"16","context":0,"place_id":"49Gidk1WU7JxrFY","woeid":"718345","geo_is_family":0,"geo_is_friend":0,"geo_is_contact":0,"geo_is_public":1,"media":"photo","media_status":"ready"},{"id":"13998632068","owner":"96404105@N08","secret":"0d5e0728a3","server":"7385","farm":8,"title":"000129UA-M Forchtenberg","ispublic":1,"isfriend":0,"isfamily":0,"safe":0,"ownername":"Impressionen-Digital","latitude":49.287258,"longitude":9.562159,"accuracy":"11","context":0,"place_id":"GIo2pGxXV7qJ1ec","woeid":"650078","geo_is_family":0,"geo_is_friend":0,"geo_is_contact":0,"geo_is_public":1,"media":"photo","media_status":"ready"},{"id":"13994658409","owner":"107257500@N03","secret":"a62dd3fd17","server":"5546","farm":6,"title":"Foster Lincoln","ispublic":1,"isfriend":0,"isfamily":0,"safe":0,"ownername":"hoobgoobliin","latitude":52.950111,"longitude":0.803654,"accuracy":"15","context":0,"place_id":"rSgzh85TUrpWfwwl3Q","woeid":"20093016","geo_is_family":0,"geo_is_friend":0,"geo_is_contact":0,"geo_is_public":1,"media":"photo","media_status":"ready"},{"id":"14179005435","owner":"44962378@N08","secret":"e59f1fcf87","server":"7358","farm":8,"title":"Tre Tipi","ispublic":1,"isfriend":0,"isfamily":0,"safe":0,"ownername":"FilippoMarchi\uf8ff\uf8ff\uf8ff","latitude":43.565372,"longitude":11.529897,"accuracy":"16","context":0,"place_id":"NW6_7AdWULhZdOs","woeid":"722661","geo_is_family":0,"geo_is_friend":0,"geo_is_contact":0,"geo_is_public":1,"media":"photo","media_status":"ready"},{"id":"13992113250","owner":"44161305@N02","secret":"dc6af247c0","server":"7392","farm":8,"title":"627 Cefal\u00f9, Sicily","ispublic":1,"isfriend":0,"isfamily":0,"safe":0,"ownername":"tango-","latitude":38.041331,"longitude":14.018898,"accuracy":"13","context":0,"place_id":"0EWJ0T9QUL93x0JxkQ","woeid":"12591846","geo_is_family":0,"geo_is_friend":0,"geo_is_contact":0,"geo_is_public":1,"media":"photo","media_status":"ready"},{"id":"14197749023","owner":"76458369@N07","secret":"39472eaf38","server":"7455","farm":8,"title":"","ispublic":1,"isfriend":0,"isfamily":0,"safe":0,"ownername":"Eric Goncalves","latitude":51.768902,"longitude":-2.571144,"accuracy":"13","context":0,"place_id":"tcyVnNRSU762xg","woeid":"31445","geo_is_family":0,"geo_is_friend":0,"geo_is_contact":0,"geo_is_public":1,"media":"photo","media_status":"ready"},{"id":"14174225971","owner":"96404105@N08","secret":"eaea9638c8","server":"5543","farm":6,"title":"000124UA-M Ingelfingen","ispublic":1,"isfriend":0,"isfamily":0,"safe":0,"ownername":"Impressionen-Digital","latitude":49.30128,"longitude":9.651709,"accuracy":"11","context":0,"place_id":"SNYkFCdXVLnZ7LM","woeid":"663521","geo_is_family":0,"geo_is_friend":0,"geo_is_contact":0,"geo_is_public":1,"media":"photo","media_status":"ready"},{"id":"13990115748","owner":"82831944@N02","secret":"a14be330ca","server":"7355","farm":8,"title":"color car crash test! (o... lo scontrino)","ispublic":1,"isfriend":0,"isfamily":0,"safe":0,"ownername":"Antonio Iacobelli (Jacobson-2012)","latitude":41.113147,"longitude":16.864056,"accuracy":"15","context":0,"place_id":"4EezEdZWU7r5KMc","woeid":"710722","geo_is_family":0,"geo_is_friend":0,"geo_is_contact":0,"geo_is_public":1,"media":"photo","media_status":"ready"},{"id":"14172586842","owner":"90378082@N07","secret":"51feea7a20","server":"5498","farm":6,"title":"Trying to get in on the shot","ispublic":1,"isfriend":0,"isfamily":0,"safe":0,"ownername":"Baz 120","latitude":41.898683,"longitude":12.472422,"accuracy":"15","context":0,"place_id":"FphPyURWU7ux6h4","woeid":"711883","geo_is_family":0,"geo_is_friend":0,"geo_is_contact":0,"geo_is_public":1,"media":"photo","media_status":"ready"},{"id":"14147707356","owner":"62815410@N04","secret":"42afbce712","server":"5316","farm":6,"title":"untitled (brescia, italy)","ispublic":1,"isfriend":0,"isfamily":0,"safe":0,"ownername":"bloodybee","latitude":45.53543,"longitude":10.235373,"accuracy":"16","context":0,"place_id":"WO1uGLRWU7u69ps","woeid":"711410","geo_is_family":0,"geo_is_friend":0,"geo_is_contact":0,"geo_is_public":1,"media":"photo","media_status":"ready"},{"id":"14170672464","owner":"96404105@N08","secret":"a12c81689e","server":"7391","farm":8,"title":"000121UA-F Ingelfingen","ispublic":1,"isfriend":0,"isfamily":0,"safe":0,"ownername":"Impressionen-Digital","latitude":49.30128,"longitude":9.651709,"accuracy":"11","context":0,"place_id":"SNYkFCdXVLnZ7LM","woeid":"663521","geo_is_family":0,"geo_is_friend":0,"geo_is_contact":0,"geo_is_public":1,"media":"photo","media_status":"ready"},{"id":"13981619658","owner":"52735684@N07","secret":"db36592ff0","server":"2895","farm":3,"title":"Venedig - 09051410","ispublic":1,"isfriend":0,"isfamily":0,"safe":1,"ownername":"Klaus Kehrls","latitude":45.435924,"longitude":12.337496,"accuracy":"16","context":0,"place_id":"UQEdl5BTUrv2TyTgZw","woeid":"20150616","geo_is_family":0,"geo_is_friend":0,"geo_is_contact":0,"geo_is_public":1,"media":"photo","media_status":"ready"},{"id":"13979949757","owner":"66644631@N05","secret":"422ffe4577","server":"5511","farm":6,"title":"Versailles castle","ispublic":1,"isfriend":0,"isfamily":0,"safe":0,"ownername":"jmlpyt","latitude":48.801929,"longitude":2.131119,"accuracy":"11","context":0,"place_id":"RtpMgPNXUbrqF08","woeid":"630908","geo_is_family":0,"geo_is_friend":0,"geo_is_contact":0,"geo_is_public":1,"media":"photo","media_status":"ready"},{"id":"13978007550","owner":"48888412@N02","secret":"cb27565f4e","server":"7423","farm":8,"title":"Syrphe","ispublic":1,"isfriend":0,"isfamily":0,"safe":0,"ownername":"aminefassi","latitude":33.931111,"longitude":-6.955375,"accuracy":"11","context":0,"place_id":"ogZGrf5QUrytEq0VZA","woeid":"10644808","geo_is_family":0,"geo_is_friend":0,"geo_is_contact":0,"geo_is_public":1,"media":"photo","media_status":"ready"},{"id":"14140515666","owner":"32438882@N07","secret":"97d752bc90","server":"7429","farm":8,"title":"Ruta Cascada de los Vados por TeresalaLoba","ispublic":1,"isfriend":0,"isfamily":0,"safe":0,"ownername":"TeresalaLoba","latitude":42.192503,"longitude":-6.642651,"accuracy":"15","context":0,"place_id":"1zBFQPpWVbjoLpY","woeid":"772715","geo_is_family":0,"geo_is_friend":0,"geo_is_contact":0,"geo_is_public":1,"media":"photo","media_status":"ready"},{"id":"14159967492","owner":"33769472@N05","secret":"566e3ca077","server":"5038","farm":6,"title":"Papilio machaon 5839","ispublic":1,"isfriend":0,"isfamily":0,"safe":0,"ownername":"Giuseppe Zingarelli","latitude":43.871663,"longitude":11.097564,"accuracy":"10","context":0,"place_id":"EMmWS1FQV7qTfmd_WA","woeid":"15000195","geo_is_family":0,"geo_is_friend":0,"geo_is_contact":0,"geo_is_public":1,"media":"photo","media_status":"ready"},{"id":"14161244855","owner":"65949682@N00","secret":"139338d812","server":"7300","farm":8,"title":"So here we are in the dark...","ispublic":1,"isfriend":0,"isfamily":0,"safe":0,"ownername":"OR_U","latitude":51.449727,"longitude":-2.606895,"accuracy":"16","context":0,"place_id":"crKWMRtTUro8VRGyhw","woeid":"20094209","geo_is_family":0,"geo_is_friend":0,"geo_is_contact":0,"geo_is_public":1,"media":"photo","media_status":"ready"},{"id":"13972640360","owner":"39669415@N05","secret":"9ceaa330b3","server":"5502","farm":6,"title":"Tulips","ispublic":1,"isfriend":0,"isfamily":0,"safe":0,"ownername":"BraCom (Bram)","latitude":51.699072,"longitude":4.294769,"accuracy":"16","context":0,"place_id":"r_QyBIhWUbgxPoI","woeid":"732300","geo_is_family":0,"geo_is_friend":0,"geo_is_contact":0,"geo_is_public":1,"media":"photo","media_status":"ready"},{"id":"14159148845","owner":"22543235@N05","secret":"94146c9dc6","server":"7452","farm":8,"title":"Prehistoric Island","ispublic":1,"isfriend":0,"isfamily":0,"safe":0,"ownername":"Gareth Wray Photography -Thanks = 1.5 Million Hits","latitude":54.914168,"longitude":-8.453636,"accuracy":"13","context":0,"place_id":"5BPtiO1TUrqK0TnLww","woeid":"20071977","geo_is_family":0,"geo_is_friend":0,"geo_is_contact":0,"geo_is_public":1,"media":"photo","media_status":"ready"},{"id":"13971795099","owner":"58149020@N06","secret":"eb507bfaf1","server":"5569","farm":6,"title":"ORANGE TIP (Explore 11.05.2014)","ispublic":1,"isfriend":0,"isfamily":0,"safe":0,"ownername":"tony.cox27","latitude":50.859277,"longitude":-1.790084,"accuracy":"11","context":0,"place_id":"927R6ONQUboMGg","woeid":"13009","geo_is_family":0,"geo_is_friend":0,"geo_is_contact":0,"geo_is_public":1,"media":"photo","media_status":"ready"},{"id":"13971187000","owner":"90378082@N07","secret":"8fea8e4b28","server":"7327","farm":8,"title":"Forgot to change","ispublic":1,"isfriend":0,"isfamily":0,"safe":0,"ownername":"Baz 120","latitude":41.905758,"longitude":12.478322,"accuracy":"15","context":0,"place_id":"FphPyURWU7ux6h4","woeid":"711883","geo_is_family":0,"geo_is_friend":0,"geo_is_contact":0,"geo_is_public":1,"media":"photo","media_status":"ready"},{"id":"14177681723","owner":"66644631@N05","secret":"f4c3f0a086","server":"2905","farm":3,"title":"Versailles castle","ispublic":1,"isfriend":0,"isfamily":0,"safe":0,"ownername":"jmlpyt","latitude":48.801929,"longitude":2.131119,"accuracy":"11","context":0,"place_id":"RtpMgPNXUbrqF08","woeid":"630908","geo_is_family":0,"geo_is_friend":0,"geo_is_contact":0,"geo_is_public":1,"media":"photo","media_status":"ready"},{"id":"14154314554","owner":"66403925@N03","secret":"4ab8c56ba3","server":"7412","farm":8,"title":"Lib\u00e9lula-achatada, Broad-bodied Chaser(Libellula depressa) - em Liberdade [in Wild]","ispublic":1,"isfriend":0,"isfamily":0,"safe":0,"ownername":"ana & xavier (1.100.000 views - Obg \/ thanks)","latitude":41.513771,"longitude":-7.98602,"accuracy":"11","context":0,"place_id":"uhRpS.9WUb3tGr4","woeid":"737736","geo_is_family":0,"geo_is_friend":0,"geo_is_contact":0,"geo_is_public":1,"media":"photo","media_status":"ready"},{"id":"14149492072","owner":"7132158@N07","secret":"9dde5387aa","server":"7444","farm":8,"title":"The past is behind, learn from it. The future is ahead, plan for it. The present is here, live it","ispublic":1,"isfriend":0,"isfamily":0,"safe":0,"ownername":"Rui Almeida.","latitude":2.379915,"longitude":-39.751968,"accuracy":"11","context":0,"geo_is_family":0,"geo_is_friend":0,"geo_is_contact":0,"geo_is_public":1,"media":"photo","media_status":"ready"},{"id":"14171470603","owner":"52431791@N08","secret":"dd260b13a3","server":"5521","farm":6,"title":"\"Abstract\" ... [explored]","ispublic":1,"isfriend":0,"isfamily":0,"safe":0,"ownername":"ipon1","latitude":43.450378,"longitude":4.428719,"accuracy":"11","context":0,"place_id":".iecQEtXUL2VZGE","woeid":"627780","geo_is_family":0,"geo_is_friend":0,"geo_is_contact":0,"geo_is_public":1,"media":"photo","media_status":"ready"},{"id":"14126445816","owner":"66644631@N05","secret":"3bb3c650d9","server":"5154","farm":6,"title":"Versailles castle","ispublic":1,"isfriend":0,"isfamily":0,"safe":0,"ownername":"jmlpyt","latitude":48.801929,"longitude":2.131119,"accuracy":"11","context":0,"place_id":"RtpMgPNXUbrqF08","woeid":"630908","geo_is_family":0,"geo_is_friend":0,"geo_is_contact":0,"geo_is_public":1,"media":"photo","media_status":"ready"},{"id":"13957778308","owner":"75367184@N05","secret":"7388c0db8e","server":"7347","farm":8,"title":"Allium","ispublic":1,"isfriend":0,"isfamily":0,"safe":0,"ownername":"Wolkenrose","latitude":50.062538,"longitude":10.247399,"accuracy":"16","context":0,"place_id":"ezG5EhpXW7nrUYI","woeid":"693838","geo_is_family":0,"geo_is_friend":0,"geo_is_contact":0,"geo_is_public":1,"media":"photo","media_status":"ready"},{"id":"14143979415","owner":"76449899@N04","secret":"1292e25954","server":"7445","farm":8,"title":"Sakura *Explore*","ispublic":1,"isfriend":0,"isfamily":0,"safe":0,"ownername":"Alan Dow \uf8ff","latitude":53.372857,"longitude":-2.955365,"accuracy":"14","context":0,"place_id":"oaRU8EtSU7vVLw","woeid":"31157","geo_is_family":0,"geo_is_friend":0,"geo_is_contact":0,"geo_is_public":1,"media":"photo","media_status":"ready"},{"id":"13955622439","owner":"90189924@N08","secret":"b91ea08750","server":"7414","farm":8,"title":"Ant","ispublic":1,"isfriend":0,"isfamily":0,"safe":0,"ownername":"Guilherme GMP","latitude":-25.403923,"longitude":-49.246884,"accuracy":"16","context":0,"place_id":"ZeCKPdpUV7P8S1MHcg","woeid":"55944080","geo_is_family":0,"geo_is_friend":0,"geo_is_contact":0,"geo_is_public":1,"media":"photo","media_status":"ready"},{"id":"13954794099","owner":"87317128@N08","secret":"775a35df38","server":"7350","farm":8,"title":"University of London","ispublic":1,"isfriend":0,"isfamily":0,"safe":0,"ownername":"Pu\u00e9rtolas","latitude":51.52088,"longitude":-0.12793,"accuracy":"15","context":0,"place_id":"R4ZOG4ZQUboasg","woeid":"13064","geo_is_family":0,"geo_is_friend":0,"geo_is_contact":0,"geo_is_public":1,"media":"photo","media_status":"ready"},{"id":"13952836368","owner":"96898796@N02","secret":"51836caf47","server":"7355","farm":8,"title":"we're all made of stars","ispublic":1,"isfriend":0,"isfamily":0,"safe":0,"ownername":"degghi","latitude":46.402202,"longitude":10.852855,"accuracy":"16","context":0,"place_id":"LRx5FlNWU7lhcWs","woeid":"713775","geo_is_family":0,"geo_is_friend":0,"geo_is_contact":0,"geo_is_public":1,"media":"photo","media_status":"ready"},{"id":"14114077586","owner":"26049635@N07","secret":"cd936a8143","server":"5583","farm":6,"title":"Orqu\u00eddea en la Sierra de Algair\u00e9n","ispublic":1,"isfriend":0,"isfamily":0,"safe":0,"ownername":"Teresa Esteban","latitude":41.365729,"longitude":-1.388397,"accuracy":"11","context":0,"place_id":".zpSvF9WVb9CO9k","woeid":"775493","geo_is_family":0,"geo_is_friend":0,"geo_is_contact":0,"geo_is_public":1,"media":"photo","media_status":"ready"},{"id":"14136246504","owner":"59464817@N02","secret":"6ec9527ff1","server":"5313","farm":6,"title":"Spatola","ispublic":1,"isfriend":0,"isfamily":0,"safe":0,"ownername":"fausto.deseri","latitude":44.509222,"longitude":11.661858,"accuracy":"16","context":0,"place_id":"M7.uA91WU7LQZbk","woeid":"718160","geo_is_family":0,"geo_is_friend":0,"geo_is_contact":0,"geo_is_public":1,"media":"photo","media_status":"ready"},{"id":"14155837853","owner":"50027776@N05","secret":"d16f975400","server":"7306","farm":8,"title":"Sibillini - Cima del Redentore","ispublic":1,"isfriend":0,"isfamily":0,"safe":0,"ownername":"Luigi Alesi","latitude":42.828299,"longitude":13.206467,"accuracy":"14","context":0,"place_id":"IcB85V1WU7lCiZ8","woeid":"713407","geo_is_family":0,"geo_is_friend":0,"geo_is_contact":0,"geo_is_public":1,"media":"photo","media_status":"ready"},{"id":"14112535926","owner":"66644631@N05","secret":"b38913bba6","server":"5196","farm":6,"title":"Versailles castle","ispublic":1,"isfriend":0,"isfamily":0,"safe":0,"ownername":"jmlpyt","latitude":48.801929,"longitude":2.131119,"accuracy":"11","context":0,"place_id":"RtpMgPNXUbrqF08","woeid":"630908","geo_is_family":0,"geo_is_friend":0,"geo_is_contact":0,"geo_is_public":1,"media":"photo","media_status":"ready"},{"id":"14132757152","owner":"58149020@N06","secret":"d7f06535a0","server":"7329","farm":8,"title":"ORANGE TIP (Explore 09.05.2014)","ispublic":1,"isfriend":0,"isfamily":0,"safe":0,"ownername":"tony.cox27","latitude":50.86101,"longitude":-1.785278,"accuracy":"11","context":0,"place_id":"927R6ONQUboMGg","woeid":"13009","geo_is_family":0,"geo_is_friend":0,"geo_is_contact":0,"geo_is_public":1,"media":"photo","media_status":"ready"}]},"stat":"ok"}