{"photos":{"page":36,"pages":26685,"perpage":60,"total":"1601100","photo":[{"id":"14069089572","owner":"79849988@N05","secret":"4c39a25e6b","server":"5578","farm":6,"title":"Berlin","ispublic":1,"isfriend":0,"isfamily":0,"safe":0,"ownername":"J\u00f6rg Hupperich","latitude":52.514008,"longitude":13.378822,"accuracy":"16","context":0,"place_id":"VULyzjBXVb89VXc","woeid":"675695","geo_is_family":0,"geo_is_friend":0,"geo_is_contact":0,"geo_is_public":1,"media":"photo","media_status":"ready"},{"id":"14048359136","owner":"50115085@N08","secret":"3fdc603316","server":"7039","farm":8,"title":"Crimean storm","ispublic":1,"isfriend":0,"isfamily":0,"safe":0,"ownername":"Varvara_R","latitude":44.945391,"longitude":35.23693,"accuracy":"15","context":0,"place_id":"Sn8tvwdYUbrF8lQ","woeid":"930924","geo_is_family":0,"geo_is_friend":0,"geo_is_contact":0,"geo_is_public":1,"media":"photo","media_status":"ready"},{"id":"14070827334","owner":"14442041@N04","secret":"63a6605c1c","server":"5273","farm":6,"title":"Sugar Loaf, Rio de Janeiro","ispublic":1,"isfriend":0,"isfamily":0,"safe":0,"ownername":"Quasebart","latitude":-22.946735,"longitude":-43.182106,"accuracy":"15","context":0,"place_id":"oIGe_OpVUL9r0i4","woeid":"425853","geo_is_family":0,"geo_is_friend":0,"geo_is_contact":0,"geo_is_public":1,"media":"photo","media_status":"ready"},{"id":"14068147824","owner":"101109840@N06","secret":"5481ed8229","server":"5518","farm":6,"title":"Snack in the street","ispublic":1,"isfriend":0,"isfamily":0,"safe":0,"ownername":"Brigante\uf8ff","latitude":45.46894,"longitude":9.18103,"accuracy":"11","context":0,"place_id":"49Gidk1WU7JxrFY","woeid":"718345","geo_is_family":0,"geo_is_friend":0,"geo_is_contact":0,"geo_is_public":1,"media":"photo","media_status":"ready"},{"id":"14067870264","owner":"14279081@N08","secret":"ac33b88105","server":"7408","farm":8,"title":"iphoneography","ispublic":1,"isfriend":0,"isfamily":0,"safe":0,"ownername":"\u039eSS\u039e\u00ae\u00ae\u039e","latitude":41.950952,"longitude":12.844519,"accuracy":"15","context":0,"place_id":"Ap2s1m5WU7msQBA","woeid":"713240","geo_is_family":0,"geo_is_friend":0,"geo_is_contact":0,"geo_is_public":1,"media":"photo","media_status":"ready"},{"id":"14062020441","owner":"44962378@N08","secret":"573f94f6dc","server":"7451","farm":8,"title":"Pl. Catalunya.","ispublic":1,"isfriend":0,"isfamily":0,"safe":0,"ownername":"FilippoMarchi\uf8ff\uf8ff\uf8ff","latitude":41.399775,"longitude":2.152388,"accuracy":"16","context":0,"place_id":"5dsPAV9WVLtBjQ4","woeid":"761739","geo_is_family":0,"geo_is_friend":0,"geo_is_contact":0,"geo_is_public":1,"media":"photo","media_status":"ready"},{"id":"14065255164","owner":"47574723@N03","secret":"20f19d5d2a","server":"7388","farm":8,"title":"In the Fields","ispublic":1,"isfriend":0,"isfamily":0,"safe":0,"ownername":"The Spirit of the World ( On&Off for 2 Days)","latitude":24.809344,"longitude":79.570305,"accuracy":"2","context":0,"place_id":"kZ2lUVFTUb7CK_DAfA","woeid":"23424848","geo_is_family":0,"geo_is_friend":0,"geo_is_contact":0,"geo_is_public":1,"media":"photo","media_status":"ready"},{"id":"14081062033","owner":"34096574@N06","secret":"6dcc0d9f4f","server":"7439","farm":8,"title":"Venice : Calle Donzella \/ Ramo de La Donzella    - 2\/2","ispublic":1,"isfriend":0,"isfamily":0,"safe":0,"ownername":"Pantchoa","latitude":45.438672,"longitude":12.333047,"accuracy":"16","context":0,"place_id":"qyV161RTUruqVTuLuQ","woeid":"20150614","geo_is_family":0,"geo_is_friend":0,"geo_is_contact":0,"geo_is_public":1,"media":"photo","media_status":"ready"},{"id":"14078005403","owner":"22540008@N04","secret":"ae35d01e0d","server":"2930","farm":3,"title":"Manhattan Sunset","ispublic":1,"isfriend":0,"isfamily":0,"safe":0,"ownername":"Mihai Andritoiu","latitude":40.748435,"longitude":-73.985774,"accuracy":"16","context":0,"place_id":"MGEM4kFTWr0tOal8SA","woeid":"28751330","geo_is_family":0,"geo_is_friend":0,"geo_is_contact":0,"geo_is_public":1,"media":"photo","media_status":"ready"},{"id":"14076629253","owner":"77892185@N03","secret":"e11abf9152","server":"7205","farm":8,"title":"Stair Master","ispublic":1,"isfriend":0,"isfamily":0,"safe":0,"ownername":"ClaireGen","latitude":40.911441,"longitude":-73.809608,"accuracy":"11","context":0,"place_id":"UaMoq.1TVr3RXf9G","woeid":"2470022","geo_is_family":0,"geo_is_friend":0,"geo_is_contact":0,"geo_is_public":1,"media":"photo","media_status":"ready"},{"id":"14045671731","owner":"59646784@N08","secret":"fb02610e67","server":"2927","farm":3,"title":"Vacillation","ispublic":1,"isfriend":0,"isfamily":0,"safe":0,"ownername":"L'hort de la Lolo","latitude":41.385719,"longitude":2.170049,"accuracy":"11","context":0,"place_id":"p.gvf6dWV7k1Gpg","woeid":"753692","geo_is_family":0,"geo_is_friend":0,"geo_is_contact":0,"geo_is_public":1,"media":"photo","media_status":"ready"},{"id":"14025485356","owner":"37708438@N05","secret":"ec11dc93a0","server":"2927","farm":3,"title":"Almost.....","ispublic":1,"isfriend":0,"isfamily":0,"safe":0,"ownername":"kenny barker","latitude":55.983037,"longitude":-3.301082,"accuracy":"12","context":0,"place_id":"h6DLpG1QVbuQfg","woeid":"17185","geo_is_family":0,"geo_is_friend":0,"geo_is_contact":0,"geo_is_public":1,"media":"photo","media_status":"ready"},{"id":"14044635532","owner":"88386804@N05","secret":"828c23604e","server":"5163","farm":6,"title":"camel portrait - Sde Boker - Israel","ispublic":1,"isfriend":0,"isfamily":0,"safe":0,"ownername":"Lior. L","latitude":30.82565,"longitude":34.754447,"accuracy":"13","context":0,"place_id":"iUr_QMVQW7x8jMLz","woeid":"1968210","geo_is_family":0,"geo_is_friend":0,"geo_is_contact":0,"geo_is_public":1,"media":"photo","media_status":"ready"},{"id":"14043834291","owner":"38708161@N06","secret":"51951554b9","server":"7120","farm":8,"title":"D\u00eda del libro","ispublic":1,"isfriend":0,"isfamily":0,"safe":0,"ownername":"Anna Schwensen","latitude":40.965017,"longitude":-5.664246,"accuracy":"16","context":0,"place_id":"S1ti_DhWVbjLtSw","woeid":"772416","geo_is_family":0,"geo_is_friend":0,"geo_is_contact":0,"geo_is_public":1,"media":"photo","media_status":"ready"},{"id":"14040312972","owner":"78942874@N06","secret":"bbed4ec189","server":"2914","farm":3,"title":"Watson's Mill - Manotick","ispublic":1,"isfriend":0,"isfamily":0,"safe":0,"ownername":"Saffron Blaze","latitude":45.226261,"longitude":-75.685943,"accuracy":"11","context":0,"place_id":"j_D364dTUblCcJtAUw","woeid":"23398763","geo_is_family":0,"geo_is_friend":0,"geo_is_contact":0,"geo_is_public":1,"media":"photo","media_status":"ready"},{"id":"14038034221","owner":"53602105@N02","secret":"dfce8eecc0","server":"7324","farm":8,"title":"Dreamy creek (Explored)","ispublic":1,"isfriend":0,"isfamily":0,"safe":0,"ownername":"Elettroshiva","latitude":40.992337,"longitude":17.243041,"accuracy":"9","context":0,"place_id":"ZG4uh31WULrJDrM","woeid":"720836","geo_is_family":0,"geo_is_friend":0,"geo_is_contact":0,"geo_is_public":1,"media":"photo","media_status":"ready"},{"id":"14031956114","owner":"76541932@N05","secret":"f151a76fc9","server":"7415","farm":8,"title":"Red Sea Anemonefish Guarding Eggs (Amphiprion Bicinctus)","ispublic":1,"isfriend":0,"isfamily":0,"safe":0,"ownername":"Sharon Dow Photography","latitude":27.908423,"longitude":34.349956,"accuracy":"12","context":0,"place_id":"tGOD3NdTUb4.aiUg","woeid":"2345247","geo_is_family":0,"geo_is_friend":0,"geo_is_contact":0,"geo_is_public":1,"media":"photo","media_status":"ready"},{"id":"14027437962","owner":"62464213@N05","secret":"c8d04854d6","server":"5063","farm":6,"title":"IMG_0241 (explore)","ispublic":1,"isfriend":0,"isfamily":0,"safe":0,"ownername":"anto-logic","latitude":43.581144,"longitude":10.413054,"accuracy":"16","context":0,"place_id":"DqrucF9QULxBwmlgfg","woeid":"12677800","geo_is_family":0,"geo_is_friend":0,"geo_is_contact":0,"geo_is_public":1,"media":"photo","media_status":"ready"},{"id":"14000751756","owner":"90634379@N06","secret":"444d7d3e00","server":"5174","farm":6,"title":"E quando vejo o mar...","ispublic":1,"isfriend":0,"isfamily":0,"safe":1,"ownername":"Lilian_Anadan","latitude":18.448797,"longitude":-69.606232,"accuracy":"16","context":0,"place_id":"AaFfdUhXW79PEA","woeid":"69573","geo_is_family":0,"geo_is_friend":0,"geo_is_contact":0,"geo_is_public":1,"media":"photo","media_status":"ready"},{"id":"14019650482","owner":"65949682@N00","secret":"1d16745935","server":"7434","farm":8,"title":"Let me fall into your shades","ispublic":1,"isfriend":0,"isfamily":0,"safe":0,"ownername":"OR_U","latitude":39.467741,"longitude":-0.380364,"accuracy":"16","context":0,"place_id":"aOaiaoRTUrjdUgVu0g","woeid":"20220220","geo_is_family":0,"geo_is_friend":0,"geo_is_contact":0,"geo_is_public":1,"media":"photo","media_status":"ready"},{"id":"14018904754","owner":"68020150@N03","secret":"c4e261ff16","server":"5239","farm":6,"title":"A ride through the clouds","ispublic":1,"isfriend":0,"isfamily":0,"safe":0,"ownername":"D Pavlov","latitude":-22.949695,"longitude":-43.156566,"accuracy":"16","context":0,"place_id":"GwL_fJtUV7PaGgGV5w","woeid":"55944518","geo_is_family":0,"geo_is_friend":0,"geo_is_contact":0,"geo_is_public":1,"media":"photo","media_status":"ready"},{"id":"14008227782","owner":"34305619@N06","secret":"4d0f542d1d","server":"2902","farm":3,"title":"Spring in the forest ~ Explored#470","ispublic":1,"isfriend":0,"isfamily":0,"safe":0,"ownername":"Wendy:","latitude":53.239535,"longitude":-7.002754,"accuracy":"16","context":0,"place_id":"EiNI3mtUVLhujC0","woeid":"562010","geo_is_family":0,"geo_is_friend":0,"geo_is_contact":0,"geo_is_public":1,"media":"photo","media_status":"ready"},{"id":"14011361734","owner":"53247049@N07","secret":"2c81c79368","server":"2917","farm":3,"title":"BLUE-GRAY TANAGER Thraupis episcopus above Mindo in Northwestern ECUADOR. Tanager Photo by Peter Wendelken.","ispublic":1,"isfriend":0,"isfamily":0,"safe":0,"ownername":"Neotropical Pete","latitude":-0.026135,"longitude":-78.759226,"accuracy":"15","context":0,"place_id":"6GbmDgRSVbxC0M0","woeid":"376133","geo_is_family":0,"geo_is_friend":0,"geo_is_contact":0,"geo_is_public":1,"media":"photo","media_status":"ready"},{"id":"14030585043","owner":"67474215@N08","secret":"e9457bb886","server":"2904","farm":3,"title":"Ocean & Sand","ispublic":1,"isfriend":0,"isfamily":0,"safe":0,"ownername":"Tobias Lindman","latitude":21.817839,"longitude":-72.160778,"accuracy":"14","context":0,"place_id":"cJVQZeBQVLjsOUY","woeid":"162158","geo_is_family":0,"geo_is_friend":0,"geo_is_contact":0,"geo_is_public":1,"media":"photo","media_status":"ready"},{"id":"13987224116","owner":"16176711@N02","secret":"91c13cc793","server":"2913","farm":3,"title":"HFDF! {explored}","ispublic":1,"isfriend":0,"isfamily":0,"safe":0,"ownername":"conall..","latitude":54.371355,"longitude":-5.770475,"accuracy":"14","context":0,"place_id":"j.kTtIdVVr601g","woeid":"44437","geo_is_family":0,"geo_is_friend":0,"geo_is_contact":0,"geo_is_public":1,"media":"photo","media_status":"ready"},{"id":"13987161576","owner":"53372670@N05","secret":"0449c22b60","server":"7430","farm":8,"title":"Scott and The Tattoo Artist","ispublic":1,"isfriend":0,"isfamily":0,"safe":0,"ownername":"CSHamilton","latitude":55.855272,"longitude":-4.245207,"accuracy":"16","context":0,"place_id":"6jHIJlpTUrpzd8IvdQ","woeid":"20094273","geo_is_family":0,"geo_is_friend":0,"geo_is_contact":0,"geo_is_public":1,"media":"photo","media_status":"ready"},{"id":"14026197633","owner":"63947271@N06","secret":"19980d55c1","server":"2926","farm":3,"title":"Crumbling Steps","ispublic":1,"isfriend":0,"isfamily":0,"safe":0,"ownername":"S l a w e k","latitude":50.466792,"longitude":-5.039806,"accuracy":"12","context":0,"place_id":"oMJzsHJTUbmNGA","woeid":"23370","geo_is_family":0,"geo_is_friend":0,"geo_is_contact":0,"geo_is_public":1,"media":"photo","media_status":"ready"},{"id":"14005059144","owner":"89558472@N00","secret":"cfb32e9757","server":"2915","farm":3,"title":"Me and Ektar: It's love","ispublic":1,"isfriend":0,"isfamily":0,"safe":0,"ownername":"Jawad Q","latitude":53.377703,"longitude":-1.465762,"accuracy":"16","context":0,"place_id":"_9rOW2NVUbOrSQ","woeid":"43970","geo_is_family":0,"geo_is_friend":0,"geo_is_contact":0,"geo_is_public":1,"media":"photo","media_status":"ready"},{"id":"14004605994","owner":"44161305@N02","secret":"4895939713","server":"2910","farm":3,"title":"Nev\u015fehir, Cappadocia (Kapadokya, Turkey) 253","ispublic":1,"isfriend":0,"isfamily":0,"safe":0,"ownername":"tango-","latitude":38.632671,"longitude":34.745826,"accuracy":"12","context":0,"place_id":"me0_YatTUb7.8c76","woeid":"2344285","geo_is_family":0,"geo_is_friend":0,"geo_is_contact":0,"geo_is_public":1,"media":"photo","media_status":"ready"},{"id":"13999641835","owner":"31094611@N02","secret":"ba893448dc","server":"7124","farm":8,"title":"Equilibrium","ispublic":1,"isfriend":0,"isfamily":0,"safe":0,"ownername":"CResende","latitude":38.840476,"longitude":-9.462361,"accuracy":"16","context":0,"place_id":"B7ZgZcxWUbwbCCQ","woeid":"736714","geo_is_family":0,"geo_is_friend":0,"geo_is_contact":0,"geo_is_public":1,"media":"photo","media_status":"ready"},{"id":"13998210515","owner":"59852454@N03","secret":"8de72fc512","server":"2919","farm":3,"title":"What Happens When The Heart Just Stops","ispublic":1,"isfriend":0,"isfamily":0,"safe":0,"ownername":"Pavel P.","latitude":49.834603,"longitude":18.249269,"accuracy":"16","context":0,"place_id":"ud2d5W5WW7ndf2M","woeid":"793597","geo_is_family":0,"geo_is_friend":0,"geo_is_contact":0,"geo_is_public":1,"media":"photo","media_status":"ready"},{"id":"13986819445","owner":"8211107@N06","secret":"e51ae5cdc3","server":"7309","farm":8,"title":"Zaha Hadid architects. Zaragoza bridge pavilion #1","ispublic":1,"isfriend":0,"isfamily":0,"safe":0,"ownername":"Ximo Michavila","latitude":41.667121,"longitude":-0.904977,"accuracy":"15","context":0,"place_id":"giVSuE1TUrgzp8bNHw","woeid":"20219691","geo_is_family":0,"geo_is_friend":0,"geo_is_contact":0,"geo_is_public":1,"media":"photo","media_status":"ready"},{"id":"13978407621","owner":"44161305@N02","secret":"d873a965ed","server":"5137","farm":6,"title":"(Explored) Mothia, Sicily","ispublic":1,"isfriend":0,"isfamily":0,"safe":0,"ownername":"tango-","latitude":37.884405,"longitude":12.471542,"accuracy":"13","context":0,"place_id":"xBURoUJWU7tAde0","woeid":"711004","geo_is_family":0,"geo_is_friend":0,"geo_is_contact":0,"geo_is_public":1,"media":"photo","media_status":"ready"},{"id":"13981335514","owner":"26429763@N08","secret":"8d91a1a552","server":"7232","farm":8,"title":"Pleasure craft come in all shapes and sizes.....","ispublic":1,"isfriend":0,"isfamily":0,"safe":0,"ownername":"Born in The 40's.. Explored again!","latitude":52.474487,"longitude":1.713448,"accuracy":"16","context":0,"place_id":"1hInPL9TUrpgcgn7PA","woeid":"20093131","geo_is_family":0,"geo_is_friend":0,"geo_is_contact":0,"geo_is_public":1,"media":"photo","media_status":"ready"},{"id":"13973708525","owner":"14279081@N08","secret":"4d02a47134","server":"7121","farm":8,"title":"Wheat and sky","ispublic":1,"isfriend":0,"isfamily":0,"safe":0,"ownername":"\u039eSS\u039e\u00ae\u00ae\u039e","latitude":41.949628,"longitude":12.846837,"accuracy":"14","context":0,"place_id":"4wIrb3xTUrso1yq7YQ","woeid":"20109990","geo_is_family":0,"geo_is_friend":0,"geo_is_contact":0,"geo_is_public":1,"media":"photo","media_status":"ready"},{"id":"13965566182","owner":"37708438@N05","secret":"b8ae7ded83","server":"7120","farm":8,"title":"Just another day","ispublic":1,"isfriend":0,"isfamily":0,"safe":0,"ownername":"kenny barker","latitude":55.993393,"longitude":-3.262905,"accuracy":"14","context":0,"place_id":"CLlsfFdTUrpafHvoIQ","woeid":"20091437","geo_is_family":0,"geo_is_friend":0,"geo_is_contact":0,"geo_is_public":1,"media":"photo","media_status":"ready"},{"id":"13957019332","owner":"73006033@N07","secret":"5137900bf3","server":"7305","farm":8,"title":"Enez Vreizh","ispublic":1,"isfriend":0,"isfamily":0,"safe":0,"ownername":"Rouz 29","latitude":47.684205,"longitude":-3.187934,"accuracy":"16","context":0,"place_id":"3UemRHdXULmUm58","woeid":"623369","geo_is_family":0,"geo_is_friend":0,"geo_is_contact":0,"geo_is_public":1,"media":"photo","media_status":"ready"},{"id":"13764544514","owner":"109262173@N05","secret":"9c6aaf5fe8","server":"7269","farm":8,"title":"Hellerud noir","ispublic":1,"isfriend":0,"isfamily":0,"safe":0,"ownername":"tnymo","latitude":59.910041,"longitude":10.829483,"accuracy":"16","context":0,"place_id":"lBjNGihZV73jlsk","woeid":"857653","geo_is_family":0,"geo_is_friend":0,"geo_is_contact":0,"geo_is_public":1,"media":"photo","media_status":"ready"},{"id":"13638717774","owner":"48293483@N02","secret":"d958a607ff","server":"3733","farm":4,"title":"Wadia Al-Towarah, Nakhl, Oman","ispublic":1,"isfriend":0,"isfamily":0,"safe":0,"ownername":"Sekitar","latitude":23.390939,"longitude":57.827031,"accuracy":"16","context":0,"place_id":"m5uc5l9TULy81uZH","woeid":"2268224","geo_is_family":0,"geo_is_friend":0,"geo_is_contact":0,"geo_is_public":1,"media":"photo","media_status":"ready"},{"id":"12476474225","owner":"110158313@N05","secret":"73c1df99b0","server":"7350","farm":8,"title":"UAE 006","ispublic":1,"isfriend":0,"isfamily":0,"safe":1,"ownername":"mpetr1960","latitude":25.190806,"longitude":55.2705,"accuracy":"13","context":0,"place_id":"FhACoLVTUL2XoOvdIw","woeid":"22724553","geo_is_family":0,"geo_is_friend":0,"geo_is_contact":0,"geo_is_public":1,"media":"photo","media_status":"ready"},{"id":"10893662533","owner":"25959337@N00","secret":"a0e57eefd8","server":"3785","farm":4,"title":"Gr\u00e5tt mot Sandvikshornet","ispublic":1,"isfriend":0,"isfamily":0,"safe":1,"ownername":"Martin Ystenes - celebrating 5 million views","latitude":62.420942,"longitude":6.609306,"accuracy":"13","context":0,"place_id":"QNHb8wVZVL7wGOo","woeid":"864838","geo_is_family":0,"geo_is_friend":0,"geo_is_contact":0,"geo_is_public":1,"media":"photo","media_status":"ready"},{"id":"9921969573","owner":"54612410@N05","secret":"931018f49f","server":"7380","farm":8,"title":"Strahlhorn - Monte Rosa - Rimpfischhorn - Wallis - Switzerland","ispublic":1,"isfriend":0,"isfamily":0,"safe":1,"ownername":"gurou45","latitude":46.047025,"longitude":7.887028,"accuracy":"15","context":0,"place_id":"Z7lA8TlTUb6ayJG5","woeid":"2347104","geo_is_family":0,"geo_is_friend":0,"geo_is_contact":0,"geo_is_public":1,"media":"photo","media_status":"ready"},{"id":"9711439424","owner":"54612410@N05","secret":"bb5796975c","server":"7450","farm":8,"title":"Matterhorn - Wallis - Switzerland","ispublic":1,"isfriend":0,"isfamily":0,"safe":1,"ownername":"gurou45","latitude":46.046086,"longitude":7.889986,"accuracy":"15","context":0,"place_id":"Z7lA8TlTUb6ayJG5","woeid":"2347104","geo_is_family":0,"geo_is_friend":0,"geo_is_contact":0,"geo_is_public":1,"media":"photo","media_status":"ready"},{"id":"9397948887","owner":"25959337@N00","secret":"f0a3397ce5","server":"3687","farm":4,"title":"Sol skyer reflekser og Kirkjufell","ispublic":1,"isfriend":0,"isfamily":0,"safe":1,"ownername":"Martin Ystenes - celebrating 5 million views","latitude":64.923596,"longitude":-23.279557,"accuracy":"14","context":0,"place_id":"qlYnE6ZYWrqvBLI","woeid":"980160","geo_is_family":0,"geo_is_friend":0,"geo_is_contact":0,"geo_is_public":1,"media":"photo","media_status":"ready"},{"id":"8601183474","owner":"25959337@N00","secret":"5a83b27641","server":"8245","farm":9,"title":"Sykkylven kirke og Trollkyrkja","ispublic":1,"isfriend":0,"isfamily":0,"safe":0,"ownername":"Martin Ystenes - celebrating 5 million views","latitude":62.396096,"longitude":6.58081,"accuracy":"13","context":0,"place_id":"QNHb8wVZVL7wGOo","woeid":"864838","geo_is_family":0,"geo_is_friend":0,"geo_is_contact":0,"geo_is_public":1,"media":"photo","media_status":"ready"},{"id":"8272124173","owner":"84873895@N08","secret":"a8e84db2c0","server":"8203","farm":9,"title":"2001 Course party","ispublic":1,"isfriend":0,"isfamily":0,"safe":1,"ownername":"Marie Jestin","latitude":48.650149,"longitude":-4.191284,"accuracy":"10","context":0,"place_id":"ZSPSl7BXU7xM9ZU","woeid":"616986","geo_is_family":0,"geo_is_friend":0,"geo_is_contact":0,"geo_is_public":1,"media":"photo","media_status":"ready"},{"id":"8130786507","owner":"65166290@N00","secret":"a83465c182","server":"8191","farm":9,"title":"Glasgows Riverside Museum","ispublic":1,"isfriend":0,"isfamily":0,"safe":0,"ownername":"Hugh Spicer \/ UIsdean Spicer","latitude":55.864523,"longitude":-4.304924,"accuracy":"13","context":0,"place_id":"ABFwIWxVUbyWgQ","woeid":"43636","geo_is_family":0,"geo_is_friend":0,"geo_is_contact":0,"geo_is_public":1,"media":"photo","media_status":"ready"},{"id":"8099274632","owner":"11925274@N02","secret":"31ab199cd3","server":"8052","farm":9,"title":"IVETTE 653.1","ispublic":1,"isfriend":0,"isfamily":0,"safe":1,"ownername":"liontas-Andreas Droussiotis","latitude":34.750639,"longitude":32.47055,"accuracy":"11","context":0,"place_id":"HTlhO0JZVrvyjqc","woeid":"841401","geo_is_family":0,"geo_is_friend":0,"geo_is_contact":0,"geo_is_public":1,"media":"photo","media_status":"ready"},{"id":"8089341554","owner":"29394931@N06","secret":"a70077292c","server":"8333","farm":9,"title":"Le Louvre","ispublic":1,"isfriend":0,"isfamily":0,"safe":1,"ownername":"\u2203Scape","latitude":48.861722,"longitude":2.336515,"accuracy":"16","context":0,"place_id":"R13rUF1UV7LQLoV4Ig","woeid":"55843751","geo_is_family":0,"geo_is_friend":0,"geo_is_contact":0,"geo_is_public":1,"media":"photo","media_status":"ready"},{"id":"7981851278","owner":"29394931@N06","secret":"56f8451b0d","server":"8461","farm":9,"title":"Grand Salon","ispublic":1,"isfriend":0,"isfamily":0,"safe":1,"ownername":"\u2203Scape","latitude":48.861806,"longitude":2.336086,"accuracy":"16","context":0,"place_id":"R13rUF1UV7LQLoV4Ig","woeid":"55843751","geo_is_family":0,"geo_is_friend":0,"geo_is_contact":0,"geo_is_public":1,"media":"photo","media_status":"ready"},{"id":"5660345757","owner":"29394931@N06","secret":"4634cfcd54","server":"5150","farm":6,"title":"Musei Vaticani, Rome","ispublic":1,"isfriend":0,"isfamily":0,"safe":1,"ownername":"\u2203Scape","latitude":41.903822,"longitude":12.45672,"accuracy":"16","context":0,"place_id":"62ufGyBUUb26u2g","woeid":"537842","geo_is_family":0,"geo_is_friend":0,"geo_is_contact":0,"geo_is_public":1,"media":"photo","media_status":"ready"},{"id":"4672475943","owner":"12397152@N06","secret":"72b7fc93b3","server":"4006","farm":5,"title":"Nossa Senhora de F\u00e1tima","ispublic":1,"isfriend":0,"isfamily":0,"safe":1,"ownername":"w andrade","latitude":-23.548492,"longitude":-46.681004,"accuracy":"16","context":0,"place_id":"FCopYYVTUL3QMay.Cw","woeid":"22723894","geo_is_family":0,"geo_is_friend":0,"geo_is_contact":0,"geo_is_public":1,"media":"photo","media_status":"ready"},{"id":"4179779846","owner":"35705054@N07","secret":"5534feb9a8","server":"4001","farm":5,"title":"Reykjavik","ispublic":1,"isfriend":0,"isfamily":0,"safe":0,"ownername":"Frederic Mancosu","latitude":64.111876,"longitude":-21.82022,"accuracy":"11","context":0,"place_id":"cC3AUzVYWrqxsNQ","woeid":"980302","geo_is_family":0,"geo_is_friend":0,"geo_is_contact":0,"geo_is_public":1,"media":"photo","media_status":"ready"},{"id":"3845209286","owner":"28448205@N04","secret":"1e2a99da44","server":"2596","farm":3,"title":"Surf a Natal - Popolo da Surf","ispublic":1,"isfriend":0,"isfamily":0,"safe":1,"ownername":"Luca Querzoli Fotografo alias LQ Photographer","latitude":-5.794869,"longitude":-35.21117,"accuracy":"11","context":0,"place_id":"wQVVpOhVV7.qkfA","woeid":"455888","geo_is_family":0,"geo_is_friend":0,"geo_is_contact":0,"geo_is_public":1,"media":"photo","media_status":"ready"},{"id":"3524986581","owner":"46442093@N00","secret":"56ce02d86b","server":"3378","farm":4,"title":"[a face oculta] # 3","ispublic":1,"isfriend":0,"isfamily":0,"safe":0,"ownername":"lia costa carvalho\u00a9","latitude":38.720008,"longitude":-9.15474,"accuracy":"13","context":0,"place_id":"685PthNWVrwoGfg","woeid":"746954","geo_is_family":0,"geo_is_friend":0,"geo_is_contact":0,"geo_is_public":1,"media":"photo","media_status":"ready"},{"id":"2528346987","owner":"46442093@N00","secret":"c2c08c76ca","server":"3140","farm":4,"title":"[shadows]","ispublic":1,"isfriend":0,"isfamily":0,"safe":0,"ownername":"lia costa carvalho\u00a9","latitude":38.710769,"longitude":-9.158989,"accuracy":"13","context":0,"place_id":"vjK.wZtWVrikxfc","woeid":"742546","geo_is_family":0,"geo_is_friend":0,"geo_is_contact":0,"geo_is_public":1,"media":"photo","media_status":"ready"},{"id":"2308280808","owner":"46442093@N00","secret":"37a60d4d03","server":"2226","farm":3,"title":"[m\u00e1scara]","ispublic":1,"isfriend":0,"isfamily":0,"safe":0,"ownername":"lia costa carvalho\u00a9","latitude":38.710769,"longitude":-9.158989,"accuracy":"13","context":0,"place_id":"vjK.wZtWVrikxfc","woeid":"742546","geo_is_family":0,"geo_is_friend":0,"geo_is_contact":0,"geo_is_public":1,"media":"photo","media_status":"ready"},{"id":"1637051673","owner":"46442093@N00","secret":"0c21a55ea0","server":"2157","farm":3,"title":"[black and white] # 2","ispublic":1,"isfriend":0,"isfamily":0,"safe":0,"ownername":"lia costa carvalho\u00a9","latitude":38.710769,"longitude":-9.158989,"accuracy":"13","context":0,"place_id":"vjK.wZtWVrikxfc","woeid":"742546","geo_is_family":0,"geo_is_friend":0,"geo_is_contact":0,"geo_is_public":1,"media":"photo","media_status":"ready"},{"id":"1439864176","owner":"11925274@N02","secret":"22529ab986","server":"1054","farm":2,"title":"STACY 709.3","ispublic":1,"isfriend":0,"isfamily":0,"safe":0,"ownername":"liontas-Andreas Droussiotis","latitude":48.562408,"longitude":39.333972,"accuracy":"12","context":0,"place_id":"sO8h4W9YUL9hqk0","woeid":"925669","geo_is_family":0,"geo_is_friend":0,"geo_is_contact":0,"geo_is_public":1,"media":"photo","media_status":"ready"},{"id":"14052528567","owner":"21707754@N02","secret":"aa20be1683","server":"2899","farm":3,"title":"Gola profonda","ispublic":1,"isfriend":0,"isfamily":0,"safe":0,"ownername":"France53 \uf8ff . . . u t i n a m . . .","latitude":42.865396,"longitude":10.390319,"accuracy":"11","context":0,"place_id":"fTY0CyVWU7n1buE","woeid":"713635","geo_is_family":0,"geo_is_friend":0,"geo_is_contact":0,"geo_is_public":1,"media":"photo","media_status":"ready"}]},"stat":"ok"}