{"photos":{"page":18,"pages":26129,"perpage":60,"total":"1567724","photo":[{"id":"13974282064","owner":"67560866@N02","secret":"f42692402b","server":"7265","farm":8,"title":"Monte Rosa Massif","ispublic":1,"isfriend":0,"isfamily":0,"safe":0,"ownername":"Frederic Huber | Photography","latitude":45.983299,"longitude":7.783609,"accuracy":"11","context":0,"place_id":"qg5V2k9TUrtTmxsktg","woeid":"20101917","geo_is_family":0,"geo_is_friend":0,"geo_is_contact":0,"geo_is_public":1,"media":"photo","media_status":"ready"},{"id":"13973653545","owner":"56897352@N02","secret":"c2a9626de0","server":"5132","farm":6,"title":"For all creatures great and small - except dogs","ispublic":1,"isfriend":0,"isfamily":0,"safe":0,"ownername":"Dafydd Penguin","latitude":51.446405,"longitude":-2.596936,"accuracy":"15","context":0,"place_id":"e96SbxJSV74WAQ","woeid":"35407","geo_is_family":0,"geo_is_friend":0,"geo_is_contact":0,"geo_is_public":1,"media":"photo","media_status":"ready"},{"id":"13970051252","owner":"45283106@N08","secret":"236d78dc81","server":"7241","farm":8,"title":"716 - Endless Stairs","ispublic":1,"isfriend":0,"isfamily":0,"safe":0,"ownername":"Huey_Chris","latitude":48.132782,"longitude":11.540284,"accuracy":"16","context":0,"place_id":"VoG2Y_lXVby7TOA","woeid":"676757","geo_is_family":0,"geo_is_friend":0,"geo_is_contact":0,"geo_is_public":1,"media":"photo","media_status":"ready"},{"id":"13969974042","owner":"26849514@N06","secret":"87ed0939e7","server":"7389","farm":8,"title":"Who is afraid of blue, pink and purple?","ispublic":1,"isfriend":0,"isfamily":0,"safe":0,"ownername":"Frans.Sellies","latitude":52.314644,"longitude":4.560656,"accuracy":"15","context":0,"place_id":"g3cMbBBWUb7hcEA","woeid":"734335","geo_is_family":0,"geo_is_friend":0,"geo_is_contact":0,"geo_is_public":1,"media":"photo","media_status":"ready"},{"id":"13969829351","owner":"10299033@N04","secret":"f85b1cdc56","server":"5184","farm":6,"title":"Love Birds - Benelux MTL","ispublic":1,"isfriend":0,"isfamily":0,"safe":0,"ownername":"Nadia Not Included","latitude":45.5094,"longitude":-73.571057,"accuracy":"16","context":0,"place_id":"KmZEgTJTVLmmOtuqpg","woeid":"26332785","geo_is_family":0,"geo_is_friend":0,"geo_is_contact":0,"geo_is_public":1,"media":"photo","media_status":"ready"},{"id":"13992975323","owner":"59269150@N08","secret":"06f9ba60a0","server":"2907","farm":3,"title":"Last Door","ispublic":1,"isfriend":0,"isfamily":0,"safe":0,"ownername":"TablinumCarlson","latitude":-34.587749,"longitude":-58.396881,"accuracy":"13","context":0,"place_id":"6a60.9VSUbtRfWE","woeid":"331770","geo_is_family":0,"geo_is_friend":0,"geo_is_contact":0,"geo_is_public":1,"media":"photo","media_status":"ready"},{"id":"13949637626","owner":"73722735@N02","secret":"9550dc8435","server":"7338","farm":8,"title":"Orange ladybird (Halyzia 16-guttata)","ispublic":1,"isfriend":0,"isfamily":0,"safe":0,"ownername":"Pog's pix","latitude":55.71251,"longitude":-4.531774,"accuracy":"13","context":0,"place_id":"0Spjfr1QWrze4w","woeid":"18681","geo_is_family":0,"geo_is_friend":0,"geo_is_contact":0,"geo_is_public":1,"media":"photo","media_status":"ready"},{"id":"13949151306","owner":"42985099@N03","secret":"7d4d83f6ec","server":"7395","farm":8,"title":"~A Walk On The Wild Side~","ispublic":1,"isfriend":0,"isfamily":0,"safe":0,"ownername":"Eddie The Bugman","latitude":52.914841,"longitude":-1.152513,"accuracy":"16","context":0,"place_id":"n10fnYdVUr8n3g","woeid":"40524","geo_is_family":0,"geo_is_friend":0,"geo_is_contact":0,"geo_is_public":1,"media":"photo","media_status":"ready"},{"id":"13972576794","owner":"86971104@N03","secret":"3ace6540b1","server":"7119","farm":8,"title":"\"Small things, big effect\"","ispublic":1,"isfriend":0,"isfamily":0,"safe":0,"ownername":"J-R Photography","latitude":52.539196,"longitude":8.681945,"accuracy":"11","context":0,"place_id":"5e3RQ79XW73lK5c","woeid":"697888","geo_is_family":0,"geo_is_friend":0,"geo_is_contact":0,"geo_is_public":1,"media":"photo","media_status":"ready"},{"id":"13948671346","owner":"46378751@N02","secret":"bec19448bd","server":"7300","farm":8,"title":"Sunset on the Duomo di Siena [EXPLORE]","ispublic":1,"isfriend":0,"isfamily":0,"safe":1,"ownername":"Antonio Cinotti \uf8ff","latitude":43.317325,"longitude":11.328384,"accuracy":"16","context":0,"place_id":"ETlqzr1WUL6FcKo","woeid":"724196","geo_is_family":0,"geo_is_friend":0,"geo_is_contact":0,"geo_is_public":1,"media":"photo","media_status":"ready"},{"id":"13948418186","owner":"19685823@N00","secret":"447b99aa74","server":"2930","farm":3,"title":"invisible self portrait","ispublic":1,"isfriend":0,"isfamily":0,"safe":0,"ownername":"Toni_V","latitude":46.192977,"longitude":9.022318,"accuracy":"16","context":0,"place_id":"eeFmDUFWWrttyWQ","woeid":"781773","geo_is_family":0,"geo_is_friend":0,"geo_is_contact":0,"geo_is_public":1,"media":"photo","media_status":"ready"},{"id":"13971837814","owner":"75753392@N07","secret":"6010c40dc7","server":"2934","farm":3,"title":"Logic Lane","ispublic":1,"isfriend":0,"isfamily":0,"safe":0,"ownername":"Paula J James","latitude":51.756198,"longitude":-1.25949,"accuracy":"11","context":0,"place_id":"YNJ5JLRSU7h9LA","woeid":"31278","geo_is_family":0,"geo_is_friend":0,"geo_is_contact":0,"geo_is_public":1,"media":"photo","media_status":"ready"},{"id":"13971352345","owner":"58610507@N03","secret":"1a603296d1","server":"7188","farm":8,"title":"Yellow Dung Fly (female) - Scathophaga stercoraria","ispublic":1,"isfriend":0,"isfamily":0,"safe":0,"ownername":"Heath McDonald","latitude":51.25375,"longitude":-2.737498,"accuracy":"16","context":0,"place_id":"6BaJh2JSW7JzcQ","woeid":"39874","geo_is_family":0,"geo_is_friend":0,"geo_is_contact":0,"geo_is_public":1,"media":"photo","media_status":"ready"},{"id":"13968132941","owner":"73722735@N02","secret":"0dabab213f","server":"7339","farm":8,"title":"Male Bibio on grass","ispublic":1,"isfriend":0,"isfamily":0,"safe":0,"ownername":"Pog's pix","latitude":55.773868,"longitude":-4.664279,"accuracy":"16","context":0,"place_id":"xxUfzjdTVrNqzg","woeid":"24920","geo_is_family":0,"geo_is_friend":0,"geo_is_contact":0,"geo_is_public":1,"media":"photo","media_status":"ready"},{"id":"13971331714","owner":"67696581@N05","secret":"8ed00619ba","server":"7415","farm":8,"title":"Disrupted Years","ispublic":1,"isfriend":0,"isfamily":0,"safe":0,"ownername":"MacPepper","latitude":55.949166,"longitude":-3.194167,"accuracy":"16","context":0,"place_id":"A7YJ5HNVUbwIGw","woeid":"43674","geo_is_family":0,"geo_is_friend":0,"geo_is_contact":0,"geo_is_public":1,"media":"photo","media_status":"ready"},{"id":"13967586402","owner":"37517453@N08","secret":"d33715967a","server":"2915","farm":3,"title":"beach sunset II \/ Explore Apr 22, 2014 #341","ispublic":1,"isfriend":0,"isfamily":0,"safe":0,"ownername":"MK|PHOTOGRAPHY","latitude":54.30905,"longitude":8.588047,"accuracy":"15","context":0,"place_id":"vs20PktXW7wmwEs","woeid":"696106","geo_is_family":0,"geo_is_friend":0,"geo_is_contact":0,"geo_is_public":1,"media":"photo","media_status":"ready"},{"id":"13971132464","owner":"62815410@N04","secret":"dae54eb73a","server":"5154","farm":6,"title":"the nostalgic's laundry day (brescia, italy)","ispublic":1,"isfriend":0,"isfamily":0,"safe":0,"ownername":"bloodybee","latitude":45.535746,"longitude":10.234472,"accuracy":"16","context":0,"place_id":"WO1uGLRWU7u69ps","woeid":"711410","geo_is_family":0,"geo_is_friend":0,"geo_is_contact":0,"geo_is_public":1,"media":"photo","media_status":"ready"},{"id":"13967394922","owner":"91248320@N04","secret":"29ffaf08d1","server":"5522","farm":6,"title":"Fruit vendor","ispublic":1,"isfriend":0,"isfamily":0,"safe":0,"ownername":"Jekurantodistaja","latitude":23.136403,"longitude":-82.353773,"accuracy":"16","context":0,"place_id":"S.m5DQhXUbLn4Q","woeid":"63820","geo_is_family":0,"geo_is_friend":0,"geo_is_contact":0,"geo_is_public":1,"media":"photo","media_status":"ready"},{"id":"13967329321","owner":"81752684@N05","secret":"ecf4ec4034","server":"5562","farm":6,"title":"Tracking the Empire [Explore]","ispublic":1,"isfriend":0,"isfamily":0,"safe":0,"ownername":"NYRBlue94","latitude":40.74446,"longitude":-73.958909,"accuracy":"16","context":0,"place_id":"sTXjQKNTUb9enZi8dg","woeid":"23511858","geo_is_family":0,"geo_is_friend":0,"geo_is_contact":0,"geo_is_public":1,"media":"photo","media_status":"ready"},{"id":"13946565846","owner":"61874975@N05","secret":"847474453f","server":"7350","farm":8,"title":"At the Crossroads","ispublic":1,"isfriend":0,"isfamily":0,"safe":0,"ownername":"Poetic Outlook","latitude":40.771792,"longitude":-73.975685,"accuracy":"11","context":0,"place_id":"btGsRpRTV7sp1ZS7","woeid":"2517463","geo_is_family":0,"geo_is_friend":0,"geo_is_contact":0,"geo_is_public":1,"media":"photo","media_status":"ready"},{"id":"13989515803","owner":"40510080@N04","secret":"827d8a5bfb","server":"7193","farm":8,"title":"Tangle","ispublic":1,"isfriend":0,"isfamily":0,"safe":0,"ownername":"DaveLawler","latitude":42.275856,"longitude":-71.804537,"accuracy":"16","context":0,"place_id":"VVvMetxTUbwAYodD","woeid":"2362287","geo_is_family":0,"geo_is_friend":0,"geo_is_contact":0,"geo_is_public":1,"media":"photo","media_status":"ready"},{"id":"13989255453","owner":"92474414@N04","secret":"439f9dee1e","server":"7024","farm":8,"title":"Eating Ice \/\/ Explore \/\/ Apr 22 '14","ispublic":1,"isfriend":0,"isfamily":0,"safe":0,"ownername":"donlunzo16","latitude":45.88953,"longitude":10.842819,"accuracy":"11","context":0,"place_id":"tKGrs6FWULvBJ.g","woeid":"721744","geo_is_family":0,"geo_is_friend":0,"geo_is_contact":0,"geo_is_public":1,"media":"photo","media_status":"ready"},{"id":"13969229015","owner":"55849023@N05","secret":"6f2ff47a2b","server":"5323","farm":6,"title":"A Lanzada","ispublic":1,"isfriend":0,"isfamily":0,"safe":0,"ownername":"jojesari","latitude":42.440408,"longitude":-8.872163,"accuracy":"13","context":0,"place_id":"cz7WrzxTW7lP5l29bA","woeid":"29371934","geo_is_family":0,"geo_is_friend":0,"geo_is_contact":0,"geo_is_public":1,"media":"photo","media_status":"ready"},{"id":"13966023761","owner":"42812461@N00","secret":"b792bef40f","server":"7101","farm":8,"title":"P1310965","ispublic":1,"isfriend":0,"isfamily":0,"safe":0,"ownername":"Akbar Simonse","latitude":52.082515,"longitude":4.301362,"accuracy":"16","context":0,"place_id":"kf4qwzhWULzxzfQ","woeid":"726874","geo_is_family":0,"geo_is_friend":0,"geo_is_contact":0,"geo_is_public":1,"media":"photo","media_status":"ready"},{"id":"13988111533","owner":"23904816@N00","secret":"e7cbf9d8e2","server":"5533","farm":6,"title":"Einladung","ispublic":1,"isfriend":0,"isfamily":0,"safe":0,"ownername":"Rainer \u274f","latitude":51.48189,"longitude":7.468214,"accuracy":"15","context":0,"place_id":"EVCujepXVr_A.fs","woeid":"645458","geo_is_family":0,"geo_is_friend":0,"geo_is_contact":0,"geo_is_public":1,"media":"photo","media_status":"ready"},{"id":"13964808902","owner":"62828561@N04","secret":"ef63af8e6e","server":"7247","farm":8,"title":"Orange and Blue","ispublic":1,"isfriend":0,"isfamily":0,"safe":0,"ownername":"Ninja Dog - \u5fcd\u8005\u72ac","latitude":52.435318,"longitude":-0.699992,"accuracy":"16","context":0,"place_id":"KlJntfhTUrMSEA","woeid":"20971","geo_is_family":0,"geo_is_friend":0,"geo_is_contact":0,"geo_is_public":1,"media":"photo","media_status":"ready"},{"id":"13964799251","owner":"75753392@N07","secret":"9a68ce223f","server":"7425","farm":8,"title":"Male Mallard Duck","ispublic":1,"isfriend":0,"isfamily":0,"safe":0,"ownername":"Paula J James","latitude":51.519318,"longitude":-3.241995,"accuracy":"13","context":0,"place_id":"z2OyctlTUrrFJ0vB2Q","woeid":"20094231","geo_is_family":0,"geo_is_friend":0,"geo_is_contact":0,"geo_is_public":1,"media":"photo","media_status":"ready"},{"id":"13968358224","owner":"38134034@N04","secret":"b969b3152b","server":"7069","farm":8,"title":"Quiet Sea (Explore)","ispublic":1,"isfriend":0,"isfamily":0,"safe":0,"ownername":"blavandmaster","latitude":55.54399,"longitude":8.130741,"accuracy":"13","context":0,"place_id":"HjovhuRUV7gwujw","woeid":"552390","geo_is_family":0,"geo_is_friend":0,"geo_is_contact":0,"geo_is_public":1,"media":"photo","media_status":"ready"},{"id":"13944343886","owner":"73897573@N00","secret":"d80f3061d8","server":"7097","farm":8,"title":"Anguillara e il Lago di Bracciano","ispublic":1,"isfriend":0,"isfamily":0,"safe":0,"ownername":"luigig75","latitude":42.091343,"longitude":12.266943,"accuracy":"15","context":0,"place_id":"4MM7JXVWU7rWDx8","woeid":"710156","geo_is_family":0,"geo_is_friend":0,"geo_is_contact":0,"geo_is_public":1,"media":"photo","media_status":"ready"},{"id":"13944216846","owner":"30929954@N03","secret":"a12d7e0409","server":"5030","farm":6,"title":"Parkour to Follonica","ispublic":1,"isfriend":0,"isfamily":0,"safe":0,"ownername":"carlo tardani","latitude":42.923961,"longitude":10.7621,"accuracy":"11","context":0,"place_id":"66pyajhWU79JkbU","woeid":"715571","geo_is_family":0,"geo_is_friend":0,"geo_is_contact":0,"geo_is_public":1,"media":"photo","media_status":"ready"},{"id":"13966969604","owner":"54754580@N04","secret":"ce5bf9fd42","server":"2908","farm":3,"title":"Espanha \u2013 Sevilha \u2013 Uma cidade portadora de um valoroso patrim\u00f3nio hist\u00f3rico, rica nas suas tradi\u00e7\u00f5es ancestrais mas tamb\u00e9m rica no seu povo, que t\u00e3o bem sabem receber.","ispublic":1,"isfriend":0,"isfamily":0,"safe":0,"ownername":"Anselmo. Sousa","latitude":37.377998,"longitude":-5.98523,"accuracy":"15","context":0,"place_id":"X.syr7RTUrimktU_sg","woeid":"20220191","geo_is_family":0,"geo_is_friend":0,"geo_is_contact":0,"geo_is_public":1,"media":"photo","media_status":"ready"},{"id":"13966501925","owner":"42345335@N08","secret":"9a3b2e8e7c","server":"5514","farm":6,"title":"Golden Frog","ispublic":1,"isfriend":0,"isfamily":0,"safe":0,"ownername":"EvilEyeGoshawk","latitude":56.155457,"longitude":-4.178731,"accuracy":"15","context":0,"place_id":"5R52qsZSVbkI8Q","woeid":"37340","geo_is_family":0,"geo_is_friend":0,"geo_is_contact":0,"geo_is_public":1,"media":"photo","media_status":"ready"},{"id":"13986474693","owner":"42345335@N08","secret":"2df4161a65","server":"7363","farm":8,"title":"Golden Frog","ispublic":1,"isfriend":0,"isfamily":0,"safe":0,"ownername":"EvilEyeGoshawk","latitude":56.155457,"longitude":-4.178731,"accuracy":"15","context":0,"place_id":"5R52qsZSVbkI8Q","woeid":"37340","geo_is_family":0,"geo_is_friend":0,"geo_is_contact":0,"geo_is_public":1,"media":"photo","media_status":"ready"},{"id":"13966438905","owner":"29350952@N06","secret":"3622d158f8","server":"5334","farm":6,"title":"\u2318","ispublic":1,"isfriend":0,"isfamily":0,"safe":0,"ownername":"melquiades1898","latitude":53.894607,"longitude":11.465859,"accuracy":"16","context":0,"place_id":"HcRMSrJWUr0VGK0","woeid":"707241","geo_is_family":0,"geo_is_friend":0,"geo_is_contact":0,"geo_is_public":1,"media":"photo","media_status":"ready"},{"id":"13943337166","owner":"46267286@N07","secret":"b20044c07f","server":"7113","farm":8,"title":"Canary Wharf Underground (On Explore 22 April 2014)","ispublic":1,"isfriend":0,"isfamily":0,"safe":0,"ownername":"Simon & His Camera","latitude":51.505076,"longitude":-0.020942,"accuracy":"16","context":0,"place_id":"xHXWj.tTUrq6ug_eQQ","woeid":"20089556","geo_is_family":0,"geo_is_friend":0,"geo_is_contact":0,"geo_is_public":1,"media":"photo","media_status":"ready"},{"id":"13962829732","owner":"43301211@N03","secret":"c5d6bb40ff","server":"5473","farm":6,"title":"Mr & Mrs...","ispublic":1,"isfriend":0,"isfamily":0,"safe":0,"ownername":"klythawk","latitude":52.94931,"longitude":-1.088891,"accuracy":"15","context":0,"place_id":"IrTTIexQVLySaw","woeid":"16678","geo_is_family":0,"geo_is_friend":0,"geo_is_contact":0,"geo_is_public":1,"media":"photo","media_status":"ready"},{"id":"13962386801","owner":"48988488@N04","secret":"cd8e84bb24","server":"2929","farm":3,"title":"gigante rossa","ispublic":1,"isfriend":0,"isfamily":0,"safe":0,"ownername":"claudius1954","latitude":45.84901,"longitude":6.911602,"accuracy":"13","context":0,"place_id":"_n3Y4VFTW7l_Q8iyMg","woeid":"29336414","geo_is_family":0,"geo_is_friend":0,"geo_is_contact":0,"geo_is_public":1,"media":"photo","media_status":"ready"},{"id":"13942291016","owner":"27420180@N08","secret":"abc057a8b5","server":"2898","farm":3,"title":"Tour Eiffel & Sacr\u00e9 Coeur @ Blue Hour","ispublic":1,"isfriend":0,"isfamily":0,"safe":0,"ownername":"A.G. Photographe","latitude":48.858277,"longitude":2.294517,"accuracy":"16","context":0,"place_id":"Gh_droFUV7JfPjFofw","woeid":"55843775","geo_is_family":0,"geo_is_friend":0,"geo_is_contact":0,"geo_is_public":1,"media":"photo","media_status":"ready"},{"id":"13950482761","owner":"100063725@N06","secret":"fbe2af525d","server":"7117","farm":8,"title":"Los rayos del Sol","ispublic":1,"isfriend":0,"isfamily":0,"safe":0,"ownername":"Antonio Chac","latitude":36.501124,"longitude":-4.832096,"accuracy":"16","context":0,"place_id":"b6ANCk5WVLwQivI","woeid":"766537","geo_is_family":0,"geo_is_friend":0,"geo_is_contact":0,"geo_is_public":1,"media":"photo","media_status":"ready"},{"id":"13968022533","owner":"42812461@N00","secret":"18dca1f323","server":"2938","farm":3,"title":"P1320011","ispublic":1,"isfriend":0,"isfamily":0,"safe":0,"ownername":"Akbar Simonse","latitude":52.00453,"longitude":4.360134,"accuracy":"16","context":0,"place_id":"34vYBMhWULIVUpw","woeid":"728612","geo_is_family":0,"geo_is_friend":0,"geo_is_contact":0,"geo_is_public":1,"media":"photo","media_status":"ready"},{"id":"13936184762","owner":"56318602@N06","secret":"065bb3b147","server":"2906","farm":3,"title":"Red red monn","ispublic":1,"isfriend":0,"isfamily":0,"safe":0,"ownername":"- MAGA -","latitude":-34.763843,"longitude":-58.405982,"accuracy":"16","context":0,"place_id":"hm1zL.FVVL9d_hk","woeid":"465703","geo_is_family":0,"geo_is_friend":0,"geo_is_contact":0,"geo_is_public":1,"media":"photo","media_status":"ready"},{"id":"13930576482","owner":"95104112@N05","secret":"d3d0b901f9","server":"2923","farm":3,"title":"Stoa of Attalos Inside (BW) 2, Ancient Agora, Athens, Greece","ispublic":1,"isfriend":0,"isfamily":0,"safe":1,"ownername":"nouregef","latitude":37.974887,"longitude":23.724192,"accuracy":"16","context":0,"place_id":"3Cs0dTRTUb0joCQA5A","woeid":"23701328","geo_is_family":0,"geo_is_friend":0,"geo_is_contact":0,"geo_is_public":1,"media":"photo","media_status":"ready"},{"id":"13924359536","owner":"38181284@N06","secret":"80d0488be2","server":"7159","farm":8,"title":"back and forth","ispublic":1,"isfriend":0,"isfamily":0,"safe":0,"ownername":"vulture labs","latitude":51.505083,"longitude":-0.078792,"accuracy":"15","context":0,"place_id":"v70Y8qlTUrrLiiTZAg","woeid":"20094363","geo_is_family":0,"geo_is_friend":0,"geo_is_contact":0,"geo_is_public":1,"media":"photo","media_status":"ready"},{"id":"13924957774","owner":"75462591@N02","secret":"66578dc09b","server":"7363","farm":8,"title":"Clair-obscur","ispublic":1,"isfriend":0,"isfamily":0,"safe":0,"ownername":"Michel Couprie","latitude":48.617307,"longitude":2.284469,"accuracy":"14","context":0,"place_id":"6cSWGM9UWrseGic","woeid":"581822","geo_is_family":0,"geo_is_friend":0,"geo_is_contact":0,"geo_is_public":1,"media":"photo","media_status":"ready"},{"id":"13921058095","owner":"75509492@N07","secret":"bfdc4da391","server":"7020","farm":8,"title":"Northern_Dvina 1.23, Arkhangelsk, Russia","ispublic":1,"isfriend":0,"isfamily":0,"safe":0,"ownername":"knutsi12","latitude":64.549052,"longitude":40.513547,"accuracy":"16","context":0,"place_id":"VZimDfFQUL_Vx_I6aw","woeid":"12598029","geo_is_family":0,"geo_is_friend":0,"geo_is_contact":0,"geo_is_public":1,"media":"photo","media_status":"ready"},{"id":"13868670783","owner":"92250809@N04","secret":"ef54afa715","server":"7115","farm":8,"title":"Palace El Mechouar, Tlemcen, Algeria","ispublic":1,"isfriend":0,"isfamily":0,"safe":0,"ownername":"Samere Fahim Photography","latitude":34.881489,"longitude":-1.308958,"accuracy":"16","context":0,"place_id":"ocPDIVdQUL_nlHS9","woeid":"1257897","geo_is_family":0,"geo_is_friend":0,"geo_is_contact":0,"geo_is_public":1,"media":"photo","media_status":"ready"},{"id":"13868311283","owner":"76550850@N04","secret":"43c7271b7b","server":"3796","farm":4,"title":"friends","ispublic":1,"isfriend":0,"isfamily":0,"safe":0,"ownername":"mesana62","latitude":36.971838,"longitude":-6.508026,"accuracy":"10","context":0,"place_id":"H09U8StWVb.ovdQ","woeid":"775682","geo_is_family":0,"geo_is_friend":0,"geo_is_contact":0,"geo_is_public":1,"media":"photo","media_status":"ready"},{"id":"13857061973","owner":"26849514@N06","secret":"f8cc2fbaa5","server":"3809","farm":4,"title":"Purple","ispublic":1,"isfriend":0,"isfamily":0,"safe":0,"ownername":"Frans.Sellies","latitude":52.356181,"longitude":5.318112,"accuracy":"15","context":0,"place_id":"I8jfc_5TUrqjIjg5Ww","woeid":"20064106","geo_is_family":0,"geo_is_friend":0,"geo_is_contact":0,"geo_is_public":1,"media":"photo","media_status":"ready"},{"id":"13854830114","owner":"31758759@N07","secret":"dbeb1e6416","server":"2876","farm":3,"title":"The angry wave","ispublic":1,"isfriend":0,"isfamily":0,"safe":0,"ownername":"\u0b90\u2605 UfoSp@in \u2605\u0b90 ( Slow \ufd3e\u0361\u0e4f\u032f\u0361\u0e4f\ufd3f )","latitude":36.730152,"longitude":-3.702484,"accuracy":"11","context":0,"place_id":"g2fKPMNWV7jw_cM","woeid":"752251","geo_is_family":0,"geo_is_friend":0,"geo_is_contact":0,"geo_is_public":1,"media":"photo","media_status":"ready"},{"id":"13843833534","owner":"95104112@N05","secret":"46f6d6ddab","server":"7340","farm":8,"title":"Walk with Me, Nafplio, Greece","ispublic":1,"isfriend":0,"isfamily":0,"safe":0,"ownername":"nouregef","latitude":37.565313,"longitude":22.802585,"accuracy":"16","context":0,"place_id":"x50Wo.dYV713snw","woeid":"957858","geo_is_family":0,"geo_is_friend":0,"geo_is_contact":0,"geo_is_public":1,"media":"photo","media_status":"ready"},{"id":"13803903774","owner":"14473732@N00","secret":"bc99abb209","server":"7303","farm":8,"title":"sitting on the dock of the bay | sentado en el muelle de la bah\u00eda","ispublic":1,"isfriend":0,"isfamily":0,"safe":0,"ownername":"jesuscm","latitude":51.571521,"longitude":-3.983573,"accuracy":"11","context":0,"place_id":"8O9ydGJSVbjoOg","woeid":"37215","geo_is_family":0,"geo_is_friend":0,"geo_is_contact":0,"geo_is_public":1,"media":"photo","media_status":"ready"},{"id":"13802617535","owner":"32438882@N07","secret":"a4352e0e6f","server":"7080","farm":8,"title":"El sol de mi jardin \u263c \u263c","ispublic":1,"isfriend":0,"isfamily":0,"safe":0,"ownername":"TeresalaLoba","latitude":42.09975,"longitude":-8.739945,"accuracy":"16","context":0,"place_id":"myldYulWVLM6wYg","woeid":"769739","geo_is_family":0,"geo_is_friend":0,"geo_is_contact":0,"geo_is_public":1,"media":"photo","media_status":"ready"},{"id":"13788621703","owner":"49746210@N07","secret":"be95d857d0","server":"2896","farm":3,"title":"Dancing in the Dark","ispublic":1,"isfriend":0,"isfamily":0,"safe":0,"ownername":"Normann Photography","latitude":67.527675,"longitude":12.1403,"accuracy":"16","context":0,"place_id":"X2StgH9ZVLmI3Z0","woeid":"863156","geo_is_family":0,"geo_is_friend":0,"geo_is_contact":0,"geo_is_public":1,"media":"photo","media_status":"ready"},{"id":"13773898684","owner":"38181284@N06","secret":"70032215b3","server":"3807","farm":4,"title":"Obscured by Clouds II","ispublic":1,"isfriend":0,"isfamily":0,"safe":0,"ownername":"vulture labs","latitude":51.506204,"longitude":-0.072569,"accuracy":"15","context":0,"place_id":"v70Y8qlTUrrLiiTZAg","woeid":"20094363","geo_is_family":0,"geo_is_friend":0,"geo_is_contact":0,"geo_is_public":1,"media":"photo","media_status":"ready"},{"id":"13756923224","owner":"95104112@N05","secret":"84b56238c2","server":"7405","farm":8,"title":"Emerald to Sapphire, Lefkada, Greece","ispublic":1,"isfriend":0,"isfamily":0,"safe":0,"ownername":"nouregef","latitude":38.630516,"longitude":20.558005,"accuracy":"16","context":0,"place_id":"8dPJmYlTVr9Fqlf9Qg","woeid":"24543977","geo_is_family":0,"geo_is_friend":0,"geo_is_contact":0,"geo_is_public":1,"media":"photo","media_status":"ready"},{"id":"13666423593","owner":"32438882@N07","secret":"a4ca2958da","server":"3702","farm":4,"title":"Photinia serratifolia por TeresalaLoba","ispublic":1,"isfriend":0,"isfamily":0,"safe":0,"ownername":"TeresalaLoba","latitude":42.099734,"longitude":-8.74001,"accuracy":"16","context":0,"place_id":"myldYulWVLM6wYg","woeid":"769739","geo_is_family":0,"geo_is_friend":0,"geo_is_contact":0,"geo_is_public":1,"media":"photo","media_status":"ready"},{"id":"13663188853","owner":"95104112@N05","secret":"bf8cfccb81","server":"7149","farm":8,"title":"The General, Athens, Greece","ispublic":1,"isfriend":0,"isfamily":0,"safe":0,"ownername":"nouregef","latitude":37.970776,"longitude":23.739309,"accuracy":"16","context":0,"place_id":"5HHyrSlTUb1JwYk9eQ","woeid":"23701322","geo_is_family":0,"geo_is_friend":0,"geo_is_contact":0,"geo_is_public":1,"media":"photo","media_status":"ready"},{"id":"13639435215","owner":"121182662@N02","secret":"a90d190a29","server":"7458","farm":8,"title":"Gold Dust","ispublic":1,"isfriend":0,"isfamily":0,"safe":0,"ownername":"Pannonius Rex","latitude":47.435156,"longitude":19.180036,"accuracy":"16","context":0,"place_id":"fSJ3doZZU7mZ1oM","woeid":"813754","geo_is_family":0,"geo_is_friend":0,"geo_is_contact":0,"geo_is_public":1,"media":"photo","media_status":"ready"},{"id":"13462813664","owner":"48293483@N02","secret":"f015e6c894","server":"5244","farm":6,"title":"Landscape around Misfat Al Abriyeen, Oman","ispublic":1,"isfriend":0,"isfamily":0,"safe":1,"ownername":"Sekitar","latitude":23.135624,"longitude":57.30606,"accuracy":"11","context":0,"place_id":"grVlZsVTULzQkg0U","woeid":"2268081","geo_is_family":0,"geo_is_friend":0,"geo_is_contact":0,"geo_is_public":1,"media":"photo","media_status":"ready"},{"id":"13156608715","owner":"35895492@N05","secret":"fbd6b073ed","server":"2129","farm":3,"title":"Performing NYC","ispublic":1,"isfriend":0,"isfamily":0,"safe":0,"ownername":"Z\u00fa S\u00e1nchez","latitude":40.708555,"longitude":-74.001331,"accuracy":"14","context":0,"place_id":"jj.ryTRUV7NfTPRIXA","woeid":"55992191","geo_is_family":0,"geo_is_friend":0,"geo_is_contact":0,"geo_is_public":1,"media":"photo","media_status":"ready"}]},"stat":"ok"}