{"photos":{"page":43,"pages":26686,"perpage":60,"total":"1601103","photo":[{"id":"14111320085","owner":"44161305@N02","secret":"7e5a751707","server":"2929","farm":3,"title":"Sciacca, Sicily. May, 2014 128","ispublic":1,"isfriend":0,"isfamily":0,"safe":0,"ownername":"tango-","latitude":37.507547,"longitude":13.082613,"accuracy":"14","context":0,"place_id":"RXkhnPhWULlZY5k","woeid":"723897","geo_is_family":0,"geo_is_friend":0,"geo_is_contact":0,"geo_is_public":1,"media":"photo","media_status":"ready"},{"id":"14104945242","owner":"41449558@N06","secret":"c59c8db9dc","server":"2933","farm":3,"title":"wacke","ispublic":1,"isfriend":0,"isfamily":0,"safe":0,"ownername":"miez!","latitude":50.110661,"longitude":8.719508,"accuracy":"16","context":0,"place_id":".i7.ijhXVLlaoCs","woeid":"663411","geo_is_family":0,"geo_is_friend":0,"geo_is_contact":0,"geo_is_public":1,"media":"photo","media_status":"ready"},{"id":"13919543097","owner":"44161305@N02","secret":"2178658f74","server":"7067","farm":8,"title":"Scala dei Turchi, Realmonte, Sicily  12.24.35","ispublic":1,"isfriend":0,"isfamily":0,"safe":0,"ownername":"tango-","latitude":37.290852,"longitude":13.499965,"accuracy":"12","context":0,"place_id":"HIhTngdTUrtJfTKaaA","woeid":"20138636","geo_is_family":0,"geo_is_friend":0,"geo_is_contact":0,"geo_is_public":1,"media":"photo","media_status":"ready"},{"id":"13919129049","owner":"59852454@N03","secret":"2c48954a86","server":"7439","farm":8,"title":"For Sale","ispublic":1,"isfriend":0,"isfamily":0,"safe":0,"ownername":"Pavel P.","latitude":49.661761,"longitude":18.355347,"accuracy":"15","context":0,"place_id":"w2ClW1JTVrNjh_UawQ","woeid":"24929002","geo_is_family":0,"geo_is_friend":0,"geo_is_contact":0,"geo_is_public":1,"media":"photo","media_status":"ready"},{"id":"14102519031","owner":"31156303@N06","secret":"a4c96dbb2e","server":"7302","farm":8,"title":"Morning Walks I","ispublic":1,"isfriend":0,"isfamily":0,"safe":0,"ownername":"Chernivtsi Online","latitude":48.291627,"longitude":25.934319,"accuracy":"16","context":0,"place_id":"3WEMLxdYU7IVSWU","woeid":"918247","geo_is_family":0,"geo_is_friend":0,"geo_is_contact":0,"geo_is_public":1,"media":"photo","media_status":"ready"},{"id":"13917068697","owner":"16618681@N00","secret":"264e7f9358","server":"5451","farm":6,"title":"The tree","ispublic":1,"isfriend":0,"isfamily":0,"safe":0,"ownername":"marypink","latitude":27.770069,"longitude":-15.583089,"accuracy":"11","context":0,"place_id":"j67CmqNWVLyhP5c","woeid":"766774","geo_is_family":0,"geo_is_friend":0,"geo_is_contact":0,"geo_is_public":1,"media":"photo","media_status":"ready"},{"id":"14102769604","owner":"25738602@N03","secret":"1baa0fc998","server":"7314","farm":8,"title":"\"affacciati alla finestra amore mio\"   ( Explore )","ispublic":1,"isfriend":0,"isfamily":0,"safe":0,"ownername":"Preziosa 1 \/ Gabriella","latitude":44.336373,"longitude":9.215642,"accuracy":"13","context":0,"place_id":"tXqcOzBWULk1yPY","woeid":"723553","geo_is_family":0,"geo_is_friend":0,"geo_is_contact":0,"geo_is_public":1,"media":"photo","media_status":"ready"},{"id":"14079171586","owner":"60247153@N08","secret":"a894172bd1","server":"2939","farm":3,"title":"V\u00e5rblommor \u00e4r barndom","ispublic":1,"isfriend":0,"isfamily":0,"safe":0,"ownername":"Halloj v\u00e4rlden! \/Inger","latitude":56.1725,"longitude":14.861833,"accuracy":"16","context":0,"place_id":"ONeitUxZW76WQTg","woeid":"894947","geo_is_family":0,"geo_is_friend":0,"geo_is_contact":0,"geo_is_public":1,"media":"photo","media_status":"ready"},{"id":"13915478128","owner":"59269150@N08","secret":"4a8b014134","server":"7363","farm":8,"title":"World Cup Holders 2022?","ispublic":1,"isfriend":0,"isfamily":0,"safe":0,"ownername":"TablinumCarlson","latitude":-22.975889,"longitude":-43.189601,"accuracy":"13","context":0,"place_id":"ipwgY0xVUbpIngk","woeid":"430208","geo_is_family":0,"geo_is_friend":0,"geo_is_contact":0,"geo_is_public":1,"media":"photo","media_status":"ready"},{"id":"14097541894","owner":"8868875@N03","secret":"b42c89cf37","server":"2919","farm":3,"title":"\"I'm bored by all your revolutionary stuff...\"","ispublic":1,"isfriend":0,"isfamily":0,"safe":0,"ownername":"gato-gato-gato","latitude":47.37603,"longitude":8.526355,"accuracy":"16","context":0,"place_id":"N6mvrZ5WWrsOeBo","woeid":"781693","geo_is_family":0,"geo_is_friend":0,"geo_is_contact":0,"geo_is_public":1,"media":"photo","media_status":"ready"},{"id":"13909189920","owner":"13297363@N08","secret":"224a849866","server":"5489","farm":6,"title":"Monumento Antonio Maceo","ispublic":1,"isfriend":0,"isfamily":0,"safe":0,"ownername":"duque\u0131ros","latitude":20.02889,"longitude":-75.828979,"accuracy":"11","context":0,"place_id":".c_dA8tXWrq9rg","woeid":"68043","geo_is_family":0,"geo_is_friend":0,"geo_is_contact":0,"geo_is_public":1,"media":"photo","media_status":"ready"},{"id":"14072120616","owner":"47574723@N03","secret":"f7345813ab","server":"7332","farm":8,"title":"\"How's This Pose?\"","ispublic":1,"isfriend":0,"isfamily":0,"safe":0,"ownername":"The Spirit of the World ( On&Off for 2 Days)","latitude":21.7866,"longitude":82.794761,"accuracy":"2","context":0,"place_id":"kZ2lUVFTUb7CK_DAfA","woeid":"23424848","geo_is_family":0,"geo_is_friend":0,"geo_is_contact":0,"geo_is_public":1,"media":"photo","media_status":"ready"},{"id":"14115074763","owner":"38337348@N06","secret":"e00c515575","server":"7061","farm":8,"title":"The Pelican","ispublic":1,"isfriend":0,"isfamily":0,"safe":0,"ownername":"Passie13(Ines van Megen-Thijssen)","latitude":51.926279,"longitude":4.453883,"accuracy":"16","context":0,"place_id":"lhM3WGRWUbndGLo","woeid":"733075","geo_is_family":0,"geo_is_friend":0,"geo_is_contact":0,"geo_is_public":1,"media":"photo","media_status":"ready"},{"id":"14091287391","owner":"8868875@N03","secret":"dedff6cd40","server":"7300","farm":8,"title":"raise your fist","ispublic":1,"isfriend":0,"isfamily":0,"safe":0,"ownername":"gato-gato-gato","latitude":47.37603,"longitude":8.526355,"accuracy":"16","context":0,"place_id":"N6mvrZ5WWrsOeBo","woeid":"781693","geo_is_family":0,"geo_is_friend":0,"geo_is_contact":0,"geo_is_public":1,"media":"photo","media_status":"ready"},{"id":"14084973991","owner":"46267286@N07","secret":"2781d058ab","server":"7200","farm":8,"title":"Drive-by Trilogy By Simon (London City)","ispublic":1,"isfriend":0,"isfamily":0,"safe":0,"ownername":"Simon & His Camera","latitude":51.514104,"longitude":-0.081034,"accuracy":"16","context":0,"place_id":"3Vyv899TUroWiiTGDg","woeid":"20094298","geo_is_family":0,"geo_is_friend":0,"geo_is_contact":0,"geo_is_public":1,"media":"photo","media_status":"ready"},{"id":"14064257956","owner":"25738602@N03","secret":"1f0aef8a9b","server":"2939","farm":3,"title":"c'\u00e8 da fare ....   ( Explore )","ispublic":1,"isfriend":0,"isfamily":0,"safe":0,"ownername":"Preziosa 1 \/ Gabriella","latitude":44.335636,"longitude":9.213754,"accuracy":"13","context":0,"place_id":"tXqcOzBWULk1yPY","woeid":"723553","geo_is_family":0,"geo_is_friend":0,"geo_is_contact":0,"geo_is_public":1,"media":"photo","media_status":"ready"},{"id":"13900471749","owner":"59646784@N08","secret":"11faac67bf","server":"7065","farm":8,"title":"Birds","ispublic":1,"isfriend":0,"isfamily":0,"safe":0,"ownername":"L'hort de la Lolo","latitude":41.409775,"longitude":-41.923828,"accuracy":"4","context":0,"geo_is_family":0,"geo_is_friend":0,"geo_is_contact":0,"geo_is_public":1,"media":"photo","media_status":"ready"},{"id":"14083937662","owner":"44175404@N03","secret":"e2fbb1cc56","server":"7207","farm":8,"title":"Sunrise Silhouettes","ispublic":1,"isfriend":0,"isfamily":0,"safe":0,"ownername":"bryangarnett1 (trying to catch-up)","latitude":51.666513,"longitude":-0.216937,"accuracy":"14","context":0,"place_id":"z_.HLr5SUL40tg","woeid":"32485","geo_is_family":0,"geo_is_friend":0,"geo_is_contact":0,"geo_is_public":1,"media":"photo","media_status":"ready"},{"id":"14063878696","owner":"65949682@N00","secret":"e48c635186","server":"7332","farm":8,"title":"Diving Deep","ispublic":1,"isfriend":0,"isfamily":0,"safe":0,"ownername":"OR_U","latitude":39.479883,"longitude":-0.381073,"accuracy":"16","context":0,"place_id":"aOaiaoRTUrjdUgVu0g","woeid":"20220220","geo_is_family":0,"geo_is_friend":0,"geo_is_contact":0,"geo_is_public":1,"media":"photo","media_status":"ready"},{"id":"14063546836","owner":"72738192@N00","secret":"f5d6ee33ab","server":"2913","farm":3,"title":"S H A D O W S. Fez","ispublic":1,"isfriend":0,"isfamily":0,"safe":0,"ownername":"Claude Renault Photography","latitude":34.066311,"longitude":-4.976978,"accuracy":"12","context":0,"place_id":"zlskJLJQV7mdhu2r","woeid":"1535450","geo_is_family":0,"geo_is_friend":0,"geo_is_contact":0,"geo_is_public":1,"media":"photo","media_status":"ready"},{"id":"14081504581","owner":"75133058@N00","secret":"e10047c308","server":"5543","farm":6,"title":"Branco bando de gar\u00e7as...","ispublic":1,"isfriend":0,"isfamily":0,"safe":0,"ownername":"Eduardo Amorim","latitude":-31.810478,"longitude":-52.316894,"accuracy":"10","context":0,"place_id":"7InFMKFVVr9I3Yg","woeid":"445748","geo_is_family":0,"geo_is_friend":0,"geo_is_contact":0,"geo_is_public":1,"media":"photo","media_status":"ready"},{"id":"14082457585","owner":"41580255@N02","secret":"865ab3caba","server":"2919","farm":3,"title":"Viaje al fin de la noche.\/ Journey to the end of the night.","ispublic":1,"isfriend":0,"isfamily":0,"safe":0,"ownername":"OMA photo","latitude":42.006958,"longitude":-2.975234,"accuracy":"11","context":0,"place_id":"rDsbQ1ZWVbvXUQY","woeid":"771184","geo_is_family":0,"geo_is_friend":0,"geo_is_contact":0,"geo_is_public":1,"media":"photo","media_status":"ready"},{"id":"14080703265","owner":"53340207@N07","secret":"24fe013492","server":"7304","farm":8,"title":"The Inn of the Blue Boar","ispublic":1,"isfriend":0,"isfamily":0,"safe":1,"ownername":"Pifou 2010","latitude":48.884155,"longitude":2.331966,"accuracy":"16","context":0,"place_id":"NnwFB.ZUV7Jahv_AVA","woeid":"55843785","geo_is_family":0,"geo_is_friend":0,"geo_is_contact":0,"geo_is_public":1,"media":"photo","media_status":"ready"},{"id":"13893536949","owner":"26429763@N08","secret":"7699f2229f","server":"5477","farm":6,"title":"Dredging operations at Cobb's Quay Marina","ispublic":1,"isfriend":0,"isfamily":0,"safe":0,"ownername":"Born in The 40's.. Explored again!","latitude":50.721704,"longitude":-2.000316,"accuracy":"16","context":0,"place_id":"3t_5zEVTULkQaQ","woeid":"22326","geo_is_family":0,"geo_is_friend":0,"geo_is_contact":0,"geo_is_public":1,"media":"photo","media_status":"ready"},{"id":"14079817175","owner":"42345335@N08","secret":"94b9bde0e3","server":"2895","farm":3,"title":"Lochwinnoch Large Red Damselfly","ispublic":1,"isfriend":0,"isfamily":0,"safe":0,"ownername":"EvilEyeGoshawk","latitude":55.790901,"longitude":-4.61165,"accuracy":"16","context":0,"place_id":"V.KtOfZTVbgl6Q","woeid":"27259","geo_is_family":0,"geo_is_friend":0,"geo_is_contact":0,"geo_is_public":1,"media":"photo","media_status":"ready"},{"id":"14079391795","owner":"37517453@N08","secret":"defac6c9e1","server":"2912","farm":3,"title":"rape fields","ispublic":1,"isfriend":0,"isfamily":0,"safe":0,"ownername":"MK|PHOTOGRAPHY","latitude":53.247048,"longitude":10.100169,"accuracy":"15","context":0,"place_id":"B5q_e.ZXV7tOfqU","woeid":"651547","geo_is_family":0,"geo_is_friend":0,"geo_is_contact":0,"geo_is_public":1,"media":"photo","media_status":"ready"},{"id":"14099151373","owner":"59852454@N03","secret":"e97107c282","server":"2919","farm":3,"title":"By The Road","ispublic":1,"isfriend":0,"isfamily":0,"safe":0,"ownername":"Pavel P.","latitude":49.841132,"longitude":18.275053,"accuracy":"15","context":0,"place_id":"IXEXJcZWW7yT6Jk","woeid":"796798","geo_is_family":0,"geo_is_friend":0,"geo_is_contact":0,"geo_is_public":1,"media":"photo","media_status":"ready"},{"id":"13892221717","owner":"44161305@N02","secret":"c3675417c5","server":"7344","farm":8,"title":"78 Eraclea Minoa, Sicily","ispublic":1,"isfriend":0,"isfamily":0,"safe":0,"ownername":"tango-","latitude":37.39147,"longitude":13.283114,"accuracy":"15","context":0,"place_id":"focdvnBTW7npAPtjuA","woeid":"29343961","geo_is_family":0,"geo_is_friend":0,"geo_is_contact":0,"geo_is_public":1,"media":"photo","media_status":"ready"},{"id":"14074143511","owner":"87317128@N08","secret":"526edf738b","server":"2939","farm":3,"title":"GirlFight     121","ispublic":1,"isfriend":0,"isfamily":0,"safe":0,"ownername":"Pu\u00e9rtolas","latitude":51.514377,"longitude":-0.151276,"accuracy":"14","context":0,"place_id":"rig.8clTUrpC8VtjEg","woeid":"20094334","geo_is_family":0,"geo_is_friend":0,"geo_is_contact":0,"geo_is_public":1,"media":"photo","media_status":"ready"},{"id":"14077182124","owner":"38181284@N06","secret":"31ecbdd0d8","server":"7188","farm":8,"title":"Guiding Light","ispublic":1,"isfriend":0,"isfamily":0,"safe":0,"ownername":"vulture labs","latitude":51.499446,"longitude":-0.127029,"accuracy":"13","context":0,"place_id":"_8cuSp1TVrKmbg67ew","woeid":"24875645","geo_is_family":0,"geo_is_friend":0,"geo_is_contact":0,"geo_is_public":1,"media":"photo","media_status":"ready"},{"id":"13889495889","owner":"67055100@N00","secret":"183e310427","server":"5120","farm":6,"title":"Standing Squirrel","ispublic":1,"isfriend":0,"isfamily":0,"safe":0,"ownername":"Rivertay07 - thanks for over 2 million views","latitude":51.712619,"longitude":-0.009662,"accuracy":"16","context":0,"place_id":"JDwdYcBSWrnXdg","woeid":"38357","geo_is_family":0,"geo_is_friend":0,"geo_is_contact":0,"geo_is_public":1,"media":"photo","media_status":"ready"},{"id":"13888424958","owner":"72339619@N05","secret":"021bb52e50","server":"5547","farm":6,"title":"Ed \u00e8....amore a prima vista","ispublic":1,"isfriend":0,"isfamily":0,"safe":0,"ownername":"doniflo","latitude":41.025477,"longitude":28.975049,"accuracy":"11","context":0,"place_id":"l02DEdJTUb5XGlLZ","woeid":"2344116","geo_is_family":0,"geo_is_friend":0,"geo_is_contact":0,"geo_is_public":1,"media":"photo","media_status":"ready"},{"id":"14093967283","owner":"59646784@N08","secret":"eeae42e0b9","server":"7421","farm":8,"title":"...","ispublic":1,"isfriend":0,"isfamily":0,"safe":0,"ownername":"L'hort de la Lolo","latitude":42.247741,"longitude":2.81364,"accuracy":"11","context":0,"place_id":"oK1nEihWVL..RyA","woeid":"765261","geo_is_family":0,"geo_is_friend":0,"geo_is_contact":0,"geo_is_public":1,"media":"photo","media_status":"ready"},{"id":"13886042917","owner":"31804708@N02","secret":"3bf9ebbfe0","server":"7433","farm":8,"title":"La costa de Vigo - The coast of Vigo","ispublic":1,"isfriend":0,"isfamily":0,"safe":0,"ownername":"celta4","latitude":42.219928,"longitude":-8.776692,"accuracy":"16","context":0,"place_id":"MAe7dv9WVb0.1Qo","woeid":"777341","geo_is_family":0,"geo_is_friend":0,"geo_is_contact":0,"geo_is_public":1,"media":"photo","media_status":"ready"},{"id":"14069260272","owner":"26429763@N08","secret":"be3d0abd78","server":"7346","farm":8,"title":"Wimborne Minster B&W HDR","ispublic":1,"isfriend":0,"isfamily":0,"safe":0,"ownername":"Born in The 40's.. Explored again!","latitude":50.798869,"longitude":-1.988085,"accuracy":"16","context":0,"place_id":"0nsst7VVUr_IUg","woeid":"40595","geo_is_family":0,"geo_is_friend":0,"geo_is_contact":0,"geo_is_public":1,"media":"photo","media_status":"ready"},{"id":"14049177616","owner":"92474414@N04","secret":"2f54d08566","server":"7375","farm":8,"title":"Puddle + Ferris Wheel","ispublic":1,"isfriend":0,"isfamily":0,"safe":0,"ownername":"donlunzo16","latitude":48.767669,"longitude":9.171919,"accuracy":"11","context":0,"place_id":"R3VGrQNXW7LCxIA","woeid":"698064","geo_is_family":0,"geo_is_friend":0,"geo_is_contact":0,"geo_is_public":1,"media":"photo","media_status":"ready"},{"id":"13884932667","owner":"37486507@N06","secret":"2b6f33fb49","server":"7185","farm":8,"title":"Qiete sul Tamigi \/ Quiet Thames","ispublic":1,"isfriend":0,"isfamily":0,"safe":0,"ownername":"AndreaPucci","latitude":51.56592,"longitude":-0.768399,"accuracy":"16","context":0,"place_id":"H60hnaVTWrn.uA","woeid":"28379","geo_is_family":0,"geo_is_friend":0,"geo_is_contact":0,"geo_is_public":1,"media":"photo","media_status":"ready"},{"id":"14066160071","owner":"75133058@N00","secret":"8cbeb3ab82","server":"7384","farm":8,"title":"Apadrinando...","ispublic":1,"isfriend":0,"isfamily":0,"safe":0,"ownername":"Eduardo Amorim","latitude":-34.233802,"longitude":-59.499206,"accuracy":"11","context":0,"place_id":"K.q5MK9SUbg4DZE","woeid":"332504","geo_is_family":0,"geo_is_friend":0,"geo_is_contact":0,"geo_is_public":1,"media":"photo","media_status":"ready"},{"id":"14088020173","owner":"38084843@N00","secret":"cd5882daba","server":"5239","farm":6,"title":"Little women.","ispublic":1,"isfriend":0,"isfamily":0,"safe":0,"ownername":"neera*","latitude":-13.266011,"longitude":48.190155,"accuracy":"10","context":0,"place_id":"DQggKIRTUb4FXou4","woeid":"2346146","geo_is_family":0,"geo_is_friend":0,"geo_is_contact":0,"geo_is_public":1,"media":"photo","media_status":"ready"},{"id":"14059504322","owner":"79202288@N02","secret":"5d335b4676","server":"7208","farm":8,"title":"Los Cocedores.","ispublic":1,"isfriend":0,"isfamily":0,"safe":0,"ownername":"Mario Navarro E","latitude":37.375162,"longitude":-1.628637,"accuracy":"16","context":0,"place_id":"OEuEdzRQUL_BGx9XRA","woeid":"12578025","geo_is_family":0,"geo_is_friend":0,"geo_is_contact":0,"geo_is_public":1,"media":"photo","media_status":"ready"},{"id":"14061520114","owner":"85081332@N00","secret":"8ac94457fc","server":"7426","farm":8,"title":"Moated castle Moritzburg","ispublic":1,"isfriend":0,"isfamily":0,"safe":0,"ownername":"pe_ha45","latitude":51.165297,"longitude":13.678836,"accuracy":"14","context":0,"place_id":"BW3mI6lXVbxHKJk","woeid":"676197","geo_is_family":0,"geo_is_friend":0,"geo_is_contact":0,"geo_is_public":1,"media":"photo","media_status":"ready"},{"id":"14081010753","owner":"89558472@N00","secret":"bcd8bb2f56","server":"7238","farm":8,"title":"Castle in the sand","ispublic":1,"isfriend":0,"isfamily":0,"safe":0,"ownername":"Jawad Q","latitude":53.37591,"longitude":-1.479034,"accuracy":"16","context":0,"place_id":"_9rOW2NVUbOrSQ","woeid":"43970","geo_is_family":0,"geo_is_friend":0,"geo_is_contact":0,"geo_is_public":1,"media":"photo","media_status":"ready"},{"id":"14075250863","owner":"45899140@N03","secret":"6c605cee31","server":"5288","farm":6,"title":"enough said","ispublic":1,"isfriend":0,"isfamily":0,"safe":0,"ownername":"Jon Downs","latitude":52.042433,"longitude":-0.757739,"accuracy":"16","context":0,"place_id":"_x44RMlTWrLlIvLBuw","woeid":"28835368","geo_is_family":0,"geo_is_friend":0,"geo_is_contact":0,"geo_is_public":1,"media":"photo","media_status":"ready"},{"id":"14051908434","owner":"8070463@N03","secret":"1d3f39b7a2","server":"7435","farm":8,"title":"Dad and cub","ispublic":1,"isfriend":0,"isfamily":0,"safe":0,"ownername":"Tambako the Jaguar","latitude":47.547277,"longitude":7.578163,"accuracy":"14","context":0,"place_id":"Cp3nkIJWWr5tTLM","woeid":"784257","geo_is_family":0,"geo_is_friend":0,"geo_is_contact":0,"geo_is_public":1,"media":"photo","media_status":"ready"},{"id":"14049397694","owner":"32126965@N07","secret":"120c62eedc","server":"7212","farm":8,"title":"New Pink Blossom ..","ispublic":1,"isfriend":0,"isfamily":0,"safe":0,"ownername":"* Janets Photos*","latitude":53.781535,"longitude":-0.304784,"accuracy":"13","context":0,"place_id":"PHxyVHBSVLy5NA","woeid":"36697","geo_is_family":0,"geo_is_friend":0,"geo_is_contact":0,"geo_is_public":1,"media":"photo","media_status":"ready"},{"id":"14042274321","owner":"76805638@N07","secret":"36a4bb4d09","server":"7126","farm":8,"title":"birchroad","ispublic":1,"isfriend":0,"isfamily":0,"safe":0,"ownername":"Sergey S Ponomarev","latitude":58.635818,"longitude":49.723949,"accuracy":"14","context":0,"place_id":"TNFhWbJTUb60weqf","woeid":"2346902","geo_is_family":0,"geo_is_friend":0,"geo_is_contact":0,"geo_is_public":1,"media":"photo","media_status":"ready"},{"id":"14041726511","owner":"16854222@N05","secret":"176f74b53a","server":"7390","farm":8,"title":"Captivating Blues","ispublic":1,"isfriend":0,"isfamily":0,"safe":0,"ownername":"AnyMotion","latitude":50.123271,"longitude":8.6804,"accuracy":"16","context":0,"place_id":"Z0FRRfRXV7oIeew","woeid":"650272","geo_is_family":0,"geo_is_friend":0,"geo_is_contact":0,"geo_is_public":1,"media":"photo","media_status":"ready"},{"id":"14064918213","owner":"84555193@N08","secret":"96730efd6c","server":"2907","farm":3,"title":"Tourterelle Triste \/ Mourning Dove \/ zenaida macroura (\u2642&\u2640)","ispublic":1,"isfriend":0,"isfamily":0,"safe":0,"ownername":"Y.RAVARY photoart (Thanks for Over 250K Views!)","latitude":45.887752,"longitude":-73.273894,"accuracy":"15","context":0,"place_id":"obCXNQZUVLrNK.fr.g","woeid":"56022968","geo_is_family":0,"geo_is_friend":0,"geo_is_contact":0,"geo_is_public":1,"media":"photo","media_status":"ready"},{"id":"14044594074","owner":"92981517@N03","secret":"4cdb89482a","server":"2936","farm":3,"title":"Aper\u00e7u de Sanagare","ispublic":1,"isfriend":0,"isfamily":0,"safe":0,"ownername":"dono heneman","latitude":47.218109,"longitude":-1.55306,"accuracy":"11","context":0,"place_id":"ujh96DNXU7nOPuo","woeid":"613858","geo_is_family":0,"geo_is_friend":0,"geo_is_contact":0,"geo_is_public":1,"media":"photo","media_status":"ready"},{"id":"14058521023","owner":"55416316@N07","secret":"3b70735da8","server":"2926","farm":3,"title":"A good photograph is knowing where to stand (Ansel Adams)","ispublic":1,"isfriend":0,"isfamily":0,"safe":0,"ownername":"PeterJ\u00a9(serious network problems)","latitude":52.156222,"longitude":4.504802,"accuracy":"16","context":0,"place_id":"Srd3KOVWUbsdId8","woeid":"731208","geo_is_family":0,"geo_is_friend":0,"geo_is_contact":0,"geo_is_public":1,"media":"photo","media_status":"ready"},{"id":"14037488365","owner":"107257500@N03","secret":"9c60b9bab6","server":"5043","farm":6,"title":"Burghley House South Garden 02","ispublic":1,"isfriend":0,"isfamily":0,"safe":0,"ownername":"hoobgoobliin","latitude":52.64124,"longitude":-0.453379,"accuracy":"16","context":0,"place_id":"9bAUzidSV7KixQ","woeid":"35852","geo_is_family":0,"geo_is_friend":0,"geo_is_contact":0,"geo_is_public":1,"media":"photo","media_status":"ready"},{"id":"14037314705","owner":"92981517@N03","secret":"099699b307","server":"5561","farm":6,"title":"Il \u00e9tait une fois la R\u00e9union","ispublic":1,"isfriend":0,"isfamily":0,"safe":0,"ownername":"dono heneman","latitude":-21.11453,"longitude":55.532058,"accuracy":"2","context":0,"place_id":"oOWnm_1TUb7RMvZwGg","woeid":"23424931","geo_is_family":0,"geo_is_friend":0,"geo_is_contact":0,"geo_is_public":1,"media":"photo","media_status":"ready"},{"id":"14032398992","owner":"95011179@N08","secret":"64efc760d3","server":"5022","farm":6,"title":"Daydream","ispublic":1,"isfriend":0,"isfamily":0,"safe":0,"ownername":"__MaRiNa__","latitude":41.827874,"longitude":2.179069,"accuracy":"11","context":0,"place_id":"GB5m6l5WV72vwb8","woeid":"757863","geo_is_family":0,"geo_is_friend":0,"geo_is_contact":0,"geo_is_public":1,"media":"photo","media_status":"ready"},{"id":"14032145572","owner":"73112706@N04","secret":"197af1dfbc","server":"7129","farm":8,"title":"snow line \/ Schneegrenze","ispublic":1,"isfriend":0,"isfamily":0,"safe":0,"ownername":"tideloon","latitude":46.741684,"longitude":7.592711,"accuracy":"16","context":0,"place_id":"32ParapWWrsbkis","woeid":"781572","geo_is_family":0,"geo_is_friend":0,"geo_is_contact":0,"geo_is_public":1,"media":"photo","media_status":"ready"},{"id":"14011978486","owner":"82475308@N05","secret":"995c3dbce6","server":"7087","farm":8,"title":"Inside the hills.","ispublic":1,"isfriend":0,"isfamily":0,"safe":0,"ownername":"Carola Photography \u221e","latitude":44.77481,"longitude":8.16598,"accuracy":"11","context":0,"place_id":"IhTSa31TUrux5RE94w","woeid":"20151889","geo_is_family":0,"geo_is_friend":0,"geo_is_contact":0,"geo_is_public":1,"media":"photo","media_status":"ready"},{"id":"14009575946","owner":"42108906@N04","secret":"fcf8260a48","server":"2915","farm":3,"title":"Naviglio, the...river of Milan","ispublic":1,"isfriend":0,"isfamily":0,"safe":0,"ownername":"Fil.ippo","latitude":45.450678,"longitude":9.177918,"accuracy":"15","context":0,"place_id":"49Gidk1WU7JxrFY","woeid":"718345","geo_is_family":0,"geo_is_friend":0,"geo_is_contact":0,"geo_is_public":1,"media":"photo","media_status":"ready"},{"id":"14052569663","owner":"33660572@N02","secret":"1c4b0924c1","server":"5081","farm":6,"title":"Peuples du monde: les Karo d'Ethiopie.","ispublic":1,"isfriend":0,"isfamily":0,"safe":0,"ownername":"claude gourlay","latitude":5.51619,"longitude":36.738239,"accuracy":"11","context":0,"place_id":"uLjanjpQVrKolM.u","woeid":"1482352","geo_is_family":0,"geo_is_friend":0,"geo_is_contact":0,"geo_is_public":1,"media":"photo","media_status":"ready"},{"id":"14026889451","owner":"73414467@N02","secret":"bcbe54db23","server":"7029","farm":8,"title":"Parque del Retiro (Madrid) II","ispublic":1,"isfriend":0,"isfamily":0,"safe":0,"ownername":"Jos\u00e9 Luis Vega","latitude":40.416918,"longitude":-3.684754,"accuracy":"16","context":0,"place_id":"Z2U_zedTUri7YVepxQ","woeid":"20219886","geo_is_family":0,"geo_is_friend":0,"geo_is_contact":0,"geo_is_public":1,"media":"photo","media_status":"ready"},{"id":"14005116456","owner":"90189924@N08","secret":"f95860f48a","server":"7279","farm":8,"title":"sunrise on the beach","ispublic":1,"isfriend":0,"isfamily":0,"safe":0,"ownername":"Guilherme GMP","latitude":-26.113394,"longitude":-48.602123,"accuracy":"12","context":0,"place_id":"1840Q.NTVLL7QSCg9w","woeid":"26804168","geo_is_family":0,"geo_is_friend":0,"geo_is_contact":0,"geo_is_public":1,"media":"photo","media_status":"ready"},{"id":"14042396263","owner":"91722814@N02","secret":"8a728607e5","server":"7256","farm":8,"title":"Burnt Vista","ispublic":1,"isfriend":0,"isfamily":0,"safe":0,"ownername":"nalamanpics","latitude":50.533343,"longitude":-3.87886,"accuracy":"13","context":0,"place_id":"lUo5VP9QVbPjHw","woeid":"17955","geo_is_family":0,"geo_is_friend":0,"geo_is_contact":0,"geo_is_public":1,"media":"photo","media_status":"ready"}]},"stat":"ok"}