{"photos":{"page":32,"pages":26139,"perpage":60,"total":"1568326","photo":[{"id":"14132275422","owner":"90189924@N08","secret":"b021f1bf44","server":"2920","farm":3,"title":"Spider","ispublic":1,"isfriend":0,"isfamily":0,"safe":0,"ownername":"Guilherme GMP","latitude":-25.404106,"longitude":-49.247173,"accuracy":"16","context":0,"place_id":"ZeCKPdpUV7P8S1MHcg","woeid":"55944080","geo_is_family":0,"geo_is_friend":0,"geo_is_contact":0,"geo_is_public":1,"media":"photo","media_status":"ready"},{"id":"13947552900","owner":"7346041@N07","secret":"283ae59fac","server":"7405","farm":8,"title":"The Sour Milk Smell","ispublic":1,"isfriend":0,"isfamily":0,"safe":0,"ownername":"designldg","latitude":25.30925,"longitude":83.006225,"accuracy":"16","context":0,"place_id":".QY2Sv5UV7N1I2.1jQ","woeid":"55951383","geo_is_family":0,"geo_is_friend":0,"geo_is_contact":0,"geo_is_public":1,"media":"photo","media_status":"ready"},{"id":"14110241756","owner":"66403925@N03","secret":"832e80ce94","server":"7416","farm":8,"title":"Toutinegra dos valados, Sardinian Warbler(Sylvia melanocephala) - em Liberdade [in wild]","ispublic":1,"isfriend":0,"isfamily":0,"safe":0,"ownername":"ana & xavier","latitude":38.953941,"longitude":-8.98985,"accuracy":"11","context":0,"place_id":"LPuVWLlWV7oyVlM","woeid":"750699","geo_is_family":0,"geo_is_friend":0,"geo_is_contact":0,"geo_is_public":1,"media":"photo","media_status":"ready"},{"id":"14127902321","owner":"44962378@N08","secret":"16b46a9468","server":"7420","farm":8,"title":"Metro Show.","ispublic":1,"isfriend":0,"isfamily":0,"safe":0,"ownername":"FilippoMarchi\uf8ff\uf8ff\uf8ff","latitude":41.392521,"longitude":2.165851,"accuracy":"14","context":0,"place_id":"gz1EC3hTUriN7mm2QA","woeid":"20220089","geo_is_family":0,"geo_is_friend":0,"geo_is_contact":0,"geo_is_public":1,"media":"photo","media_status":"ready"},{"id":"14126209891","owner":"57314912@N03","secret":"1bc4c5ef49","server":"7324","farm":8,"title":"Sans titre","ispublic":1,"isfriend":0,"isfamily":0,"safe":0,"ownername":"Dom Lortha","latitude":46.612075,"longitude":0.408672,"accuracy":"16","context":0,"place_id":"LIZVqvNXU7h8O4M","woeid":"612266","geo_is_family":0,"geo_is_friend":0,"geo_is_contact":0,"geo_is_public":1,"media":"photo","media_status":"ready"},{"id":"13942645427","owner":"48447300@N02","secret":"578bdb93c6","server":"5482","farm":6,"title":"Caithlin - the sweetheart","ispublic":1,"isfriend":0,"isfamily":0,"safe":0,"ownername":"Finn Frode (DK)","latitude":55.653179,"longitude":12.269915,"accuracy":"16","context":0,"place_id":"A_kOnhxUV731Hzs","woeid":"557938","geo_is_family":0,"geo_is_friend":0,"geo_is_contact":0,"geo_is_public":1,"media":"photo","media_status":"ready"},{"id":"13942507397","owner":"93020307@N07","secret":"c35afd960c","server":"7458","farm":8,"title":"Kein Wasser im s\u00fcdlichen Teil des Lago di Livigno \u2013 No water in the southern point of Lago di Livigno.","ispublic":1,"isfriend":0,"isfamily":0,"safe":0,"ownername":"Kat-i (on tour)","latitude":46.556483,"longitude":10.1439,"accuracy":"16","context":0,"place_id":"rElCc0lWU71kBE4","woeid":"717344","geo_is_family":0,"geo_is_friend":0,"geo_is_contact":0,"geo_is_public":1,"media":"photo","media_status":"ready"},{"id":"13942415437","owner":"63304627@N03","secret":"f085798590","server":"7369","farm":8,"title":"Boring sunset","ispublic":1,"isfriend":0,"isfamily":0,"safe":0,"ownername":"Nora Bo","latitude":46.510325,"longitude":11.350765,"accuracy":"12","context":0,"place_id":"S1bfsElWU7sVQX4","woeid":"711089","geo_is_family":0,"geo_is_friend":0,"geo_is_contact":0,"geo_is_public":1,"media":"photo","media_status":"ready"},{"id":"13941995269","owner":"56936646@N07","secret":"347a706220","server":"5159","farm":6,"title":"House in the forest","ispublic":1,"isfriend":0,"isfamily":0,"safe":0,"ownername":"Fr@nk = recovering","latitude":51.717347,"longitude":10.970191,"accuracy":"16","context":0,"place_id":"5odvq79XW7N6yUM","woeid":"699967","geo_is_family":0,"geo_is_friend":0,"geo_is_contact":0,"geo_is_public":1,"media":"photo","media_status":"ready"},{"id":"13940513427","owner":"17528760@N00","secret":"d27409b1e0","server":"7410","farm":8,"title":"Giant River Otter","ispublic":1,"isfriend":0,"isfamily":0,"safe":0,"ownername":"David Schenfeld","latitude":-19.58567,"longitude":-56.107464,"accuracy":"16","context":0,"place_id":"7NrFPstQUL9PwAxjRA","woeid":"12579110","geo_is_family":0,"geo_is_friend":0,"geo_is_contact":0,"geo_is_public":1,"media":"photo","media_status":"ready"},{"id":"13937401110","owner":"36609145@N02","secret":"2f8837b2a2","server":"7432","farm":8,"title":"Agira: LEGA MIGLIORAMENTO ZOLFATAI","ispublic":1,"isfriend":0,"isfamily":0,"safe":0,"ownername":"costagar51","latitude":37.656776,"longitude":14.522214,"accuracy":"15","context":0,"place_id":"dl8zlCZWUrP3Oos","woeid":"709837","geo_is_family":0,"geo_is_friend":0,"geo_is_contact":0,"geo_is_public":1,"media":"photo","media_status":"ready"},{"id":"13935176950","owner":"70667315@N07","secret":"5087737578","server":"7395","farm":8,"title":"Leaving...","ispublic":1,"isfriend":0,"isfamily":0,"safe":0,"ownername":"Laurent photography","latitude":47.414149,"longitude":-3.098487,"accuracy":"11","context":0,"place_id":"5.EM9r5WU79GO2nY","woeid":"7153313","geo_is_family":0,"geo_is_friend":0,"geo_is_contact":0,"geo_is_public":1,"media":"photo","media_status":"ready"},{"id":"13933864270","owner":"58195583@N06","secret":"d6960ba4a8","server":"2902","farm":3,"title":"Lilac-breasted Roller, Coracias caudatus, Hwange National Park, Zimbabwe","ispublic":1,"isfriend":0,"isfamily":0,"safe":0,"ownername":"Jeremy Smith Photography","latitude":-18.737521,"longitude":26.720123,"accuracy":"9","context":0,"place_id":"jlLi9xZTUb4Dx0h8","woeid":"2347815","geo_is_family":0,"geo_is_friend":0,"geo_is_contact":0,"geo_is_public":1,"media":"photo","media_status":"ready"},{"id":"13930911868","owner":"88158633@N04","secret":"fda85d7f74","server":"2927","farm":3,"title":"Leaf and Bokeh","ispublic":1,"isfriend":0,"isfamily":0,"safe":0,"ownername":"Fe_Lima","latitude":-22.496737,"longitude":-48.550472,"accuracy":"14","context":0,"place_id":"1nM5IQlVV7yduh0","woeid":"456067","geo_is_family":0,"geo_is_friend":0,"geo_is_contact":0,"geo_is_public":1,"media":"photo","media_status":"ready"},{"id":"13928142747","owner":"62815410@N04","secret":"1d831ef095","server":"5457","farm":6,"title":"home gardening (brescia, italy)","ispublic":1,"isfriend":0,"isfamily":0,"safe":0,"ownername":"bloodybee","latitude":45.535866,"longitude":10.234472,"accuracy":"16","context":0,"place_id":"WO1uGLRWU7u69ps","woeid":"711410","geo_is_family":0,"geo_is_friend":0,"geo_is_contact":0,"geo_is_public":1,"media":"photo","media_status":"ready"},{"id":"14091117416","owner":"75802603@N05","secret":"efe083f125","server":"7403","farm":8,"title":"The Stony Path","ispublic":1,"isfriend":0,"isfamily":0,"safe":0,"ownername":"highlights6","latitude":53.255817,"longitude":-2.075128,"accuracy":"13","context":0,"place_id":"5FHAOt1TWrrizA","woeid":"28094","geo_is_family":0,"geo_is_friend":0,"geo_is_contact":0,"geo_is_public":1,"media":"photo","media_status":"ready"},{"id":"14133739963","owner":"37842091@N08","secret":"b1c081cb6c","server":"7388","farm":8,"title":"Hipstamatic 128","ispublic":1,"isfriend":0,"isfamily":0,"safe":0,"ownername":"Richard Pilon","latitude":45.429121,"longitude":-75.684596,"accuracy":"16","context":0,"place_id":"XX6yd9FUV7I5Y4Tkng","woeid":"55855890","geo_is_family":0,"geo_is_friend":0,"geo_is_contact":0,"geo_is_public":1,"media":"photo","media_status":"ready"},{"id":"13925692610","owner":"48988488@N04","secret":"9ff7bc5c36","server":"7402","farm":8,"title":"camerini con vista","ispublic":1,"isfriend":0,"isfamily":0,"safe":0,"ownername":"claudius1954","latitude":46.309114,"longitude":9.756546,"accuracy":"14","context":0,"place_id":"Wjr4KEVWU7k6zEE","woeid":"713971","geo_is_family":0,"geo_is_friend":0,"geo_is_contact":0,"geo_is_public":1,"media":"photo","media_status":"ready"},{"id":"14109732124","owner":"91040992@N04","secret":"cc36682e15","server":"5157","farm":6,"title":"Merlin's Beard","ispublic":1,"isfriend":0,"isfamily":0,"safe":0,"ownername":"Disco86","latitude":50.080563,"longitude":8.227704,"accuracy":"15","context":0,"place_id":"HZhgwsxWUryklD4","woeid":"706329","geo_is_family":0,"geo_is_friend":0,"geo_is_contact":0,"geo_is_public":1,"media":"photo","media_status":"ready"},{"id":"14083336896","owner":"11901403@N06","secret":"65eae01d6c","server":"7374","farm":8,"title":"Por ti..","ispublic":1,"isfriend":0,"isfamily":0,"safe":0,"ownername":"yak_____***","latitude":43.338912,"longitude":-8.203697,"accuracy":"13","context":0,"place_id":"rJaySqFWVL0E5ZA","woeid":"767224","geo_is_family":0,"geo_is_friend":0,"geo_is_contact":0,"geo_is_public":1,"media":"photo","media_status":"ready"},{"id":"13917220330","owner":"87927183@N00","secret":"d815ac8d70","server":"7316","farm":8,"title":"Mdina, Malta","ispublic":1,"isfriend":0,"isfamily":0,"safe":0,"ownername":"Riku Kettunen","latitude":35.885472,"longitude":14.403038,"accuracy":"16","context":0,"place_id":"bKoslQFVWrm2xs4","woeid":"483431","geo_is_family":0,"geo_is_friend":0,"geo_is_contact":0,"geo_is_public":1,"media":"photo","media_status":"ready"},{"id":"13915266017","owner":"48988488@N04","secret":"4a98653dd4","server":"7459","farm":8,"title":"faggiolini","ispublic":1,"isfriend":0,"isfamily":0,"safe":0,"ownername":"claudius1954","latitude":45.91987,"longitude":9.582481,"accuracy":"16","context":0,"place_id":"4lkuOuVWU7POyVQ","woeid":"719479","geo_is_family":0,"geo_is_friend":0,"geo_is_contact":0,"geo_is_public":1,"media":"photo","media_status":"ready"},{"id":"14076439206","owner":"26308381@N03","secret":"9e64a53f59","server":"7210","farm":8,"title":"Cadaques boat [explore]","ispublic":1,"isfriend":0,"isfamily":0,"safe":0,"ownername":"Karsten Hansen","latitude":42.283651,"longitude":3.275942,"accuracy":"16","context":0,"place_id":"K0ErZY9WV79S5H0","woeid":"755396","geo_is_family":0,"geo_is_friend":0,"geo_is_contact":0,"geo_is_public":1,"media":"photo","media_status":"ready"},{"id":"14098929165","owner":"49214499@N06","secret":"de9b7d5252","server":"2936","farm":3,"title":"My apple tree blooms","ispublic":1,"isfriend":0,"isfamily":0,"safe":0,"ownername":"Jurek.P","latitude":52.456451,"longitude":21.164465,"accuracy":"16","context":0,"place_id":"_0mXkmdUUr91rpQ","woeid":"505240","geo_is_family":0,"geo_is_friend":0,"geo_is_contact":0,"geo_is_public":1,"media":"photo","media_status":"ready"},{"id":"14075107956","owner":"44602415@N03","secret":"523ef5793b","server":"7038","farm":8,"title":"Franzosen","ispublic":1,"isfriend":0,"isfamily":0,"safe":0,"ownername":"StellaMarisHH","latitude":53.436613,"longitude":9.965071,"accuracy":"16","context":0,"place_id":"cksTdXBXV7yTmdw","woeid":"656958","geo_is_family":0,"geo_is_friend":0,"geo_is_contact":0,"geo_is_public":1,"media":"photo","media_status":"ready"},{"id":"13910080699","owner":"75802603@N05","secret":"e38892e858","server":"7195","farm":8,"title":"Teggs Nose Country Park","ispublic":1,"isfriend":0,"isfamily":0,"safe":0,"ownername":"highlights6","latitude":53.256382,"longitude":-2.073926,"accuracy":"13","context":0,"place_id":"5FHAOt1TWrrizA","woeid":"28094","geo_is_family":0,"geo_is_friend":0,"geo_is_contact":0,"geo_is_public":1,"media":"photo","media_status":"ready"},{"id":"13909589720","owner":"21608855@N03","secret":"cff2480d71","server":"5335","farm":6,"title":"Best paw forward...","ispublic":1,"isfriend":0,"isfamily":0,"safe":0,"ownername":"Julie Bracken","latitude":51.241527,"longitude":-0.729212,"accuracy":"16","context":0,"place_id":"TTnsU.1QUr_h3g","woeid":"10559","geo_is_family":0,"geo_is_friend":0,"geo_is_contact":0,"geo_is_public":1,"media":"photo","media_status":"ready"},{"id":"14115924453","owner":"101109840@N06","secret":"e6b4973d74","server":"7396","farm":8,"title":"The Boss with bodyguard","ispublic":1,"isfriend":0,"isfamily":0,"safe":0,"ownername":"Brigante\uf8ff","latitude":45.46894,"longitude":9.18103,"accuracy":"11","context":0,"place_id":"49Gidk1WU7JxrFY","woeid":"718345","geo_is_family":0,"geo_is_friend":0,"geo_is_contact":0,"geo_is_public":1,"media":"photo","media_status":"ready"},{"id":"14115703383","owner":"51058542@N02","secret":"4298c5abd0","server":"7306","farm":8,"title":"Marcus Andrew","ispublic":1,"isfriend":0,"isfamily":0,"safe":0,"ownername":"Digital Dick Photography","latitude":45.50473,"longitude":-73.550504,"accuracy":"16","context":0,"place_id":"ewedFCtTVLmNfbik7g","woeid":"26332792","geo_is_family":0,"geo_is_friend":0,"geo_is_contact":0,"geo_is_public":1,"media":"photo","media_status":"ready"},{"id":"13908289588","owner":"43467227@N08","secret":"d3ef05133f","server":"7196","farm":8,"title":"untitled","ispublic":1,"isfriend":0,"isfamily":0,"safe":0,"ownername":"nicolasheinzelmann","latitude":46.945574,"longitude":7.44873,"accuracy":"11","context":0,"place_id":"X7bxbwhWWrtKmg8","woeid":"781788","geo_is_family":0,"geo_is_friend":0,"geo_is_contact":0,"geo_is_public":1,"media":"photo","media_status":"ready"},{"id":"14089457461","owner":"91553093@N02","secret":"95f5891d99","server":"7348","farm":8,"title":"Urban Darkness","ispublic":1,"isfriend":0,"isfamily":0,"safe":0,"ownername":"Sebastian Waszak Photography","latitude":51.217811,"longitude":6.777963,"accuracy":"16","context":0,"place_id":"MA8Ke4hXVrwlyVI","woeid":"646099","geo_is_family":0,"geo_is_friend":0,"geo_is_contact":0,"geo_is_public":1,"media":"photo","media_status":"ready"},{"id":"13902075308","owner":"60527135@N02","secret":"638fe6b9e4","server":"2913","farm":3,"title":"un gioco per tutto il mondo-a game for the whole world","ispublic":1,"isfriend":0,"isfamily":0,"safe":0,"ownername":"giuseppe1957","latitude":5.502265,"longitude":-0.210936,"accuracy":"5","context":0,"place_id":"f1yncWpTUb6P1oQDGw","woeid":"23424824","geo_is_family":0,"geo_is_friend":0,"geo_is_contact":0,"geo_is_public":1,"media":"photo","media_status":"ready"},{"id":"13901189289","owner":"38337348@N06","secret":"92ec15c8b3","server":"7359","farm":8,"title":"Safe","ispublic":1,"isfriend":0,"isfamily":0,"safe":0,"ownername":"Passie13(Ines van Megen-Thijssen)","latitude":51.925895,"longitude":4.450128,"accuracy":"16","context":0,"place_id":"lhM3WGRWUbndGLo","woeid":"733075","geo_is_family":0,"geo_is_friend":0,"geo_is_contact":0,"geo_is_public":1,"media":"photo","media_status":"ready"},{"id":"13900952908","owner":"37708438@N05","secret":"ff8a624c27","server":"7325","farm":8,"title":"MAN AT THE TOP","ispublic":1,"isfriend":0,"isfamily":0,"safe":0,"ownername":"kenny barker","latitude":56.597605,"longitude":-3.494201,"accuracy":"8","context":0,"place_id":"72OeSnZQULyUVsO1Lw","woeid":"12602208","geo_is_family":0,"geo_is_friend":0,"geo_is_contact":0,"geo_is_public":1,"media":"photo","media_status":"ready"},{"id":"14086649525","owner":"44743466@N05","secret":"45fb65d1a4","server":"5195","farm":6,"title":"solitude sitting","ispublic":1,"isfriend":0,"isfamily":0,"safe":0,"ownername":"_esse_","latitude":41.003261,"longitude":28.98171,"accuracy":"13","context":0,"place_id":"gHMOtA5TUL1gH4XVvg","woeid":"22724021","geo_is_family":0,"geo_is_friend":0,"geo_is_contact":0,"geo_is_public":1,"media":"photo","media_status":"ready"},{"id":"13897690447","owner":"93461361@N05","secret":"2962cd39be","server":"5543","farm":6,"title":"brought to you by the letter Q","ispublic":1,"isfriend":0,"isfamily":0,"safe":0,"ownername":"Van Luvender","latitude":39.18663,"longitude":-74.818954,"accuracy":"13","context":0,"place_id":"5bpG4ixTVrPE4mdi","woeid":"2496161","geo_is_family":0,"geo_is_friend":0,"geo_is_contact":0,"geo_is_public":1,"media":"photo","media_status":"ready"},{"id":"13896558558","owner":"49214499@N06","secret":"c2efa06218","server":"2921","farm":3,"title":"Flowering apple tree","ispublic":1,"isfriend":0,"isfamily":0,"safe":0,"ownername":"Jurek.P","latitude":52.456373,"longitude":21.164594,"accuracy":"16","context":0,"place_id":"_0mXkmdUUr91rpQ","woeid":"505240","geo_is_family":0,"geo_is_friend":0,"geo_is_contact":0,"geo_is_public":1,"media":"photo","media_status":"ready"},{"id":"14102644043","owner":"66166762@N03","secret":"61cfc555e6","server":"5031","farm":6,"title":"Chasing Rainbows ~ Explored","ispublic":1,"isfriend":0,"isfamily":0,"safe":0,"ownername":"daisyglade","latitude":50.740329,"longitude":-1.62019,"accuracy":"11","context":0,"place_id":"u2D.kMRQWr4DqA","woeid":"18424","geo_is_family":0,"geo_is_friend":0,"geo_is_contact":0,"geo_is_public":1,"media":"photo","media_status":"ready"},{"id":"13894565830","owner":"106517169@N03","secret":"c2b5f18269","server":"7428","farm":8,"title":"Wild river 2","ispublic":1,"isfriend":0,"isfamily":0,"safe":0,"ownername":"piotrekfil","latitude":51.609882,"longitude":22.438365,"accuracy":"13","context":0,"place_id":"H.Dd7FlUUL_h_jw","woeid":"525817","geo_is_family":0,"geo_is_friend":0,"geo_is_contact":0,"geo_is_public":1,"media":"photo","media_status":"ready"},{"id":"13893953659","owner":"45115614@N05","secret":"fb0acc4d53","server":"7196","farm":8,"title":"Panorama sur l'Aiguille Verte - 4122m. Massif du Mont Blanc","ispublic":1,"isfriend":0,"isfamily":0,"safe":0,"ownername":"R.G. Photographe","latitude":45.947986,"longitude":6.960611,"accuracy":"13","context":0,"place_id":"vfD0FV1TUb5Pd1qw9Q","woeid":"23416224","geo_is_family":0,"geo_is_friend":0,"geo_is_contact":0,"geo_is_public":1,"media":"photo","media_status":"ready"},{"id":"14077154882","owner":"16874065@N00","secret":"1cab06a8df","server":"7458","farm":8,"title":"215venise-n&b","ispublic":1,"isfriend":0,"isfamily":0,"safe":0,"ownername":"R E M I B R I D O T","latitude":45.431972,"longitude":12.350683,"accuracy":"16","context":0,"place_id":"h_GEQ5NTUrtOcFoQNQ","woeid":"20150617","geo_is_family":0,"geo_is_friend":0,"geo_is_contact":0,"geo_is_public":1,"media":"photo","media_status":"ready"},{"id":"14056317706","owner":"66644631@N05","secret":"8ffa474c4b","server":"5110","farm":6,"title":"red rose","ispublic":1,"isfriend":0,"isfamily":0,"safe":0,"ownername":"jmlpyt","latitude":48.829469,"longitude":2.441368,"accuracy":"11","context":0,"place_id":"rdx2bZ9UV7JTfX5_HQ","woeid":"55863620","geo_is_family":0,"geo_is_friend":0,"geo_is_contact":0,"geo_is_public":1,"media":"photo","media_status":"ready"},{"id":"14079146144","owner":"90189924@N08","secret":"84c90baa54","server":"2901","farm":3,"title":"Spider, by a thread","ispublic":1,"isfriend":0,"isfamily":0,"safe":0,"ownername":"Guilherme GMP","latitude":-25.404073,"longitude":-49.247003,"accuracy":"16","context":0,"place_id":"ZeCKPdpUV7P8S1MHcg","woeid":"55944080","geo_is_family":0,"geo_is_friend":0,"geo_is_contact":0,"geo_is_public":1,"media":"photo","media_status":"ready"},{"id":"14097332183","owner":"93461361@N05","secret":"19eaae87fa","server":"7340","farm":8,"title":"ephemeral sweets","ispublic":1,"isfriend":0,"isfamily":0,"safe":0,"ownername":"Van Luvender","latitude":40.02487,"longitude":-75.039796,"accuracy":"16","context":0,"place_id":"9gVzNWtTV7qrsRD6","woeid":"2503553","geo_is_family":0,"geo_is_friend":0,"geo_is_contact":0,"geo_is_public":1,"media":"photo","media_status":"ready"},{"id":"14052077986","owner":"60527135@N02","secret":"41675d5eda","server":"7453","farm":8,"title":"Il gesto-the gesture","ispublic":1,"isfriend":0,"isfamily":0,"safe":0,"ownername":"giuseppe1957","latitude":10.340858,"longitude":0.606445,"accuracy":"4","context":0,"place_id":"J1HYJVZUVLoRc5HK_A","woeid":"56048434","geo_is_family":0,"geo_is_friend":0,"geo_is_contact":0,"geo_is_public":1,"media":"photo","media_status":"ready"},{"id":"13888438100","owner":"88420718@N03","secret":"a54c054948","server":"7204","farm":8,"title":"morning light","ispublic":1,"isfriend":0,"isfamily":0,"safe":0,"ownername":"thequietguy","latitude":41.136778,"longitude":23.218917,"accuracy":"11","context":0,"place_id":"fxqZi19YV79Wso0","woeid":"955547","geo_is_family":0,"geo_is_friend":0,"geo_is_contact":0,"geo_is_public":1,"media":"photo","media_status":"ready"},{"id":"13888307078","owner":"42985099@N03","secret":"8376def4c6","server":"5516","farm":6,"title":"~A side of Palomena prasina~","ispublic":1,"isfriend":0,"isfamily":0,"safe":0,"ownername":"Eddie The Bugman","latitude":52.913871,"longitude":-1.153542,"accuracy":"16","context":0,"place_id":"n10fnYdVUr8n3g","woeid":"40524","geo_is_family":0,"geo_is_friend":0,"geo_is_contact":0,"geo_is_public":1,"media":"photo","media_status":"ready"},{"id":"14075075554","owner":"21608855@N03","secret":"6741c0c34b","server":"2922","farm":3,"title":"Thought for the day","ispublic":1,"isfriend":0,"isfamily":0,"safe":0,"ownername":"Julie Bracken","latitude":51.241527,"longitude":-0.729212,"accuracy":"16","context":0,"place_id":"TTnsU.1QUr_h3g","woeid":"10559","geo_is_family":0,"geo_is_friend":0,"geo_is_contact":0,"geo_is_public":1,"media":"photo","media_status":"ready"},{"id":"13885593760","owner":"23012400@N03","secret":"815453c1aa","server":"7406","farm":8,"title":"Monte Valonsadero.Soria.","ispublic":1,"isfriend":0,"isfamily":0,"safe":0,"ownername":"Miguel. (respenda)","latitude":41.801518,"longitude":-2.516555,"accuracy":"11","context":0,"place_id":"9FoeL0JWVb517dc","woeid":"774837","geo_is_family":0,"geo_is_friend":0,"geo_is_contact":0,"geo_is_public":1,"media":"photo","media_status":"ready"},{"id":"13885393628","owner":"65949682@N00","secret":"da5d9ecc75","server":"7384","farm":8,"title":"It's never too late","ispublic":1,"isfriend":0,"isfamily":0,"safe":0,"ownername":"OR_U","latitude":39.475297,"longitude":-0.376364,"accuracy":"16","context":0,"place_id":"aOaiaoRTUrjdUgVu0g","woeid":"20220220","geo_is_family":0,"geo_is_friend":0,"geo_is_contact":0,"geo_is_public":1,"media":"photo","media_status":"ready"},{"id":"14046727106","owner":"90076467@N07","secret":"c55cd755d5","server":"2911","farm":3,"title":"... Kakfa's Croissant!!!","ispublic":1,"isfriend":0,"isfamily":0,"safe":0,"ownername":"Fede Falces (OFF & ON)","latitude":41.385719,"longitude":2.170049,"accuracy":"11","context":0,"place_id":"p.gvf6dWV7k1Gpg","woeid":"753692","geo_is_family":0,"geo_is_friend":0,"geo_is_contact":0,"geo_is_public":1,"media":"photo","media_status":"ready"},{"id":"14065267082","owner":"61357175@N08","secret":"89f9485b2b","server":"7306","farm":8,"title":"Moon Over Stonehenge","ispublic":1,"isfriend":0,"isfamily":0,"safe":0,"ownername":"etva101 (Computer Problems)","latitude":51.181808,"longitude":-1.835829,"accuracy":"11","context":0,"place_id":"3rhVvfpVVr53uQ","woeid":"44410","geo_is_family":0,"geo_is_friend":0,"geo_is_contact":0,"geo_is_public":1,"media":"photo","media_status":"ready"},{"id":"14064754911","owner":"7432018@N02","secret":"fc02bc3f55","server":"5541","farm":6,"title":"Kinepolis, Antwepen Luchtbal","ispublic":1,"isfriend":0,"isfamily":0,"safe":0,"ownername":"(ph).otography","latitude":51.245566,"longitude":4.414597,"accuracy":"16","context":0,"place_id":"Zx1xVdhYVb7_KoY","woeid":"974235","geo_is_family":0,"geo_is_friend":0,"geo_is_contact":0,"geo_is_public":1,"media":"photo","media_status":"ready"},{"id":"14086928143","owner":"36119280@N04","secret":"09eaee54d5","server":"7199","farm":8,"title":"Rapsfeld","ispublic":1,"isfriend":0,"isfamily":0,"safe":0,"ownername":"blichb","latitude":48.114991,"longitude":11.120252,"accuracy":"16","context":0,"place_id":"7gSgwgdQULwxjEm7Og","woeid":"12635096","geo_is_family":0,"geo_is_friend":0,"geo_is_contact":0,"geo_is_public":1,"media":"photo","media_status":"ready"},{"id":"14085512173","owner":"41580255@N02","secret":"ba4395914f","server":"2912","farm":3,"title":"Saliendo del infierno. \/ Leaving hell.","ispublic":1,"isfriend":0,"isfamily":0,"safe":0,"ownername":"OMA photo","latitude":40.541751,"longitude":-4.54119,"accuracy":"11","context":0,"place_id":"AC9TeK1WVbiSiXs","woeid":"772680","geo_is_family":0,"geo_is_friend":0,"geo_is_contact":0,"geo_is_public":1,"media":"photo","media_status":"ready"},{"id":"14060743781","owner":"12039065@N00","secret":"24b7ee739e","server":"7067","farm":8,"title":"Lago Cabrera superior","ispublic":1,"isfriend":0,"isfamily":0,"safe":0,"ownername":"Mono Andes","latitude":-41.831336,"longitude":-72.423763,"accuracy":"16","context":0,"place_id":"ukRIKgdTVL2hClCLmQ","woeid":"26794009","geo_is_family":0,"geo_is_friend":0,"geo_is_contact":0,"geo_is_public":1,"media":"photo","media_status":"ready"},{"id":"14040728806","owner":"17528760@N00","secret":"c2e1388459","server":"7431","farm":8,"title":"Little Bee Eater","ispublic":1,"isfriend":0,"isfamily":0,"safe":0,"ownername":"David Schenfeld","latitude":-18.261028,"longitude":23.361513,"accuracy":"16","context":0,"place_id":"qmPGMeFUV7NT_r3nnw","woeid":"55949048","geo_is_family":0,"geo_is_friend":0,"geo_is_contact":0,"geo_is_public":1,"media":"photo","media_status":"ready"},{"id":"14058592302","owner":"67833313@N08","secret":"43dc1d45d2","server":"7320","farm":8,"title":"the relaxation of the time traveler...","ispublic":1,"isfriend":0,"isfamily":0,"safe":0,"ownername":"Dimitra Kirgiannaki \u266a\u00b8.\u2022*\u00b4spring-lover \u00a8\u00b4","latitude":37.904206,"longitude":23.721233,"accuracy":"11","context":0,"place_id":"PnKW2NdYV7qeoj0","woeid":"950722","geo_is_family":0,"geo_is_friend":0,"geo_is_contact":0,"geo_is_public":1,"media":"photo","media_status":"ready"},{"id":"14057727112","owner":"37708438@N05","secret":"82915afa34","server":"7426","farm":8,"title":"MISTY CROSSING","ispublic":1,"isfriend":0,"isfamily":0,"safe":0,"ownername":"kenny barker","latitude":55.989548,"longitude":-3.388595,"accuracy":"11","context":0,"place_id":"KE1PUBlSUL0lxw","woeid":"32773","geo_is_family":0,"geo_is_friend":0,"geo_is_contact":0,"geo_is_public":1,"media":"photo","media_status":"ready"},{"id":"14079829623","owner":"66644631@N05","secret":"ba79e2b9ab","server":"5170","farm":6,"title":"Black Tulip","ispublic":1,"isfriend":0,"isfamily":0,"safe":0,"ownername":"jmlpyt","latitude":48.829469,"longitude":2.442741,"accuracy":"11","context":0,"place_id":"rdx2bZ9UV7JTfX5_HQ","woeid":"55863620","geo_is_family":0,"geo_is_friend":0,"geo_is_contact":0,"geo_is_public":1,"media":"photo","media_status":"ready"}]},"stat":"ok"}