{"photos":{"page":49,"pages":26696,"perpage":60,"total":"1601710","photo":[{"id":"14179579201","owner":"37486507@N06","secret":"034a7317b5","server":"5312","farm":6,"title":"All'infinito \/ To infinity","ispublic":1,"isfriend":0,"isfamily":0,"safe":0,"ownername":"AndreaPucci","latitude":50.734255,"longitude":-1.160323,"accuracy":"16","context":0,"place_id":"asS.uNRSUbIstw","woeid":"33830","geo_is_family":0,"geo_is_friend":0,"geo_is_contact":0,"geo_is_public":1,"media":"photo","media_status":"ready"},{"id":"14202791493","owner":"66644631@N05","secret":"5a8a6c5aee","server":"5567","farm":6,"title":"Museum of Arts and Crafts and the Statue of Liberty in Paris in France","ispublic":1,"isfriend":0,"isfamily":0,"safe":0,"ownername":"jmlpyt","latitude":48.865573,"longitude":2.355592,"accuracy":"16","context":0,"place_id":"zcv1Qn1UV7LFRCEsfQ","woeid":"55843758","geo_is_family":0,"geo_is_friend":0,"geo_is_contact":0,"geo_is_public":1,"media":"photo","media_status":"ready"},{"id":"13995982890","owner":"68176223@N07","secret":"bf9b6a2961","server":"2904","farm":3,"title":"Siena from above","ispublic":1,"isfriend":0,"isfamily":0,"safe":0,"ownername":"Franco Beccari","latitude":43.325439,"longitude":11.33076,"accuracy":"11","context":0,"place_id":"ETlqzr1WUL6FcKo","woeid":"724196","geo_is_family":0,"geo_is_friend":0,"geo_is_contact":0,"geo_is_public":1,"media":"photo","media_status":"ready"},{"id":"14157388606","owner":"36426732@N05","secret":"7086ed846e","server":"7354","farm":8,"title":"Streeeeeet Art Avenue A NYC","ispublic":1,"isfriend":0,"isfamily":0,"safe":0,"ownername":"ZUCCONY","latitude":40.727805,"longitude":-73.982314,"accuracy":"16","context":0,"place_id":"zecjVthTWr0Rm9cOJw","woeid":"28751354","geo_is_family":0,"geo_is_friend":0,"geo_is_contact":0,"geo_is_public":1,"media":"photo","media_status":"ready"},{"id":"14176522101","owner":"21482729@N07","secret":"0854ce2593","server":"7433","farm":8,"title":"owner of a lonely heart [EXPLORED]","ispublic":1,"isfriend":0,"isfamily":0,"safe":0,"ownername":"marco monetti","latitude":44.511533,"longitude":11.393723,"accuracy":"15","context":0,"place_id":"b353MhxWULh57nU","woeid":"722161","geo_is_family":0,"geo_is_friend":0,"geo_is_contact":0,"geo_is_public":1,"media":"photo","media_status":"ready"},{"id":"14199698973","owner":"92509991@N03","secret":"e595bd29f4","server":"7372","farm":8,"title":"South Devon Coastline","ispublic":1,"isfriend":0,"isfamily":0,"safe":0,"ownername":"Jacky Shepley","latitude":50.356742,"longitude":-3.520431,"accuracy":"14","context":0,"place_id":"0OfIrX9QUbOJ3Q","woeid":"13977","geo_is_family":0,"geo_is_friend":0,"geo_is_contact":0,"geo_is_public":1,"media":"photo","media_status":"ready"},{"id":"14176038671","owner":"10817753@N03","secret":"2b0e6e1e1c","server":"5192","farm":6,"title":"Kungstr\u00e4dg\u00e5rden, May 10, 2010","ispublic":1,"isfriend":0,"isfamily":0,"safe":0,"ownername":"Ulf Bodin","latitude":59.332363,"longitude":18.071116,"accuracy":"16","context":0,"place_id":"9N3p7MZYUrpgccE","woeid":"900000","geo_is_family":0,"geo_is_friend":0,"geo_is_contact":0,"geo_is_public":1,"media":"photo","media_status":"ready"},{"id":"14199124603","owner":"52559257@N02","secret":"8dfb9e21b4","server":"7344","farm":8,"title":"14154","ispublic":1,"isfriend":0,"isfamily":0,"safe":0,"ownername":"benbobjr","latitude":53.235936,"longitude":-0.540389,"accuracy":"16","context":0,"place_id":"PWBu96BTVLixtA","woeid":"26279","geo_is_family":0,"geo_is_friend":0,"geo_is_contact":0,"geo_is_public":1,"media":"photo","media_status":"ready"},{"id":"13991870257","owner":"8868875@N03","secret":"4be4fc0e6e","server":"2909","farm":3,"title":"look out there","ispublic":1,"isfriend":0,"isfamily":0,"safe":0,"ownername":"gato-gato-gato","latitude":47.371722,"longitude":8.542188,"accuracy":"16","context":0,"place_id":"Fwr4QC5WWrh4E64","woeid":"782466","geo_is_family":0,"geo_is_friend":0,"geo_is_contact":0,"geo_is_public":1,"media":"photo","media_status":"ready"},{"id":"14173595821","owner":"67833313@N08","secret":"ea42a84812","server":"7345","farm":8,"title":"blues...","ispublic":1,"isfriend":0,"isfamily":0,"safe":0,"ownername":"Dimitra Kirgiannaki \u266a\u00b8.\u2022*\u00b4spring-lover \u00a8\u00b4","latitude":37.929124,"longitude":23.69514,"accuracy":"11","context":0,"place_id":"0PhejEpYVL9ZXy4","woeid":"965854","geo_is_family":0,"geo_is_friend":0,"geo_is_contact":0,"geo_is_public":1,"media":"photo","media_status":"ready"},{"id":"13989808170","owner":"53794995@N05","secret":"3bdbf9902a","server":"7383","farm":8,"title":"Ikebana","ispublic":1,"isfriend":0,"isfamily":0,"safe":0,"ownername":"Helena de Riquer","latitude":41.980861,"longitude":2.818739,"accuracy":"11","context":0,"place_id":"PIBwCahWVLtJ_i4","woeid":"761600","geo_is_family":0,"geo_is_friend":0,"geo_is_contact":0,"geo_is_public":1,"media":"photo","media_status":"ready"},{"id":"13988609368","owner":"90378082@N07","secret":"7cf84992af","server":"7365","farm":8,"title":"Me","ispublic":1,"isfriend":0,"isfamily":0,"safe":0,"ownername":"Baz 120","latitude":41.895361,"longitude":12.478859,"accuracy":"15","context":0,"place_id":"FphPyURWU7ux6h4","woeid":"711883","geo_is_family":0,"geo_is_friend":0,"geo_is_contact":0,"geo_is_public":1,"media":"photo","media_status":"ready"},{"id":"14195153153","owner":"59852454@N03","secret":"0ab8a0282d","server":"7445","farm":8,"title":"Deep In The City","ispublic":1,"isfriend":0,"isfamily":0,"safe":0,"ownername":"Pavel P.","latitude":49.826023,"longitude":18.203508,"accuracy":"16","context":0,"place_id":"U18vRAhWW7_Fnvo","woeid":"795610","geo_is_family":0,"geo_is_friend":0,"geo_is_contact":0,"geo_is_public":1,"media":"photo","media_status":"ready"},{"id":"13984655539","owner":"54884190@N03","secret":"d2df4ca0e1","server":"7433","farm":8,"title":"Spring in \u00d6sterlen [Explored]","ispublic":1,"isfriend":0,"isfamily":0,"safe":0,"ownername":"Peddan Foto","latitude":55.663208,"longitude":14.271497,"accuracy":"13","context":0,"place_id":"yl6umG5TW7ifHE6VfQ","woeid":"29282116","geo_is_family":0,"geo_is_friend":0,"geo_is_contact":0,"geo_is_public":1,"media":"photo","media_status":"ready"},{"id":"13984618799","owner":"97423535@N00","secret":"7636c35409","server":"7327","farm":8,"title":"'Gold' Taken using iPhone 4S and 645 PRO Edited on iPad using Snapseed and Filterstorm\u00a9 2014 All rights reserved Paul J Rose","ispublic":1,"isfriend":0,"isfamily":0,"safe":0,"ownername":"Paul J Rose","latitude":54.573051,"longitude":-1.23763,"accuracy":"16","context":0,"place_id":"TELO5uRTVLnmXw","woeid":"26325","geo_is_family":0,"geo_is_friend":0,"geo_is_contact":0,"geo_is_public":1,"media":"photo","media_status":"ready"},{"id":"13984583139","owner":"87848574@N07","secret":"20d229e67e","server":"7349","farm":8,"title":"Bagmati River","ispublic":1,"isfriend":0,"isfamily":0,"safe":0,"ownername":"fredMin","latitude":27.676839,"longitude":85.308837,"accuracy":"11","context":0,"place_id":"l9lWcGdTULyUgU9b","woeid":"2269179","geo_is_family":0,"geo_is_friend":0,"geo_is_contact":0,"geo_is_public":1,"media":"photo","media_status":"ready"},{"id":"14191095873","owner":"45722248@N07","secret":"12181a9716","server":"2923","farm":3,"title":"Plakatieren verboten","ispublic":1,"isfriend":0,"isfamily":0,"safe":0,"ownername":"ffela","latitude":52.519525,"longitude":13.379755,"accuracy":"16","context":0,"place_id":"VULyzjBXVb89VXc","woeid":"675695","geo_is_family":0,"geo_is_friend":0,"geo_is_contact":0,"geo_is_public":1,"media":"photo","media_status":"ready"},{"id":"13983606039","owner":"17309879@N08","secret":"ab983003ae","server":"2911","farm":3,"title":"Black Jaguar.","ispublic":1,"isfriend":0,"isfamily":0,"safe":0,"ownername":"PRA Images","latitude":53.228708,"longitude":-2.877696,"accuracy":"16","context":0,"place_id":"6CQyUHhQV7Li.w","woeid":"15829","geo_is_family":0,"geo_is_friend":0,"geo_is_contact":0,"geo_is_public":1,"media":"photo","media_status":"ready"},{"id":"13982070560","owner":"67833313@N08","secret":"64f47ff090","server":"5473","farm":6,"title":"fire on sky....","ispublic":1,"isfriend":0,"isfamily":0,"safe":0,"ownername":"Dimitra Kirgiannaki \u266a\u00b8.\u2022*\u00b4spring-lover \u00a8\u00b4","latitude":37.929124,"longitude":23.695827,"accuracy":"11","context":0,"place_id":"0PhejEpYVL9ZXy4","woeid":"965854","geo_is_family":0,"geo_is_friend":0,"geo_is_contact":0,"geo_is_public":1,"media":"photo","media_status":"ready"},{"id":"13981575290","owner":"25062503@N08","secret":"2d3052a929","server":"2903","farm":3,"title":"LeiAnne and Martin at the Willow","ispublic":1,"isfriend":0,"isfamily":0,"safe":0,"ownername":"QuarryClimber","latitude":42.85923,"longitude":-71.372787,"accuracy":"16","context":0,"place_id":"qxmQb7tUV7MkMiwkOg","woeid":"55991504","geo_is_family":0,"geo_is_friend":0,"geo_is_contact":0,"geo_is_public":1,"media":"photo","media_status":"ready"},{"id":"13981004330","owner":"37708438@N05","secret":"0c3838dbeb","server":"2926","farm":3,"title":"Sunrise over Skinflats","ispublic":1,"isfriend":0,"isfamily":0,"safe":0,"ownername":"kenny barker","latitude":56.039905,"longitude":-3.757461,"accuracy":"10","context":0,"place_id":"thH2fa9TU7jo_w","woeid":"21229","geo_is_family":0,"geo_is_friend":0,"geo_is_contact":0,"geo_is_public":1,"media":"photo","media_status":"ready"},{"id":"13980496797","owner":"17913004@N06","secret":"aaab329474","server":"7442","farm":8,"title":"Burano's eye","ispublic":1,"isfriend":0,"isfamily":0,"safe":0,"ownername":"G.hostbuster","latitude":45.486131,"longitude":12.416481,"accuracy":"15","context":0,"place_id":"gaq6L7dWU7vvREY","woeid":"711537","geo_is_family":0,"geo_is_friend":0,"geo_is_contact":0,"geo_is_public":1,"media":"photo","media_status":"ready"},{"id":"14163839762","owner":"66644631@N05","secret":"dcf609df28","server":"7404","farm":8,"title":"Versailles castle","ispublic":1,"isfriend":0,"isfamily":0,"safe":0,"ownername":"jmlpyt","latitude":48.801929,"longitude":2.131119,"accuracy":"11","context":0,"place_id":"RtpMgPNXUbrqF08","woeid":"630908","geo_is_family":0,"geo_is_friend":0,"geo_is_contact":0,"geo_is_public":1,"media":"photo","media_status":"ready"},{"id":"14162679951","owner":"12913911@N05","secret":"8b18dfd4bd","server":"2912","farm":3,"title":"En una tarde fr\u00eda...","ispublic":1,"isfriend":0,"isfamily":0,"safe":0,"ownername":"ana_mabe","latitude":6.231688,"longitude":-75.164337,"accuracy":"11","context":0,"place_id":"i7bVV6VSV7yROMA","woeid":"356981","geo_is_family":0,"geo_is_friend":0,"geo_is_contact":0,"geo_is_public":1,"media":"photo","media_status":"ready"},{"id":"14161187352","owner":"88158633@N04","secret":"5a1129a9f6","server":"7305","farm":8,"title":"The dog of the street...O cachorro da rua...","ispublic":1,"isfriend":0,"isfamily":0,"safe":0,"ownername":"Fe_Lima","latitude":-22.496023,"longitude":-48.554677,"accuracy":"14","context":0,"place_id":"1nM5IQlVV7yduh0","woeid":"456067","geo_is_family":0,"geo_is_friend":0,"geo_is_contact":0,"geo_is_public":1,"media":"photo","media_status":"ready"},{"id":"14160813102","owner":"48888412@N02","secret":"40fda3b0ff","server":"2901","farm":3,"title":"Casablanca - Marabout Sidi Abderrahman","ispublic":1,"isfriend":0,"isfamily":0,"safe":0,"ownername":"aminefassi","latitude":33.569719,"longitude":-7.715492,"accuracy":"11","context":0,"place_id":"6zjw40lQV7l4f4ex","woeid":"1532755","geo_is_family":0,"geo_is_friend":0,"geo_is_contact":0,"geo_is_public":1,"media":"photo","media_status":"ready"},{"id":"14162571595","owner":"56910198@N06","secret":"9a9c3dd24f","server":"7301","farm":8,"title":"Hafenkran Zu\u0308rich","ispublic":1,"isfriend":0,"isfamily":0,"safe":0,"ownername":"iselihp","latitude":47.371719,"longitude":8.542263,"accuracy":"16","context":0,"place_id":"Fwr4QC5WWrh4E64","woeid":"782466","geo_is_family":0,"geo_is_friend":0,"geo_is_contact":0,"geo_is_public":1,"media":"photo","media_status":"ready"},{"id":"14158770521","owner":"47735293@N06","secret":"fe0227cbc5","server":"7452","farm":8,"title":"Snow White Variation1","ispublic":1,"isfriend":0,"isfamily":0,"safe":0,"ownername":"Fotografik33","latitude":42.695958,"longitude":1.812461,"accuracy":"16","context":0,"place_id":"lvzPEHJQULwyx.FJBg","woeid":"12656004","geo_is_family":0,"geo_is_friend":0,"geo_is_contact":0,"geo_is_public":1,"media":"photo","media_status":"ready"},{"id":"13974164580","owner":"79018141@N08","secret":"ec10e8cba0","server":"5509","farm":6,"title":"Eider","ispublic":1,"isfriend":0,"isfamily":0,"safe":0,"ownername":"Chris J Upson","latitude":55.583341,"longitude":-1.650009,"accuracy":"13","context":0,"place_id":"tWMO8gVSVrjDTA","woeid":"34280","geo_is_family":0,"geo_is_friend":0,"geo_is_contact":0,"geo_is_public":1,"media":"photo","media_status":"ready"},{"id":"14160357325","owner":"10817753@N03","secret":"5dd8c28d86","server":"7358","farm":8,"title":"Kungstr\u00e4dg\u00e5rden, April 23, 2014","ispublic":1,"isfriend":0,"isfamily":0,"safe":0,"ownername":"Ulf Bodin","latitude":59.332125,"longitude":18.071363,"accuracy":"16","context":0,"place_id":"9N3p7MZYUrpgccE","woeid":"900000","geo_is_family":0,"geo_is_friend":0,"geo_is_contact":0,"geo_is_public":1,"media":"photo","media_status":"ready"},{"id":"14156437601","owner":"120420403@N07","secret":"2e60824e84","server":"7359","farm":8,"title":"Victory parade. Moscow, New Arbat.","ispublic":1,"isfriend":0,"isfamily":0,"safe":0,"ownername":"Roman Melnichuk","latitude":55.75255,"longitude":37.592444,"accuracy":"16","context":0,"place_id":"Gyn7fcFTU7gkY7d5","woeid":"2122265","geo_is_family":0,"geo_is_friend":0,"geo_is_contact":0,"geo_is_public":1,"media":"photo","media_status":"ready"},{"id":"13972343420","owner":"32438882@N07","secret":"faa74601e4","server":"5154","farm":6,"title":"Caba\u00f1as de madera El Trubio por TeresalaLoba","ispublic":1,"isfriend":0,"isfamily":0,"safe":0,"ownername":"TeresalaLoba","latitude":42.137965,"longitude":-6.687369,"accuracy":"16","context":0,"place_id":"82blSZxTUriAX84qWw","woeid":"20228729","geo_is_family":0,"geo_is_friend":0,"geo_is_contact":0,"geo_is_public":1,"media":"photo","media_status":"ready"},{"id":"14158650825","owner":"19685823@N00","secret":"e52f9854fd","server":"7309","farm":8,"title":"a new challenge @ Ladu Suon . Switzerland","ispublic":1,"isfriend":0,"isfamily":0,"safe":0,"ownername":"Toni_V","latitude":46.336291,"longitude":7.794542,"accuracy":"14","context":0,"place_id":"aXjk0ndQULxwLZsORA","woeid":"12684081","geo_is_family":0,"geo_is_friend":0,"geo_is_contact":0,"geo_is_public":1,"media":"photo","media_status":"ready"},{"id":"13968641089","owner":"98153870@N00","secret":"b06aa26174","server":"7345","farm":8,"title":"Moon 2","ispublic":1,"isfriend":0,"isfamily":0,"safe":0,"ownername":"Ana Sofia Guerreirinho","latitude":38.629443,"longitude":-9.124274,"accuracy":"14","context":0,"place_id":"dXG8s2tWUbwqN5I","woeid":"736159","geo_is_family":0,"geo_is_friend":0,"geo_is_contact":0,"geo_is_public":1,"media":"photo","media_status":"ready"},{"id":"14154732354","owner":"35232195@N06","secret":"7d9c8c7d72","server":"5105","farm":6,"title":"Umbrella","ispublic":1,"isfriend":0,"isfamily":0,"safe":0,"ownername":"Julio L\u00f3pez Saguar","latitude":28.913517,"longitude":-13.7154,"accuracy":"13","context":0,"place_id":"sK5vnCtTW7nJU7rYWg","woeid":"29372845","geo_is_family":0,"geo_is_friend":0,"geo_is_contact":0,"geo_is_public":1,"media":"photo","media_status":"ready"},{"id":"14153466894","owner":"89837521@N07","secret":"c36c34c708","server":"7334","farm":8,"title":"Walthamstow, East London - 8 May 2014 - Brandon Road","ispublic":1,"isfriend":0,"isfamily":0,"safe":0,"ownername":"Vibrant Walthamstow","latitude":51.588075,"longitude":-0.003607,"accuracy":"15","context":0,"place_id":"HCak1dJTUroWYqZYmQ","woeid":"20089365","geo_is_family":0,"geo_is_friend":0,"geo_is_contact":0,"geo_is_public":1,"media":"photo","media_status":"ready"},{"id":"14153444684","owner":"33000359@N05","secret":"78c72dd629","server":"2928","farm":3,"title":"Cats And Dogs","ispublic":1,"isfriend":0,"isfamily":0,"safe":0,"ownername":"derScheuch","latitude":53.124583,"longitude":8.125934,"accuracy":"16","context":0,"place_id":"bHJIDqJTUrsT_TKJFw","woeid":"20167649","geo_is_family":0,"geo_is_friend":0,"geo_is_contact":0,"geo_is_public":1,"media":"photo","media_status":"ready"},{"id":"13966474299","owner":"10817753@N03","secret":"95005591d1","server":"2908","farm":3,"title":"Br\u00e5viken","ispublic":1,"isfriend":0,"isfamily":0,"safe":0,"ownername":"Ulf Bodin","latitude":58.665116,"longitude":16.304988,"accuracy":"16","context":0,"place_id":"LfXKKplUV7LaN7RAcA","woeid":"55873197","geo_is_family":0,"geo_is_friend":0,"geo_is_contact":0,"geo_is_public":1,"media":"photo","media_status":"ready"},{"id":"14150133622","owner":"101109840@N06","secret":"6281fc90e0","server":"2930","farm":3,"title":"Uban Lights_III","ispublic":1,"isfriend":0,"isfamily":0,"safe":0,"ownername":"Brigante\uf8ff","latitude":45.46894,"longitude":9.18103,"accuracy":"11","context":0,"place_id":"49Gidk1WU7JxrFY","woeid":"718345","geo_is_family":0,"geo_is_friend":0,"geo_is_contact":0,"geo_is_public":1,"media":"photo","media_status":"ready"},{"id":"14153058404","owner":"24149205@N05","secret":"2255848b00","server":"7321","farm":8,"title":"Leonard Bernstein, MASS","ispublic":1,"isfriend":0,"isfamily":0,"safe":0,"ownername":"AdamTje","latitude":59.332702,"longitude":18.093236,"accuracy":"16","context":0,"place_id":"PbgUuBtYUrtHZJM","woeid":"901132","geo_is_family":0,"geo_is_friend":0,"geo_is_contact":0,"geo_is_public":1,"media":"photo","media_status":"ready"},{"id":"14172037813","owner":"54932558@N00","secret":"79856e818c","server":"2922","farm":3,"title":"Venice Italy Grand Canal","ispublic":1,"isfriend":0,"isfamily":0,"safe":0,"ownername":"Bridgeport Mike","latitude":45.428696,"longitude":12.324428,"accuracy":"12","context":0,"place_id":"1N.fFnxTUruM4fC_Dw","woeid":"20150615","geo_is_family":0,"geo_is_friend":0,"geo_is_contact":0,"geo_is_public":1,"media":"photo","media_status":"ready"},{"id":"13964906530","owner":"79018616@N02","secret":"a097737161","server":"2906","farm":3,"title":"A different point of view","ispublic":1,"isfriend":0,"isfamily":0,"safe":0,"ownername":"-Makar79-","latitude":44.412681,"longitude":8.933204,"accuracy":"16","context":0,"place_id":"ClW08NRWU7lQvlQ","woeid":"713353","geo_is_family":0,"geo_is_friend":0,"geo_is_contact":0,"geo_is_public":1,"media":"photo","media_status":"ready"},{"id":"14147961532","owner":"63239442@N06","secret":"634f07f499","server":"5494","farm":6,"title":"Paisajes de Almer\u00eda","ispublic":1,"isfriend":0,"isfamily":0,"safe":0,"ownername":"Miguel Callejon","latitude":36.737319,"longitude":-2.207115,"accuracy":"16","context":0,"place_id":"qdlmJ15TW7mG.g9ZnQ","woeid":"29370586","geo_is_family":0,"geo_is_friend":0,"geo_is_contact":0,"geo_is_public":1,"media":"photo","media_status":"ready"},{"id":"14150288894","owner":"50027776@N05","secret":"6c021ed427","server":"7397","farm":8,"title":"Sibillini - Castelluccio di Norcia","ispublic":1,"isfriend":0,"isfamily":0,"safe":0,"ownername":"Luigi Alesi","latitude":42.828299,"longitude":13.206467,"accuracy":"14","context":0,"place_id":"IcB85V1WU7lCiZ8","woeid":"713407","geo_is_family":0,"geo_is_friend":0,"geo_is_contact":0,"geo_is_public":1,"media":"photo","media_status":"ready"},{"id":"14124606006","owner":"35581435@N07","secret":"fea1e20033","server":"7454","farm":8,"title":"Praia do Curu\u00edpe em Trancoso","ispublic":1,"isfriend":0,"isfamily":0,"safe":0,"ownername":"marcelo nacinovic","latitude":-16.653954,"longitude":-39.097595,"accuracy":"11","context":0,"place_id":"HTlt5udTUb7fwhxO","woeid":"2344848","geo_is_family":0,"geo_is_friend":0,"geo_is_contact":0,"geo_is_public":1,"media":"photo","media_status":"ready"},{"id":"14144312652","owner":"9689088@N05","secret":"4191894891","server":"2919","farm":3,"title":"","ispublic":1,"isfriend":0,"isfamily":0,"safe":0,"ownername":"RoX4NnE","latitude":-9.518429,"longitude":-77.517433,"accuracy":"11","context":0,"place_id":"_wMNT.RVU7Lz25Q","woeid":"418456","geo_is_family":0,"geo_is_friend":0,"geo_is_contact":0,"geo_is_public":1,"media":"photo","media_status":"ready"},{"id":"13959785818","owner":"35977279@N02","secret":"c115f5a3af","server":"7372","farm":8,"title":"White Handed Gibbon Web","ispublic":1,"isfriend":0,"isfamily":0,"safe":0,"ownername":"andyoafmcgarry","latitude":54.167249,"longitude":-3.167431,"accuracy":"16","context":0,"place_id":"hH_yGXFQVbI32w","woeid":"17890","geo_is_family":0,"geo_is_friend":0,"geo_is_contact":0,"geo_is_public":1,"media":"photo","media_status":"ready"},{"id":"13959649527","owner":"33000359@N05","secret":"9a5e8feb6f","server":"5152","farm":6,"title":"Balcony Maintenance","ispublic":1,"isfriend":0,"isfamily":0,"safe":0,"ownername":"derScheuch","latitude":43.580853,"longitude":11.302657,"accuracy":"16","context":0,"place_id":"j9RY8uhTUrt0cfMvgg","woeid":"20132772","geo_is_family":0,"geo_is_friend":0,"geo_is_contact":0,"geo_is_public":1,"media":"photo","media_status":"ready"},{"id":"13959093277","owner":"8868875@N03","secret":"00b1b8e34e","server":"7374","farm":8,"title":"photog","ispublic":1,"isfriend":0,"isfamily":0,"safe":0,"ownername":"gato-gato-gato","latitude":47.37603,"longitude":8.526355,"accuracy":"16","context":0,"place_id":"N6mvrZ5WWrsOeBo","woeid":"781693","geo_is_family":0,"geo_is_friend":0,"geo_is_contact":0,"geo_is_public":1,"media":"photo","media_status":"ready"},{"id":"13959034119","owner":"24448805@N07","secret":"9540229d4a","server":"7389","farm":8,"title":"Birds eye manhattan","ispublic":1,"isfriend":0,"isfamily":0,"safe":0,"ownername":"Tony Shi.","latitude":40.748396,"longitude":-73.985484,"accuracy":"16","context":0,"place_id":"MGEM4kFTWr0tOal8SA","woeid":"28751330","geo_is_family":0,"geo_is_friend":0,"geo_is_contact":0,"geo_is_public":1,"media":"photo","media_status":"ready"},{"id":"13959000789","owner":"96404105@N08","secret":"c622301119","server":"5034","farm":6,"title":"000063UA-F Schw\u00e4bisch Hall","ispublic":1,"isfriend":0,"isfamily":0,"safe":0,"ownername":"Impressionen-Digital","latitude":49.113311,"longitude":9.746049,"accuracy":"11","context":0,"place_id":"bs8d07BXW7kCZwM","woeid":"693472","geo_is_family":0,"geo_is_friend":0,"geo_is_contact":0,"geo_is_public":1,"media":"photo","media_status":"ready"},{"id":"14144589645","owner":"64110713@N05","secret":"22b20215eb","server":"7300","farm":8,"title":"On top of the r, or asleep on the d","ispublic":1,"isfriend":0,"isfamily":0,"safe":0,"ownername":"Just Ard","latitude":52.359431,"longitude":4.884377,"accuracy":"16","context":0,"place_id":"xfcEFYhWULKtjYI","woeid":"728410","geo_is_family":0,"geo_is_friend":0,"geo_is_contact":0,"geo_is_public":1,"media":"photo","media_status":"ready"},{"id":"13957088157","owner":"33954561@N08","secret":"f1920a4383","server":"7314","farm":8,"title":"An afternoon of sunshine in bath [Explored]","ispublic":1,"isfriend":0,"isfamily":0,"safe":0,"ownername":"ashmieke","latitude":51.383688,"longitude":-2.358759,"accuracy":"16","context":0,"place_id":"2XSoNuhQULp6tg","woeid":"12069","geo_is_family":0,"geo_is_friend":0,"geo_is_contact":0,"geo_is_public":1,"media":"photo","media_status":"ready"},{"id":"14163564043","owner":"48447300@N02","secret":"d913614759","server":"7303","farm":8,"title":"Best seat in the house - and outside too?","ispublic":1,"isfriend":0,"isfamily":0,"safe":0,"ownername":"Finn Frode (DK)","latitude":55.653179,"longitude":12.269915,"accuracy":"16","context":0,"place_id":"A_kOnhxUV731Hzs","woeid":"557938","geo_is_family":0,"geo_is_friend":0,"geo_is_contact":0,"geo_is_public":1,"media":"photo","media_status":"ready"},{"id":"14143692304","owner":"47281210@N00","secret":"a20870e296","server":"7376","farm":8,"title":"FenetresRueSaint-Honore-3","ispublic":1,"isfriend":0,"isfamily":0,"safe":0,"ownername":"Daniel Hard","latitude":48.864391,"longitude":2.333521,"accuracy":"14","context":0,"place_id":"R13rUF1UV7LQLoV4Ig","woeid":"55843751","geo_is_family":0,"geo_is_friend":0,"geo_is_contact":0,"geo_is_public":1,"media":"photo","media_status":"ready"},{"id":"13956594610","owner":"50027776@N05","secret":"71718afbb9","server":"7414","farm":8,"title":"Sibillini  - Pian Grande","ispublic":1,"isfriend":0,"isfamily":0,"safe":0,"ownername":"Luigi Alesi","latitude":42.828299,"longitude":13.206467,"accuracy":"14","context":0,"place_id":"IcB85V1WU7lCiZ8","woeid":"713407","geo_is_family":0,"geo_is_friend":0,"geo_is_contact":0,"geo_is_public":1,"media":"photo","media_status":"ready"},{"id":"14160240903","owner":"63270671@N03","secret":"08504779f1","server":"5585","farm":6,"title":"Classical Statue - FlickR explore 08.05.2014","ispublic":1,"isfriend":0,"isfamily":0,"safe":0,"ownername":"S.R.Murphy","latitude":55.67604,"longitude":12.576863,"accuracy":"16","context":0,"place_id":"L29gpv9TUrjQjo7_8w","woeid":"20229322","geo_is_family":0,"geo_is_friend":0,"geo_is_contact":0,"geo_is_public":1,"media":"photo","media_status":"ready"},{"id":"14136248462","owner":"88420718@N03","secret":"bda5fe40bb","server":"5036","farm":6,"title":"seabirds and a buoy","ispublic":1,"isfriend":0,"isfamily":0,"safe":0,"ownername":"thequietguy","latitude":40.57902,"longitude":22.938079,"accuracy":"13","context":0,"place_id":"r6mTAkVYV7oSfCA","woeid":"950734","geo_is_family":0,"geo_is_friend":0,"geo_is_contact":0,"geo_is_public":1,"media":"photo","media_status":"ready"},{"id":"14157791103","owner":"8618958@N06","secret":"766a3ec240","server":"5566","farm":6,"title":"GODAFOSS","ispublic":1,"isfriend":0,"isfamily":0,"safe":0,"ownername":"euskadi 69","latitude":65.691084,"longitude":-17.559242,"accuracy":"10","context":0,"place_id":"ZtQTQ_hTUb6uqVhu","woeid":"2345705","geo_is_family":0,"geo_is_friend":0,"geo_is_contact":0,"geo_is_public":1,"media":"photo","media_status":"ready"},{"id":"14156732163","owner":"37842091@N08","secret":"b03bfb5edf","server":"5557","farm":6,"title":"Hipstamatic C70","ispublic":1,"isfriend":0,"isfamily":0,"safe":0,"ownername":"Richard Pilon","latitude":45.431083,"longitude":-75.679911,"accuracy":"16","context":0,"place_id":"qIlwXERUV7KjS3I16w","woeid":"55855913","geo_is_family":0,"geo_is_friend":0,"geo_is_contact":0,"geo_is_public":1,"media":"photo","media_status":"ready"}]},"stat":"ok"}