{"photos":{"page":27,"pages":26137,"perpage":60,"total":"1568198","photo":[{"id":"14052801723","owner":"81072794@N06","secret":"729a10ccef","server":"7135","farm":8,"title":"foggy","ispublic":1,"isfriend":0,"isfamily":0,"safe":0,"ownername":"DM51VER","latitude":57.159147,"longitude":-2.078475,"accuracy":"13","context":0,"place_id":"ssMfgp1QVboRGA","woeid":"17034","geo_is_family":0,"geo_is_friend":0,"geo_is_contact":0,"geo_is_public":1,"media":"photo","media_status":"ready"},{"id":"14032914894","owner":"13297363@N08","secret":"dd279bf044","server":"5066","farm":6,"title":"Aeropuerto Madrid","ispublic":1,"isfriend":0,"isfamily":0,"safe":0,"ownername":"duque\u0131ros","latitude":40.458625,"longitude":-3.555544,"accuracy":"13","context":0,"place_id":"uTYMKONWVLwFNrE","woeid":"766273","geo_is_family":0,"geo_is_friend":0,"geo_is_contact":0,"geo_is_public":1,"media":"photo","media_status":"ready"},{"id":"14006901716","owner":"46059838@N04","secret":"51a1b92494","server":"2933","farm":3,"title":"Two little angels, Zimbawe","ispublic":1,"isfriend":0,"isfamily":0,"safe":0,"ownername":"Marie.L.Manzor","latitude":-18.023865,"longitude":30.236664,"accuracy":"5","context":0,"place_id":"yjVMF4FTUb6QMGvt","woeid":"2347814","geo_is_family":0,"geo_is_friend":0,"geo_is_contact":0,"geo_is_public":1,"media":"photo","media_status":"ready"},{"id":"14001904046","owner":"67055100@N00","secret":"ee3ca79fe1","server":"7397","farm":8,"title":"Visiting Jay","ispublic":1,"isfriend":0,"isfamily":0,"safe":0,"ownername":"Rivertay07 - thanks for over 2 million views","latitude":51.712633,"longitude":-0.009478,"accuracy":"16","context":0,"place_id":"JDwdYcBSWrnXdg","woeid":"38357","geo_is_family":0,"geo_is_friend":0,"geo_is_contact":0,"geo_is_public":1,"media":"photo","media_status":"ready"},{"id":"14001038126","owner":"23904816@N00","secret":"df78586d9f","server":"7147","farm":8,"title":"I'm the bride leader","ispublic":1,"isfriend":0,"isfamily":0,"safe":0,"ownername":"Rainer \u274f","latitude":51.942042,"longitude":6.69033,"accuracy":"13","context":0,"place_id":"oBJZKYdWUb6gtDE","woeid":"734818","geo_is_family":0,"geo_is_friend":0,"geo_is_contact":0,"geo_is_public":1,"media":"photo","media_status":"ready"},{"id":"14023894384","owner":"15133799@N02","secret":"aafa5d36fe","server":"7424","farm":8,"title":"Evening light's coming through","ispublic":1,"isfriend":0,"isfamily":0,"safe":0,"ownername":"*Kicki*","latitude":57.697133,"longitude":11.937716,"accuracy":"16","context":0,"place_id":"fE2bbSZTUrtfb63JjQ","woeid":"20151714","geo_is_family":0,"geo_is_friend":0,"geo_is_contact":0,"geo_is_public":1,"media":"photo","media_status":"ready"},{"id":"13999443116","owner":"46059838@N04","secret":"39a226b954","server":"7108","farm":8,"title":"Kolmanskop, Namibia","ispublic":1,"isfriend":0,"isfamily":0,"safe":0,"ownername":"Marie.L.Manzor","latitude":-26.683639,"longitude":15.2349,"accuracy":"11","context":0,"place_id":"4PuO.rVQVrwgShIH","woeid":"1465229","geo_is_family":0,"geo_is_friend":0,"geo_is_contact":0,"geo_is_public":1,"media":"photo","media_status":"ready"},{"id":"14019831194","owner":"85178107@N08","secret":"1ac83def8f","server":"2933","farm":3,"title":"Longumvannet","ispublic":1,"isfriend":0,"isfamily":0,"safe":0,"ownername":"\u00d8yvind Bjerkholt (Thanks for 2,4 million+ views)","latitude":58.494456,"longitude":8.766403,"accuracy":"14","context":0,"place_id":"V8IEmrpZV7yziIw","woeid":"856705","geo_is_family":0,"geo_is_friend":0,"geo_is_contact":0,"geo_is_public":1,"media":"photo","media_status":"ready"},{"id":"14015170771","owner":"90365553@N08","secret":"20af9efd44","server":"2916","farm":3,"title":"Reading...","ispublic":1,"isfriend":0,"isfamily":0,"safe":0,"ownername":"Jean S..","latitude":46.807432,"longitude":-71.215374,"accuracy":"15","context":0,"place_id":"ffwBbcxTUblpkuRpww","woeid":"23396764","geo_is_family":0,"geo_is_friend":0,"geo_is_contact":0,"geo_is_public":1,"media":"photo","media_status":"ready"},{"id":"14008266122","owner":"11473706@N03","secret":"1a78e86900","server":"2913","farm":3,"title":"Flower","ispublic":1,"isfriend":0,"isfamily":0,"safe":0,"ownername":"Cost3l","latitude":47.16008,"longitude":27.584688,"accuracy":"16","context":0,"place_id":"DaqK9LZZVbmQF8Q","woeid":"873915","geo_is_family":0,"geo_is_friend":0,"geo_is_contact":0,"geo_is_public":1,"media":"photo","media_status":"ready"},{"id":"14003435252","owner":"58195583@N06","secret":"a39b118309","server":"5484","farm":6,"title":"Lilac-breasted Roller, Coracias caudatus, Hwange National Park, Zimbabwe","ispublic":1,"isfriend":0,"isfamily":0,"safe":0,"ownername":"Jeremy Smith Photography","latitude":-18.737521,"longitude":26.720123,"accuracy":"9","context":0,"place_id":"jlLi9xZTUb4Dx0h8","woeid":"2347815","geo_is_family":0,"geo_is_friend":0,"geo_is_contact":0,"geo_is_public":1,"media":"photo","media_status":"ready"},{"id":"14005683374","owner":"112711738@N06","secret":"177c15cf4a","server":"5022","farm":6,"title":"Way To The Sirens.","ispublic":1,"isfriend":0,"isfamily":0,"safe":0,"ownername":"dasanes77","latitude":36.722209,"longitude":-2.192159,"accuracy":"11","context":0,"place_id":"SW3.oBBTULzVYAHv4w","woeid":"22661164","geo_is_family":0,"geo_is_friend":0,"geo_is_contact":0,"geo_is_public":1,"media":"photo","media_status":"ready"},{"id":"14003905554","owner":"66644631@N05","secret":"2426b00e18","server":"2926","farm":3,"title":"Beautiful colorful flowers","ispublic":1,"isfriend":0,"isfamily":0,"safe":0,"ownername":"jmlpyt","latitude":48.837661,"longitude":2.445359,"accuracy":"14","context":0,"place_id":"C9kmhglQULxJDv0pvg","woeid":"12654592","geo_is_family":0,"geo_is_friend":0,"geo_is_contact":0,"geo_is_public":1,"media":"photo","media_status":"ready"},{"id":"13976777006","owner":"65949682@N00","secret":"88b87504d4","server":"5346","farm":6,"title":"Les Lanternes Rouges","ispublic":1,"isfriend":0,"isfamily":0,"safe":0,"ownername":"OR_U","latitude":39.471022,"longitude":-0.37497,"accuracy":"16","context":0,"place_id":"aOaiaoRTUrjdUgVu0g","woeid":"20220220","geo_is_family":0,"geo_is_friend":0,"geo_is_contact":0,"geo_is_public":1,"media":"photo","media_status":"ready"},{"id":"13975898336","owner":"26849514@N06","secret":"6bd37dcb2a","server":"2916","farm":3,"title":"Newborn lambs, green grass, flowers, it is Spring !","ispublic":1,"isfriend":0,"isfamily":0,"safe":0,"ownername":"Frans.Sellies","latitude":52.519459,"longitude":4.881706,"accuracy":"14","context":0,"place_id":"F86XYCBTUb6DPzhs","woeid":"2346379","geo_is_family":0,"geo_is_friend":0,"geo_is_contact":0,"geo_is_public":1,"media":"photo","media_status":"ready"},{"id":"13999038614","owner":"44206268@N07","secret":"0ce2e4a37f","server":"7302","farm":8,"title":"Little eggs","ispublic":1,"isfriend":0,"isfamily":0,"safe":0,"ownername":"Rene Mensen","latitude":52.748087,"longitude":6.898427,"accuracy":"15","context":0,"place_id":"vPfEQ3RWULPuU3s","woeid":"729104","geo_is_family":0,"geo_is_friend":0,"geo_is_contact":0,"geo_is_public":1,"media":"photo","media_status":"ready"},{"id":"13992086982","owner":"39669415@N05","secret":"1416518724","server":"7142","farm":8,"title":"The beginning of the end of the beautiful colors","ispublic":1,"isfriend":0,"isfamily":0,"safe":0,"ownername":"BraCom (Bram)","latitude":51.738025,"longitude":4.14343,"accuracy":"16","context":0,"place_id":"MApSWQ5WUbmscv8","woeid":"733489","geo_is_family":0,"geo_is_friend":0,"geo_is_contact":0,"geo_is_public":1,"media":"photo","media_status":"ready"},{"id":"13991986704","owner":"66644631@N05","secret":"9602e17f4e","server":"5122","farm":6,"title":"Orthoptist in action","ispublic":1,"isfriend":0,"isfamily":0,"safe":0,"ownername":"jmlpyt","latitude":48.856918,"longitude":2.341209,"accuracy":"11","context":0,"place_id":"EsIQUYZXU79_kEA","woeid":"615702","geo_is_family":0,"geo_is_friend":0,"geo_is_contact":0,"geo_is_public":1,"media":"photo","media_status":"ready"},{"id":"14004653303","owner":"7349924@N08","secret":"616b617849","server":"7409","farm":8,"title":"Pine Creek Mill - Explore #4","ispublic":1,"isfriend":0,"isfamily":0,"safe":0,"ownername":"Jerry Jaynes","latitude":36.922415,"longitude":-80.273108,"accuracy":"15","context":0,"place_id":"oOV2YPlTVrqYozEW","woeid":"2404667","geo_is_family":0,"geo_is_friend":0,"geo_is_contact":0,"geo_is_public":1,"media":"photo","media_status":"ready"},{"id":"13981022391","owner":"75921462@N08","secret":"ec7de35c20","server":"5332","farm":6,"title":"Ploumanach version NB .... explore 2014-04-23","ispublic":1,"isfriend":0,"isfamily":0,"safe":0,"ownername":"MariBzH35","latitude":48.832407,"longitude":-3.478202,"accuracy":"11","context":0,"place_id":"L21jf2VXU71egz8","woeid":"617017","geo_is_family":0,"geo_is_friend":0,"geo_is_contact":0,"geo_is_public":1,"media":"photo","media_status":"ready"},{"id":"14003635143","owner":"38512417@N04","secret":"b22edea898","server":"7421","farm":8,"title":"Hatfield","ispublic":1,"isfriend":0,"isfamily":0,"safe":0,"ownername":"Mark Walton1","latitude":51.759355,"longitude":-0.210014,"accuracy":"16","context":0,"place_id":"1QXQ9shTULyS1A","woeid":"22630","geo_is_family":0,"geo_is_friend":0,"geo_is_contact":0,"geo_is_public":1,"media":"photo","media_status":"ready"},{"id":"13983628915","owner":"29225114@N08","secret":"32c5107453","server":"7302","farm":8,"title":"Bweha masigio (eng. Bat-eared fox)","ispublic":1,"isfriend":0,"isfamily":0,"safe":0,"ownername":"Sergei Golyshev","latitude":-2.593946,"longitude":34.852066,"accuracy":"11","context":0,"place_id":"FoL2v5BTUb7LO9qk","woeid":"2347366","geo_is_family":0,"geo_is_friend":0,"geo_is_contact":0,"geo_is_public":1,"media":"photo","media_status":"ready"},{"id":"13996656503","owner":"75133058@N00","secret":"e27b330b79","server":"7020","farm":8,"title":"Mandando corda em rodeio...","ispublic":1,"isfriend":0,"isfamily":0,"safe":0,"ownername":"Eduardo Amorim","latitude":-31.652796,"longitude":-52.556533,"accuracy":"10","context":0,"place_id":"r.HJ_lFQUL.dPTUaEA","woeid":"12581408","geo_is_family":0,"geo_is_friend":0,"geo_is_contact":0,"geo_is_public":1,"media":"photo","media_status":"ready"},{"id":"13973340921","owner":"41056143@N06","secret":"2c587b8d05","server":"7418","farm":8,"title":"TERRA INCOGNITA","ispublic":1,"isfriend":0,"isfamily":0,"safe":0,"ownername":"Grant Simon Rogers","latitude":51.478068,"longitude":-0.092139,"accuracy":"16","context":0,"place_id":"ZREYHmhQVrOmPw","woeid":"14974","geo_is_family":0,"geo_is_friend":0,"geo_is_contact":0,"geo_is_public":1,"media":"photo","media_status":"ready"},{"id":"13972965252","owner":"35079936@N07","secret":"0df9d40245","server":"7234","farm":8,"title":"C57A0128","ispublic":1,"isfriend":0,"isfamily":0,"safe":0,"ownername":"Carlos A. Objio Sarraff: 3 million+Viewers.Thanks","latitude":26.528909,"longitude":-80.063163,"accuracy":"11","context":0,"place_id":"tuvT0oxTUbz85BB8","woeid":"2367727","geo_is_family":0,"geo_is_friend":0,"geo_is_contact":0,"geo_is_public":1,"media":"photo","media_status":"ready"},{"id":"13970374151","owner":"96667746@N04","secret":"556e59b06e","server":"7231","farm":8,"title":"Casting Rays And Colors","ispublic":1,"isfriend":0,"isfamily":0,"safe":0,"ownername":"Agrusoft Webdesign Photopage","latitude":52.714666,"longitude":5.110875,"accuracy":"16","context":0,"place_id":"1HOROYtWULOsmVo","woeid":"729769","geo_is_family":0,"geo_is_friend":0,"geo_is_contact":0,"geo_is_public":1,"media":"photo","media_status":"ready"},{"id":"13993213923","owner":"79408015@N08","secret":"cc11efe6c8","server":"7108","farm":8,"title":"fluttery (colorful Explore - Thank you all! - 2014-04-22)","ispublic":1,"isfriend":0,"isfamily":0,"safe":0,"ownername":"DaLi-A","latitude":50.855105,"longitude":12.877811,"accuracy":"16","context":0,"place_id":"_.hlgz9XVrm_BLM","woeid":"643134","geo_is_family":0,"geo_is_friend":0,"geo_is_contact":0,"geo_is_public":1,"media":"photo","media_status":"ready"},{"id":"13972585304","owner":"22848227@N07","secret":"f92acaa936","server":"7233","farm":8,"title":"Dun Briste Sea Stack, Co. Mayo, Ireland","ispublic":1,"isfriend":0,"isfamily":0,"safe":0,"ownername":"keithy baby!","latitude":54.327048,"longitude":-9.347294,"accuracy":"16","context":0,"place_id":"RbYUL4NTUbye8ExIDg","woeid":"23691910","geo_is_family":0,"geo_is_friend":0,"geo_is_contact":0,"geo_is_public":1,"media":"photo","media_status":"ready"},{"id":"13992097713","owner":"12039065@N00","secret":"792e1c9bf5","server":"7212","farm":8,"title":"Bosques de Huinfiuca","ispublic":1,"isfriend":0,"isfamily":0,"safe":0,"ownername":"Mono Andes","latitude":-39.581617,"longitude":-71.536758,"accuracy":"16","context":0,"place_id":"7GKvwPdTUrrmSk.s2A","woeid":"20071043","geo_is_family":0,"geo_is_friend":0,"geo_is_contact":0,"geo_is_public":1,"media":"photo","media_status":"ready"},{"id":"13970530994","owner":"29558743@N03","secret":"772380b699","server":"5084","farm":6,"title":"morning mist","ispublic":1,"isfriend":0,"isfamily":0,"safe":0,"ownername":"mujepa","latitude":49.082299,"longitude":6.171398,"accuracy":"16","context":0,"place_id":"tcXnU0xWU7_DQtMC","woeid":"7153322","geo_is_family":0,"geo_is_friend":0,"geo_is_contact":0,"geo_is_public":1,"media":"photo","media_status":"ready"},{"id":"13964733092","owner":"90365553@N08","secret":"b6a622276d","server":"5442","farm":6,"title":"Power and beauty!","ispublic":1,"isfriend":0,"isfamily":0,"safe":0,"ownername":"Jean S..","latitude":46.713031,"longitude":-71.281013,"accuracy":"11","context":0,"place_id":"uAsNxd9TVLI","woeid":"268","geo_is_family":0,"geo_is_friend":0,"geo_is_contact":0,"geo_is_public":1,"media":"photo","media_status":"ready"},{"id":"13964127492","owner":"45642489@N03","secret":"205d7b44f4","server":"7374","farm":8,"title":"","ispublic":1,"isfriend":0,"isfamily":0,"safe":0,"ownername":"librasergio","latitude":45.438251,"longitude":12.31849,"accuracy":"11","context":0,"place_id":"1kXEps9WUL8o6ro","woeid":"725746","geo_is_family":0,"geo_is_friend":0,"geo_is_contact":0,"geo_is_public":1,"media":"photo","media_status":"ready"},{"id":"13959628045","owner":"59646784@N08","secret":"7041cb6e27","server":"7376","farm":8,"title":"My hat","ispublic":1,"isfriend":0,"isfamily":0,"safe":0,"ownername":"L'hort de la Lolo","latitude":42.247741,"longitude":2.81364,"accuracy":"11","context":0,"place_id":"oK1nEihWVL..RyA","woeid":"765261","geo_is_family":0,"geo_is_friend":0,"geo_is_contact":0,"geo_is_public":1,"media":"photo","media_status":"ready"},{"id":"13913218083","owner":"32438882@N07","secret":"e01f82fe95","server":"3760","farm":4,"title":"R\u00edo Cubelo por TeresalaLoba","ispublic":1,"isfriend":0,"isfamily":0,"safe":0,"ownername":"TeresalaLoba","latitude":42.34968,"longitude":-8.266731,"accuracy":"16","context":0,"place_id":"JBoofkRTUriDQHfKQw","woeid":"20221701","geo_is_family":0,"geo_is_friend":0,"geo_is_contact":0,"geo_is_public":1,"media":"photo","media_status":"ready"},{"id":"13852994753","owner":"75632900@N04","secret":"5d99c8f330","server":"7124","farm":8,"title":"LIDO DELL'ANCORA NARDO'","ispublic":1,"isfriend":0,"isfamily":0,"safe":0,"ownername":"Aristide Mazzarella","latitude":40.209294,"longitude":17.921447,"accuracy":"11","context":0,"place_id":"8MOGtcZTUrtGt.031Q","woeid":"20142413","geo_is_family":0,"geo_is_friend":0,"geo_is_contact":0,"geo_is_public":1,"media":"photo","media_status":"ready"},{"id":"13588835924","owner":"70139913@N02","secret":"f50ea55d06","server":"3695","farm":4,"title":"Tulpe und Sonne - Tulip and Sunlight","ispublic":1,"isfriend":0,"isfamily":0,"safe":0,"ownername":"MaiGoede","latitude":53.595917,"longitude":8.352422,"accuracy":"16","context":0,"place_id":"KpHKFSlXVrPMThQ","woeid":"649398","geo_is_family":0,"geo_is_friend":0,"geo_is_contact":0,"geo_is_public":1,"media":"photo","media_status":"ready"},{"id":"12184297834","owner":"26849514@N06","secret":"9f5b226eff","server":"5530","farm":6,"title":"Happy Friday ! \/ Sheikh Zayed Mosque, Abu Dhabi","ispublic":1,"isfriend":0,"isfamily":0,"safe":0,"ownername":"Frans.Sellies","latitude":24.412218,"longitude":54.475257,"accuracy":"16","context":0,"place_id":"XJrbPnxQW76qECGx","woeid":"1940330","geo_is_family":0,"geo_is_friend":0,"geo_is_contact":0,"geo_is_public":1,"media":"photo","media_status":"ready"},{"id":"9979967935","owner":"35407568@N06","secret":"2a3e6c4bb7","server":"3799","farm":4,"title":"Y amanece","ispublic":1,"isfriend":0,"isfamily":0,"safe":1,"ownername":"GonzalezNovo","latitude":35.288296,"longitude":-2.935752,"accuracy":"14","context":0,"place_id":"XiOJBPBWVL0fOEw","woeid":"767022","geo_is_family":0,"geo_is_friend":0,"geo_is_contact":0,"geo_is_public":1,"media":"photo","media_status":"ready"},{"id":"9971268083","owner":"65166290@N00","secret":"7e557ee73d","server":"3817","farm":4,"title":"Bute Tree","ispublic":1,"isfriend":0,"isfamily":0,"safe":0,"ownername":"Hugh Spicer \/ UIsdean Spicer","latitude":55.767303,"longitude":-5.024528,"accuracy":"11","context":0,"place_id":"FCeB1lpTV7rAOQ","woeid":"25097","geo_is_family":0,"geo_is_friend":0,"geo_is_contact":0,"geo_is_public":1,"media":"photo","media_status":"ready"},{"id":"9386605061","owner":"25959337@N00","secret":"5b908588d3","server":"2877","farm":3,"title":"Striped ice on Fjallsarlon","ispublic":1,"isfriend":0,"isfamily":0,"safe":0,"ownername":"Martin Ystenes - celebrating 5 million views","latitude":64.017805,"longitude":-16.368942,"accuracy":"10","context":0,"place_id":"L30o2XlTUb6ZXW0u","woeid":"2345690","geo_is_family":0,"geo_is_friend":0,"geo_is_contact":0,"geo_is_public":1,"media":"photo","media_status":"ready"},{"id":"8807795513","owner":"93626282@N03","secret":"505a5353d8","server":"2850","farm":3,"title":"Rapeseed Panorama","ispublic":1,"isfriend":0,"isfamily":0,"safe":1,"ownername":"Sonja Ehlen Photography","latitude":51.290906,"longitude":6.914523,"accuracy":"16","context":0,"place_id":"d.5cXDVXWr0FQ6k","woeid":"687013","geo_is_family":0,"geo_is_friend":0,"geo_is_contact":0,"geo_is_public":1,"media":"photo","media_status":"ready"},{"id":"8546297184","owner":"35895492@N05","secret":"eeb0c242e1","server":"8237","farm":9,"title":"Pinteresante","ispublic":1,"isfriend":0,"isfamily":0,"safe":1,"ownername":"Z\u00fa S\u00e1nchez","latitude":35.176053,"longitude":-5.273437,"accuracy":"11","context":0,"place_id":"KEjBGm5QV7l4UTkL","woeid":"1532799","geo_is_family":0,"geo_is_friend":0,"geo_is_contact":0,"geo_is_public":1,"media":"photo","media_status":"ready"},{"id":"8477955245","owner":"56398981@N03","secret":"a09e3f4208","server":"8248","farm":9,"title":"vigneti di porto","ispublic":1,"isfriend":0,"isfamily":0,"safe":1,"ownername":"Tobia Scandolara Photographer","latitude":41.161338,"longitude":-7.613868,"accuracy":"16","context":0,"place_id":"Ix3wUA5TW7kwsS0kRw","woeid":"29386642","geo_is_family":0,"geo_is_friend":0,"geo_is_contact":0,"geo_is_public":1,"media":"photo","media_status":"ready"},{"id":"6571021633","owner":"56398981@N03","secret":"e62a7315c9","server":"7012","farm":8,"title":"onda da vicino","ispublic":1,"isfriend":0,"isfamily":0,"safe":1,"ownername":"Tobia Scandolara Photographer","latitude":44.181751,"longitude":8.39984,"accuracy":"11","context":0,"place_id":"88EnQ81WUL.lEGg","woeid":"725679","geo_is_family":0,"geo_is_friend":0,"geo_is_contact":0,"geo_is_public":1,"media":"photo","media_status":"ready"},{"id":"4676109492","owner":"65166290@N00","secret":"b0e2f5327e","server":"4015","farm":5,"title":"Stoneybridge, South Uist","ispublic":1,"isfriend":0,"isfamily":0,"safe":0,"ownername":"Hugh Spicer \/ UIsdean Spicer","latitude":57.271572,"longitude":-7.420406,"accuracy":"12","context":0,"place_id":".HFKR5xSVLn6Gw","woeid":"36324","geo_is_family":0,"geo_is_friend":0,"geo_is_contact":0,"geo_is_public":1,"media":"photo","media_status":"ready"},{"id":"4581121429","owner":"7676405@N04","secret":"d3ed566940","server":"4068","farm":5,"title":"Tower Bridge","ispublic":1,"isfriend":0,"isfamily":0,"safe":0,"ownername":"JH Images.co.uk","latitude":51.505066,"longitude":-0.078331,"accuracy":"16","context":0,"place_id":"v70Y8qlTUrrLiiTZAg","woeid":"20094363","geo_is_family":0,"geo_is_friend":0,"geo_is_contact":0,"geo_is_public":1,"media":"photo","media_status":"ready"},{"id":"2930490939","owner":"25134615@N03","secret":"2e591581fc","server":"3030","farm":4,"title":"Switzerland - Pyramid","ispublic":1,"isfriend":0,"isfamily":0,"safe":1,"ownername":"lovemyblackcat","latitude":46.021283,"longitude":7.761154,"accuracy":"13","context":0,"place_id":"5iMmsSNQULzDiwSTlQ","woeid":"12682989","geo_is_family":0,"geo_is_friend":0,"geo_is_contact":0,"geo_is_public":1,"media":"photo","media_status":"ready"},{"id":"14236123585","owner":"37708438@N05","secret":"32d36292fd","server":"2895","farm":3,"title":"THROUGH THE PAST DARKLY","ispublic":1,"isfriend":0,"isfamily":0,"safe":0,"ownername":"kenny barker","latitude":56.19257,"longitude":-4.040908,"accuracy":"11","context":0,"place_id":"A88hBCdQWrkVtg","woeid":"18374","geo_is_family":0,"geo_is_friend":0,"geo_is_contact":0,"geo_is_public":1,"media":"photo","media_status":"ready"},{"id":"14039253108","owner":"45722248@N07","secret":"1d54ae2516","server":"5113","farm":6,"title":"Arrow","ispublic":1,"isfriend":0,"isfamily":0,"safe":0,"ownername":"ffela","latitude":52.519419,"longitude":13.377136,"accuracy":"16","context":0,"place_id":"VULyzjBXVb89VXc","woeid":"675695","geo_is_family":0,"geo_is_friend":0,"geo_is_contact":0,"geo_is_public":1,"media":"photo","media_status":"ready"},{"id":"14220856111","owner":"69508547@N06","secret":"6929110fe3","server":"5475","farm":6,"title":"Catedral Nossa Senhora do L\u00edbano","ispublic":1,"isfriend":0,"isfamily":0,"safe":0,"ownername":"Edward Zulawski","latitude":-23.56287,"longitude":-46.654659,"accuracy":"11","context":0,"place_id":"0RylrWxVV79p49E","woeid":"455827","geo_is_family":0,"geo_is_friend":0,"geo_is_contact":0,"geo_is_public":1,"media":"photo","media_status":"ready"},{"id":"14217355771","owner":"85081332@N00","secret":"6cac939f63","server":"5542","farm":6,"title":"I wish you a wonderful week!","ispublic":1,"isfriend":0,"isfamily":0,"safe":0,"ownername":"pe_ha45","latitude":51.833271,"longitude":7.135748,"accuracy":"16","context":0,"place_id":"3F9USWxXVb4a_YI","woeid":"674848","geo_is_family":0,"geo_is_friend":0,"geo_is_contact":0,"geo_is_public":1,"media":"photo","media_status":"ready"},{"id":"14024898306","owner":"60527135@N02","secret":"c1e08aa20b","server":"5444","farm":6,"title":"Felicita'-happiness","ispublic":1,"isfriend":0,"isfamily":0,"safe":0,"ownername":"giuseppe1957","latitude":6.695842,"longitude":-1.623641,"accuracy":"11","context":0,"place_id":"snvTbj1QUbkkPp7N","woeid":"1330595","geo_is_family":0,"geo_is_friend":0,"geo_is_contact":0,"geo_is_public":1,"media":"photo","media_status":"ready"},{"id":"14066189183","owner":"34096574@N06","secret":"6762a99352","server":"5155","farm":6,"title":"Venice: Fondamenta dei Mori \/ Rio della Sensa \/ Tintoretto house","ispublic":1,"isfriend":0,"isfamily":0,"safe":0,"ownername":"Pantchoa","latitude":45.445491,"longitude":12.331713,"accuracy":"16","context":0,"place_id":"EzRUzuJTUrtWx_W.dw","woeid":"20150612","geo_is_family":0,"geo_is_friend":0,"geo_is_contact":0,"geo_is_public":1,"media":"photo","media_status":"ready"},{"id":"14032480952","owner":"26953621@N03","secret":"cc19bde8cb","server":"5082","farm":6,"title":"Learning to fly the magic umbrella [EXPLORE 27.4.14 No 4]","ispublic":1,"isfriend":0,"isfamily":0,"safe":0,"ownername":"Zenas M","latitude":51.500915,"longitude":-2.640795,"accuracy":"16","context":0,"place_id":"sY2EuVBQVLLusA","woeid":"16807","geo_is_family":0,"geo_is_friend":0,"geo_is_contact":0,"geo_is_public":1,"media":"photo","media_status":"ready"},{"id":"14010934686","owner":"26963648@N05","secret":"ec3fbcc004","server":"7409","farm":8,"title":"Open Door","ispublic":1,"isfriend":0,"isfamily":0,"safe":0,"ownername":"MrBlackSun","latitude":-26.71004,"longitude":15.225977,"accuracy":"14","context":0,"place_id":"4PuO.rVQVrwgShIH","woeid":"1465229","geo_is_family":0,"geo_is_friend":0,"geo_is_contact":0,"geo_is_public":1,"media":"photo","media_status":"ready"},{"id":"14028425631","owner":"42766545@N07","secret":"56b4f22614","server":"2926","farm":3,"title":"Colourful","ispublic":1,"isfriend":0,"isfamily":0,"safe":0,"ownername":"PeterCH51","latitude":47.192599,"longitude":8.296652,"accuracy":"16","context":0,"place_id":"7t5ycxNTUrtt47dZgQ","woeid":"20102398","geo_is_family":0,"geo_is_friend":0,"geo_is_contact":0,"geo_is_public":1,"media":"photo","media_status":"ready"},{"id":"13989812605","owner":"93250327@N05","secret":"ca35b5b941","server":"7082","farm":8,"title":"In daddy's arms [ Explored 23rd April 2014]","ispublic":1,"isfriend":0,"isfamily":0,"safe":0,"ownername":"Patrizia Ilaria Sechi","latitude":51.499766,"longitude":-0.133552,"accuracy":"13","context":0,"place_id":"_8cuSp1TVrKmbg67ew","woeid":"24875645","geo_is_family":0,"geo_is_friend":0,"geo_is_contact":0,"geo_is_public":1,"media":"photo","media_status":"ready"},{"id":"14004587653","owner":"53340207@N07","secret":"0323cc1e21","server":"5323","farm":6,"title":"Dedicated to the Rose of Orange, Happy Birthday Natasha !!!","ispublic":1,"isfriend":0,"isfamily":0,"safe":0,"ownername":"Pifou 2010","latitude":44.815697,"longitude":2.749671,"accuracy":"11","context":0,"place_id":"1OGU5T1XU78AXuA","woeid":"615138","geo_is_family":0,"geo_is_friend":0,"geo_is_contact":0,"geo_is_public":1,"media":"photo","media_status":"ready"},{"id":"11420726555","owner":"11925274@N02","secret":"e837f10803","server":"2813","farm":3,"title":"TIGHT LIPS","ispublic":1,"isfriend":0,"isfamily":0,"safe":0,"ownername":"liontas-Andreas Droussiotis","latitude":34.729339,"longitude":32.453956,"accuracy":"12","context":0,"place_id":"HTlhO0JZVrvyjqc","woeid":"841401","geo_is_family":0,"geo_is_friend":0,"geo_is_contact":0,"geo_is_public":1,"media":"photo","media_status":"ready"},{"id":"14030905149","owner":"45722248@N07","secret":"abde72f0e3","server":"5236","farm":6,"title":"Dots","ispublic":1,"isfriend":0,"isfamily":0,"safe":0,"ownername":"ffela","latitude":52.51945,"longitude":13.376897,"accuracy":"16","context":0,"place_id":"VULyzjBXVb89VXc","woeid":"675695","geo_is_family":0,"geo_is_friend":0,"geo_is_contact":0,"geo_is_public":1,"media":"photo","media_status":"ready"}]},"stat":"ok"}