{"photos":{"page":20,"pages":26130,"perpage":60,"total":"1567744","photo":[{"id":"9478571658","owner":"100063725@N06","secret":"dea0ab1f02","server":"5543","farm":6,"title":"Acantilados de la costa de Lagos (Algarve portugu\u00e9s)","ispublic":1,"isfriend":0,"isfamily":0,"safe":1,"ownername":"Antonio Chac","latitude":37.084762,"longitude":-8.717651,"accuracy":"11","context":0,"place_id":"wZ4Y8ERWVri4rPY","woeid":"742418","geo_is_family":0,"geo_is_friend":0,"geo_is_contact":0,"geo_is_public":1,"media":"photo","media_status":"ready"},{"id":"9413491017","owner":"29394931@N06","secret":"b1a37b259d","server":"2853","farm":3,"title":"Montreal","ispublic":1,"isfriend":0,"isfamily":0,"safe":1,"ownername":"\u2203Scape","latitude":45.509256,"longitude":-73.547276,"accuracy":"16","context":0,"place_id":"xoPUd81TUbnlT0mzZg","woeid":"23396847","geo_is_family":0,"geo_is_friend":0,"geo_is_contact":0,"geo_is_public":1,"media":"photo","media_status":"ready"},{"id":"9387368702","owner":"29394931@N06","secret":"9759a5093b","server":"3744","farm":4,"title":"Parc du Mont-Valin, Quebec","ispublic":1,"isfriend":0,"isfamily":0,"safe":1,"ownername":"\u2203Scape","latitude":48.563997,"longitude":-70.989532,"accuracy":"13","context":0,"place_id":"dSpA1ldTUb7syPFr","woeid":"2344924","geo_is_family":0,"geo_is_friend":0,"geo_is_contact":0,"geo_is_public":1,"media":"photo","media_status":"ready"},{"id":"9364940717","owner":"56398981@N03","secret":"b9b549b9f0","server":"2869","farm":3,"title":"nuvole in fuga dal vento","ispublic":1,"isfriend":0,"isfamily":0,"safe":1,"ownername":"Tobia Scandolara Photographer","latitude":46.528634,"longitude":10.451431,"accuracy":"11","context":0,"place_id":"5Zydc3pTW7nYNDQMpQ","woeid":"29335959","geo_is_family":0,"geo_is_friend":0,"geo_is_contact":0,"geo_is_public":1,"media":"photo","media_status":"ready"},{"id":"9347992548","owner":"25959337@N00","secret":"7745faa8a1","server":"3711","farm":4,"title":"Fjallsarlon with reflections","ispublic":1,"isfriend":0,"isfamily":0,"safe":1,"ownername":"Martin Ystenes - celebrating 5 million views","latitude":64.014797,"longitude":-16.371688,"accuracy":"10","context":0,"place_id":"L30o2XlTUb6ZXW0u","woeid":"2345690","geo_is_family":0,"geo_is_friend":0,"geo_is_contact":0,"geo_is_public":1,"media":"photo","media_status":"ready"},{"id":"9330930559","owner":"35895492@N05","secret":"7bd0092e92","server":"5545","farm":6,"title":"Vida en Chefchaouen","ispublic":1,"isfriend":0,"isfamily":0,"safe":1,"ownername":"Z\u00fa S\u00e1nchez","latitude":35.166671,"longitude":-5.26667,"accuracy":"11","context":0,"place_id":"KEjBGm5QV7l4UTkL","woeid":"1532799","geo_is_family":0,"geo_is_friend":0,"geo_is_contact":0,"geo_is_public":1,"media":"photo","media_status":"ready"},{"id":"9328902491","owner":"25959337@N00","secret":"8d392d9a9c","server":"2844","farm":3,"title":"Vestrahorn med t\u00e5keskyer","ispublic":1,"isfriend":0,"isfamily":0,"safe":1,"ownername":"Martin Ystenes - celebrating 5 million views","latitude":64.268752,"longitude":-15.203018,"accuracy":"10","context":0,"place_id":"EgDu3DZYWrqTajQ","woeid":"980218","geo_is_family":0,"geo_is_friend":0,"geo_is_contact":0,"geo_is_public":1,"media":"photo","media_status":"ready"},{"id":"9321319867","owner":"25959337@N00","secret":"64a208d8a3","server":"5527","farm":6,"title":"The bluest iceberg","ispublic":1,"isfriend":0,"isfamily":0,"safe":1,"ownername":"Martin Ystenes - celebrating 5 million views","latitude":64.059436,"longitude":-16.193504,"accuracy":"11","context":0,"place_id":"L30o2XlTUb6ZXW0u","woeid":"2345690","geo_is_family":0,"geo_is_friend":0,"geo_is_contact":0,"geo_is_public":1,"media":"photo","media_status":"ready"},{"id":"9281155970","owner":"25959337@N00","secret":"8683ce9ff9","server":"3715","farm":4,"title":"Aldeyjarfoss I","ispublic":1,"isfriend":0,"isfamily":0,"safe":1,"ownername":"Martin Ystenes - celebrating 5 million views","latitude":65.362972,"longitude":-17.338829,"accuracy":"11","context":0,"place_id":"pHSRA2pTUrp_PaWgqw","woeid":"20070101","geo_is_family":0,"geo_is_friend":0,"geo_is_contact":0,"geo_is_public":1,"media":"photo","media_status":"ready"},{"id":"9153632316","owner":"84873895@N08","secret":"885f407177","server":"2852","farm":3,"title":"Galop 1","ispublic":1,"isfriend":0,"isfamily":0,"safe":1,"ownername":"Marie Jestin","latitude":48.651964,"longitude":-4.192657,"accuracy":"10","context":0,"place_id":"ZSPSl7BXU7xM9ZU","woeid":"616986","geo_is_family":0,"geo_is_friend":0,"geo_is_contact":0,"geo_is_public":1,"media":"photo","media_status":"ready"},{"id":"9119858902","owner":"25959337@N00","secret":"6aac4d41d3","server":"7374","farm":8,"title":"\u00c5lesund havn","ispublic":1,"isfriend":0,"isfamily":0,"safe":1,"ownername":"Martin Ystenes - celebrating 5 million views","latitude":62.476483,"longitude":6.168823,"accuracy":"10","context":0,"place_id":"EdXQmklZV7yPss4","woeid":"856555","geo_is_family":0,"geo_is_friend":0,"geo_is_contact":0,"geo_is_public":1,"media":"photo","media_status":"ready"},{"id":"9112243023","owner":"29394931@N06","secret":"149cfdd8e8","server":"5466","farm":6,"title":"Musee Grevin (EXPLORE! Jun.22 2013)","ispublic":1,"isfriend":0,"isfamily":0,"safe":1,"ownername":"\u2203Scape","latitude":48.871656,"longitude":2.343989,"accuracy":"16","context":0,"place_id":"4vICr1xUV7IZbOVVQQ","woeid":"55843755","geo_is_family":0,"geo_is_friend":0,"geo_is_contact":0,"geo_is_public":1,"media":"photo","media_status":"ready"},{"id":"9087440914","owner":"32208367@N04","secret":"70236082b4","server":"3683","farm":4,"title":"Fountain of youth","ispublic":1,"isfriend":0,"isfamily":0,"safe":1,"ownername":"mentalPICTURE","latitude":51.865821,"longitude":-2.253261,"accuracy":"11","context":0,"place_id":"j2iJZ8ZTU7hZwA","woeid":"21248","geo_is_family":0,"geo_is_friend":0,"geo_is_contact":0,"geo_is_public":1,"media":"photo","media_status":"ready"},{"id":"8995162098","owner":"25959337@N00","secret":"f789c821bb","server":"5444","farm":6,"title":"Storseisundbrua","ispublic":1,"isfriend":0,"isfamily":0,"safe":0,"ownername":"Martin Ystenes - celebrating 5 million views","latitude":63.020012,"longitude":7.363929,"accuracy":"13","context":0,"place_id":"oCYYewBZVL_NIwk","woeid":"865715","geo_is_family":0,"geo_is_friend":0,"geo_is_contact":0,"geo_is_public":1,"media":"photo","media_status":"ready"},{"id":"8979398909","owner":"7649805@N07","secret":"3cdf36fc5f","server":"5459","farm":6,"title":"Sweet France","ispublic":1,"isfriend":0,"isfamily":0,"safe":0,"ownername":"pattoise","latitude":47.459665,"longitude":-0.293884,"accuracy":"9","context":0,"place_id":"YyhrTElXU7q1wcw","woeid":"610723","geo_is_family":0,"geo_is_friend":0,"geo_is_contact":0,"geo_is_public":1,"media":"photo","media_status":"ready"},{"id":"8888887820","owner":"56936646@N07","secret":"9d981f5683","server":"2871","farm":3,"title":"Who wants to walk with me through Paradise - thnx for over 4 Mio views !!!","ispublic":1,"isfriend":0,"isfamily":0,"safe":0,"ownername":"Fr@nk = recovering","latitude":51.12403,"longitude":5.938571,"accuracy":"16","context":0,"place_id":"kB8__IFWUbthlUA","woeid":"731787","geo_is_family":0,"geo_is_friend":0,"geo_is_contact":0,"geo_is_public":1,"media":"photo","media_status":"ready"},{"id":"8729669566","owner":"32208367@N04","secret":"e86b459cf4","server":"7289","farm":8,"title":"Home Grown","ispublic":1,"isfriend":0,"isfamily":0,"safe":0,"ownername":"mentalPICTURE","latitude":51.86886,"longitude":-2.25048,"accuracy":"11","context":0,"place_id":"j2iJZ8ZTU7hZwA","woeid":"21248","geo_is_family":0,"geo_is_friend":0,"geo_is_contact":0,"geo_is_public":1,"media":"photo","media_status":"ready"},{"id":"8714343817","owner":"44296498@N02","secret":"032c72148e","server":"7372","farm":8,"title":"Sunset at the Shard","ispublic":1,"isfriend":0,"isfamily":0,"safe":1,"ownername":"Chicka (X100s enthusiast)","latitude":51.504615,"longitude":-0.086538,"accuracy":"16","context":0,"place_id":"AggqPb1TUrohNNCS.A","woeid":"20094296","geo_is_family":0,"geo_is_friend":0,"geo_is_contact":0,"geo_is_public":1,"media":"photo","media_status":"ready"},{"id":"8705123725","owner":"25959337@N00","secret":"993d75d55e","server":"8114","farm":9,"title":"R\u00f8de bygninger ved Straumgjerde","ispublic":1,"isfriend":0,"isfamily":0,"safe":0,"ownername":"Martin Ystenes - celebrating 5 million views","latitude":62.340615,"longitude":6.597719,"accuracy":"16","context":0,"place_id":"r0tScGNQV7pA2lKJOQ","woeid":"15000785","geo_is_family":0,"geo_is_friend":0,"geo_is_contact":0,"geo_is_public":1,"media":"photo","media_status":"ready"},{"id":"8706235914","owner":"25959337@N00","secret":"0ff7a7503d","server":"8264","farm":9,"title":"Hus og reflekser ved Straumgjerde","ispublic":1,"isfriend":0,"isfamily":0,"safe":0,"ownername":"Martin Ystenes - celebrating 5 million views","latitude":62.341362,"longitude":6.597504,"accuracy":"15","context":0,"place_id":"r0tScGNQV7pA2lKJOQ","woeid":"15000785","geo_is_family":0,"geo_is_friend":0,"geo_is_contact":0,"geo_is_public":1,"media":"photo","media_status":"ready"},{"id":"8698216615","owner":"32208367@N04","secret":"33f4149911","server":"8256","farm":9,"title":"Tulip mania! {Explored}","ispublic":1,"isfriend":0,"isfamily":0,"safe":1,"ownername":"mentalPICTURE","latitude":51.866662,"longitude":-2.251098,"accuracy":"11","context":0,"place_id":"j2iJZ8ZTU7hZwA","woeid":"21248","geo_is_family":0,"geo_is_friend":0,"geo_is_contact":0,"geo_is_public":1,"media":"photo","media_status":"ready"},{"id":"8683790173","owner":"35895492@N05","secret":"6d336cacb3","server":"8524","farm":9,"title":"Tres ciudades pintorescas. Venecia, Sevilla y Chefchaouen. 15-18 de mayo en el Palacio del Conde Duque de Olivares","ispublic":1,"isfriend":0,"isfamily":0,"safe":1,"ownername":"Z\u00fa S\u00e1nchez","latitude":37.40071,"longitude":-6.224441,"accuracy":"11","context":0,"place_id":"kvjqmcZWVbmitz4","woeid":"773546","geo_is_family":0,"geo_is_friend":0,"geo_is_contact":0,"geo_is_public":1,"media":"photo","media_status":"ready"},{"id":"8645145258","owner":"25959337@N00","secret":"8f1430bfc2","server":"8110","farm":9,"title":"Misfjord med sn\u00f8rester","ispublic":1,"isfriend":0,"isfamily":0,"safe":0,"ownername":"Martin Ystenes - celebrating 5 million views","latitude":62.628087,"longitude":7.073135,"accuracy":"11","context":0,"place_id":"R.bQ3GNZVL_88Aw","woeid":"865700","geo_is_family":0,"geo_is_friend":0,"geo_is_contact":0,"geo_is_public":1,"media":"photo","media_status":"ready"},{"id":"8622785074","owner":"32208367@N04","secret":"0e1ae2171a","server":"8250","farm":9,"title":"Reach for the Sky {Explored}","ispublic":1,"isfriend":0,"isfamily":0,"safe":1,"ownername":"mentalPICTURE","latitude":51.867588,"longitude":-2.255973,"accuracy":"11","context":0,"place_id":"j2iJZ8ZTU7hZwA","woeid":"21248","geo_is_family":0,"geo_is_friend":0,"geo_is_contact":0,"geo_is_public":1,"media":"photo","media_status":"ready"},{"id":"8619864357","owner":"61674778@N07","secret":"e43992ceca","server":"8537","farm":9,"title":"Hanneke, Amsterdam 2013: Radiating the light caught from the window","ispublic":1,"isfriend":0,"isfamily":0,"safe":0,"ownername":"mdiepraam","latitude":52.369153,"longitude":4.878916,"accuracy":"14","context":0,"place_id":"xfcEFYhWULKtjYI","woeid":"728410","geo_is_family":0,"geo_is_friend":0,"geo_is_contact":0,"geo_is_public":1,"media":"photo","media_status":"ready"},{"id":"8607870226","owner":"61674778@N07","secret":"2b629cd2e6","server":"8243","farm":9,"title":"Hanneke, Amsterdam 2013: Basking in sunlight","ispublic":1,"isfriend":0,"isfamily":0,"safe":0,"ownername":"mdiepraam","latitude":52.369153,"longitude":4.878916,"accuracy":"14","context":0,"place_id":"xfcEFYhWULKtjYI","woeid":"728410","geo_is_family":0,"geo_is_friend":0,"geo_is_contact":0,"geo_is_public":1,"media":"photo","media_status":"ready"},{"id":"8602226743","owner":"49746210@N07","secret":"e1d1da5e21","server":"8248","farm":9,"title":"The end of the world","ispublic":1,"isfriend":0,"isfamily":0,"safe":1,"ownername":"Normann Photography","latitude":59.055225,"longitude":10.411408,"accuracy":"16","context":0,"place_id":"3JUMrhFUV7Ji0pNXJw","woeid":"55871903","geo_is_family":0,"geo_is_friend":0,"geo_is_contact":0,"geo_is_public":1,"media":"photo","media_status":"ready"},{"id":"8591357037","owner":"11925274@N02","secret":"d4c92f6139","server":"8239","farm":9,"title":"DASHA 001","ispublic":1,"isfriend":0,"isfamily":0,"safe":0,"ownername":"liontas-Andreas Droussiotis","latitude":34.889451,"longitude":33.606491,"accuracy":"12","context":0,"place_id":"PhfWpmRQUL.N2Eq3kg","woeid":"12512501","geo_is_family":0,"geo_is_friend":0,"geo_is_contact":0,"geo_is_public":1,"media":"photo","media_status":"ready"},{"id":"8589909840","owner":"25959337@N00","secret":"05d5874a2e","server":"8108","farm":9,"title":"Tare og fjell ved Hj\u00f8rundfjorden","ispublic":1,"isfriend":0,"isfamily":0,"safe":0,"ownername":"Martin Ystenes - celebrating 5 million views","latitude":62.35845,"longitude":6.402282,"accuracy":"13","context":0,"place_id":"8WEeaQBZVLrRCrQ","woeid":"860142","geo_is_family":0,"geo_is_friend":0,"geo_is_contact":0,"geo_is_public":1,"media":"photo","media_status":"ready"},{"id":"8584156792","owner":"25959337@N00","secret":"97f4b678b9","server":"8387","farm":9,"title":"Skorpshornet","ispublic":1,"isfriend":0,"isfamily":0,"safe":0,"ownername":"Martin Ystenes - celebrating 5 million views","latitude":62.395778,"longitude":6.580467,"accuracy":"13","context":0,"place_id":"QNHb8wVZVL7wGOo","woeid":"864838","geo_is_family":0,"geo_is_friend":0,"geo_is_contact":0,"geo_is_public":1,"media":"photo","media_status":"ready"},{"id":"8553296500","owner":"25959337@N00","secret":"957642ae75","server":"8387","farm":9,"title":"Skorpshornet og et tre i Sykkylven","ispublic":1,"isfriend":0,"isfamily":0,"safe":0,"ownername":"Martin Ystenes - celebrating 5 million views","latitude":62.404367,"longitude":6.58081,"accuracy":"9","context":0,"place_id":"QNHb8wVZVL7wGOo","woeid":"864838","geo_is_family":0,"geo_is_friend":0,"geo_is_contact":0,"geo_is_public":1,"media":"photo","media_status":"ready"},{"id":"8500301234","owner":"29394931@N06","secret":"4678e489d7","server":"8519","farm":9,"title":"Galerie de l'Evolution","ispublic":1,"isfriend":0,"isfamily":0,"safe":1,"ownername":"\u2203Scape","latitude":48.842093,"longitude":2.356284,"accuracy":"16","context":0,"place_id":"TW_z6wJUV7L4irZbBw","woeid":"55843764","geo_is_family":0,"geo_is_friend":0,"geo_is_contact":0,"geo_is_public":1,"media":"photo","media_status":"ready"},{"id":"8483714348","owner":"25959337@N00","secret":"c6150f9db2","server":"8230","farm":9,"title":"Red house in the foggy winter","ispublic":1,"isfriend":0,"isfamily":0,"safe":0,"ownername":"Martin Ystenes - celebrating 5 million views","latitude":63.017909,"longitude":8.007659,"accuracy":"11","context":0,"place_id":"jgzt55NUV7J8W1R_sw","woeid":"55871860","geo_is_family":0,"geo_is_friend":0,"geo_is_contact":0,"geo_is_public":1,"media":"photo","media_status":"ready"},{"id":"8459958930","owner":"26849514@N06","secret":"37d103725e","server":"8377","farm":9,"title":"Happy sunday ! \/ Urnes stave church","ispublic":1,"isfriend":0,"isfamily":0,"safe":1,"ownername":"Frans.Sellies","latitude":61.298605,"longitude":7.323302,"accuracy":"16","context":0,"place_id":"1q3Wx7VZVLiYxGA","woeid":"862556","geo_is_family":0,"geo_is_friend":0,"geo_is_contact":0,"geo_is_public":1,"media":"photo","media_status":"ready"},{"id":"8434219676","owner":"87146265@N05","secret":"8553530c6b","server":"8225","farm":9,"title":"beer.","ispublic":1,"isfriend":0,"isfamily":0,"safe":0,"ownername":"madhjamaka","latitude":50.150318,"longitude":14.35496,"accuracy":"11","context":0,"place_id":"6g7bNllZUrrK3Ak","woeid":"800226","geo_is_family":0,"geo_is_friend":0,"geo_is_contact":0,"geo_is_public":1,"media":"photo","media_status":"ready"},{"id":"8428971787","owner":"42761333@N07","secret":"1d9941cf74","server":"8325","farm":9,"title":"Gaudi's Masterpiece. La Sagrada Familia","ispublic":1,"isfriend":0,"isfamily":0,"safe":0,"ownername":"Ricardodaforce","latitude":41.403531,"longitude":2.174713,"accuracy":"16","context":0,"place_id":"CR0T4P5TUrg9IykcFw","woeid":"20220088","geo_is_family":0,"geo_is_friend":0,"geo_is_contact":0,"geo_is_public":1,"media":"photo","media_status":"ready"},{"id":"8401255683","owner":"32438882@N07","secret":"8b445f7e79","server":"8233","farm":9,"title":"Mar de fondo por TeresalaLoba","ispublic":1,"isfriend":0,"isfamily":0,"safe":1,"ownername":"TeresalaLoba","latitude":42.134704,"longitude":-8.818717,"accuracy":"15","context":0,"place_id":"NfmD47BTW7kouazyng","woeid":"29371724","geo_is_family":0,"geo_is_friend":0,"geo_is_contact":0,"geo_is_public":1,"media":"photo","media_status":"ready"},{"id":"8350639757","owner":"71183143@N05","secret":"27a59ae0fa","server":"8364","farm":9,"title":"Buy this on www.photos.com by Getty Images. Search for cartagena photo.","ispublic":1,"isfriend":0,"isfamily":0,"safe":1,"ownername":"David Cartagena","latitude":62.090306,"longitude":6.878986,"accuracy":"16","context":0,"place_id":"BJuCf5hZV7OM3BA","woeid":"859677","geo_is_family":0,"geo_is_friend":0,"geo_is_contact":0,"geo_is_public":1,"media":"photo","media_status":"ready"},{"id":"8323259326","owner":"55083905@N07","secret":"23f22f2c40","server":"8223","farm":9,"title":"Erfurt bei Nacht I Erfurt at night","ispublic":1,"isfriend":0,"isfamily":0,"safe":0,"ownername":"LitschiCo-Erfurt.de I Fotografie","latitude":50.97768,"longitude":11.02307,"accuracy":"11","context":0,"place_id":"3UEYZdhXVrIHFgI","woeid":"648351","geo_is_family":0,"geo_is_friend":0,"geo_is_contact":0,"geo_is_public":1,"media":"photo","media_status":"ready"},{"id":"8294791885","owner":"61674778@N07","secret":"36f886e6a8","server":"8071","farm":9,"title":"Hanneke, Amsterdam 2012: Fatal attraction","ispublic":1,"isfriend":0,"isfamily":0,"safe":0,"ownername":"mdiepraam","latitude":52.369153,"longitude":4.878916,"accuracy":"14","context":0,"place_id":"xfcEFYhWULKtjYI","woeid":"728410","geo_is_family":0,"geo_is_friend":0,"geo_is_contact":0,"geo_is_public":1,"media":"photo","media_status":"ready"},{"id":"8288453527","owner":"61674778@N07","secret":"5c68730b08","server":"8496","farm":9,"title":"Hanneke, Amsterdam 2012: Particularly girly","ispublic":1,"isfriend":0,"isfamily":0,"safe":0,"ownername":"mdiepraam","latitude":52.369153,"longitude":4.878916,"accuracy":"14","context":0,"place_id":"xfcEFYhWULKtjYI","woeid":"728410","geo_is_family":0,"geo_is_friend":0,"geo_is_contact":0,"geo_is_public":1,"media":"photo","media_status":"ready"},{"id":"8264747902","owner":"88402723@N03","secret":"51824dcd2b","server":"8204","farm":9,"title":"seaside town","ispublic":1,"isfriend":0,"isfamily":0,"safe":1,"ownername":"_flucio6","latitude":40.633911,"longitude":14.603019,"accuracy":"11","context":0,"place_id":"Q7wFdU9WU7oP8E8","woeid":"710100","geo_is_family":0,"geo_is_friend":0,"geo_is_contact":0,"geo_is_public":1,"media":"photo","media_status":"ready"},{"id":"8261246758","owner":"7676405@N04","secret":"778b737f03","server":"8487","farm":9,"title":"Blue Hue...","ispublic":1,"isfriend":0,"isfamily":0,"safe":0,"ownername":"JH Images.co.uk","latitude":51.514177,"longitude":-0.096295,"accuracy":"16","context":0,"place_id":"87OE4Q1TUrpz8Ex55Q","woeid":"20094307","geo_is_family":0,"geo_is_friend":0,"geo_is_contact":0,"geo_is_public":1,"media":"photo","media_status":"ready"},{"id":"8234757700","owner":"25959337@N00","secret":"5fe5246c18","server":"8068","farm":9,"title":"Rollercoaster bridge","ispublic":1,"isfriend":0,"isfamily":0,"safe":0,"ownername":"Martin Ystenes - celebrating 5 million views","latitude":63.020012,"longitude":7.363929,"accuracy":"13","context":0,"place_id":"oCYYewBZVL_NIwk","woeid":"865715","geo_is_family":0,"geo_is_friend":0,"geo_is_contact":0,"geo_is_public":1,"media":"photo","media_status":"ready"},{"id":"8231004090","owner":"26849514@N06","secret":"a2e83542cf","server":"8066","farm":9,"title":"Hama, Syria (hard times for Syria)","ispublic":1,"isfriend":0,"isfamily":0,"safe":1,"ownername":"Frans.Sellies","latitude":35.137966,"longitude":36.746531,"accuracy":"16","context":0,"place_id":"nWGWM0BQW76ilkOF","woeid":"1947135","geo_is_family":0,"geo_is_friend":0,"geo_is_contact":0,"geo_is_public":1,"media":"photo","media_status":"ready"},{"id":"8194645658","owner":"26849514@N06","secret":"229f14cbc0","server":"8062","farm":9,"title":"Insel Reichenau (Unesco World heritage), Germany","ispublic":1,"isfriend":0,"isfamily":0,"safe":1,"ownername":"Frans.Sellies","latitude":47.706823,"longitude":9.044192,"accuracy":"16","context":0,"place_id":"bxoh1ulWWr_AYPo","woeid":"785519","geo_is_family":0,"geo_is_friend":0,"geo_is_contact":0,"geo_is_public":1,"media":"photo","media_status":"ready"},{"id":"8105495685","owner":"35895492@N05","secret":"8bb59a5003","server":"8184","farm":9,"title":"Sotoportego del Cavalletto. Expo en Olivares","ispublic":1,"isfriend":0,"isfamily":0,"safe":1,"ownername":"Z\u00fa S\u00e1nchez","latitude":45.434158,"longitude":12.337371,"accuracy":"15","context":0,"place_id":"UQEdl5BTUrv2TyTgZw","woeid":"20150616","geo_is_family":0,"geo_is_friend":0,"geo_is_contact":0,"geo_is_public":1,"media":"photo","media_status":"ready"},{"id":"7980609513","owner":"32208367@N04","secret":"8dc82ae795","server":"8299","farm":9,"title":"high key green","ispublic":1,"isfriend":0,"isfamily":0,"safe":0,"ownername":"mentalPICTURE","latitude":51.85419,"longitude":-2.226819,"accuracy":"11","context":0,"place_id":"j2iJZ8ZTU7hZwA","woeid":"21248","geo_is_family":0,"geo_is_friend":0,"geo_is_contact":0,"geo_is_public":1,"media":"photo","media_status":"ready"},{"id":"7967173990","owner":"32208367@N04","secret":"65f3b84bc4","server":"8436","farm":9,"title":"Laugh two","ispublic":1,"isfriend":0,"isfamily":0,"safe":0,"ownername":"mentalPICTURE","latitude":51.237079,"longitude":-0.57051,"accuracy":"11","context":0,"place_id":"p.N47Y5TU7PPPA","woeid":"21990","geo_is_family":0,"geo_is_friend":0,"geo_is_contact":0,"geo_is_public":1,"media":"photo","media_status":"ready"},{"id":"7868179852","owner":"32208367@N04","secret":"a4cec9c44d","server":"8427","farm":9,"title":"swing out sisters {EXPLORED}","ispublic":1,"isfriend":0,"isfamily":0,"safe":1,"ownername":"mentalPICTURE","latitude":51.893373,"longitude":-2.076793,"accuracy":"11","context":0,"place_id":"vSXYfLZQV70OKQ","woeid":"15790","geo_is_family":0,"geo_is_friend":0,"geo_is_contact":0,"geo_is_public":1,"media":"photo","media_status":"ready"},{"id":"7843524684","owner":"61674778@N07","secret":"3d6c00e69d","server":"8281","farm":9,"title":"Mari\u00eblle, Somerset 2012: Don't keep me waiting","ispublic":1,"isfriend":0,"isfamily":0,"safe":1,"ownername":"mdiepraam","latitude":50.960643,"longitude":-2.861251,"accuracy":"13","context":0,"place_id":"T0shxWlVUrqWVw","woeid":"40023","geo_is_family":0,"geo_is_friend":0,"geo_is_contact":0,"geo_is_public":1,"media":"photo","media_status":"ready"},{"id":"7843524400","owner":"61674778@N07","secret":"ecfed65561","server":"8303","farm":9,"title":"Mari\u00eblle, Somerset 2012: The white garden","ispublic":1,"isfriend":0,"isfamily":0,"safe":1,"ownername":"mdiepraam","latitude":50.960643,"longitude":-2.861251,"accuracy":"13","context":0,"place_id":"T0shxWlVUrqWVw","woeid":"40023","geo_is_family":0,"geo_is_friend":0,"geo_is_contact":0,"geo_is_public":1,"media":"photo","media_status":"ready"},{"id":"7841315000","owner":"25959337@N00","secret":"1c571ae894","server":"8429","farm":9,"title":"Isfjorden in low, evening sun","ispublic":1,"isfriend":0,"isfamily":0,"safe":0,"ownername":"Martin Ystenes - celebrating 5 million views","latitude":62.568519,"longitude":7.773857,"accuracy":"11","context":0,"place_id":"nAhTygRZVLpv5Q8","woeid":"860304","geo_is_family":0,"geo_is_friend":0,"geo_is_contact":0,"geo_is_public":1,"media":"photo","media_status":"ready"},{"id":"7837315926","owner":"61674778@N07","secret":"56416a386b","server":"8281","farm":9,"title":"Mari\u00eblle, Somerset 2012: Female delicacy","ispublic":1,"isfriend":0,"isfamily":0,"safe":0,"ownername":"mdiepraam","latitude":50.960643,"longitude":-2.861251,"accuracy":"13","context":0,"place_id":"T0shxWlVUrqWVw","woeid":"40023","geo_is_family":0,"geo_is_friend":0,"geo_is_contact":0,"geo_is_public":1,"media":"photo","media_status":"ready"},{"id":"7836630724","owner":"25959337@N00","secret":"2b234fee24","server":"8305","farm":9,"title":"Spotlight over Holetindane","ispublic":1,"isfriend":0,"isfamily":0,"safe":0,"ownername":"Martin Ystenes - celebrating 5 million views","latitude":62.282497,"longitude":6.73007,"accuracy":"13","context":0,"place_id":"g7dERi5ZV72iFg0","woeid":"857637","geo_is_family":0,"geo_is_friend":0,"geo_is_contact":0,"geo_is_public":1,"media":"photo","media_status":"ready"},{"id":"7826098800","owner":"25959337@N00","secret":"7e09a2a93c","server":"8305","farm":9,"title":"Brightly colored reflections","ispublic":1,"isfriend":0,"isfamily":0,"safe":0,"ownername":"Martin Ystenes - celebrating 5 million views","latitude":62.267116,"longitude":6.730826,"accuracy":"16","context":0,"place_id":"g7dERi5ZV72iFg0","woeid":"857637","geo_is_family":0,"geo_is_friend":0,"geo_is_contact":0,"geo_is_public":1,"media":"photo","media_status":"ready"},{"id":"7811089556","owner":"25959337@N00","secret":"79c44367a6","server":"8284","farm":9,"title":"Trollstigen waterfall","ispublic":1,"isfriend":0,"isfamily":0,"safe":0,"ownername":"Martin Ystenes - celebrating 5 million views","latitude":62.458867,"longitude":7.676353,"accuracy":"11","context":0,"place_id":"JzC.KK1QV7pD0xa2Jg","woeid":"15000927","geo_is_family":0,"geo_is_friend":0,"geo_is_contact":0,"geo_is_public":1,"media":"photo","media_status":"ready"},{"id":"7701075200","owner":"77885581@N08","secret":"38bd0d8c3f","server":"8021","farm":9,"title":"JUST BEHIND THE TEARS","ispublic":1,"isfriend":0,"isfamily":0,"safe":0,"ownername":"kawasakier6n","latitude":44.491423,"longitude":12.285718,"accuracy":"14","context":0,"place_id":"4F_22v5WU72RJBk","woeid":"717922","geo_is_family":0,"geo_is_friend":0,"geo_is_contact":0,"geo_is_public":1,"media":"photo","media_status":"ready"},{"id":"7669346666","owner":"34674104@N02","secret":"416c02795c","server":"8148","farm":9,"title":"Sunflowers in Upton, Qc","ispublic":1,"isfriend":0,"isfamily":0,"safe":0,"ownername":"pegase1972","latitude":45.649088,"longitude":-72.701704,"accuracy":"15","context":0,"place_id":"rhazbtdTUbmxc79R6g","woeid":"23394629","geo_is_family":0,"geo_is_friend":0,"geo_is_contact":0,"geo_is_public":1,"media":"photo","media_status":"ready"},{"id":"7495943158","owner":"26849514@N06","secret":"787868f3e6","server":"8017","farm":9,"title":"Malbork castle in Poland","ispublic":1,"isfriend":0,"isfamily":0,"safe":0,"ownername":"Frans.Sellies","latitude":54.04034,"longitude":19.022569,"accuracy":"13","context":0,"place_id":"xjtaWgRTVr8tv7_0Rg","woeid":"24547474","geo_is_family":0,"geo_is_friend":0,"geo_is_contact":0,"geo_is_public":1,"media":"photo","media_status":"ready"}]},"stat":"ok"}