{"photos":{"page":59,"pages":26696,"perpage":60,"total":"1601726","photo":[{"id":"13951195106","owner":"7977981@N06","secret":"0991d8bf61","server":"7246","farm":8,"title":"Spyral [Explored]","ispublic":1,"isfriend":0,"isfamily":0,"safe":0,"ownername":"Rickydavid","latitude":42.3286,"longitude":12.236838,"accuracy":"16","context":0,"place_id":"nIMUBeFWU7jGjNU","woeid":"712163","geo_is_family":0,"geo_is_friend":0,"geo_is_contact":0,"geo_is_public":1,"media":"photo","media_status":"ready"},{"id":"13969684871","owner":"26261314@N06","secret":"97a81b0103","server":"5045","farm":6,"title":"RTM-X-3-Laura-2467","ispublic":1,"isfriend":0,"isfamily":0,"safe":0,"ownername":"RAFATZ","latitude":41.21821,"longitude":1.005163,"accuracy":"14","context":0,"place_id":"arQxM9ZWV7gpeDg","woeid":"752049","geo_is_family":0,"geo_is_friend":0,"geo_is_contact":0,"geo_is_public":1,"media":"photo","media_status":"ready"},{"id":"13969580202","owner":"26261314@N06","secret":"745ff240d5","server":"2924","farm":3,"title":"5770","ispublic":1,"isfriend":0,"isfamily":0,"safe":0,"ownername":"RAFATZ","latitude":40.910723,"longitude":0.832557,"accuracy":"13","context":0,"place_id":"PZuBVaZTUb4NU8zwfA","woeid":"23414889","geo_is_family":0,"geo_is_friend":0,"geo_is_contact":0,"geo_is_public":1,"media":"photo","media_status":"ready"},{"id":"13949389556","owner":"67659376@N03","secret":"b7d9c4f117","server":"5145","farm":6,"title":"The Islands #2","ispublic":1,"isfriend":0,"isfamily":0,"safe":0,"ownername":"Bardsea Photography","latitude":54.393689,"longitude":-3.030617,"accuracy":"15","context":0,"place_id":"mjknKbhQVL0RDw","woeid":"16767","geo_is_family":0,"geo_is_friend":0,"geo_is_contact":0,"geo_is_public":1,"media":"photo","media_status":"ready"},{"id":"13948912326","owner":"37390607@N02","secret":"e3b53f7f93","server":"2929","farm":3,"title":"Curious (Explored)","ispublic":1,"isfriend":0,"isfamily":0,"safe":0,"ownername":"Bev Goodwin","latitude":53.598781,"longitude":-2.843039,"accuracy":"11","context":0,"place_id":"ibCJMzVQVryokA","woeid":"14654","geo_is_family":0,"geo_is_friend":0,"geo_is_contact":0,"geo_is_public":1,"media":"photo","media_status":"ready"},{"id":"13968660972","owner":"55858110@N02","secret":"3719b346cd","server":"2911","farm":3,"title":"Vale sunrise and mist (explore)","ispublic":1,"isfriend":0,"isfamily":0,"safe":0,"ownername":"jvarley19 very busy will catch up soon","latitude":53.439119,"longitude":-2.144179,"accuracy":"16","context":0,"place_id":"8WpaeDZSUbqViw","woeid":"33034","geo_is_family":0,"geo_is_friend":0,"geo_is_contact":0,"geo_is_public":1,"media":"photo","media_status":"ready"},{"id":"13968453602","owner":"42108906@N04","secret":"8c00d386e1","server":"7342","farm":8,"title":"Springtime in Milan","ispublic":1,"isfriend":0,"isfamily":0,"safe":0,"ownername":"Fil.ippo","latitude":45.452665,"longitude":9.184355,"accuracy":"15","context":0,"place_id":"49Gidk1WU7JxrFY","woeid":"718345","geo_is_family":0,"geo_is_friend":0,"geo_is_contact":0,"geo_is_public":1,"media":"photo","media_status":"ready"},{"id":"13989710013","owner":"72592466@N04","secret":"6ec5a1ff60","server":"5489","farm":6,"title":"Anochecer en el Canal del Este","ispublic":1,"isfriend":0,"isfamily":0,"safe":0,"ownername":"Bellini.","latitude":-34.431832,"longitude":-58.533096,"accuracy":"13","context":0,"place_id":"ggahNTdSUbtF1gs","woeid":"331896","geo_is_family":0,"geo_is_friend":0,"geo_is_contact":0,"geo_is_public":1,"media":"photo","media_status":"ready"},{"id":"13969695635","owner":"15200836@N02","secret":"a861f3c7f6","server":"2919","farm":3,"title":"MENORCA VESTIDA DE PRIMAVERA","ispublic":1,"isfriend":0,"isfamily":0,"safe":0,"ownername":"marthinotf","latitude":39.987314,"longitude":4.017133,"accuracy":"14","context":0,"place_id":"ZIFtfDZWVLo87Wg","woeid":"760534","geo_is_family":0,"geo_is_friend":0,"geo_is_contact":0,"geo_is_public":1,"media":"photo","media_status":"ready"},{"id":"13965534742","owner":"50115085@N08","secret":"538f5af5b0","server":"5459","farm":6,"title":"Evening at Patriarshy Pond","ispublic":1,"isfriend":0,"isfamily":0,"safe":0,"ownername":"Varvara_R","latitude":55.763669,"longitude":37.591416,"accuracy":"15","context":0,"place_id":"Gyn7fcFTU7gkY7d5","woeid":"2122265","geo_is_family":0,"geo_is_friend":0,"geo_is_contact":0,"geo_is_public":1,"media":"photo","media_status":"ready"},{"id":"13944935906","owner":"32208339@N04","secret":"e90967bba8","server":"5262","farm":6,"title":"Blue Tits","ispublic":1,"isfriend":0,"isfamily":0,"safe":0,"ownername":"Feathers (Allan)","latitude":50.985396,"longitude":0.64506,"accuracy":"14","context":0,"place_id":"hUC0tnBQULuWUg","woeid":"12195","geo_is_family":0,"geo_is_friend":0,"geo_is_contact":0,"geo_is_public":1,"media":"photo","media_status":"ready"},{"id":"13986514443","owner":"21608855@N03","secret":"f51f612ea6","server":"5011","farm":6,"title":"Can you hear the siren call?","ispublic":1,"isfriend":0,"isfamily":0,"safe":0,"ownername":"Julie Bracken","latitude":51.241527,"longitude":-0.729212,"accuracy":"16","context":0,"place_id":"TTnsU.1QUr_h3g","woeid":"10559","geo_is_family":0,"geo_is_friend":0,"geo_is_contact":0,"geo_is_public":1,"media":"photo","media_status":"ready"},{"id":"13742371453","owner":"65182295@N04","secret":"ce29d4fa19","server":"3670","farm":4,"title":"Tatou dort (sleepy cat)","ispublic":1,"isfriend":0,"isfamily":0,"safe":0,"ownername":"Fr\u00e9d\u00e9ric Glorieux","latitude":50.649776,"longitude":2.987573,"accuracy":"16","context":0,"place_id":"HKZvxmxQULzVdPJQnw","woeid":"12665769","geo_is_family":0,"geo_is_friend":0,"geo_is_contact":0,"geo_is_public":1,"media":"photo","media_status":"ready"},{"id":"13474758095","owner":"101295317@N06","secret":"1f4622193f","server":"3671","farm":4,"title":"Splash","ispublic":1,"isfriend":0,"isfamily":0,"safe":1,"ownername":"d_salter","latitude":53.576703,"longitude":-0.175673,"accuracy":"16","context":0,"place_id":"fFL91yhTULJKGw","woeid":"22834","geo_is_family":0,"geo_is_friend":0,"geo_is_contact":0,"geo_is_public":1,"media":"photo","media_status":"ready"},{"id":"13462818554","owner":"48293483@N02","secret":"c2267aa6c9","server":"7225","farm":8,"title":"Bath in the spring of Misfat Al Abriyeen, Oman","ispublic":1,"isfriend":0,"isfamily":0,"safe":1,"ownername":"Sekitar","latitude":23.135624,"longitude":57.30606,"accuracy":"11","context":0,"place_id":"grVlZsVTULzQkg0U","woeid":"2268081","geo_is_family":0,"geo_is_friend":0,"geo_is_contact":0,"geo_is_public":1,"media":"photo","media_status":"ready"},{"id":"13362177714","owner":"52047112@N03","secret":"de72a9cae1","server":"3805","farm":4,"title":"A DAY OF WIND","ispublic":1,"isfriend":0,"isfamily":0,"safe":1,"ownername":"M.G.N - Marcel","latitude":39.601713,"longitude":2.666264,"accuracy":"16","context":0,"place_id":"RXb61uFWVLMyD18","woeid":"769293","geo_is_family":0,"geo_is_friend":0,"geo_is_contact":0,"geo_is_public":1,"media":"photo","media_status":"ready"},{"id":"13311198623","owner":"55194659@N08","secret":"b433598ff5","server":"7087","farm":8,"title":"Man portrait (Sri Lanka)","ispublic":1,"isfriend":0,"isfamily":0,"safe":1,"ownername":"Josep Castell","latitude":7.2842,"longitude":80.637199,"accuracy":"11","context":0,"place_id":"WdLFHlRTU7KvBEm.","woeid":"2189780","geo_is_family":0,"geo_is_friend":0,"geo_is_contact":0,"geo_is_public":1,"media":"photo","media_status":"ready"},{"id":"13224495613","owner":"52047112@N03","secret":"28a3c2e534","server":"2874","farm":3,"title":"PALOMA","ispublic":1,"isfriend":0,"isfamily":0,"safe":1,"ownername":"M.G.N - Marcel","latitude":39.578149,"longitude":2.649062,"accuracy":"11","context":0,"place_id":"RXb61uFWVLMyD18","woeid":"769293","geo_is_family":0,"geo_is_friend":0,"geo_is_contact":0,"geo_is_public":1,"media":"photo","media_status":"ready"},{"id":"13133529765","owner":"52047112@N03","secret":"5f0494563f","server":"3787","farm":4,"title":"ETERNALLY FREE","ispublic":1,"isfriend":0,"isfamily":0,"safe":0,"ownername":"M.G.N - Marcel","latitude":39.584526,"longitude":2.648374,"accuracy":"11","context":0,"place_id":"RXb61uFWVLMyD18","woeid":"769293","geo_is_family":0,"geo_is_friend":0,"geo_is_contact":0,"geo_is_public":1,"media":"photo","media_status":"ready"},{"id":"13130028183","owner":"70139913@N02","secret":"7abe5684b6","server":"7363","farm":8,"title":"Spring Cocktail","ispublic":1,"isfriend":0,"isfamily":0,"safe":0,"ownername":"MaiGoede","latitude":51.465972,"longitude":7.204799,"accuracy":"16","context":0,"place_id":"bKmTrt1XUbP8sCs","woeid":"639679","geo_is_family":0,"geo_is_friend":0,"geo_is_contact":0,"geo_is_public":1,"media":"photo","media_status":"ready"},{"id":"13126765135","owner":"52047112@N03","secret":"623fc03b27","server":"7433","farm":8,"title":"POLICIA AEREA","ispublic":1,"isfriend":0,"isfamily":0,"safe":0,"ownername":"M.G.N - Marcel","latitude":39.577901,"longitude":2.648748,"accuracy":"16","context":0,"place_id":"e8Fx4h1TUriPtRndHg","woeid":"20220127","geo_is_family":0,"geo_is_friend":0,"geo_is_contact":0,"geo_is_public":1,"media":"photo","media_status":"ready"},{"id":"13019296143","owner":"52047112@N03","secret":"04df5e2e10","server":"3263","farm":4,"title":"NORIA","ispublic":1,"isfriend":0,"isfamily":0,"safe":0,"ownername":"M.G.N - Marcel","latitude":39.593848,"longitude":2.664869,"accuracy":"15","context":0,"place_id":"RXb61uFWVLMyD18","woeid":"769293","geo_is_family":0,"geo_is_friend":0,"geo_is_contact":0,"geo_is_public":1,"media":"photo","media_status":"ready"},{"id":"12990002824","owner":"57009573@N06","secret":"56d212731c","server":"2694","farm":3,"title":"Two Gates: PUBLISHED","ispublic":1,"isfriend":0,"isfamily":0,"safe":0,"ownername":"Tony Cornish.","latitude":52.464234,"longitude":-1.682905,"accuracy":"16","context":0,"place_id":"wv3MYoBTVL8vhw","woeid":"26588","geo_is_family":0,"geo_is_friend":0,"geo_is_contact":0,"geo_is_public":1,"media":"photo","media_status":"ready"},{"id":"11954712726","owner":"44743466@N05","secret":"227ee11f23","server":"2876","farm":3,"title":"*e qualche volta aspettami sul ponte, i miei amici sono tutti l\u00e0*  (+3, inside :)","ispublic":1,"isfriend":0,"isfamily":0,"safe":1,"ownername":"_esse_","latitude":41.019188,"longitude":28.972796,"accuracy":"16","context":0,"place_id":"YPUo_jxTUL2W.xk2EQ","woeid":"22724017","geo_is_family":0,"geo_is_friend":0,"geo_is_contact":0,"geo_is_public":1,"media":"photo","media_status":"ready"},{"id":"11621370875","owner":"52431791@N08","secret":"5ae6df753c","server":"7363","farm":8,"title":"TO TRAVEL ... [explored]","ispublic":1,"isfriend":0,"isfamily":0,"safe":0,"ownername":"ipon1","latitude":43.52938,"longitude":3.924799,"accuracy":"11","context":0,"place_id":"y.vs49NXU79LAyM","woeid":"615535","geo_is_family":0,"geo_is_friend":0,"geo_is_contact":0,"geo_is_public":1,"media":"photo","media_status":"ready"},{"id":"10613339796","owner":"74730395@N02","secret":"9aa29d1914","server":"3705","farm":4,"title":"Colorful sunset on the Amalfi Coast","ispublic":1,"isfriend":0,"isfamily":0,"safe":1,"ownername":"Sergio De Michele","latitude":40.633911,"longitude":14.603019,"accuracy":"11","context":0,"place_id":"Q7wFdU9WU7oP8E8","woeid":"710100","geo_is_family":0,"geo_is_friend":0,"geo_is_contact":0,"geo_is_public":1,"media":"photo","media_status":"ready"},{"id":"10600730873","owner":"35895492@N05","secret":"0e2b0c10de","server":"7295","farm":8,"title":"Cae la noche en Venecia. Reedicion","ispublic":1,"isfriend":0,"isfamily":0,"safe":0,"ownername":"Z\u00fa S\u00e1nchez","latitude":45.430894,"longitude":12.334342,"accuracy":"15","context":0,"place_id":"UQEdl5BTUrv2TyTgZw","woeid":"20150616","geo_is_family":0,"geo_is_friend":0,"geo_is_contact":0,"geo_is_public":1,"media":"photo","media_status":"ready"},{"id":"9680830697","owner":"32208367@N04","secret":"eb9a0c82da","server":"3768","farm":4,"title":"Whirling","ispublic":1,"isfriend":0,"isfamily":0,"safe":1,"ownername":"mentalPICTURE","latitude":51.864542,"longitude":-2.254039,"accuracy":"11","context":0,"place_id":"j2iJZ8ZTU7hZwA","woeid":"21248","geo_is_family":0,"geo_is_friend":0,"geo_is_contact":0,"geo_is_public":1,"media":"photo","media_status":"ready"},{"id":"9129269470","owner":"25002245@N00","secret":"b09af4803c","server":"3768","farm":4,"title":"UBIDE-Lawson Basoa 04","ispublic":1,"isfriend":0,"isfamily":0,"safe":0,"ownername":"ikimilikili-klik","latitude":43.034747,"longitude":-2.690963,"accuracy":"14","context":0,"place_id":"YaOFeRJWVbzKjAs","woeid":"776205","geo_is_family":0,"geo_is_friend":0,"geo_is_contact":0,"geo_is_public":1,"media":"photo","media_status":"ready"},{"id":"8563606141","owner":"39233616@N08","secret":"e3754ca1f2","server":"8524","farm":9,"title":"Pont de Normandie","ispublic":1,"isfriend":0,"isfamily":0,"safe":0,"ownername":"Maupetit Arnaud","latitude":49.428393,"longitude":0.275344,"accuracy":"11","context":0,"place_id":"Q_TRGOlWU78YU3qd","woeid":"7153311","geo_is_family":0,"geo_is_friend":0,"geo_is_contact":0,"geo_is_public":1,"media":"photo","media_status":"ready"},{"id":"8372139107","owner":"41659357@N07","secret":"323aeda465","server":"8214","farm":9,"title":"They are still out there","ispublic":1,"isfriend":0,"isfamily":0,"safe":1,"ownername":"Amsterdam RAIL","latitude":51.539394,"longitude":4.45668,"accuracy":"16","context":0,"place_id":"LZmmtc5WUbkKB7o","woeid":"733969","geo_is_family":0,"geo_is_friend":0,"geo_is_contact":0,"geo_is_public":1,"media":"photo","media_status":"ready"},{"id":"8372123335","owner":"42153431@N03","secret":"22c9b8de1d","server":"8088","farm":9,"title":"Island and mainland","ispublic":1,"isfriend":0,"isfamily":0,"safe":1,"ownername":"Arunte","latitude":43.70446,"longitude":11.537253,"accuracy":"15","context":0,"place_id":"X6VQ4dlWULv3Dps","woeid":"721565","geo_is_family":0,"geo_is_friend":0,"geo_is_contact":0,"geo_is_public":1,"media":"photo","media_status":"ready"},{"id":"8180297678","owner":"27964309@N06","secret":"699b39cebf","server":"8201","farm":9,"title":"the reader","ispublic":1,"isfriend":0,"isfamily":0,"safe":0,"ownername":"vittorio vida","latitude":38.799048,"longitude":15.237693,"accuracy":"16","context":0,"place_id":"s62az_ZTUrtC6OA1xw","woeid":"20144859","geo_is_family":0,"geo_is_friend":0,"geo_is_contact":0,"geo_is_public":1,"media":"photo","media_status":"ready"},{"id":"6492922593","owner":"24822386@N02","secret":"4165e89834","server":"7165","farm":8,"title":"LE\u00d3N.- La catedral con neblina.","ispublic":1,"isfriend":0,"isfamily":0,"safe":1,"ownername":"berpala","latitude":42.599463,"longitude":-5.566463,"accuracy":"15","context":0,"place_id":"kfFzcjVWVL98rn4","woeid":"765099","geo_is_family":0,"geo_is_friend":0,"geo_is_contact":0,"geo_is_public":1,"media":"photo","media_status":"ready"},{"id":"5863121466","owner":"27964309@N06","secret":"3639b4aa66","server":"5148","farm":6,"title":"Wind","ispublic":1,"isfriend":0,"isfamily":0,"safe":1,"ownername":"vittorio vida","latitude":-26.70256,"longitude":15.909199,"accuracy":"1","context":0,"place_id":"Vp.AXUJTUb6pwzv0rQ","woeid":"23424987","geo_is_family":0,"geo_is_friend":0,"geo_is_contact":0,"geo_is_public":1,"media":"photo","media_status":"ready"},{"id":"5464388639","owner":"29394931@N06","secret":"27e40ec452","server":"5055","farm":6,"title":"Tour EDF, La Defense","ispublic":1,"isfriend":0,"isfamily":0,"safe":1,"ownername":"\u2203Scape","latitude":48.893893,"longitude":2.240776,"accuracy":"16","context":0,"place_id":"OZm8L3lUV7LeKWG5lw","woeid":"55863561","geo_is_family":0,"geo_is_friend":0,"geo_is_contact":0,"geo_is_public":1,"media":"photo","media_status":"ready"},{"id":"5115647589","owner":"52674600@N02","secret":"83208cee7a","server":"1384","farm":2,"title":"Victoria General Hospital, Halifax, NS","ispublic":1,"isfriend":0,"isfamily":0,"safe":0,"ownername":"Avard Woolaver","latitude":44.638643,"longitude":-63.579854,"accuracy":"13","context":0,"place_id":"a0APaqFUV7I4ybXBpg","woeid":"55856308","geo_is_family":0,"geo_is_friend":0,"geo_is_contact":0,"geo_is_public":1,"media":"photo","media_status":"ready"},{"id":"3915886642","owner":"88482099@N00","secret":"eaccdd5411","server":"3486","farm":4,"title":"La D\u00e9fense under the eye of the fish - 1","ispublic":1,"isfriend":0,"isfamily":0,"safe":0,"ownername":"jmvnoos in Paris","latitude":48.891562,"longitude":2.237842,"accuracy":"15","context":0,"place_id":"OZm8L3lUV7LeKWG5lw","woeid":"55863561","geo_is_family":0,"geo_is_friend":0,"geo_is_contact":0,"geo_is_public":1,"media":"photo","media_status":"ready"},{"id":"14241579574","owner":"51035555243@N01","secret":"fa2596697e","server":"2919","farm":3,"title":"I Got Your Letter Yesterday","ispublic":1,"isfriend":0,"isfamily":0,"safe":0,"ownername":"Thomas Hawk","latitude":25.787833,"longitude":-80.128164,"accuracy":"16","context":0,"place_id":"dm3k9G9TUb7l5AczoQ","woeid":"23417413","geo_is_family":0,"geo_is_friend":0,"geo_is_contact":0,"geo_is_public":1,"media":"photo","media_status":"ready"},{"id":"14259972113","owner":"8188882@N05","secret":"ae4d8128b1","server":"2896","farm":3,"title":"RER Saint-Michel, Paris HDR","ispublic":1,"isfriend":0,"isfamily":0,"safe":0,"ownername":"DinosaursAreNotDead","latitude":48.853752,"longitude":2.34439,"accuracy":"16","context":0,"place_id":"s0CdQ9BUV7Lc6PF16Q","woeid":"55843768","geo_is_family":0,"geo_is_friend":0,"geo_is_contact":0,"geo_is_public":1,"media":"photo","media_status":"ready"},{"id":"14233298264","owner":"65584399@N05","secret":"34defe1ef1","server":"5546","farm":6,"title":"Frankly speaking...","ispublic":1,"isfriend":0,"isfamily":0,"safe":0,"ownername":"camasy","latitude":40.71455,"longitude":-74.007118,"accuracy":"11","context":0,"place_id":".skCPTpTVr.Q3WKW","woeid":"2459115","geo_is_family":0,"geo_is_friend":0,"geo_is_contact":0,"geo_is_public":1,"media":"photo","media_status":"ready"},{"id":"14045926400","owner":"73665853@N07","secret":"f3e6f0d196","server":"5033","farm":6,"title":"los arcos que me sustentan1a","ispublic":1,"isfriend":0,"isfamily":0,"safe":0,"ownername":"juan luis olaeta","latitude":42.85017,"longitude":-2.672853,"accuracy":"14","context":0,"place_id":"P_aVMflWVbKKyYo","woeid":"778899","geo_is_family":0,"geo_is_friend":0,"geo_is_contact":0,"geo_is_public":1,"media":"photo","media_status":"ready"},{"id":"14229075281","owner":"11746711@N08","secret":"39d527bc96","server":"2911","farm":3,"title":"a Manhattan Night | 5\/20\/20014","ispublic":1,"isfriend":0,"isfamily":0,"safe":0,"ownername":"mudpig","latitude":40.704595,"longitude":-73.987748,"accuracy":"16","context":0,"place_id":"mc9Z.Q1TWr3DPVhZ5g","woeid":"28751217","geo_is_family":0,"geo_is_friend":0,"geo_is_contact":0,"geo_is_public":1,"media":"photo","media_status":"ready"},{"id":"14231884675","owner":"66403925@N03","secret":"14eab005d8","server":"5157","farm":6,"title":"Borboleta Cauda-de-andorinha, Old World Swallowtail (Papilio machaon) - em Liberdade [in Wild]","ispublic":1,"isfriend":0,"isfamily":0,"safe":0,"ownername":"ana & xavier (1.100.000 views - Obg \/ thanks)","latitude":39.649583,"longitude":-7.67807,"accuracy":"11","context":0,"place_id":"8FvAT_pWV7r88Ac","woeid":"750853","geo_is_family":0,"geo_is_friend":0,"geo_is_contact":0,"geo_is_public":1,"media":"photo","media_status":"ready"},{"id":"14247880993","owner":"41558538@N02","secret":"c8b7520b4a","server":"2923","farm":3,"title":"Times Square","ispublic":1,"isfriend":0,"isfamily":0,"safe":1,"ownername":"vampire-carmen","latitude":40.759968,"longitude":-73.984229,"accuracy":"16","context":0,"place_id":"byMt1GpTWrhtqOpahg","woeid":"28288823","geo_is_family":0,"geo_is_friend":0,"geo_is_contact":0,"geo_is_public":1,"media":"photo","media_status":"ready"},{"id":"14244728403","owner":"66403925@N03","secret":"b998102815","server":"5314","farm":6,"title":"Coelho bravo, European rabbit(Oryctolagus cuniculus) - em Liberdade [in Wild]","ispublic":1,"isfriend":0,"isfamily":0,"safe":0,"ownername":"ana & xavier (1.100.000 views - Obg \/ thanks)","latitude":41.129108,"longitude":-8.61361,"accuracy":"11","context":0,"place_id":"a69YBDJWV7q53QY","woeid":"750800","geo_is_family":0,"geo_is_friend":0,"geo_is_contact":0,"geo_is_public":1,"media":"photo","media_status":"ready"},{"id":"14223762855","owner":"10817753@N03","secret":"17fa750237","server":"5314","farm":6,"title":"Rain in Stockholm today","ispublic":1,"isfriend":0,"isfamily":0,"safe":0,"ownername":"Ulf Bodin","latitude":59.329666,"longitude":18.095408,"accuracy":"16","context":0,"place_id":"pctZnZRZWrK8Vro","woeid":"888407","geo_is_family":0,"geo_is_friend":0,"geo_is_contact":0,"geo_is_public":1,"media":"photo","media_status":"ready"},{"id":"14220349811","owner":"62529443@N07","secret":"0a52432656","server":"5574","farm":6,"title":"Light of day, day of darkness","ispublic":1,"isfriend":0,"isfamily":0,"safe":0,"ownername":"Martin Dietrich \u23aawww.neoprime.de","latitude":50.106487,"longitude":8.663578,"accuracy":"14","context":0,"place_id":"Z0FRRfRXV7oIeew","woeid":"650272","geo_is_family":0,"geo_is_friend":0,"geo_is_contact":0,"geo_is_public":1,"media":"photo","media_status":"ready"},{"id":"14222579345","owner":"10594388@N05","secret":"93cec4dabc","server":"5112","farm":6,"title":"Bald Eagle","ispublic":1,"isfriend":0,"isfamily":0,"safe":0,"ownername":"SteveRansome","latitude":28.147649,"longitude":-82.787647,"accuracy":"14","context":0,"place_id":"SVCqS5dUV7NPCU5UDQ","woeid":"55983554","geo_is_family":0,"geo_is_friend":0,"geo_is_contact":0,"geo_is_public":1,"media":"photo","media_status":"ready"},{"id":"14222479035","owner":"50226851@N07","secret":"b6602b2282","server":"5577","farm":6,"title":"Luz en el mar","ispublic":1,"isfriend":0,"isfamily":0,"safe":0,"ownername":"Emilio Rodr\u00edguez \u00c1lvarez","latitude":43.339973,"longitude":-8.832192,"accuracy":"16","context":0,"place_id":"P2IVWaNWVLyAB4M","woeid":"766403","geo_is_family":0,"geo_is_friend":0,"geo_is_contact":0,"geo_is_public":1,"media":"photo","media_status":"ready"},{"id":"14241241473","owner":"94015342@N04","secret":"b25dcbe953","server":"2922","farm":3,"title":"'Pink Sky' - Bardsey Island, Wales","ispublic":1,"isfriend":0,"isfamily":0,"safe":0,"ownername":"Adrian Kingsley-Hughes","latitude":52.763774,"longitude":-4.788537,"accuracy":"15","context":0,"place_id":"5RMTjEVQU7JrHg","woeid":"11827","geo_is_family":0,"geo_is_friend":0,"geo_is_contact":0,"geo_is_public":1,"media":"photo","media_status":"ready"},{"id":"14212292961","owner":"50656950@N06","secret":"0dfa6ac6f3","server":"5595","farm":6,"title":"Bidston windmill","ispublic":1,"isfriend":0,"isfamily":0,"safe":0,"ownername":"(RayH)","latitude":53.393975,"longitude":-3.037033,"accuracy":"13","context":0,"place_id":"DNS0bwBQVLvPpg","woeid":"16187","geo_is_family":0,"geo_is_friend":0,"geo_is_contact":0,"geo_is_public":1,"media":"photo","media_status":"ready"},{"id":"14212771512","owner":"11746711@N08","secret":"9b31748386","server":"5516","farm":6,"title":"New York City | Brooklyn Bridge | 5\/18\/2014","ispublic":1,"isfriend":0,"isfamily":0,"safe":0,"ownername":"mudpig","latitude":40.704123,"longitude":-73.990881,"accuracy":"16","context":0,"place_id":"mc9Z.Q1TWr3DPVhZ5g","woeid":"28751217","geo_is_family":0,"geo_is_friend":0,"geo_is_contact":0,"geo_is_public":1,"media":"photo","media_status":"ready"},{"id":"14214520785","owner":"59269150@N08","secret":"a7f11b659b","server":"5546","farm":6,"title":"Pause","ispublic":1,"isfriend":0,"isfamily":0,"safe":0,"ownername":"TablinumCarlson","latitude":-23.21672,"longitude":-44.718009,"accuracy":"11","context":0,"place_id":"bFZZOQtVV7xtTD0","woeid":"456392","geo_is_family":0,"geo_is_friend":0,"geo_is_contact":0,"geo_is_public":1,"media":"photo","media_status":"ready"},{"id":"14210876342","owner":"62815410@N04","secret":"ba0d898c7c","server":"2899","farm":3,"title":"japanese minimalism (brescia, italy)","ispublic":1,"isfriend":0,"isfamily":0,"safe":0,"ownername":"bloodybee","latitude":45.535287,"longitude":10.235781,"accuracy":"15","context":0,"place_id":"WO1uGLRWU7u69ps","woeid":"711410","geo_is_family":0,"geo_is_friend":0,"geo_is_contact":0,"geo_is_public":1,"media":"photo","media_status":"ready"},{"id":"14025750377","owner":"34457549@N08","secret":"8a1f04528b","server":"5478","farm":6,"title":"Photo captured in Ormond Beach, Florida with my HTC One M8 Florida Beach Htconem8 Being A Beach Bum","ispublic":1,"isfriend":0,"isfamily":0,"safe":0,"ownername":"Daniel Piraino","latitude":29.329855,"longitude":-81.057289,"accuracy":"16","context":0,"place_id":"rLPZhvVUV7PyDm5GAg","woeid":"55980371","geo_is_family":0,"geo_is_friend":0,"geo_is_contact":0,"geo_is_public":1,"media":"photo","media_status":"ready"},{"id":"14197867011","owner":"93461361@N05","secret":"5583f106ef","server":"2897","farm":3,"title":"pom pom","ispublic":1,"isfriend":0,"isfamily":0,"safe":0,"ownername":"Van Luvender","latitude":40.026168,"longitude":-75.040633,"accuracy":"16","context":0,"place_id":"9gVzNWtTV7qrsRD6","woeid":"2503553","geo_is_family":0,"geo_is_friend":0,"geo_is_contact":0,"geo_is_public":1,"media":"photo","media_status":"ready"},{"id":"14010140987","owner":"46267286@N07","secret":"cb59d3c3eb","server":"2905","farm":3,"title":"Vertigo 'Alien' - Office Life London City","ispublic":1,"isfriend":0,"isfamily":0,"safe":0,"ownername":"Simon & His Camera","latitude":51.506612,"longitude":-0.10099,"accuracy":"16","context":0,"place_id":"OSWzL_pTUrqOB8Dpqg","woeid":"20094299","geo_is_family":0,"geo_is_friend":0,"geo_is_contact":0,"geo_is_public":1,"media":"photo","media_status":"ready"},{"id":"14214333773","owner":"47807935@N03","secret":"373215e0e9","server":"7445","farm":8,"title":"Spring Frame","ispublic":1,"isfriend":0,"isfamily":0,"safe":0,"ownername":"L I C H T B I L D E R","latitude":51.251599,"longitude":6.914488,"accuracy":"16","context":0,"place_id":"JO1MlPZXVr_Bvhg","woeid":"645400","geo_is_family":0,"geo_is_friend":0,"geo_is_contact":0,"geo_is_public":1,"media":"photo","media_status":"ready"},{"id":"8588769239","owner":"25959337@N00","secret":"c17dfe589f","server":"8508","farm":9,"title":"Innover Hj\u00f8rundfjorden","ispublic":1,"isfriend":0,"isfamily":0,"safe":0,"ownername":"Martin Ystenes - celebrating 5 million views","latitude":62.357654,"longitude":6.402969,"accuracy":"13","context":0,"place_id":"8WEeaQBZVLrRCrQ","woeid":"860142","geo_is_family":0,"geo_is_friend":0,"geo_is_contact":0,"geo_is_public":1,"media":"photo","media_status":"ready"}]},"stat":"ok"}