{"photos":{"page":48,"pages":26696,"perpage":60,"total":"1601739","photo":[{"id":"13619406064","owner":"32208367@N04","secret":"cba10c5ed2","server":"3828","farm":4,"title":"Say Cheese! {Explored}","ispublic":1,"isfriend":0,"isfamily":0,"safe":0,"ownername":"mentalPICTURE","latitude":51.867588,"longitude":-2.25563,"accuracy":"10","context":0,"place_id":"j2iJZ8ZTU7hZwA","woeid":"21248","geo_is_family":0,"geo_is_friend":0,"geo_is_contact":0,"geo_is_public":1,"media":"photo","media_status":"ready"},{"id":"12888310205","owner":"48293483@N02","secret":"176bbba038","server":"2861","farm":3,"title":"Fort Mirani and Sultan's Palace, Muscat, Old Town, Oman","ispublic":1,"isfriend":0,"isfamily":0,"safe":1,"ownername":"Sekitar","latitude":23.61362,"longitude":58.592405,"accuracy":"13","context":0,"place_id":"Ij2hnXRUV7MFAuoiGA","woeid":"55926759","geo_is_family":0,"geo_is_friend":0,"geo_is_contact":0,"geo_is_public":1,"media":"photo","media_status":"ready"},{"id":"11902495513","owner":"32476380@N05","secret":"4fe58aa023","server":"2844","farm":3,"title":"Nantes - Pont Anne de Bretagne","ispublic":1,"isfriend":0,"isfamily":0,"safe":0,"ownername":"Arnodil","latitude":47.209288,"longitude":-1.561592,"accuracy":"16","context":0,"place_id":"HC2eHZ9UVLpIts6D.A","woeid":"56051656","geo_is_family":0,"geo_is_friend":0,"geo_is_contact":0,"geo_is_public":1,"media":"photo","media_status":"ready"},{"id":"11227547416","owner":"65166290@N00","secret":"d48c33a527","server":"7345","farm":8,"title":"Road to Bridge of Orchy","ispublic":1,"isfriend":0,"isfamily":0,"safe":1,"ownername":"Hugh Spicer \/ UIsdean Spicer","latitude":56.534121,"longitude":-4.776477,"accuracy":"11","context":0,"place_id":"hegpbi1QUbIhtg","woeid":"13847","geo_is_family":0,"geo_is_friend":0,"geo_is_contact":0,"geo_is_public":1,"media":"photo","media_status":"ready"},{"id":"10437889685","owner":"67833313@N08","secret":"ddf0e7a03b","server":"3785","farm":4,"title":"explore the magic....","ispublic":1,"isfriend":0,"isfamily":0,"safe":1,"ownername":"Dimitra Kirgiannaki \u266a\u00b8.\u2022*\u00b4spring-lover \u00a8\u00b4","latitude":37.67786,"longitude":23.126399,"accuracy":"11","context":0,"place_id":"d2Qa5qZYVL9mg0A","woeid":"965904","geo_is_family":0,"geo_is_friend":0,"geo_is_contact":0,"geo_is_public":1,"media":"photo","media_status":"ready"},{"id":"9338721788","owner":"25959337@N00","secret":"68677a5151","server":"7415","farm":8,"title":"Nesedr\u00e5per og terner","ispublic":1,"isfriend":0,"isfamily":0,"safe":1,"ownername":"Martin Ystenes - celebrating 5 million views","latitude":64.051025,"longitude":-16.179771,"accuracy":"11","context":0,"place_id":"L30o2XlTUb6ZXW0u","woeid":"2345690","geo_is_family":0,"geo_is_friend":0,"geo_is_contact":0,"geo_is_public":1,"media":"photo","media_status":"ready"},{"id":"9293409985","owner":"25959337@N00","secret":"16c13facf5","server":"5444","farm":6,"title":"Bed in Bakkasel","ispublic":1,"isfriend":0,"isfamily":0,"safe":1,"ownername":"Martin Ystenes - celebrating 5 million views","latitude":65.470575,"longitude":-18.670105,"accuracy":"14","context":0,"place_id":"Wco6JCFTUb4R6d.v","woeid":"2345693","geo_is_family":0,"geo_is_friend":0,"geo_is_contact":0,"geo_is_public":1,"media":"photo","media_status":"ready"},{"id":"9059785282","owner":"52047112@N03","secret":"d5ac2dcc77","server":"7356","farm":8,"title":"GOLDEN BUTTERFLY","ispublic":1,"isfriend":0,"isfamily":0,"safe":1,"ownername":"M.G.N - Marcel","latitude":39.580828,"longitude":2.65043,"accuracy":"11","context":0,"place_id":"RXb61uFWVLMyD18","woeid":"769293","geo_is_family":0,"geo_is_friend":0,"geo_is_contact":0,"geo_is_public":1,"media":"photo","media_status":"ready"},{"id":"8734640303","owner":"52047112@N03","secret":"f3006f7bcc","server":"7325","farm":8,"title":"FLOR DE LOTO","ispublic":1,"isfriend":0,"isfamily":0,"safe":1,"ownername":"M.G.N - Marcel","latitude":39.583994,"longitude":2.644958,"accuracy":"11","context":0,"place_id":"RXb61uFWVLMyD18","woeid":"769293","geo_is_family":0,"geo_is_friend":0,"geo_is_contact":0,"geo_is_public":1,"media":"photo","media_status":"ready"},{"id":"8539095908","owner":"25959337@N00","secret":"d1cdcca58e","server":"8388","farm":9,"title":"Final sunlight, Romdalsfjell","ispublic":1,"isfriend":0,"isfamily":0,"safe":0,"ownername":"Martin Ystenes - celebrating 5 million views","latitude":62.729567,"longitude":7.154846,"accuracy":"9","context":0,"place_id":"hh56CHZZVLs1jVE","woeid":"861904","geo_is_family":0,"geo_is_friend":0,"geo_is_contact":0,"geo_is_public":1,"media":"photo","media_status":"ready"},{"id":"7219296716","owner":"39508892@N06","secret":"ea30ac6e64","server":"5465","farm":6,"title":"Jandaia mineira (Aratinga auricapilla )","ispublic":1,"isfriend":0,"isfamily":0,"safe":1,"ownername":"Parnanet - Wallace Moura","latitude":-5.861325,"longitude":-35.354293,"accuracy":"16","context":0,"place_id":"V.0NFtRVV7wRzDQ","woeid":"456310","geo_is_family":0,"geo_is_friend":0,"geo_is_contact":0,"geo_is_public":1,"media":"photo","media_status":"ready"},{"id":"2925648911","owner":"25134615@N03","secret":"3dfb9a3a93","server":"3282","farm":4,"title":"Switzerland - A Reflection","ispublic":1,"isfriend":0,"isfamily":0,"safe":1,"ownername":"lovemyblackcat","latitude":46.019227,"longitude":7.760553,"accuracy":"13","context":0,"place_id":"5iMmsSNQULzDiwSTlQ","woeid":"12682989","geo_is_family":0,"geo_is_friend":0,"geo_is_contact":0,"geo_is_public":1,"media":"photo","media_status":"ready"},{"id":"1261989286","owner":"11925274@N02","secret":"ee8c49c19b","server":"1402","farm":2,"title":"DASHA  38.3","ispublic":1,"isfriend":0,"isfamily":0,"safe":0,"ownername":"liontas-Andreas Droussiotis","latitude":34.767078,"longitude":32.410662,"accuracy":"15","context":0,"place_id":"w0I5krtZVrv2Kes","woeid":"841589","geo_is_family":0,"geo_is_friend":0,"geo_is_contact":0,"geo_is_public":1,"media":"photo","media_status":"ready"},{"id":"513138536","owner":"99398068@N00","secret":"d2233ffb3f","server":"213","farm":1,"title":"les voyageurs enchantent","ispublic":1,"isfriend":0,"isfamily":0,"safe":1,"ownername":"manuel cristaldi","latitude":45.538098,"longitude":11.582473,"accuracy":"11","context":0,"place_id":"sMnPBIxTUrshVAfcQQ","woeid":"20148696","geo_is_family":0,"geo_is_friend":0,"geo_is_contact":0,"geo_is_public":1,"media":"photo","media_status":"ready"},{"id":"14054052358","owner":"24842486@N07","secret":"04a9edff2b","server":"2907","farm":3,"title":"Cadillac Dreams on Route 66","ispublic":1,"isfriend":0,"isfamily":0,"safe":0,"ownername":"e r j k p r u n c z y k","latitude":40.440561,"longitude":-80.150177,"accuracy":"15","context":0,"place_id":".FGfGvtTUb7.vY_4zA","woeid":"23417949","geo_is_family":0,"geo_is_friend":0,"geo_is_contact":0,"geo_is_public":1,"media":"photo","media_status":"ready"},{"id":"14237737332","owner":"48889111471@N01","secret":"ffd0745a9e","server":"2919","farm":3,"title":"25 February, 16.43","ispublic":1,"isfriend":0,"isfamily":0,"safe":0,"ownername":"Ti.mo","latitude":59.903158,"longitude":10.755239,"accuracy":"16","context":0,"place_id":"NmGMT3pTULz7S3NUgw","woeid":"22658619","geo_is_family":0,"geo_is_friend":0,"geo_is_contact":0,"geo_is_public":1,"media":"photo","media_status":"ready"},{"id":"14237332994","owner":"55495747@N00","secret":"72f87ff964","server":"2934","farm":3,"title":"Allons \u00e0 la plage (Explored)","ispublic":1,"isfriend":0,"isfamily":0,"safe":0,"ownername":"pylacroix","latitude":22.659739,"longitude":-79.054452,"accuracy":"16","context":0,"place_id":"_Edf_ZVTUb48NlDs","woeid":"2345111","geo_is_family":0,"geo_is_friend":0,"geo_is_contact":0,"geo_is_public":1,"media":"photo","media_status":"ready"},{"id":"14045913559","owner":"28972158@N07","secret":"76463b2244","server":"2923","farm":3,"title":"Castletown","ispublic":1,"isfriend":0,"isfamily":0,"safe":0,"ownername":"ben.leng","latitude":58.595116,"longitude":-3.37794,"accuracy":"12","context":0,"place_id":"Ge.kHklQV7lCLQ","woeid":"15387","geo_is_family":0,"geo_is_friend":0,"geo_is_contact":0,"geo_is_public":1,"media":"photo","media_status":"ready"},{"id":"14045872298","owner":"13281644@N06","secret":"0425ee531b","server":"5498","farm":6,"title":"Roof top","ispublic":1,"isfriend":0,"isfamily":0,"safe":0,"ownername":"77dps","latitude":43.163948,"longitude":-77.614631,"accuracy":"15","context":0,"place_id":"v9_pdm1TWriPahS7Eg","woeid":"28288833","geo_is_family":0,"geo_is_friend":0,"geo_is_contact":0,"geo_is_public":1,"media":"photo","media_status":"ready"},{"id":"14228304052","owner":"62815410@N04","secret":"730a24303f","server":"5073","farm":6,"title":"cheers! (brescia, italy)","ispublic":1,"isfriend":0,"isfamily":0,"safe":0,"ownername":"bloodybee","latitude":45.535678,"longitude":10.234966,"accuracy":"15","context":0,"place_id":"WO1uGLRWU7u69ps","woeid":"711410","geo_is_family":0,"geo_is_friend":0,"geo_is_contact":0,"geo_is_public":1,"media":"photo","media_status":"ready"},{"id":"14042376797","owner":"96404105@N08","secret":"32d29c4dc7","server":"2921","farm":3,"title":"000132LS-F Platzhof","ispublic":1,"isfriend":0,"isfamily":0,"safe":0,"ownername":"Impressionen-Digital","latitude":49.24319,"longitude":9.528989,"accuracy":"11","context":0,"place_id":"od321fdXV7rXGjk","woeid":"650824","geo_is_family":0,"geo_is_friend":0,"geo_is_contact":0,"geo_is_public":1,"media":"photo","media_status":"ready"},{"id":"14041783549","owner":"94382185@N00","secret":"8c86458785","server":"5517","farm":6,"title":"Explore - Darwin in the Church","ispublic":1,"isfriend":0,"isfamily":0,"safe":0,"ownername":"Trojan_Llama","latitude":52.697999,"longitude":0.175266,"accuracy":"15","context":0,"place_id":"Nz5IErJSW7Km.w","woeid":"39833","geo_is_family":0,"geo_is_friend":0,"geo_is_contact":0,"geo_is_public":1,"media":"photo","media_status":"ready"},{"id":"14041716149","owner":"67174237@N06","secret":"921c3436ed","server":"5566","farm":6,"title":"Caspian Sea at Avaza","ispublic":1,"isfriend":0,"isfamily":0,"safe":0,"ownername":"Stefan Schinning","latitude":39.949635,"longitude":52.852556,"accuracy":"13","context":0,"place_id":"87txcTRQW7kTGMox","woeid":"1936633","geo_is_family":0,"geo_is_friend":0,"geo_is_contact":0,"geo_is_public":1,"media":"photo","media_status":"ready"},{"id":"14039493649","owner":"39548242@N03","secret":"eab113fc8b","server":"5528","farm":6,"title":"Black Cullin and Loch Scavaig","ispublic":1,"isfriend":0,"isfamily":0,"safe":0,"ownername":"Waldemar*","latitude":57.152257,"longitude":-6.107025,"accuracy":"11","context":0,"place_id":"9A3BACBQW74Jrw","woeid":"19452","geo_is_family":0,"geo_is_friend":0,"geo_is_contact":0,"geo_is_public":1,"media":"photo","media_status":"ready"},{"id":"14202455696","owner":"11266609@N00","secret":"9defbbfff1","server":"5079","farm":6,"title":"in motion \/ motionless","ispublic":1,"isfriend":0,"isfamily":0,"safe":0,"ownername":"yushimoto_02 [christian]","latitude":40.411274,"longitude":-3.693637,"accuracy":"16","context":0,"place_id":"XrSazRhTUrh4j1shyQ","woeid":"20219885","geo_is_family":0,"geo_is_friend":0,"geo_is_contact":0,"geo_is_public":1,"media":"photo","media_status":"ready"},{"id":"14199525116","owner":"112711738@N06","secret":"f439e19e77","server":"5514","farm":6,"title":"Another Worlds V.","ispublic":1,"isfriend":0,"isfamily":0,"safe":0,"ownername":"dasanes77","latitude":36.803558,"longitude":-2.06339,"accuracy":"11","context":0,"place_id":"poxx0jxWVL9Ary0","woeid":"765734","geo_is_family":0,"geo_is_friend":0,"geo_is_contact":0,"geo_is_public":1,"media":"photo","media_status":"ready"},{"id":"14035726950","owner":"53794995@N05","secret":"73eeb02e08","server":"5577","farm":6,"title":"Oval","ispublic":1,"isfriend":0,"isfamily":0,"safe":0,"ownername":"Helena de Riquer","latitude":41.985525,"longitude":2.81639,"accuracy":"11","context":0,"place_id":"PIBwCahWVLtJ_i4","woeid":"761600","geo_is_family":0,"geo_is_friend":0,"geo_is_contact":0,"geo_is_public":1,"media":"photo","media_status":"ready"},{"id":"14242066333","owner":"36217762@N00","secret":"0d44a0f66e","server":"2916","farm":3,"title":"Moment","ispublic":1,"isfriend":0,"isfamily":0,"safe":0,"ownername":"Pixelm\u00e4dchen6","latitude":52.5224,"longitude":13.415304,"accuracy":"16","context":0,"place_id":"zot2ouJXUbKOJRM","woeid":"638242","geo_is_family":0,"geo_is_friend":0,"geo_is_contact":0,"geo_is_public":1,"media":"photo","media_status":"ready"},{"id":"14034747518","owner":"47035764@N03","secret":"bf0ea78d6d","server":"2899","farm":3,"title":"Sheepfold, Orvelte, Drenthe, Netherlands - 1812","ispublic":1,"isfriend":0,"isfamily":0,"safe":0,"ownername":"HereIsTom","latitude":52.84434,"longitude":6.65821,"accuracy":"16","context":0,"place_id":"q.X1985WUbiu0IA","woeid":"732456","geo_is_family":0,"geo_is_friend":0,"geo_is_contact":0,"geo_is_public":1,"media":"photo","media_status":"ready"},{"id":"14033548517","owner":"34096574@N06","secret":"b4d37fc610","server":"2932","farm":3,"title":"Venice : Fondamenta della Misericordia \/ Rio della Misericordia \/ Ponte San Marziale","ispublic":1,"isfriend":0,"isfamily":0,"safe":0,"ownername":"Pantchoa","latitude":45.443919,"longitude":12.333183,"accuracy":"16","context":0,"place_id":"EzRUzuJTUrtWx_W.dw","woeid":"20150612","geo_is_family":0,"geo_is_friend":0,"geo_is_contact":0,"geo_is_public":1,"media":"photo","media_status":"ready"},{"id":"14032931880","owner":"44161305@N02","secret":"af67e7dd52","server":"5111","farm":6,"title":"Liano, Castel San Pietro Terme, Italy, maggio 2014 045","ispublic":1,"isfriend":0,"isfamily":0,"safe":0,"ownername":"tango-","latitude":44.376569,"longitude":11.547832,"accuracy":"13","context":0,"place_id":"CABRqTJQULxroQlXeA","woeid":"12677884","geo_is_family":0,"geo_is_friend":0,"geo_is_contact":0,"geo_is_public":1,"media":"photo","media_status":"ready"},{"id":"14194480726","owner":"13281644@N06","secret":"e995fa4e67","server":"5274","farm":6,"title":"Shape Shifter","ispublic":1,"isfriend":0,"isfamily":0,"safe":0,"ownername":"77dps","latitude":43.145367,"longitude":-77.603151,"accuracy":"15","context":0,"place_id":"4b6kJ8pTWrgXHerZCQ","woeid":"28288840","geo_is_family":0,"geo_is_friend":0,"geo_is_contact":0,"geo_is_public":1,"media":"photo","media_status":"ready"},{"id":"14030507627","owner":"39549476@N08","secret":"3b4dd565d6","server":"2913","farm":3,"title":"QT","ispublic":1,"isfriend":0,"isfamily":0,"safe":0,"ownername":"sisssou","latitude":48.008443,"longitude":1.096047,"accuracy":"16","context":0,"place_id":"twLEYz5UWrp9zmk","woeid":"580995","geo_is_family":0,"geo_is_friend":0,"geo_is_contact":0,"geo_is_public":1,"media":"photo","media_status":"ready"},{"id":"14029949440","owner":"79503469@N00","secret":"31d5202932","server":"5074","farm":6,"title":"Spitzbergen","ispublic":1,"isfriend":0,"isfamily":0,"safe":0,"ownername":"tagois","latitude":77.841847,"longitude":13.930664,"accuracy":"16","context":0,"place_id":"2L4w.ulTVr8iVcY9Lw","woeid":"24549927","geo_is_family":0,"geo_is_friend":0,"geo_is_contact":0,"geo_is_public":1,"media":"photo","media_status":"ready"},{"id":"14214106712","owner":"50656950@N06","secret":"8e98075252","server":"2914","farm":3,"title":"Birkenhead park","ispublic":1,"isfriend":0,"isfamily":0,"safe":0,"ownername":"(RayH)","latitude":53.393054,"longitude":-3.038063,"accuracy":"13","context":0,"place_id":"DNS0bwBQVLvPpg","woeid":"16187","geo_is_family":0,"geo_is_friend":0,"geo_is_contact":0,"geo_is_public":1,"media":"photo","media_status":"ready"},{"id":"14211437052","owner":"48559713@N06","secret":"dd4fd83342","server":"2906","farm":3,"title":"Sightseeing","ispublic":1,"isfriend":0,"isfamily":0,"safe":0,"ownername":"Binderh\u00e4usl","latitude":47.923934,"longitude":12.446222,"accuracy":"14","context":0,"place_id":"8n9dxglXW76Wzbs","woeid":"694091","geo_is_family":0,"geo_is_friend":0,"geo_is_contact":0,"geo_is_public":1,"media":"photo","media_status":"ready"},{"id":"14026440927","owner":"41558538@N02","secret":"618c948a9b","server":"5280","farm":6,"title":"Verregneter Fr\u00fchlingstag in Bayern - Rainy spring day in Bavaria","ispublic":1,"isfriend":0,"isfamily":0,"safe":0,"ownername":"vampire-carmen","latitude":49.240227,"longitude":12.682825,"accuracy":"16","context":0,"place_id":"IvEY0cBQULwdaEM8Ig","woeid":"12623099","geo_is_family":0,"geo_is_friend":0,"geo_is_contact":0,"geo_is_public":1,"media":"photo","media_status":"ready"},{"id":"14020320740","owner":"95012188@N02","secret":"dbbb2d68d4","server":"2923","farm":3,"title":"Chatpal, Kashmir, India","ispublic":1,"isfriend":0,"isfamily":0,"safe":0,"ownername":"sandeepachetan.com","latitude":33.78505,"longitude":75.391894,"accuracy":"16","context":0,"place_id":"frUPTrdTW7ui5vWdBQ","woeid":"29197898","geo_is_family":0,"geo_is_friend":0,"geo_is_contact":0,"geo_is_public":1,"media":"photo","media_status":"ready"},{"id":"14019158297","owner":"94579059@N05","secret":"f778289177","server":"2913","farm":3,"title":"\"Eiffeuillage\", la Tour Eiffel dans les feuilles \/ \"Eiffeleafs\", the Eiffel tower into leafs.","ispublic":1,"isfriend":0,"isfamily":0,"safe":0,"ownername":"m43photos","latitude":48.857529,"longitude":2.314918,"accuracy":"16","context":0,"place_id":"CyyjQfRUV7Kth7ctCA","woeid":"55843776","geo_is_family":0,"geo_is_friend":0,"geo_is_contact":0,"geo_is_public":1,"media":"photo","media_status":"ready"},{"id":"14018996790","owner":"62815410@N04","secret":"fbbc69e075","server":"5568","farm":6,"title":"style will out (brescia, italy)","ispublic":1,"isfriend":0,"isfamily":0,"safe":0,"ownername":"bloodybee","latitude":45.536099,"longitude":10.233292,"accuracy":"15","context":0,"place_id":"WO1uGLRWU7u69ps","woeid":"711410","geo_is_family":0,"geo_is_friend":0,"geo_is_contact":0,"geo_is_public":1,"media":"photo","media_status":"ready"},{"id":"14202764172","owner":"55648226@N03","secret":"c6f259afb1","server":"2912","farm":3,"title":"Terminator","ispublic":1,"isfriend":0,"isfamily":0,"safe":0,"ownername":"Shawn Harquail","latitude":26.512408,"longitude":-78.641838,"accuracy":"16","context":0,"place_id":"7nFqw9VUVLPQMw","woeid":"56922","geo_is_family":0,"geo_is_friend":0,"geo_is_contact":0,"geo_is_public":1,"media":"photo","media_status":"ready"},{"id":"14204500704","owner":"81035653@N00","secret":"9de45589b7","server":"5199","farm":6,"title":"My best of Queensday","ispublic":1,"isfriend":0,"isfamily":0,"safe":0,"ownername":"B\u212en","latitude":52.378794,"longitude":4.88604,"accuracy":"15","context":0,"place_id":"xQ4tawtWUL1NrOY","woeid":"727232","geo_is_family":0,"geo_is_friend":0,"geo_is_contact":0,"geo_is_public":1,"media":"photo","media_status":"ready"},{"id":"14200866155","owner":"62529443@N07","secret":"2b388b6468","server":"5154","farm":6,"title":"I've set my watch to the atomic clock","ispublic":1,"isfriend":0,"isfamily":0,"safe":0,"ownername":"Martin Dietrich \u23aawww.neoprime.de","latitude":50.106652,"longitude":8.663921,"accuracy":"14","context":0,"place_id":"Z0FRRfRXV7oIeew","woeid":"650272","geo_is_family":0,"geo_is_friend":0,"geo_is_contact":0,"geo_is_public":1,"media":"photo","media_status":"ready"},{"id":"14013665190","owner":"28852366@N04","secret":"43225a9b28","server":"7402","farm":8,"title":"last proper snow","ispublic":1,"isfriend":0,"isfamily":0,"safe":0,"ownername":"Liis Klammer","latitude":59.231462,"longitude":26.486921,"accuracy":"15","context":0,"place_id":"H0jgM81ZVrxaRi8","woeid":"846581","geo_is_family":0,"geo_is_friend":0,"geo_is_contact":0,"geo_is_public":1,"media":"photo","media_status":"ready"},{"id":"14196288461","owner":"74455234@N04","secret":"b475ee1a94","server":"5236","farm":6,"title":"Schloss Moritzburg, Familienausflug - Moritzburg Castle, family outing","ispublic":1,"isfriend":0,"isfamily":0,"safe":0,"ownername":"nemodoteles","latitude":51.16745,"longitude":13.687119,"accuracy":"16","context":0,"place_id":"BW3mI6lXVbxHKJk","woeid":"676197","geo_is_family":0,"geo_is_friend":0,"geo_is_contact":0,"geo_is_public":1,"media":"photo","media_status":"ready"},{"id":"14176334196","owner":"62815410@N04","secret":"38a4119406","server":"7357","farm":8,"title":"domino effect (brescia, italy)","ispublic":1,"isfriend":0,"isfamily":0,"safe":0,"ownername":"bloodybee","latitude":45.535798,"longitude":10.234494,"accuracy":"15","context":0,"place_id":"WO1uGLRWU7u69ps","woeid":"711410","geo_is_family":0,"geo_is_friend":0,"geo_is_contact":0,"geo_is_public":1,"media":"photo","media_status":"ready"},{"id":"14011924629","owner":"92375404@N08","secret":"73e3ea58c5","server":"2916","farm":3,"title":"A Bloody Line of the Past","ispublic":1,"isfriend":0,"isfamily":0,"safe":0,"ownername":"tobias142","latitude":51.340225,"longitude":9.939925,"accuracy":"16","context":0,"place_id":"1q_IuBhXWrIK.Kw","woeid":"688752","geo_is_family":0,"geo_is_friend":0,"geo_is_contact":0,"geo_is_public":1,"media":"photo","media_status":"ready"},{"id":"14197878444","owner":"37578663@N02","secret":"85a1fde55c","server":"7418","farm":8,"title":"Vintage Budapest. Explored #129","ispublic":1,"isfriend":0,"isfamily":0,"safe":0,"ownername":"elinor04 thanks for 6 million views!","latitude":47.486731,"longitude":19.04834,"accuracy":"16","context":0,"place_id":"ScoSG.RZUr1FhB0","woeid":"807020","geo_is_family":0,"geo_is_friend":0,"geo_is_contact":0,"geo_is_public":1,"media":"photo","media_status":"ready"},{"id":"14218093833","owner":"64110713@N05","secret":"2879851328","server":"7423","farm":8,"title":"You make my toes tickle","ispublic":1,"isfriend":0,"isfamily":0,"safe":0,"ownername":"Just Ard","latitude":51.480253,"longitude":-3.177881,"accuracy":"16","context":0,"place_id":"SJJTd3tVUb2lRw","woeid":"43724","geo_is_family":0,"geo_is_friend":0,"geo_is_contact":0,"geo_is_public":1,"media":"photo","media_status":"ready"},{"id":"14193412614","owner":"44161305@N02","secret":"fd3102b5c8","server":"7380","farm":8,"title":"Chiesa di Liano, Castel San Pietro T., Italy,  May 14, 2014 043","ispublic":1,"isfriend":0,"isfamily":0,"safe":0,"ownername":"tango-","latitude":44.376569,"longitude":11.547832,"accuracy":"13","context":0,"place_id":"CABRqTJQULxroQlXeA","woeid":"12677884","geo_is_family":0,"geo_is_friend":0,"geo_is_contact":0,"geo_is_public":1,"media":"photo","media_status":"ready"},{"id":"14006701238","owner":"53601471@N08","secret":"528571fc37","server":"7379","farm":8,"title":"Snowflake macro: beneath a steel sky","ispublic":1,"isfriend":0,"isfamily":0,"safe":0,"ownername":"ChaoticMind75","latitude":55.650776,"longitude":37.722373,"accuracy":"15","context":0,"place_id":"dkKo_rhTUrkr10VK","woeid":"2032807","geo_is_family":0,"geo_is_friend":0,"geo_is_contact":0,"geo_is_public":1,"media":"photo","media_status":"ready"},{"id":"14170030746","owner":"36814443@N00","secret":"17f5c005b6","server":"7332","farm":8,"title":"Cute huddle","ispublic":1,"isfriend":0,"isfamily":0,"safe":0,"ownername":"Brian Negus","latitude":52.76148,"longitude":-1.19245,"accuracy":"16","context":0,"place_id":"QZiOAPhTVb_lnQ","woeid":"27504","geo_is_family":0,"geo_is_friend":0,"geo_is_contact":0,"geo_is_public":1,"media":"photo","media_status":"ready"},{"id":"14004435089","owner":"30957604@N06","secret":"45d97ec93a","server":"2925","farm":3,"title":"Germany-Heidelberg, Schloss - Friedrichsbau , 70173\/3387","ispublic":1,"isfriend":0,"isfamily":0,"safe":0,"ownername":"roba66","latitude":49.412998,"longitude":8.689064,"accuracy":"11","context":0,"place_id":"wt0NR_NQULyiZ1bQqQ","woeid":"12623922","geo_is_family":0,"geo_is_friend":0,"geo_is_contact":0,"geo_is_public":1,"media":"photo","media_status":"ready"},{"id":"14187586341","owner":"97664410@N02","secret":"c3d0b3e838","server":"5588","farm":6,"title":"Steep street","ispublic":1,"isfriend":0,"isfamily":0,"safe":0,"ownername":"Julieta Portel","latitude":39.861869,"longitude":-4.025139,"accuracy":"11","context":0,"place_id":"3936VUBWVb8qSI8","woeid":"775524","geo_is_family":0,"geo_is_friend":0,"geo_is_contact":0,"geo_is_public":1,"media":"photo","media_status":"ready"},{"id":"14003444139","owner":"59852454@N03","secret":"2298155021","server":"5200","farm":6,"title":"Dunlop Goodyear Pneuservis","ispublic":1,"isfriend":0,"isfamily":0,"safe":0,"ownername":"Pavel P.","latitude":49.677292,"longitude":18.326826,"accuracy":"14","context":0,"place_id":"gapL1HFWWrPD3y0","woeid":"789085","geo_is_family":0,"geo_is_friend":0,"geo_is_contact":0,"geo_is_public":1,"media":"photo","media_status":"ready"},{"id":"14186570714","owner":"22350928@N02","secret":"d8da3aebd0","server":"7452","farm":8,"title":"Closed down harbour office","ispublic":1,"isfriend":0,"isfamily":0,"safe":0,"ownername":"bjornvald","latitude":65.660786,"longitude":-20.301961,"accuracy":"13","context":0,"place_id":"tgVtHZVYWrqEy50","woeid":"980062","geo_is_family":0,"geo_is_friend":0,"geo_is_contact":0,"geo_is_public":1,"media":"photo","media_status":"ready"},{"id":"13998846170","owner":"28852366@N04","secret":"44cdccdbe6","server":"2935","farm":3,"title":"classic me","ispublic":1,"isfriend":0,"isfamily":0,"safe":0,"ownername":"Liis Klammer","latitude":59.239398,"longitude":26.491084,"accuracy":"15","context":0,"place_id":"H0jgM81ZVrxaRi8","woeid":"846581","geo_is_family":0,"geo_is_friend":0,"geo_is_contact":0,"geo_is_public":1,"media":"photo","media_status":"ready"},{"id":"14204477783","owner":"74400495@N03","secret":"864983cb8a","server":"7354","farm":8,"title":"Sellin","ispublic":1,"isfriend":0,"isfamily":0,"safe":0,"ownername":"Ornedra","latitude":54.375558,"longitude":13.70613,"accuracy":"11","context":0,"place_id":"HJNPdHBXW75_pAk","woeid":"694462","geo_is_family":0,"geo_is_friend":0,"geo_is_contact":0,"geo_is_public":1,"media":"photo","media_status":"ready"},{"id":"13996913438","owner":"42483899@N00","secret":"a0b7dfb935","server":"2919","farm":3,"title":"Bright side of the moon","ispublic":1,"isfriend":0,"isfamily":0,"safe":0,"ownername":"Davescunningplan","latitude":54.370558,"longitude":-3.054971,"accuracy":"13","context":0,"place_id":"mjknKbhQVL0RDw","woeid":"16767","geo_is_family":0,"geo_is_friend":0,"geo_is_contact":0,"geo_is_public":1,"media":"photo","media_status":"ready"},{"id":"14160185236","owner":"45722248@N07","secret":"8f9433f08f","server":"7433","farm":8,"title":"Couple","ispublic":1,"isfriend":0,"isfamily":0,"safe":0,"ownername":"ffela","latitude":52.519877,"longitude":13.377655,"accuracy":"16","context":0,"place_id":"VULyzjBXVb89VXc","woeid":"675695","geo_is_family":0,"geo_is_friend":0,"geo_is_contact":0,"geo_is_public":1,"media":"photo","media_status":"ready"}]},"stat":"ok"}