{"photos":{"page":63,"pages":26696,"perpage":60,"total":"1601728","photo":[{"id":"9573250582","owner":"25959337@N00","secret":"776a200625","server":"3745","farm":4,"title":"Store Standal sett fra Tungremstindane","ispublic":1,"isfriend":0,"isfamily":0,"safe":1,"ownername":"Martin Ystenes - celebrating 5 million views","latitude":62.304126,"longitude":6.486396,"accuracy":"13","context":0,"place_id":"0ClrhBxZVL7tnio","woeid":"864507","geo_is_family":0,"geo_is_friend":0,"geo_is_contact":0,"geo_is_public":1,"media":"photo","media_status":"ready"},{"id":"9328773963","owner":"25959337@N00","secret":"a1a02d0b46","server":"3765","farm":4,"title":"Vestrahorn","ispublic":1,"isfriend":0,"isfamily":0,"safe":1,"ownername":"Martin Ystenes - celebrating 5 million views","latitude":64.264652,"longitude":-14.997196,"accuracy":"16","context":0,"place_id":"L30o2XlTUb6ZXW0u","woeid":"2345690","geo_is_family":0,"geo_is_friend":0,"geo_is_contact":0,"geo_is_public":1,"media":"photo","media_status":"ready"},{"id":"8286835485","owner":"66792513@N07","secret":"7099c90e8e","server":"8197","farm":9,"title":"Aigina Island, Greece","ispublic":1,"isfriend":0,"isfamily":0,"safe":1,"ownername":"Ioannisdg","latitude":37.723082,"longitude":23.461594,"accuracy":"16","context":0,"place_id":"W_Py8lNTVr_nP5V4Mw","woeid":"24544175","geo_is_family":0,"geo_is_friend":0,"geo_is_contact":0,"geo_is_public":1,"media":"photo","media_status":"ready"},{"id":"7556931090","owner":"65166290@N00","secret":"22ff5020f4","server":"7140","farm":8,"title":"Howmore","ispublic":1,"isfriend":0,"isfamily":0,"safe":0,"ownername":"Hugh Spicer \/ UIsdean Spicer","latitude":57.299999,"longitude":-7.383329,"accuracy":"11","context":0,"place_id":"UD2CJnZTVrremg","woeid":"24058","geo_is_family":0,"geo_is_friend":0,"geo_is_contact":0,"geo_is_public":1,"media":"photo","media_status":"ready"},{"id":"5028827102","owner":"41924773@N03","secret":"95a57d393c","server":"4148","farm":5,"title":"Traffic Chaos Under A Bridge :: DRI","ispublic":1,"isfriend":0,"isfamily":0,"safe":0,"ownername":"servalpe","latitude":40.434166,"longitude":-3.733889,"accuracy":"16","context":0,"place_id":"m9Luef9TUrhEDtes3A","woeid":"20219878","geo_is_family":0,"geo_is_friend":0,"geo_is_contact":0,"geo_is_public":1,"media":"photo","media_status":"ready"},{"id":"4121371395","owner":"41374607@N02","secret":"245856e4d0","server":"2503","farm":3,"title":"O bosque mal assombrado","ispublic":1,"isfriend":0,"isfamily":0,"safe":1,"ownername":"Di\u00f3genes Ara\u00fajo","latitude":59.43647,"longitude":24.752599,"accuracy":"11","context":0,"place_id":"71PCSlJZVr86iLM","woeid":"845743","geo_is_family":0,"geo_is_friend":0,"geo_is_contact":0,"geo_is_public":1,"media":"photo","media_status":"ready"},{"id":"3004441132","owner":"28600449@N02","secret":"8298b0c9fc","server":"3161","farm":4,"title":"Isn't fog just beautiful?","ispublic":1,"isfriend":0,"isfamily":0,"safe":0,"ownername":"Mez\u0151, Korn\u00e9l (mostly away)","latitude":42.326443,"longitude":-71.532926,"accuracy":"13","context":0,"place_id":"YyQxNH5TVrPqBXcx","woeid":"2496965","geo_is_family":0,"geo_is_friend":0,"geo_is_contact":0,"geo_is_public":1,"media":"photo","media_status":"ready"},{"id":"2100781655","owner":"12275982@N06","secret":"363d595d8f","server":"2327","farm":3,"title":"1230 le havre Sunset for container vessel \u65e5\u843d \uc120\uc14b","ispublic":1,"isfriend":0,"isfamily":0,"safe":1,"ownername":"Rolye","latitude":49.486193,"longitude":0.101022,"accuracy":"13","context":0,"place_id":"62vbCnRXUrkSOzc","woeid":"603259","geo_is_family":0,"geo_is_friend":0,"geo_is_contact":0,"geo_is_public":1,"media":"photo","media_status":"ready"},{"id":"14239753774","owner":"56205589@N00","secret":"b5e9a85019","server":"5528","farm":6,"title":"[Exolore #136] BreakDance...  and WUUUUuuuuuusch!","ispublic":1,"isfriend":0,"isfamily":0,"safe":0,"ownername":"Froschk\u00f6nig Photos","latitude":51.339966,"longitude":12.342712,"accuracy":"15","context":0,"place_id":"UH8CL0dXVbu23sY","woeid":"671072","geo_is_family":0,"geo_is_friend":0,"geo_is_contact":0,"geo_is_public":1,"media":"photo","media_status":"ready"},{"id":"14258311273","owner":"56310743@N08","secret":"71ec2b8f85","server":"5542","farm":6,"title":"Aldham at Twilight","ispublic":1,"isfriend":0,"isfamily":0,"safe":0,"ownername":"dogmarten28","latitude":52.060815,"longitude":0.975036,"accuracy":"15","context":0,"place_id":"pKTVDohQULywn.SKPg","woeid":"12696080","geo_is_family":0,"geo_is_friend":0,"geo_is_contact":0,"geo_is_public":1,"media":"photo","media_status":"ready"},{"id":"14050342567","owner":"24853959@N05","secret":"2aaa4c6aa7","server":"5153","farm":6,"title":"Il y a 1 an... Sarajevo","ispublic":1,"isfriend":0,"isfamily":0,"safe":0,"ownername":"Musard Futile","latitude":43.858296,"longitude":18.436059,"accuracy":"14","context":0,"place_id":"7VOB1UVUV7LCYWHkXw","woeid":"55869076","geo_is_family":0,"geo_is_friend":0,"geo_is_contact":0,"geo_is_public":1,"media":"photo","media_status":"ready"},{"id":"14050313650","owner":"22381287@N06","secret":"3a90081e7b","server":"2934","farm":3,"title":"Camomilla - explore","ispublic":1,"isfriend":0,"isfamily":0,"safe":0,"ownername":"Paolo Perco","latitude":45.935475,"longitude":13.572385,"accuracy":"16","context":0,"place_id":"0eaqnjZWU72Lvz8","woeid":"717472","geo_is_family":0,"geo_is_friend":0,"geo_is_contact":0,"geo_is_public":1,"media":"photo","media_status":"ready"},{"id":"14235751924","owner":"8868875@N03","secret":"f0083ca011","server":"5577","farm":6,"title":"short break","ispublic":1,"isfriend":0,"isfamily":0,"safe":0,"ownername":"gato-gato-gato","latitude":45.465422,"longitude":9.185922,"accuracy":"16","context":0,"place_id":"49Gidk1WU7JxrFY","woeid":"718345","geo_is_family":0,"geo_is_friend":0,"geo_is_contact":0,"geo_is_public":1,"media":"photo","media_status":"ready"},{"id":"14232482151","owner":"91794896@N00","secret":"15b011644f","server":"2895","farm":3,"title":"Sch\u00f6nbrunn Palace \/ Explore # 387 \/ 20.05.2014","ispublic":1,"isfriend":0,"isfamily":0,"safe":0,"ownername":"Gerhard Singer","latitude":48.197675,"longitude":16.371688,"accuracy":"11","context":0,"place_id":"vyIUe41UV7uao.Y","woeid":"551801","geo_is_family":0,"geo_is_friend":0,"geo_is_contact":0,"geo_is_public":1,"media":"photo","media_status":"ready"},{"id":"14228828851","owner":"56996889@N04","secret":"fbbdf03481","server":"5481","farm":6,"title":"Summer Steps in the cold of London","ispublic":1,"isfriend":0,"isfamily":0,"safe":0,"ownername":"GDJVJ","latitude":51.584688,"longitude":-0.020949,"accuracy":"16","context":0,"place_id":"ssuiRrZSW7rw4w","woeid":"39076","geo_is_family":0,"geo_is_friend":0,"geo_is_contact":0,"geo_is_public":1,"media":"photo","media_status":"ready"},{"id":"14045294470","owner":"46209713@N00","secret":"753ac3c363","server":"2935","farm":3,"title":"Dubious","ispublic":1,"isfriend":0,"isfamily":0,"safe":0,"ownername":"Ralph Friedman","latitude":48.204126,"longitude":16.370508,"accuracy":"16","context":0,"place_id":"G7TwxipUV7uNr80","woeid":"551759","geo_is_family":0,"geo_is_friend":0,"geo_is_contact":0,"geo_is_public":1,"media":"photo","media_status":"ready"},{"id":"14228947912","owner":"76458369@N07","secret":"a597c12035","server":"5313","farm":6,"title":"Beauty and the mist.","ispublic":1,"isfriend":0,"isfamily":0,"safe":1,"ownername":"Eric Goncalves","latitude":51.785842,"longitude":-2.497329,"accuracy":"13","context":0,"place_id":"Tcv12YtQULOIpg","woeid":"12982","geo_is_family":0,"geo_is_friend":0,"geo_is_contact":0,"geo_is_public":1,"media":"photo","media_status":"ready"},{"id":"14250244243","owner":"90189924@N08","secret":"9ec9cfac42","server":"5200","farm":6,"title":"Insect and Flower","ispublic":1,"isfriend":0,"isfamily":0,"safe":0,"ownername":"Guilherme GMP","latitude":-25.442595,"longitude":-49.237831,"accuracy":"16","context":0,"place_id":"3ACEZmtUV7OiNAH0Xg","woeid":"55944412","geo_is_family":0,"geo_is_friend":0,"geo_is_contact":0,"geo_is_public":1,"media":"photo","media_status":"ready"},{"id":"14229460735","owner":"57866871@N03","secret":"7067f84f1c","server":"5275","farm":6,"title":"Fern family","ispublic":1,"isfriend":0,"isfamily":0,"safe":0,"ownername":"snowyturner","latitude":50.415505,"longitude":-4.084579,"accuracy":"13","context":0,"place_id":"e9UmEEFQW7nxtQ","woeid":"19395","geo_is_family":0,"geo_is_friend":0,"geo_is_contact":0,"geo_is_public":1,"media":"photo","media_status":"ready"},{"id":"14228520575","owner":"112711738@N06","secret":"3b018ea55a","server":"2905","farm":3,"title":"Life On Rocks.","ispublic":1,"isfriend":0,"isfamily":0,"safe":0,"ownername":"dasanes77","latitude":36.803558,"longitude":-2.06339,"accuracy":"11","context":0,"place_id":"poxx0jxWVL9Ary0","woeid":"765734","geo_is_family":0,"geo_is_friend":0,"geo_is_contact":0,"geo_is_public":1,"media":"photo","media_status":"ready"},{"id":"14247803893","owner":"45564437@N08","secret":"5e5ff40eee","server":"5541","farm":6,"title":"ser universal","ispublic":1,"isfriend":0,"isfamily":0,"safe":0,"ownername":"Mauricio Silerio","latitude":59.92199,"longitude":30.410156,"accuracy":"5","context":0,"place_id":"ufBbjAZTUroBm1Enww","woeid":"20070507","geo_is_family":0,"geo_is_friend":0,"geo_is_contact":0,"geo_is_public":1,"media":"photo","media_status":"ready"},{"id":"14218875421","owner":"92375404@N08","secret":"38245dd9fa","server":"2918","farm":3,"title":"An der Werra zwischen Oberrieden und Lindewerra","ispublic":1,"isfriend":0,"isfamily":0,"safe":0,"ownername":"tobias142","latitude":51.312865,"longitude":9.937055,"accuracy":"14","context":0,"place_id":"6KOav9JXVbiPAiQ","woeid":"672017","geo_is_family":0,"geo_is_friend":0,"geo_is_contact":0,"geo_is_public":1,"media":"photo","media_status":"ready"},{"id":"14218669831","owner":"11638484@N06","secret":"a9bf23db54","server":"5561","farm":6,"title":"Arctic Tern (Sterna paradisaea)","ispublic":1,"isfriend":0,"isfamily":0,"safe":0,"ownername":"Paul Hueber","latitude":29.078151,"longitude":-80.916452,"accuracy":"16","context":0,"place_id":"8yfY2lhTVr1VzjBq","woeid":"2474920","geo_is_family":0,"geo_is_friend":0,"geo_is_contact":0,"geo_is_public":1,"media":"photo","media_status":"ready"},{"id":"14033036939","owner":"46267286@N07","secret":"0d867b56b5","server":"5541","farm":6,"title":"Tower 42 Fill The Sky - London City Life","ispublic":1,"isfriend":0,"isfamily":0,"safe":0,"ownername":"Simon & His Camera","latitude":51.515112,"longitude":-0.083556,"accuracy":"16","context":0,"place_id":"3Vyv899TUroWiiTGDg","woeid":"20094298","geo_is_family":0,"geo_is_friend":0,"geo_is_contact":0,"geo_is_public":1,"media":"photo","media_status":"ready"},{"id":"14219341124","owner":"70667315@N07","secret":"6feda8b2af","server":"5522","farm":6,"title":"Butterflies, flutterbyes, gutterflies...","ispublic":1,"isfriend":0,"isfamily":0,"safe":0,"ownername":"Laurent photography","latitude":48.89231,"longitude":2.236656,"accuracy":"16","context":0,"place_id":"OZm8L3lUV7LeKWG5lw","woeid":"55863561","geo_is_family":0,"geo_is_friend":0,"geo_is_contact":0,"geo_is_public":1,"media":"photo","media_status":"ready"},{"id":"14027341059","owner":"81287358@N05","secret":"5dc9f91007","server":"2936","farm":3,"title":"Buntspecht im Flug - flying woodpecker (Explore)","ispublic":1,"isfriend":0,"isfamily":0,"safe":0,"ownername":"Martin Fischhaber","latitude":47.769791,"longitude":11.567916,"accuracy":"11","context":0,"place_id":"ELIJ5hhXUby5E6o","woeid":"636522","geo_is_family":0,"geo_is_friend":0,"geo_is_contact":0,"geo_is_public":1,"media":"photo","media_status":"ready"},{"id":"14213130474","owner":"54252594@N06","secret":"cf3b0942eb","server":"5554","farm":6,"title":"Skyscraper","ispublic":1,"isfriend":0,"isfamily":0,"safe":0,"ownername":"inFocusDCPhoto \u2013 Young Spanish photographer","latitude":43.267206,"longitude":-2.937126,"accuracy":"11","context":0,"place_id":"v0b7ga9WV745BHU","woeid":"754542","geo_is_family":0,"geo_is_friend":0,"geo_is_contact":0,"geo_is_public":1,"media":"photo","media_status":"ready"},{"id":"14190056406","owner":"99706814@N03","secret":"17f2a06688","server":"2908","farm":3,"title":"Val\u00e9riane","ispublic":1,"isfriend":0,"isfamily":0,"safe":0,"ownername":"sebastienpeguillou","latitude":48.842208,"longitude":2.35734,"accuracy":"13","context":0,"place_id":"EsIQUYZXU79_kEA","woeid":"615702","geo_is_family":0,"geo_is_friend":0,"geo_is_contact":0,"geo_is_public":1,"media":"photo","media_status":"ready"},{"id":"14212207165","owner":"24355450@N07","secret":"1260c2e401","server":"5506","farm":6,"title":"The River Cannich..","ispublic":1,"isfriend":0,"isfamily":0,"safe":0,"ownername":"Gordie Broon.","latitude":57.346347,"longitude":-4.92136,"accuracy":"16","context":0,"place_id":"3Agphp9TUrpXcQeE.A","woeid":"20089645","geo_is_family":0,"geo_is_friend":0,"geo_is_contact":0,"geo_is_public":1,"media":"photo","media_status":"ready"},{"id":"14211876435","owner":"43577841@N06","secret":"93cb3d9f86","server":"2912","farm":3,"title":"-","ispublic":1,"isfriend":0,"isfamily":0,"safe":0,"ownername":"ToBe.Photo","latitude":45.457976,"longitude":7.168324,"accuracy":"16","context":0,"place_id":"307mjFpWU7_pJ_8S","woeid":"7153341","geo_is_family":0,"geo_is_friend":0,"geo_is_contact":0,"geo_is_public":1,"media":"photo","media_status":"ready"},{"id":"14025014500","owner":"47061356@N02","secret":"5dc8c34759","server":"5574","farm":6,"title":"20140518_F0001: The photographer with the Flickr badges","ispublic":1,"isfriend":0,"isfamily":0,"safe":0,"ownername":"wfxue","latitude":51.506138,"longitude":-0.081803,"accuracy":"16","context":0,"place_id":"v70Y8qlTUrrLiiTZAg","woeid":"20094363","geo_is_family":0,"geo_is_friend":0,"geo_is_contact":0,"geo_is_public":1,"media":"photo","media_status":"ready"},{"id":"14021677059","owner":"54894481@N04","secret":"47985358f3","server":"5520","farm":6,"title":"Celebrity Infinity","ispublic":1,"isfriend":0,"isfamily":0,"safe":0,"ownername":"3peaker","latitude":53.408636,"longitude":-3.000962,"accuracy":"15","context":0,"place_id":"qjKgcTtVVrts7g","woeid":"44112","geo_is_family":0,"geo_is_friend":0,"geo_is_contact":0,"geo_is_public":1,"media":"photo","media_status":"ready"},{"id":"14204128141","owner":"53372670@N05","secret":"18b38eae85","server":"2903","farm":3,"title":"Pierced and Tattooed","ispublic":1,"isfriend":0,"isfamily":0,"safe":0,"ownername":"CSHamilton","latitude":55.864535,"longitude":-4.258446,"accuracy":"15","context":0,"place_id":"4NaiN6pVUbwoug","woeid":"43613","geo_is_family":0,"geo_is_friend":0,"geo_is_contact":0,"geo_is_public":1,"media":"photo","media_status":"ready"},{"id":"14207206524","owner":"24448805@N07","secret":"7f56cf751e","server":"2928","farm":3,"title":"Boston, Charles River and Cambridge","ispublic":1,"isfriend":0,"isfamily":0,"safe":0,"ownername":"Tony Shi.","latitude":42.347225,"longitude":-71.082251,"accuracy":"15","context":0,"place_id":".IjNyVdUV7PPRxa5wA","woeid":"55986794","geo_is_family":0,"geo_is_friend":0,"geo_is_contact":0,"geo_is_public":1,"media":"photo","media_status":"ready"},{"id":"14184003066","owner":"42985099@N03","secret":"3342200299","server":"2909","farm":3,"title":"~Phyllopertha horticola~","ispublic":1,"isfriend":0,"isfamily":0,"safe":0,"ownername":"Eddie The Bugman","latitude":52.940582,"longitude":-1.1697,"accuracy":"16","context":0,"place_id":"0ATbdDhTVLselg","woeid":"26113","geo_is_family":0,"geo_is_friend":0,"geo_is_contact":0,"geo_is_public":1,"media":"photo","media_status":"ready"},{"id":"14204396542","owner":"93153382@N07","secret":"7264a697e5","server":"5586","farm":6,"title":"Paolo","ispublic":1,"isfriend":0,"isfamily":0,"safe":0,"ownername":"moro1954","latitude":44.136638,"longitude":12.283573,"accuracy":"13","context":0,"place_id":"ZDlhGcZWU7nT2dw","woeid":"713883","geo_is_family":0,"geo_is_friend":0,"geo_is_contact":0,"geo_is_public":1,"media":"photo","media_status":"ready"},{"id":"14206692044","owner":"62597931@N02","secret":"0cdcaf1169","server":"2927","farm":3,"title":"Lonely Times","ispublic":1,"isfriend":0,"isfamily":0,"safe":0,"ownername":"Jim the Joker","latitude":54.181927,"longitude":-2.333221,"accuracy":"13","context":0,"place_id":"i0z7u4JSVrmlXQ","woeid":"34360","geo_is_family":0,"geo_is_friend":0,"geo_is_contact":0,"geo_is_public":1,"media":"photo","media_status":"ready"},{"id":"14206662194","owner":"34885474@N03","secret":"d64b4117aa","server":"2930","farm":3,"title":"por las playas de  Juances. Butihondo","ispublic":1,"isfriend":0,"isfamily":0,"safe":0,"ownername":"alcachofa1960","latitude":28.07376,"longitude":-14.301999,"accuracy":"16","context":0,"place_id":"JXXP4QtUVLoTJ_IoFw","woeid":"56065264","geo_is_family":0,"geo_is_friend":0,"geo_is_contact":0,"geo_is_public":1,"media":"photo","media_status":"ready"},{"id":"14181895366","owner":"121182662@N02","secret":"5415352916","server":"2930","farm":3,"title":"cataclysm","ispublic":1,"isfriend":0,"isfamily":0,"safe":0,"ownername":"Pannonius Rex","latitude":47.436927,"longitude":19.181646,"accuracy":"16","context":0,"place_id":"fSJ3doZZU7mZ1oM","woeid":"813754","geo_is_family":0,"geo_is_friend":0,"geo_is_contact":0,"geo_is_public":1,"media":"photo","media_status":"ready"},{"id":"14018369610","owner":"92239641@N02","secret":"d8c7073846","server":"2940","farm":3,"title":"Vendredi et Robinson Cruso\u00e9","ispublic":1,"isfriend":0,"isfamily":0,"safe":0,"ownername":"Ma Poupoule","latitude":25.315114,"longitude":83.017226,"accuracy":"16","context":0,"place_id":"F_b9QvxUV7OE0H_8Fw","woeid":"55951451","geo_is_family":0,"geo_is_friend":0,"geo_is_contact":0,"geo_is_public":1,"media":"photo","media_status":"ready"},{"id":"14015146129","owner":"33408514@N07","secret":"7278f35dfd","server":"5586","farm":6,"title":"Chinchilla de Montearag\u00f3n (Albacete, Spain)","ispublic":1,"isfriend":0,"isfamily":0,"safe":0,"ownername":"Recesvintus","latitude":38.918117,"longitude":-1.72054,"accuracy":"16","context":0,"place_id":"faS9d6ZWV73wpJs","woeid":"757528","geo_is_family":0,"geo_is_friend":0,"geo_is_contact":0,"geo_is_public":1,"media":"photo","media_status":"ready"},{"id":"14015141409","owner":"87317128@N08","secret":"1800cd3ce8","server":"2901","farm":3,"title":"Hanway Place after Dark","ispublic":1,"isfriend":0,"isfamily":0,"safe":0,"ownername":"Pu\u00e9rtolas","latitude":51.516834,"longitude":-0.132436,"accuracy":"16","context":0,"place_id":"N0xeKd9TUrpkJunLqg","woeid":"20094319","geo_is_family":0,"geo_is_friend":0,"geo_is_contact":0,"geo_is_public":1,"media":"photo","media_status":"ready"},{"id":"14013113317","owner":"54397399@N05","secret":"3e21f418b5","server":"7377","farm":8,"title":"Moqueur chat \/ Gray Catbird \/ Dumetella carolinensis","ispublic":1,"isfriend":0,"isfamily":0,"safe":0,"ownername":"Yves D\u00e9ry","latitude":45.556944,"longitude":-73.556112,"accuracy":"16","context":0,"place_id":"VpqLFOBTW7kJK5SFHw","woeid":"29374075","geo_is_family":0,"geo_is_friend":0,"geo_is_contact":0,"geo_is_public":1,"media":"photo","media_status":"ready"},{"id":"14219841893","owner":"61033692@N00","secret":"39052c9ea9","server":"2920","farm":3,"title":"Chalki - detail","ispublic":1,"isfriend":0,"isfamily":0,"safe":0,"ownername":"magellano","latitude":36.217687,"longitude":27.617912,"accuracy":"11","context":0,"place_id":"0.OGjEVYVLyTlps","woeid":"966237","geo_is_family":0,"geo_is_friend":0,"geo_is_contact":0,"geo_is_public":1,"media":"photo","media_status":"ready"},{"id":"14013033010","owner":"46578714@N05","secret":"0ffdeb4bd5","server":"7455","farm":8,"title":"vendredi soir c'est le week end !","ispublic":1,"isfriend":0,"isfamily":0,"safe":0,"ownername":"pontfire","latitude":49.285415,"longitude":1.236906,"accuracy":"14","context":0,"place_id":"ZdgmYh9QULzBsnlBrw","woeid":"12647444","geo_is_family":0,"geo_is_friend":0,"geo_is_contact":0,"geo_is_public":1,"media":"photo","media_status":"ready"},{"id":"14011498730","owner":"86071258@N00","secret":"4f9c898e30","server":"7384","farm":8,"title":"Prairie Warbler","ispublic":1,"isfriend":0,"isfamily":0,"safe":0,"ownername":"Ray Hennessy","latitude":38.958944,"longitude":-74.959755,"accuracy":"16","context":0,"place_id":"QKlfmD1TV7qxjZEB","woeid":"2502419","geo_is_family":0,"geo_is_friend":0,"geo_is_contact":0,"geo_is_public":1,"media":"photo","media_status":"ready"},{"id":"14196358264","owner":"66644631@N05","secret":"a5ed32065a","server":"7370","farm":8,"title":"Parisian terrace","ispublic":1,"isfriend":0,"isfamily":0,"safe":0,"ownername":"jmlpyt","latitude":48.857799,"longitude":2.347456,"accuracy":"15","context":0,"place_id":"GPoA4aBUV7LCk1SJeQ","woeid":"55843763","geo_is_family":0,"geo_is_friend":0,"geo_is_contact":0,"geo_is_public":1,"media":"photo","media_status":"ready"},{"id":"14007990848","owner":"53340207@N07","secret":"32bdfa7ca6","server":"5545","farm":6,"title":"Brins de Muguet","ispublic":1,"isfriend":0,"isfamily":0,"safe":0,"ownername":"Pifou 2010","latitude":48.889037,"longitude":2.32394,"accuracy":"16","context":0,"place_id":"iSoxLlBUV7Jk5hnnmA","woeid":"55843842","geo_is_family":0,"geo_is_friend":0,"geo_is_contact":0,"geo_is_public":1,"media":"photo","media_status":"ready"},{"id":"14006772527","owner":"19685823@N00","secret":"a433f02634","server":"5521","farm":6,"title":"Ponte dei Salti @ Val Verzasca . Ticino Svizzera","ispublic":1,"isfriend":0,"isfamily":0,"safe":0,"ownername":"Toni_V","latitude":46.258509,"longitude":8.837878,"accuracy":"16","context":0,"place_id":"IdHlnsNWWrm.nrU","woeid":"783061","geo_is_family":0,"geo_is_friend":0,"geo_is_contact":0,"geo_is_public":1,"media":"photo","media_status":"ready"},{"id":"14170127496","owner":"24448805@N07","secret":"5cedac110a","server":"5550","farm":6,"title":"Boston Skyline","ispublic":1,"isfriend":0,"isfamily":0,"safe":0,"ownername":"Tony Shi.","latitude":42.355239,"longitude":-71.097872,"accuracy":"16","context":0,"place_id":"lvyLnClTUb1I6DRm","woeid":"2373594","geo_is_family":0,"geo_is_friend":0,"geo_is_contact":0,"geo_is_public":1,"media":"photo","media_status":"ready"},{"id":"14006086158","owner":"76916503@N04","secret":"499e35eb82","server":"5480","farm":6,"title":"","ispublic":1,"isfriend":0,"isfamily":0,"safe":0,"ownername":"Isina Fri","latitude":43.256205,"longitude":-5.675725,"accuracy":"13","context":0,"place_id":"dL2sSjRTUrhbeMPAIA","woeid":"20223893","geo_is_family":0,"geo_is_friend":0,"geo_is_contact":0,"geo_is_public":1,"media":"photo","media_status":"ready"},{"id":"14191291014","owner":"44161305@N02","secret":"4d6dde649f","server":"5155","farm":6,"title":"G\u00f6reme, Cappadocia (Kapadokya, Turkey) 1080","ispublic":1,"isfriend":0,"isfamily":0,"safe":0,"ownername":"tango-","latitude":38.645567,"longitude":34.830265,"accuracy":"12","context":0,"place_id":"OIvmaeNTUbmsxu00","woeid":"2339815","geo_is_family":0,"geo_is_friend":0,"geo_is_contact":0,"geo_is_public":1,"media":"photo","media_status":"ready"},{"id":"14004180718","owner":"22008624@N03","secret":"13b90d40ac","server":"2939","farm":3,"title":"Mirada ..........","ispublic":1,"isfriend":0,"isfamily":0,"safe":0,"ownername":"Jordi TROGUET (Thanks for 894,000+views!!)","latitude":31.631496,"longitude":-8.008668,"accuracy":"16","context":0,"place_id":"BB5YC1tQV7m3SIVd","woeid":"1537782","geo_is_family":0,"geo_is_friend":0,"geo_is_contact":0,"geo_is_public":1,"media":"photo","media_status":"ready"},{"id":"14003344547","owner":"66644631@N05","secret":"4b86a47e54","server":"7390","farm":8,"title":"Place de la R\u00e9publique","ispublic":1,"isfriend":0,"isfamily":0,"safe":0,"ownername":"jmlpyt","latitude":48.867566,"longitude":2.364356,"accuracy":"15","context":0,"place_id":"VTGpnq9UV7LmG39UmQ","woeid":"55843759","geo_is_family":0,"geo_is_friend":0,"geo_is_contact":0,"geo_is_public":1,"media":"photo","media_status":"ready"},{"id":"14208314863","owner":"87317128@N08","secret":"783d88dea1","server":"2914","farm":3,"title":"Dark Alley, London style","ispublic":1,"isfriend":0,"isfamily":0,"safe":0,"ownername":"Pu\u00e9rtolas","latitude":51.517409,"longitude":-0.123338,"accuracy":"16","context":0,"place_id":"6_3fh4dTUrq3gOi.uA","woeid":"20094350","geo_is_family":0,"geo_is_friend":0,"geo_is_contact":0,"geo_is_public":1,"media":"photo","media_status":"ready"},{"id":"13999853027","owner":"84894254@N03","secret":"3f59999527","server":"7435","farm":8,"title":"O","ispublic":1,"isfriend":0,"isfamily":0,"safe":0,"ownername":"Magdalena Roeseler","latitude":47.170402,"longitude":8.513374,"accuracy":"14","context":0,"place_id":"ZgMqeQdWWr74aa0","woeid":"784784","geo_is_family":0,"geo_is_friend":0,"geo_is_contact":0,"geo_is_public":1,"media":"photo","media_status":"ready"},{"id":"14185804434","owner":"65949682@N00","secret":"3e0e7a669d","server":"7409","farm":8,"title":"I see forgiveness","ispublic":1,"isfriend":0,"isfamily":0,"safe":0,"ownername":"OR_U","latitude":39.473446,"longitude":-0.378985,"accuracy":"16","context":0,"place_id":"aOaiaoRTUrjdUgVu0g","woeid":"20220220","geo_is_family":0,"geo_is_friend":0,"geo_is_contact":0,"geo_is_public":1,"media":"photo","media_status":"ready"},{"id":"13998964927","owner":"8868875@N03","secret":"1f93fd445c","server":"7454","farm":8,"title":"zig zag shadow","ispublic":1,"isfriend":0,"isfamily":0,"safe":0,"ownername":"gato-gato-gato","latitude":47.371722,"longitude":8.542188,"accuracy":"16","context":0,"place_id":"Fwr4QC5WWrh4E64","woeid":"782466","geo_is_family":0,"geo_is_friend":0,"geo_is_contact":0,"geo_is_public":1,"media":"photo","media_status":"ready"},{"id":"13998255778","owner":"73120226@N08","secret":"bdcb829cbb","server":"2926","farm":3,"title":"sunset1_pp_2048p","ispublic":1,"isfriend":0,"isfamily":0,"safe":0,"ownername":"RVDigitalBoy","latitude":28.520897,"longitude":-81.7182,"accuracy":"16","context":0,"place_id":"jvD76OxUV7P2V7QSqA","woeid":"55976183","geo_is_family":0,"geo_is_friend":0,"geo_is_contact":0,"geo_is_public":1,"media":"photo","media_status":"ready"},{"id":"14161453336","owner":"94841170@N07","secret":"6a706c75e6","server":"7378","farm":8,"title":"All of me!!...... (Explored!! :-))","ispublic":1,"isfriend":0,"isfamily":0,"safe":0,"ownername":"2jaysjoju","latitude":51.807725,"longitude":-0.831084,"accuracy":"16","context":0,"place_id":"Mukq6W9QU75I3Q","woeid":"11490","geo_is_family":0,"geo_is_friend":0,"geo_is_contact":0,"geo_is_public":1,"media":"photo","media_status":"ready"}]},"stat":"ok"}