{"photos":{"page":16,"pages":26128,"perpage":60,"total":"1567624","photo":[{"id":"13998396301","owner":"80516886@N00","secret":"5c26d50e3b","server":"5171","farm":6,"title":"Praia, Surf & Futebol na Areia - Praia de Itacoatiara - Niteroi - Rio de Janeiro","ispublic":1,"isfriend":0,"isfamily":0,"safe":0,"ownername":".**rickipanema**.","latitude":-22.974614,"longitude":-43.031331,"accuracy":"16","context":0,"place_id":"v17jQPJVUb_P9Ks","woeid":"435903","geo_is_family":0,"geo_is_friend":0,"geo_is_contact":0,"geo_is_public":1,"media":"photo","media_status":"ready"},{"id":"13977472726","owner":"93250327@N05","secret":"267ea50738","server":"2899","farm":3,"title":"Almost angelic [Explored 24th April 2014]","ispublic":1,"isfriend":0,"isfamily":0,"safe":0,"ownername":"Patrizia Ilaria Sechi","latitude":51.499766,"longitude":-0.133552,"accuracy":"13","context":0,"place_id":"_8cuSp1TVrKmbg67ew","woeid":"24875645","geo_is_family":0,"geo_is_friend":0,"geo_is_contact":0,"geo_is_public":1,"media":"photo","media_status":"ready"},{"id":"14020539903","owner":"45722248@N07","secret":"cf2756318a","server":"5481","farm":6,"title":"Squares","ispublic":1,"isfriend":0,"isfamily":0,"safe":0,"ownername":"ffela","latitude":52.532669,"longitude":13.382619,"accuracy":"16","context":0,"place_id":"zot2ouJXUbKOJRM","woeid":"638242","geo_is_family":0,"geo_is_friend":0,"geo_is_contact":0,"geo_is_public":1,"media":"photo","media_status":"ready"},{"id":"14000802484","owner":"10299033@N04","secret":"4b453b1999","server":"5345","farm":6,"title":"Raindrops Keep Falling - ByWard Market, Ottawa","ispublic":1,"isfriend":0,"isfamily":0,"safe":0,"ownername":"Nadia Not Included","latitude":45.484441,"longitude":-73.692223,"accuracy":"16","context":0,"place_id":"nY7EoSRSV7kW","woeid":"3534","geo_is_family":0,"geo_is_friend":0,"geo_is_contact":0,"geo_is_public":1,"media":"photo","media_status":"ready"},{"id":"13999405174","owner":"69193440@N02","secret":"d0786777de","server":"5486","farm":6,"title":"The track","ispublic":1,"isfriend":0,"isfamily":0,"safe":0,"ownername":"Fj\u00e4llkantsbon","latitude":64.885354,"longitude":15.077641,"accuracy":"15","context":0,"place_id":"1kze8q9UV7L1FuyvRg","woeid":"55873632","geo_is_family":0,"geo_is_friend":0,"geo_is_contact":0,"geo_is_public":1,"media":"photo","media_status":"ready"},{"id":"13995686882","owner":"69082729@N05","secret":"85d45f767f","server":"5507","farm":6,"title":"Discesa aurea - Descent gold","ispublic":1,"isfriend":0,"isfamily":0,"safe":0,"ownername":"Paola Morosin","latitude":43.108036,"longitude":12.389299,"accuracy":"15","context":0,"place_id":"mrsPREpWULpKrGg","woeid":"720187","geo_is_family":0,"geo_is_friend":0,"geo_is_contact":0,"geo_is_public":1,"media":"photo","media_status":"ready"},{"id":"13995654402","owner":"34050631@N02","secret":"d20de6173c","server":"5120","farm":6,"title":"Cropthorne Mill","ispublic":1,"isfriend":0,"isfamily":0,"safe":0,"ownername":"Taron Curtis","latitude":52.109364,"longitude":-2.001764,"accuracy":"14","context":0,"place_id":"ckQ1sW1VUrKgYg","woeid":"40896","geo_is_family":0,"geo_is_friend":0,"geo_is_contact":0,"geo_is_public":1,"media":"photo","media_status":"ready"},{"id":"13995638572","owner":"20905078@N04","secret":"b31c756354","server":"7127","farm":8,"title":"","ispublic":1,"isfriend":0,"isfamily":0,"safe":0,"ownername":"patrickjoust","latitude":39.385015,"longitude":-76.732227,"accuracy":"15","context":0,"place_id":"jucPi_5TVr3fvg2D","woeid":"2471754","geo_is_family":0,"geo_is_friend":0,"geo_is_contact":0,"geo_is_public":1,"media":"photo","media_status":"ready"},{"id":"13995339851","owner":"81035653@N00","secret":"f5ab145010","server":"5559","farm":6,"title":"Two aeronautics flying over the Alpenpark Karwendel","ispublic":1,"isfriend":0,"isfamily":0,"safe":0,"ownername":"B\u212en","latitude":47.42588,"longitude":11.697086,"accuracy":"14","context":0,"place_id":"yvC8vbVUV7vjryA","woeid":"551055","geo_is_family":0,"geo_is_friend":0,"geo_is_contact":0,"geo_is_public":1,"media":"photo","media_status":"ready"},{"id":"13998515905","owner":"38134034@N04","secret":"7171f47a12","server":"7214","farm":8,"title":"Fury needs a bath","ispublic":1,"isfriend":0,"isfamily":0,"safe":0,"ownername":"blavandmaster","latitude":55.54399,"longitude":8.130741,"accuracy":"13","context":0,"place_id":"HjovhuRUV7gwujw","woeid":"552390","geo_is_family":0,"geo_is_friend":0,"geo_is_contact":0,"geo_is_public":1,"media":"photo","media_status":"ready"},{"id":"14018512323","owner":"38134034@N04","secret":"6125213dab","server":"2920","farm":3,"title":"My way","ispublic":1,"isfriend":0,"isfamily":0,"safe":0,"ownername":"blavandmaster","latitude":55.54399,"longitude":8.130741,"accuracy":"13","context":0,"place_id":"HjovhuRUV7gwujw","woeid":"552390","geo_is_family":0,"geo_is_friend":0,"geo_is_contact":0,"geo_is_public":1,"media":"photo","media_status":"ready"},{"id":"14018508963","owner":"38134034@N04","secret":"fcf481cebc","server":"5522","farm":6,"title":"Thank you (again) \/ Danke \/ Merci \/ Tak \/ \u00a1 Gracias ! \/ Grazie \/ \u0441\u043f\u0430\u0441\u0438\u0431\u043e, \u3042\u308a\u304c\u3068\u3046\uff01 \u8b1d\u8b1d","ispublic":1,"isfriend":0,"isfamily":0,"safe":0,"ownername":"blavandmaster","latitude":55.54399,"longitude":8.130741,"accuracy":"13","context":0,"place_id":"HjovhuRUV7gwujw","woeid":"552390","geo_is_family":0,"geo_is_friend":0,"geo_is_contact":0,"geo_is_public":1,"media":"photo","media_status":"ready"},{"id":"13998506635","owner":"38134034@N04","secret":"cb7c5e7747","server":"7206","farm":8,"title":"Lights off","ispublic":1,"isfriend":0,"isfamily":0,"safe":1,"ownername":"blavandmaster","latitude":55.54399,"longitude":8.130741,"accuracy":"13","context":0,"place_id":"HjovhuRUV7gwujw","woeid":"552390","geo_is_family":0,"geo_is_friend":0,"geo_is_contact":0,"geo_is_public":1,"media":"photo","media_status":"ready"},{"id":"13998940484","owner":"38134034@N04","secret":"da93bafbbe","server":"7415","farm":8,"title":"Southbound","ispublic":1,"isfriend":0,"isfamily":0,"safe":0,"ownername":"blavandmaster","latitude":55.54399,"longitude":8.130741,"accuracy":"13","context":0,"place_id":"HjovhuRUV7gwujw","woeid":"552390","geo_is_family":0,"geo_is_friend":0,"geo_is_contact":0,"geo_is_public":1,"media":"photo","media_status":"ready"},{"id":"13998501375","owner":"38134034@N04","secret":"7ac5bd7d5b","server":"7100","farm":8,"title":"Go ahead !","ispublic":1,"isfriend":0,"isfamily":0,"safe":0,"ownername":"blavandmaster","latitude":55.54399,"longitude":8.130741,"accuracy":"13","context":0,"place_id":"HjovhuRUV7gwujw","woeid":"552390","geo_is_family":0,"geo_is_friend":0,"geo_is_contact":0,"geo_is_public":1,"media":"photo","media_status":"ready"},{"id":"13998089845","owner":"81752684@N05","secret":"35e553cdbb","server":"7185","farm":8,"title":"Gateway to Long Island [Explore]","ispublic":1,"isfriend":0,"isfamily":0,"safe":0,"ownername":"NYRBlue94","latitude":40.74446,"longitude":-73.958909,"accuracy":"16","context":0,"place_id":"sTXjQKNTUb9enZi8dg","woeid":"23511858","geo_is_family":0,"geo_is_friend":0,"geo_is_contact":0,"geo_is_public":1,"media":"photo","media_status":"ready"},{"id":"13998454844","owner":"7983463@N08","secret":"bb77fbd23b","server":"7317","farm":8,"title":"Omen II","ispublic":1,"isfriend":0,"isfamily":0,"safe":0,"ownername":"diesmali","latitude":57.770844,"longitude":11.605124,"accuracy":"15","context":0,"place_id":"PV1sb_BYUri3Ibk","woeid":"902763","geo_is_family":0,"geo_is_friend":0,"geo_is_contact":0,"geo_is_public":1,"media":"photo","media_status":"ready"},{"id":"13974563106","owner":"62815410@N04","secret":"d1bd712fa7","server":"7252","farm":8,"title":"gender identity disorder (brescia, italy)","ispublic":1,"isfriend":0,"isfamily":0,"safe":0,"ownername":"bloodybee","latitude":45.535581,"longitude":10.234365,"accuracy":"16","context":0,"place_id":"WO1uGLRWU7u69ps","woeid":"711410","geo_is_family":0,"geo_is_friend":0,"geo_is_contact":0,"geo_is_public":1,"media":"photo","media_status":"ready"},{"id":"13998069974","owner":"94015342@N04","secret":"d725a3be5f","server":"5267","farm":6,"title":"'Today is a Good Day' - Porth Swtan\/Church Bay, Anglesey","ispublic":1,"isfriend":0,"isfamily":0,"safe":0,"ownername":"Adrian Kingsley-Hughes","latitude":53.36949,"longitude":-4.557523,"accuracy":"15","context":0,"place_id":"E88kYYJSUbiE0A","woeid":"33258","geo_is_family":0,"geo_is_friend":0,"geo_is_contact":0,"geo_is_public":1,"media":"photo","media_status":"ready"},{"id":"13993972951","owner":"75718958@N03","secret":"8d6137becb","server":"2910","farm":3,"title":"Murbach, abbaye, Alsace (explored apr24 #394 thank you)","ispublic":1,"isfriend":0,"isfamily":0,"safe":1,"ownername":"Martin Itty - photography","latitude":47.923179,"longitude":7.160399,"accuracy":"11","context":0,"place_id":"VT5HPFVXU7kz8sM","woeid":"613713","geo_is_family":0,"geo_is_friend":0,"geo_is_contact":0,"geo_is_public":1,"media":"photo","media_status":"ready"},{"id":"13997003495","owner":"42985099@N03","secret":"3ecfb6e289","server":"5261","farm":6,"title":"~Deeper Into Inachis~","ispublic":1,"isfriend":0,"isfamily":0,"safe":0,"ownername":"Eddie The Bugman","latitude":52.930274,"longitude":-1.133179,"accuracy":"16","context":0,"place_id":"M39d_gJSW7_vvw","woeid":"39576","geo_is_family":0,"geo_is_friend":0,"geo_is_contact":0,"geo_is_public":1,"media":"photo","media_status":"ready"},{"id":"14016952503","owner":"87893633@N06","secret":"60f8e41c34","server":"7371","farm":8,"title":"Luzzu","ispublic":1,"isfriend":0,"isfamily":0,"safe":0,"ownername":"Cabanillas.-","latitude":35.840377,"longitude":14.544621,"accuracy":"16","context":0,"place_id":"XwMStT1VWrnFvtQ","woeid":"483430","geo_is_family":0,"geo_is_friend":0,"geo_is_contact":0,"geo_is_public":1,"media":"photo","media_status":"ready"},{"id":"13996854875","owner":"73939264@N08","secret":"54f4d035e1","server":"2921","farm":3,"title":"Macaw","ispublic":1,"isfriend":0,"isfamily":0,"safe":0,"ownername":"Glenn Pye","latitude":54.16835,"longitude":-3.17318,"accuracy":"16","context":0,"place_id":"hH_yGXFQVbI32w","woeid":"17890","geo_is_family":0,"geo_is_friend":0,"geo_is_contact":0,"geo_is_public":1,"media":"photo","media_status":"ready"},{"id":"13993573731","owner":"7432018@N02","secret":"4629e2245e","server":"2937","farm":3,"title":"Garage Decathlon, Antwerpen Luchtbal","ispublic":1,"isfriend":0,"isfamily":0,"safe":0,"ownername":"(ph).otography","latitude":51.203895,"longitude":4.374955,"accuracy":"16","context":0,"place_id":"vtp.Wu1YVLy7b20","woeid":"966591","geo_is_family":0,"geo_is_friend":0,"geo_is_contact":0,"geo_is_public":1,"media":"photo","media_status":"ready"},{"id":"13993388952","owner":"121182662@N02","secret":"1bf7799f50","server":"5072","farm":6,"title":"goinHARD","ispublic":1,"isfriend":0,"isfamily":0,"safe":0,"ownername":"Pannonius Rex","latitude":47.436927,"longitude":19.181646,"accuracy":"16","context":0,"place_id":"fSJ3doZZU7mZ1oM","woeid":"813754","geo_is_family":0,"geo_is_friend":0,"geo_is_contact":0,"geo_is_public":1,"media":"photo","media_status":"ready"},{"id":"14016095713","owner":"50027776@N05","secret":"23c2a4dc56","server":"5542","farm":6,"title":"Gaglianvecchio","ispublic":1,"isfriend":0,"isfamily":0,"safe":0,"ownername":"Luigi Alesi","latitude":43.296761,"longitude":13.209514,"accuracy":"12","context":0,"place_id":"yzAdBb5QULzeE8r_0g","woeid":"12678199","geo_is_family":0,"geo_is_friend":0,"geo_is_contact":0,"geo_is_public":1,"media":"photo","media_status":"ready"},{"id":"14015957123","owner":"100063725@N06","secret":"98890d2aa0","server":"2895","farm":3,"title":"Mar en calma a mediodia","ispublic":1,"isfriend":0,"isfamily":0,"safe":0,"ownername":"Antonio Chac","latitude":36.500831,"longitude":-4.922497,"accuracy":"16","context":0,"place_id":"b6ANCk5WVLwQivI","woeid":"766537","geo_is_family":0,"geo_is_friend":0,"geo_is_contact":0,"geo_is_public":1,"media":"photo","media_status":"ready"},{"id":"13972681686","owner":"39870654@N04","secret":"511cdebde5","server":"2934","farm":3,"title":"Pa\u00e7o Ducal de Vila Vi\u00e7osa","ispublic":1,"isfriend":0,"isfamily":0,"safe":0,"ownername":"Ant\u00f3nio Alfarroba","latitude":38.782549,"longitude":-7.420547,"accuracy":"16","context":0,"place_id":"MOXkor1WV7rOqms","woeid":"750876","geo_is_family":0,"geo_is_friend":0,"geo_is_contact":0,"geo_is_public":1,"media":"photo","media_status":"ready"},{"id":"14015609013","owner":"37517453@N08","secret":"44a0d7df99","server":"2918","farm":3,"title":"41 1150-6 und 41 1144-9 - Plandampf 2014 \/ Explore Apr 24, 2014 #261","ispublic":1,"isfriend":0,"isfamily":0,"safe":0,"ownername":"MK|PHOTOGRAPHY","latitude":50.740291,"longitude":10.335667,"accuracy":"16","context":0,"place_id":"Flj.M0xTUrtv9IUaqg","woeid":"20160817","geo_is_family":0,"geo_is_friend":0,"geo_is_contact":0,"geo_is_public":1,"media":"photo","media_status":"ready"},{"id":"13995584965","owner":"73897573@N00","secret":"84b9e4301d","server":"5341","farm":6,"title":"In the woods between Lazio and Abruzzo","ispublic":1,"isfriend":0,"isfamily":0,"safe":0,"ownername":"luigig75","latitude":41.754602,"longitude":13.819727,"accuracy":"14","context":0,"place_id":"QriQgu1WU7OlX1A","woeid":"719546","geo_is_family":0,"geo_is_friend":0,"geo_is_contact":0,"geo_is_public":1,"media":"photo","media_status":"ready"},{"id":"13995713554","owner":"27051537@N03","secret":"55118bcbb8","server":"2928","farm":3,"title":"Ez egin negarrik","ispublic":1,"isfriend":0,"isfamily":0,"safe":0,"ownername":"Arrano","latitude":43.37712,"longitude":-2.509689,"accuracy":"16","context":0,"place_id":"A250qLxQULwASyiXFA","woeid":"12695221","geo_is_family":0,"geo_is_friend":0,"geo_is_contact":0,"geo_is_public":1,"media":"photo","media_status":"ready"},{"id":"13995137605","owner":"92474414@N04","secret":"9a0ca6229e","server":"7230","farm":8,"title":"Good Morning \/\/ Explore \/\/ Apr 24 '14","ispublic":1,"isfriend":0,"isfamily":0,"safe":0,"ownername":"donlunzo16","latitude":48.767669,"longitude":9.171919,"accuracy":"11","context":0,"place_id":"R3VGrQNXW7LCxIA","woeid":"698064","geo_is_family":0,"geo_is_friend":0,"geo_is_contact":0,"geo_is_public":1,"media":"photo","media_status":"ready"},{"id":"13971755166","owner":"42812461@N00","secret":"7466638459","server":"7398","farm":8,"title":"There's a dog somewhere...","ispublic":1,"isfriend":0,"isfamily":0,"safe":0,"ownername":"Akbar Simonse","latitude":52.058906,"longitude":4.291921,"accuracy":"16","context":0,"place_id":"kf4qwzhWULzxzfQ","woeid":"726874","geo_is_family":0,"geo_is_friend":0,"geo_is_contact":0,"geo_is_public":1,"media":"photo","media_status":"ready"},{"id":"13994350815","owner":"91248320@N04","secret":"e315c167fa","server":"5259","farm":6,"title":"Meeting at sea","ispublic":1,"isfriend":0,"isfamily":0,"safe":0,"ownername":"Jekurantodistaja","latitude":18.170787,"longitude":-76.385278,"accuracy":"15","context":0,"place_id":"vwEmJ_JQUrOLFvk","woeid":"109710","geo_is_family":0,"geo_is_friend":0,"geo_is_contact":0,"geo_is_public":1,"media":"photo","media_status":"ready"},{"id":"14014314273","owner":"60527064@N00","secret":"f7eb3c1ae0","server":"2927","farm":3,"title":"Old world street corner","ispublic":1,"isfriend":0,"isfamily":0,"safe":0,"ownername":"Eric Flexyourhead","latitude":45.50991,"longitude":-73.551449,"accuracy":"16","context":0,"place_id":"ewedFCtTVLmNfbik7g","woeid":"26332792","geo_is_family":0,"geo_is_friend":0,"geo_is_contact":0,"geo_is_public":1,"media":"photo","media_status":"ready"},{"id":"13971178596","owner":"60913863@N08","secret":"949bfa052b","server":"2922","farm":3,"title":"Scardovari 2","ispublic":1,"isfriend":0,"isfamily":0,"safe":0,"ownername":"Goethe58","latitude":44.879121,"longitude":12.440042,"accuracy":"15","context":0,"place_id":"43JSZIRWULmQYnk","woeid":"723862","geo_is_family":0,"geo_is_friend":0,"geo_is_contact":0,"geo_is_public":1,"media":"photo","media_status":"ready"},{"id":"14014009353","owner":"31804708@N02","secret":"f6062c3f9e","server":"7311","farm":8,"title":"Torremolinos al ocaso - Torremolinos at sunset","ispublic":1,"isfriend":0,"isfamily":0,"safe":0,"ownername":"celta4","latitude":36.612944,"longitude":-4.506186,"accuracy":"16","context":0,"place_id":"8.ZrgEBWVb8MDfw","woeid":"775818","geo_is_family":0,"geo_is_friend":0,"geo_is_contact":0,"geo_is_public":1,"media":"photo","media_status":"ready"},{"id":"13990657722","owner":"46267286@N07","secret":"89a4f67e4c","server":"5173","farm":6,"title":"The Face Of The City 'Centurion' - London (On Explore 24th April 2014)","ispublic":1,"isfriend":0,"isfamily":0,"safe":0,"ownername":"Simon & His Camera","latitude":51.503553,"longitude":-0.016833,"accuracy":"16","context":0,"place_id":"xHXWj.tTUrq6ug_eQQ","woeid":"20089556","geo_is_family":0,"geo_is_friend":0,"geo_is_contact":0,"geo_is_public":1,"media":"photo","media_status":"ready"},{"id":"13993692825","owner":"62089664@N07","secret":"4b9dbb6fdf","server":"7408","farm":8,"title":"Hotel Empire - NYC","ispublic":1,"isfriend":0,"isfamily":0,"safe":0,"ownername":"Darren LoPrinzi","latitude":40.778039,"longitude":-73.978242,"accuracy":"16","context":0,"place_id":"ZeYpFVJTUb9ihdoOaA","woeid":"23511890","geo_is_family":0,"geo_is_friend":0,"geo_is_contact":0,"geo_is_public":1,"media":"photo","media_status":"ready"},{"id":"13970197746","owner":"96439392@N03","secret":"5fd1e6cb8d","server":"5467","farm":6,"title":"I Put A Spell On You","ispublic":1,"isfriend":0,"isfamily":0,"safe":0,"ownername":"Kristin Van den Eede","latitude":55.673183,"longitude":12.572795,"accuracy":"16","context":0,"place_id":"aIDoZjZTUriGMNQWPA","woeid":"20229464","geo_is_family":0,"geo_is_friend":0,"geo_is_contact":0,"geo_is_public":1,"media":"photo","media_status":"ready"},{"id":"13989970292","owner":"92445274@N05","secret":"994c3e032b","server":"7228","farm":8,"title":"Old Quarry, Foggintor, Dartmoor.","ispublic":1,"isfriend":0,"isfamily":0,"safe":0,"ownername":"DJMayne","latitude":50.554647,"longitude":-4.027097,"accuracy":"15","context":0,"place_id":"TGy4jOJTWr26tg","woeid":"28744","geo_is_family":0,"geo_is_friend":0,"geo_is_contact":0,"geo_is_public":1,"media":"photo","media_status":"ready"},{"id":"13989784291","owner":"58195583@N06","secret":"41dcbbed33","server":"5325","farm":6,"title":"Hawksbill Turtle, (Explored) Eretmochelys imbricata, Tiran Island, Red Sea 1","ispublic":1,"isfriend":0,"isfamily":0,"safe":0,"ownername":"Jeremy Smith Photography","latitude":27.926474,"longitude":34.387207,"accuracy":"7","context":0,"place_id":"tGOD3NdTUb4.aiUg","woeid":"2345247","geo_is_family":0,"geo_is_friend":0,"geo_is_contact":0,"geo_is_public":1,"media":"photo","media_status":"ready"},{"id":"13992747175","owner":"95549570@N00","secret":"d794e31c90","server":"2899","farm":3,"title":"Curiosity is children","ispublic":1,"isfriend":0,"isfamily":0,"safe":0,"ownername":"Giulio Magnifico","latitude":46.07402,"longitude":13.229622,"accuracy":"16","context":0,"place_id":"VnV_nEJWUL_PH4Y","woeid":"725383","geo_is_family":0,"geo_is_friend":0,"geo_is_contact":0,"geo_is_public":1,"media":"photo","media_status":"ready"},{"id":"13989467731","owner":"8288986@N06","secret":"88d022bb00","server":"5256","farm":6,"title":"Visiting the waterfall..","ispublic":1,"isfriend":0,"isfamily":0,"safe":0,"ownername":"aycasan","latitude":40.913512,"longitude":40.98999,"accuracy":"7","context":0,"place_id":"Oth1setTUb4B4FHK","woeid":"2347305","geo_is_family":0,"geo_is_friend":0,"geo_is_contact":0,"geo_is_public":1,"media":"photo","media_status":"ready"},{"id":"13968965796","owner":"22461382@N00","secret":"4955aea0bb","server":"2898","farm":3,"title":"heksehatt | lofoten, norway","ispublic":1,"isfriend":0,"isfamily":0,"safe":0,"ownername":"elmofoto","latitude":68.074552,"longitude":13.201552,"accuracy":"16","context":0,"place_id":"YhLe4NVZV7LfxXg","woeid":"858718","geo_is_family":0,"geo_is_friend":0,"geo_is_contact":0,"geo_is_public":1,"media":"photo","media_status":"ready"},{"id":"13991983105","owner":"36217762@N00","secret":"27f2f2fcd3","server":"2897","farm":3,"title":"the different symmetry","ispublic":1,"isfriend":0,"isfamily":0,"safe":0,"ownername":"Pixelm\u00e4dchen6","latitude":52.532527,"longitude":13.388085,"accuracy":"15","context":0,"place_id":"zot2ouJXUbKOJRM","woeid":"638242","geo_is_family":0,"geo_is_friend":0,"geo_is_contact":0,"geo_is_public":1,"media":"photo","media_status":"ready"},{"id":"13988551271","owner":"37486507@N06","secret":"ea86acea82","server":"7383","farm":8,"title":"La torre solitaria \/ The lonely tower (Explore!!!)","ispublic":1,"isfriend":0,"isfamily":0,"safe":0,"ownername":"AndreaPucci","latitude":54.092271,"longitude":-4.777593,"accuracy":"14","context":0,"place_id":"7zlvpZxUUbLF8hU","woeid":"538699","geo_is_family":0,"geo_is_friend":0,"geo_is_contact":0,"geo_is_public":1,"media":"photo","media_status":"ready"},{"id":"13988526471","owner":"42345335@N08","secret":"a935492a22","server":"7246","farm":8,"title":"10-Spot Ladybird","ispublic":1,"isfriend":0,"isfamily":0,"safe":0,"ownername":"EvilEyeGoshawk","latitude":56.107338,"longitude":-3.978595,"accuracy":"15","context":0,"place_id":"OTggGT5SVLvPyA","woeid":"36135","geo_is_family":0,"geo_is_friend":0,"geo_is_contact":0,"geo_is_public":1,"media":"photo","media_status":"ready"},{"id":"13988439031","owner":"20939707@N02","secret":"7a78a7b236","server":"2900","farm":3,"title":"Andrea","ispublic":1,"isfriend":0,"isfamily":0,"safe":0,"ownername":"matteoprez","latitude":4.691286,"longitude":-74.032552,"accuracy":"16","context":0,"place_id":"gjB0f7ZSVLOBPtM","woeid":"369514","geo_is_family":0,"geo_is_friend":0,"geo_is_contact":0,"geo_is_public":1,"media":"photo","media_status":"ready"},{"id":"13988403791","owner":"45564437@N08","secret":"ec457b6b02","server":"2902","farm":3,"title":"sus pensamientos","ispublic":1,"isfriend":0,"isfamily":0,"safe":0,"ownername":"Mauricio Silerio","latitude":55.652798,"longitude":37.705078,"accuracy":"4","context":0,"place_id":"yFvJfEtTUb5x9_pp","woeid":"2346910","geo_is_family":0,"geo_is_friend":0,"geo_is_contact":0,"geo_is_public":1,"media":"photo","media_status":"ready"},{"id":"14011543103","owner":"46059838@N04","secret":"30af7283f9","server":"2900","farm":3,"title":"Namibia, Botswana, Zimbabwe","ispublic":1,"isfriend":0,"isfamily":0,"safe":0,"ownername":"Marie.L.Manzor","latitude":-22.421625,"longitude":23.631095,"accuracy":"8","context":0,"place_id":"Z1lRCjFTUb5PPkX0","woeid":"2344743","geo_is_family":0,"geo_is_friend":0,"geo_is_contact":0,"geo_is_public":1,"media":"photo","media_status":"ready"},{"id":"13988331971","owner":"53196512@N07","secret":"c7d5dcc476","server":"2927","farm":3,"title":"Emma (Stranger #44\/100), London Spitalfields","ispublic":1,"isfriend":0,"isfamily":0,"safe":0,"ownername":"flatworldsedge","latitude":51.519287,"longitude":-0.074158,"accuracy":"16","context":0,"place_id":"3HKN0rdSV757CA","woeid":"35498","geo_is_family":0,"geo_is_friend":0,"geo_is_contact":0,"geo_is_public":1,"media":"photo","media_status":"ready"},{"id":"13968342466","owner":"10299033@N04","secret":"ba3725b2b2","server":"7254","farm":8,"title":"The Fog - Ottawa, ON","ispublic":1,"isfriend":0,"isfamily":0,"safe":0,"ownername":"Nadia Not Included","latitude":45.484441,"longitude":-73.692223,"accuracy":"16","context":0,"place_id":"nY7EoSRSV7kW","woeid":"3534","geo_is_family":0,"geo_is_friend":0,"geo_is_contact":0,"geo_is_public":1,"media":"photo","media_status":"ready"},{"id":"13988012431","owner":"63608631@N03","secret":"426b68531c","server":"5551","farm":6,"title":"Aggius Via Crucis","ispublic":1,"isfriend":0,"isfamily":0,"safe":0,"ownername":"Franco & Lia (out for awhile)","latitude":40.929523,"longitude":9.065222,"accuracy":"16","context":0,"place_id":"74Zc2KpWUrMi4TI","woeid":"709835","geo_is_family":0,"geo_is_friend":0,"geo_is_contact":0,"geo_is_public":1,"media":"photo","media_status":"ready"},{"id":"14010337153","owner":"62448022@N00","secret":"ec720e422e","server":"2909","farm":3,"title":"Agricultural Slurry","ispublic":1,"isfriend":0,"isfamily":0,"safe":0,"ownername":"Aerial Photography","latitude":48.859116,"longitude":11.888591,"accuracy":"16","context":0,"place_id":".UfYwF1XW7M42zs","woeid":"699017","geo_is_family":0,"geo_is_friend":0,"geo_is_contact":0,"geo_is_public":1,"media":"photo","media_status":"ready"},{"id":"14009576333","owner":"50453616@N07","secret":"36aac6ffb9","server":"5093","farm":6,"title":"Nuit blanche \u00e0 Qu\u00e9bec","ispublic":1,"isfriend":0,"isfamily":0,"safe":0,"ownername":"Guylaine Begin","latitude":46.815993,"longitude":-71.204302,"accuracy":"13","context":0,"place_id":"ov.ccdFTVLnm0Bpljg","woeid":"26332805","geo_is_family":0,"geo_is_friend":0,"geo_is_contact":0,"geo_is_public":1,"media":"photo","media_status":"ready"},{"id":"13990002824","owner":"93250327@N05","secret":"78af1ddd18","server":"2915","farm":3,"title":"Flying to indulge...[Explored 23rd April 2014]","ispublic":1,"isfriend":0,"isfamily":0,"safe":0,"ownername":"Patrizia Ilaria Sechi","latitude":51.499766,"longitude":-0.133552,"accuracy":"13","context":0,"place_id":"_8cuSp1TVrKmbg67ew","woeid":"24875645","geo_is_family":0,"geo_is_friend":0,"geo_is_contact":0,"geo_is_public":1,"media":"photo","media_status":"ready"},{"id":"13965769336","owner":"53602105@N02","secret":"2723e76b54","server":"2908","farm":3,"title":"Young trippers in texture (explored)","ispublic":1,"isfriend":0,"isfamily":0,"safe":0,"ownername":"Elettroshiva","latitude":40.336076,"longitude":17.419509,"accuracy":"11","context":0,"place_id":"ClvtpvBTUrv7rYimrQ","woeid":"20146138","geo_is_family":0,"geo_is_friend":0,"geo_is_contact":0,"geo_is_public":1,"media":"photo","media_status":"ready"},{"id":"13985595822","owner":"53752545@N02","secret":"b2b9deba9d","server":"2926","farm":3,"title":"Sunset to Aiguebonne Beach #2, Le Dramont ( Var \/ France )","ispublic":1,"isfriend":0,"isfamily":0,"safe":0,"ownername":"Yannick Lefevre","latitude":43.417018,"longitude":6.822735,"accuracy":"16","context":0,"place_id":"UFMKUHVTW7lSTbic8A","woeid":"29329902","geo_is_family":0,"geo_is_friend":0,"geo_is_contact":0,"geo_is_public":1,"media":"photo","media_status":"ready"},{"id":"13985397782","owner":"60527064@N00","secret":"1f32268c42","server":"2938","farm":3,"title":"\"Je me souviens\"","ispublic":1,"isfriend":0,"isfamily":0,"safe":0,"ownername":"Eric Flexyourhead","latitude":45.505309,"longitude":-73.557329,"accuracy":"16","context":0,"place_id":"xwkKkThTVLnn_qYMRA","woeid":"26332783","geo_is_family":0,"geo_is_friend":0,"geo_is_contact":0,"geo_is_public":1,"media":"photo","media_status":"ready"}]},"stat":"ok"}