{"photos":{"page":67,"pages":26696,"perpage":60,"total":"1601728","photo":[{"id":"14019404385","owner":"41056427@N06","secret":"e71be0cb79","server":"7225","farm":8,"title":"RR WRAITH piano style","ispublic":1,"isfriend":0,"isfamily":0,"safe":0,"ownername":"TobSpeed_Photography","latitude":43.738349,"longitude":7.42429,"accuracy":"2","context":0,"place_id":"P47fNClTUb7iklTKJw","woeid":"23424892","geo_is_family":0,"geo_is_friend":0,"geo_is_contact":0,"geo_is_public":1,"media":"photo","media_status":"ready"},{"id":"13995156986","owner":"8645675@N02","secret":"15b2897b99","server":"5075","farm":6,"title":"Dandelion Sharp Sharper Sharpest BW","ispublic":1,"isfriend":0,"isfamily":0,"safe":0,"ownername":"Drachenfanger","latitude":36.661555,"longitude":-76.031473,"accuracy":"16","context":0,"place_id":"yMKol1xTV7vG0onE","woeid":"2512636","geo_is_family":0,"geo_is_friend":0,"geo_is_contact":0,"geo_is_public":1,"media":"photo","media_status":"ready"},{"id":"13994130036","owner":"34674104@N02","secret":"cf197fdea8","server":"2932","farm":3,"title":"Joseph-Treffl\u00e9-Caya House","ispublic":1,"isfriend":0,"isfamily":0,"safe":0,"ownername":"pegase1972","latitude":45.885213,"longitude":-72.489981,"accuracy":"15","context":0,"place_id":"IvgzzZtSV7uZ","woeid":"3510","geo_is_family":0,"geo_is_friend":0,"geo_is_contact":0,"geo_is_public":1,"media":"photo","media_status":"ready"},{"id":"13992622906","owner":"100139134@N03","secret":"1552145e59","server":"2932","farm":3,"title":"Rosella poppy amapola pavot papavero","ispublic":1,"isfriend":0,"isfamily":0,"safe":0,"ownername":"Jes\u00fas 56","latitude":48.860086,"longitude":2.389358,"accuracy":"16","context":0,"place_id":"4eacgx9UV7KU.l6qjw","woeid":"55843798","geo_is_family":0,"geo_is_friend":0,"geo_is_contact":0,"geo_is_public":1,"media":"photo","media_status":"ready"},{"id":"14032938613","owner":"87317128@N08","secret":"3c42d220c5","server":"7390","farm":8,"title":"South Downs Way,View South","ispublic":1,"isfriend":0,"isfamily":0,"safe":0,"ownername":"Pu\u00e9rtolas","latitude":50.893072,"longitude":-0.495929,"accuracy":"12","context":0,"place_id":"EsEaYLlSU76kbQ","woeid":"31491","geo_is_family":0,"geo_is_friend":0,"geo_is_contact":0,"geo_is_public":1,"media":"photo","media_status":"ready"},{"id":"14007378561","owner":"28791544@N04","secret":"eed2180a6b","server":"7349","farm":8,"title":"Blue Steel","ispublic":1,"isfriend":0,"isfamily":0,"safe":0,"ownername":"Sean Batten","latitude":51.501163,"longitude":-0.015578,"accuracy":"16","context":0,"place_id":"xHXWj.tTUrq6ug_eQQ","woeid":"20089556","geo_is_family":0,"geo_is_friend":0,"geo_is_contact":0,"geo_is_public":1,"media":"photo","media_status":"ready"},{"id":"13987150256","owner":"91722814@N02","secret":"1270a183c9","server":"7194","farm":8,"title":"Hawthorn","ispublic":1,"isfriend":0,"isfamily":0,"safe":0,"ownername":"nalamanpics","latitude":50.532334,"longitude":-3.880105,"accuracy":"14","context":0,"place_id":"lUo5VP9QVbPjHw","woeid":"17955","geo_is_family":0,"geo_is_friend":0,"geo_is_contact":0,"geo_is_public":1,"media":"photo","media_status":"ready"},{"id":"14030141223","owner":"20905078@N04","secret":"59ff20e580","server":"5546","farm":6,"title":"","ispublic":1,"isfriend":0,"isfamily":0,"safe":0,"ownername":"patrickjoust","latitude":39.373091,"longitude":-76.705621,"accuracy":"16","context":0,"place_id":"WwbfuNRTVrp3YHvC","woeid":"2402177","geo_is_family":0,"geo_is_friend":0,"geo_is_contact":0,"geo_is_public":1,"media":"photo","media_status":"ready"},{"id":"13986341536","owner":"32126965@N07","secret":"221a945466","server":"7191","farm":8,"title":"Fishing Town Scene .","ispublic":1,"isfriend":0,"isfamily":0,"safe":0,"ownername":"* Janets Photos*","latitude":53.57146,"longitude":-0.084199,"accuracy":"13","context":0,"place_id":"Pixzi0ZTU7KzCA","woeid":"21896","geo_is_family":0,"geo_is_friend":0,"geo_is_contact":0,"geo_is_public":1,"media":"photo","media_status":"ready"},{"id":"14005585811","owner":"25718393@N04","secret":"b0be19743e","server":"7440","farm":8,"title":"Opera Garnier - Paris","ispublic":1,"isfriend":0,"isfamily":0,"safe":0,"ownername":"CONTROTONO","latitude":48.871659,"longitude":2.331848,"accuracy":"16","context":0,"place_id":"9s06vldUV7JEzx_hgA","woeid":"55843788","geo_is_family":0,"geo_is_friend":0,"geo_is_contact":0,"geo_is_public":1,"media":"photo","media_status":"ready"},{"id":"13983875166","owner":"50115085@N08","secret":"339c4d3028","server":"5311","farm":6,"title":"Morning at Patriarshy pond","ispublic":1,"isfriend":0,"isfamily":0,"safe":0,"ownername":"Varvara_R","latitude":55.763922,"longitude":37.591203,"accuracy":"16","context":0,"place_id":"Gyn7fcFTU7gkY7d5","woeid":"2122265","geo_is_family":0,"geo_is_friend":0,"geo_is_contact":0,"geo_is_public":1,"media":"photo","media_status":"ready"},{"id":"14003475662","owner":"77949676@N05","secret":"88be0b1c54","server":"7125","farm":8,"title":"Titouan","ispublic":1,"isfriend":0,"isfamily":0,"safe":0,"ownername":"Vincent Jarousseau Photographies","latitude":28.71513,"longitude":-14.00259,"accuracy":"13","context":0,"place_id":"AuVFjVlTW7njcEZK9w","woeid":"29372658","geo_is_family":0,"geo_is_friend":0,"geo_is_contact":0,"geo_is_public":1,"media":"photo","media_status":"ready"},{"id":"14001898861","owner":"75737782@N06","secret":"ccce369058","server":"5585","farm":6,"title":"Kites","ispublic":1,"isfriend":0,"isfamily":0,"safe":0,"ownername":"ventiseisessantadue","latitude":44.0636,"longitude":12.587275,"accuracy":"16","context":0,"place_id":"WQUosZ9WULvQhbk","woeid":"721682","geo_is_family":0,"geo_is_friend":0,"geo_is_contact":0,"geo_is_public":1,"media":"photo","media_status":"ready"},{"id":"14024649903","owner":"45167040@N04","secret":"7a9bf40bb8","server":"7272","farm":8,"title":"Golden Hours","ispublic":1,"isfriend":0,"isfamily":0,"safe":0,"ownername":"koolandgang","latitude":41.01653,"longitude":28.964016,"accuracy":"15","context":0,"place_id":"pvnWCx9TUb6EyEby","woeid":"2343574","geo_is_family":0,"geo_is_friend":0,"geo_is_contact":0,"geo_is_public":1,"media":"photo","media_status":"ready"},{"id":"14004025395","owner":"13048208@N02","secret":"87ae376a87","server":"7101","farm":8,"title":"Rothesay Bay","ispublic":1,"isfriend":0,"isfamily":0,"safe":0,"ownername":"Damian_Ward","latitude":55.844825,"longitude":-5.034248,"accuracy":"16","context":0,"place_id":"N9PLpBFSUb9dkw","woeid":"33598","geo_is_family":0,"geo_is_friend":0,"geo_is_contact":0,"geo_is_public":1,"media":"photo","media_status":"ready"},{"id":"14022763153","owner":"60527064@N00","secret":"df28201aed","server":"2936","farm":3,"title":"Obligatory maple syrup image","ispublic":1,"isfriend":0,"isfamily":0,"safe":0,"ownername":"Eric Flexyourhead","latitude":45.535889,"longitude":-73.614985,"accuracy":"15","context":0,"place_id":"miyLSgNUV7JunKnX8A","woeid":"55855870","geo_is_family":0,"geo_is_friend":0,"geo_is_contact":0,"geo_is_public":1,"media":"photo","media_status":"ready"},{"id":"14022233763","owner":"11155634@N07","secret":"58021c0988","server":"5197","farm":6,"title":"Gloria di Sant'Ignazio - Chiesa di Sant'Ignazio di Loyola in Campo Marzio, Roma","ispublic":1,"isfriend":0,"isfamily":0,"safe":0,"ownername":"Francisco Arag\u00e3o","latitude":41.90311,"longitude":12.495759,"accuracy":"11","context":0,"place_id":"uijRnjBWULsQTwc","woeid":"721943","geo_is_family":0,"geo_is_friend":0,"geo_is_contact":0,"geo_is_public":1,"media":"photo","media_status":"ready"},{"id":"13996827182","owner":"28778620@N04","secret":"b2c6e6145d","server":"7062","farm":8,"title":"ARMENIA,,,EXPLORED","ispublic":1,"isfriend":0,"isfamily":0,"safe":0,"ownername":"Ani \u2660 Melikyan","latitude":40.12429,"longitude":44.736328,"accuracy":"8","context":0,"place_id":"A.EsbzdQV7og4BQEnA","woeid":"15022525","geo_is_family":0,"geo_is_friend":0,"geo_is_contact":0,"geo_is_public":1,"media":"photo","media_status":"ready"},{"id":"13996242241","owner":"79604081@N08","secret":"b6daf2e20b","server":"5478","farm":6,"title":"Lamb","ispublic":1,"isfriend":0,"isfamily":0,"safe":0,"ownername":"Dekonstructed","latitude":53.981733,"longitude":-1.892223,"accuracy":"12","context":0,"place_id":"JCaiq_FQUbs0iQ","woeid":"13193","geo_is_family":0,"geo_is_friend":0,"geo_is_contact":0,"geo_is_public":1,"media":"photo","media_status":"ready"},{"id":"13999446974","owner":"79408015@N08","secret":"3708c3c81f","server":"5173","farm":6,"title":"on the edge (rode to Explore - Thanks at all! - 2014-04-24)","ispublic":1,"isfriend":0,"isfamily":0,"safe":0,"ownername":"DaLi-A","latitude":50.792752,"longitude":12.683973,"accuracy":"13","context":0,"place_id":"t0a3dC5XVLv7PoA","woeid":"661352","geo_is_family":0,"geo_is_friend":0,"geo_is_contact":0,"geo_is_public":1,"media":"photo","media_status":"ready"},{"id":"13995653692","owner":"63947313@N03","secret":"21c04f1c85","server":"7336","farm":8,"title":"Tuscan paintings","ispublic":1,"isfriend":0,"isfamily":0,"safe":0,"ownername":"Angius2004 (Angiolo Manetti)","latitude":43.056596,"longitude":11.605682,"accuracy":"11","context":0,"place_id":"efmaKclWULnXU.M","woeid":"723077","geo_is_family":0,"geo_is_friend":0,"geo_is_contact":0,"geo_is_public":1,"media":"photo","media_status":"ready"},{"id":"13995600081","owner":"31714338@N07","secret":"5deb5aecf1","server":"5241","farm":6,"title":"april showers","ispublic":1,"isfriend":0,"isfamily":0,"safe":0,"ownername":"Jennifer MacNeill","latitude":40.104763,"longitude":-76.343758,"accuracy":"15","context":0,"place_id":"zwDu8AtTUbN0rUlk","woeid":"2396025","geo_is_family":0,"geo_is_friend":0,"geo_is_contact":0,"geo_is_public":1,"media":"photo","media_status":"ready"},{"id":"14018432283","owner":"99576309@N07","secret":"091e4ce4f0","server":"2899","farm":3,"title":"Castillo de Coca","ispublic":1,"isfriend":0,"isfamily":0,"safe":0,"ownername":"Natman eclectic","latitude":41.2143,"longitude":-4.526031,"accuracy":"14","context":0,"place_id":"_OgzIX1WV72dtoM","woeid":"757751","geo_is_family":0,"geo_is_friend":0,"geo_is_contact":0,"geo_is_public":1,"media":"photo","media_status":"ready"},{"id":"13994651891","owner":"31360669@N04","secret":"edffdc771d","server":"7119","farm":8,"title":"Escaping the apocalypse","ispublic":1,"isfriend":0,"isfamily":0,"safe":0,"ownername":"Jochen-B","latitude":51.247303,"longitude":5.29129,"accuracy":"13","context":0,"place_id":"oABAWFhYVbkJiLM","woeid":"973681","geo_is_family":0,"geo_is_friend":0,"geo_is_contact":0,"geo_is_public":1,"media":"photo","media_status":"ready"},{"id":"13994029172","owner":"101109840@N06","secret":"7042184c67","server":"7061","farm":8,"title":"Volkswagen Karmann Ghia Coupe\u0300","ispublic":1,"isfriend":0,"isfamily":0,"safe":0,"ownername":"Brigante\uf8ff","latitude":45.46894,"longitude":9.18103,"accuracy":"11","context":0,"place_id":"49Gidk1WU7JxrFY","woeid":"718345","geo_is_family":0,"geo_is_friend":0,"geo_is_contact":0,"geo_is_public":1,"media":"photo","media_status":"ready"},{"id":"13993192901","owner":"8868875@N03","secret":"b970cf2df3","server":"7158","farm":8,"title":"tree","ispublic":1,"isfriend":0,"isfamily":0,"safe":0,"ownername":"gato-gato-gato","latitude":47.372897,"longitude":8.539091,"accuracy":"16","context":0,"place_id":"N6mvrZ5WWrsOeBo","woeid":"781693","geo_is_family":0,"geo_is_friend":0,"geo_is_contact":0,"geo_is_public":1,"media":"photo","media_status":"ready"},{"id":"13972775436","owner":"77890243@N03","secret":"5a4f737a35","server":"2908","farm":3,"title":"Orqu\u00eddea.","ispublic":1,"isfriend":0,"isfamily":0,"safe":0,"ownername":"cachanico","latitude":40.332969,"longitude":-1.096916,"accuracy":"16","context":0,"place_id":"uBi3.3NWVb96Jno","woeid":"775399","geo_is_family":0,"geo_is_friend":0,"geo_is_contact":0,"geo_is_public":1,"media":"photo","media_status":"ready"},{"id":"13995365135","owner":"34288348@N07","secret":"4dda77ebd5","server":"2918","farm":3,"title":"House of the Vestals","ispublic":1,"isfriend":0,"isfamily":0,"safe":0,"ownername":"DameBoudicca","latitude":41.89132,"longitude":12.486906,"accuracy":"16","context":0,"place_id":"0in3o3RWULj.Ogw","woeid":"722964","geo_is_family":0,"geo_is_friend":0,"geo_is_contact":0,"geo_is_public":1,"media":"photo","media_status":"ready"},{"id":"13991317735","owner":"53223794@N00","secret":"3bbf44f45c","server":"2907","farm":3,"title":"Ekermanska malmg\u00e5rden, Stockholm","ispublic":1,"isfriend":0,"isfamily":0,"safe":0,"ownername":"joeriksson","latitude":59.312229,"longitude":18.051813,"accuracy":"16","context":0,"place_id":"fiTt.zhTUb3ZRTOZxg","woeid":"23701336","geo_is_family":0,"geo_is_friend":0,"geo_is_contact":0,"geo_is_public":1,"media":"photo","media_status":"ready"},{"id":"13988881865","owner":"87317128@N08","secret":"9cfd3003a9","server":"2929","farm":3,"title":"Along South Downs Way","ispublic":1,"isfriend":0,"isfamily":0,"safe":0,"ownername":"Pu\u00e9rtolas","latitude":50.89632,"longitude":-0.470695,"accuracy":"12","context":0,"place_id":"oGM3c7NQVryeOg","woeid":"14625","geo_is_family":0,"geo_is_friend":0,"geo_is_contact":0,"geo_is_public":1,"media":"photo","media_status":"ready"},{"id":"14007465983","owner":"91722814@N02","secret":"ccf27b42f5","server":"7131","farm":8,"title":"Shadowland","ispublic":1,"isfriend":0,"isfamily":0,"safe":0,"ownername":"nalamanpics","latitude":50.663839,"longitude":-3.46492,"accuracy":"15","context":0,"place_id":"NII55UBSUL9.pQ","woeid":"32515","geo_is_family":0,"geo_is_friend":0,"geo_is_contact":0,"geo_is_public":1,"media":"photo","media_status":"ready"},{"id":"14007394693","owner":"22963627@N05","secret":"d43a13d9e4","server":"7119","farm":8,"title":"CASERIOS DE VALCARLOS","ispublic":1,"isfriend":0,"isfamily":0,"safe":0,"ownername":"titoalfredo","latitude":43.014689,"longitude":-1.26892,"accuracy":"8","context":0,"place_id":"sI4MpVBWVbjSSSo","woeid":"772178","geo_is_family":0,"geo_is_friend":0,"geo_is_contact":0,"geo_is_public":1,"media":"photo","media_status":"ready"},{"id":"13983276541","owner":"88386804@N05","secret":"379d74273c","server":"7002","farm":8,"title":"freedom","ispublic":1,"isfriend":0,"isfamily":0,"safe":0,"ownername":"Lior. L","latitude":32.155118,"longitude":34.793529,"accuracy":"14","context":0,"place_id":"IHIe.9pQW7yFpb7q","woeid":"1968178","geo_is_family":0,"geo_is_friend":0,"geo_is_contact":0,"geo_is_public":1,"media":"photo","media_status":"ready"},{"id":"13985400395","owner":"45658480@N04","secret":"cdfaee81af","server":"2931","farm":3,"title":"{look up}","ispublic":1,"isfriend":0,"isfamily":0,"safe":0,"ownername":"Audrey Meffray","latitude":48.989454,"longitude":2.259235,"accuracy":"12","context":0,"place_id":"gPfZTutUV7JqfGwLIg","woeid":"55863470","geo_is_family":0,"geo_is_friend":0,"geo_is_contact":0,"geo_is_public":1,"media":"photo","media_status":"ready"},{"id":"13985587504","owner":"57514386@N04","secret":"089e07e6ed","server":"7215","farm":8,"title":"","ispublic":1,"isfriend":0,"isfamily":0,"safe":0,"ownername":"H\u00e9lder Santana","latitude":-7.992597,"longitude":-35.578204,"accuracy":"16","context":0,"place_id":"Iw5JDphQUL9_GEf5hg","woeid":"12580835","geo_is_family":0,"geo_is_friend":0,"geo_is_contact":0,"geo_is_public":1,"media":"photo","media_status":"ready"},{"id":"13980987652","owner":"84106436@N06","secret":"0739bc6cb4","server":"7205","farm":8,"title":"Sunset Swim","ispublic":1,"isfriend":0,"isfamily":0,"safe":0,"ownername":"Jenny Onsager","latitude":26.115985,"longitude":-81.804199,"accuracy":"9","context":0,"place_id":"k1gxGv5TVr.I1dK.","woeid":"2457027","geo_is_family":0,"geo_is_friend":0,"geo_is_contact":0,"geo_is_public":1,"media":"photo","media_status":"ready"},{"id":"14004039103","owner":"69193440@N02","secret":"a9b16e68d2","server":"5489","farm":6,"title":"Hallo, more food please!","ispublic":1,"isfriend":0,"isfamily":0,"safe":0,"ownername":"Fj\u00e4llkantsbon","latitude":64.569899,"longitude":15.889062,"accuracy":"14","context":0,"place_id":"Uc_SQHtZW7xsZEo","woeid":"896673","geo_is_family":0,"geo_is_friend":0,"geo_is_contact":0,"geo_is_public":1,"media":"photo","media_status":"ready"},{"id":"13980888905","owner":"34256037@N00","secret":"424c2751ca","server":"5122","farm":6,"title":"Almere Duin","ispublic":1,"isfriend":0,"isfamily":0,"safe":0,"ownername":"Bart van Damme","latitude":52.339442,"longitude":5.139101,"accuracy":"16","context":0,"place_id":"Zv_4w11WUbshiic","woeid":"731818","geo_is_family":0,"geo_is_friend":0,"geo_is_contact":0,"geo_is_public":1,"media":"photo","media_status":"ready"},{"id":"13998369043","owner":"13048208@N02","secret":"5c6c7e5bd0","server":"7419","farm":8,"title":"Wemyss Bay Station","ispublic":1,"isfriend":0,"isfamily":0,"safe":0,"ownername":"Damian_Ward","latitude":55.876051,"longitude":-4.88928,"accuracy":"16","context":0,"place_id":"Sh3oO2ZSW75C5A","woeid":"39496","geo_is_family":0,"geo_is_friend":0,"geo_is_contact":0,"geo_is_public":1,"media":"photo","media_status":"ready"},{"id":"13953516126","owner":"23285057@N04","secret":"1d759d8a85","server":"7346","farm":8,"title":"Brahminy Starling","ispublic":1,"isfriend":0,"isfamily":0,"safe":0,"ownername":"SivamDesign","latitude":23.116048,"longitude":79.873008,"accuracy":"11","context":0,"place_id":"MTBnc2lTW7oNtD4ZyA","woeid":"29028902","geo_is_family":0,"geo_is_friend":0,"geo_is_contact":0,"geo_is_public":1,"media":"photo","media_status":"ready"},{"id":"13972055892","owner":"93600426@N04","secret":"340fa94b71","server":"2924","farm":3,"title":"FCAB \/ Est. Conchi","ispublic":1,"isfriend":0,"isfamily":0,"safe":0,"ownername":"Trenes del Desierto II","latitude":-22.03091,"longitude":-68.619918,"accuracy":"11","context":0,"place_id":"23LgLilSV7rLK6I","woeid":"350405","geo_is_family":0,"geo_is_friend":0,"geo_is_contact":0,"geo_is_public":1,"media":"photo","media_status":"ready"},{"id":"13950663626","owner":"20905078@N04","secret":"b27a8fdb36","server":"7122","farm":8,"title":"","ispublic":1,"isfriend":0,"isfamily":0,"safe":0,"ownername":"patrickjoust","latitude":45.676375,"longitude":-69.788579,"accuracy":"16","context":0,"place_id":"qXjW5ktTWr2Jum7eeg","woeid":"28745127","geo_is_family":0,"geo_is_friend":0,"geo_is_contact":0,"geo_is_public":1,"media":"photo","media_status":"ready"},{"id":"13969680702","owner":"45564437@N08","secret":"8453e97a9c","server":"7257","farm":8,"title":"amor y deseo","ispublic":1,"isfriend":0,"isfamily":0,"safe":0,"ownername":"Mauricio Silerio","latitude":55.702355,"longitude":37.792968,"accuracy":"4","context":0,"place_id":"yFvJfEtTUb5x9_pp","woeid":"2346910","geo_is_family":0,"geo_is_friend":0,"geo_is_contact":0,"geo_is_public":1,"media":"photo","media_status":"ready"},{"id":"13968492202","owner":"20905078@N04","secret":"bd907192ed","server":"7097","farm":8,"title":"","ispublic":1,"isfriend":0,"isfamily":0,"safe":0,"ownername":"patrickjoust","latitude":45.675693,"longitude":-69.78918,"accuracy":"16","context":0,"place_id":"qXjW5ktTWr2Jum7eeg","woeid":"28745127","geo_is_family":0,"geo_is_friend":0,"geo_is_contact":0,"geo_is_public":1,"media":"photo","media_status":"ready"},{"id":"13971851484","owner":"58886831@N03","secret":"3e0008a7d7","server":"7132","farm":8,"title":"Dibuix - Explore","ispublic":1,"isfriend":0,"isfamily":0,"safe":0,"ownername":"Jos\u00e9 M\u00aa Sancho","latitude":39.221506,"longitude":-0.332983,"accuracy":"16","context":0,"place_id":"aQu0a.xWVb66xE8","woeid":"774996","geo_is_family":0,"geo_is_friend":0,"geo_is_contact":0,"geo_is_public":1,"media":"photo","media_status":"ready"},{"id":"13971112815","owner":"23214428@N07","secret":"aae9bc6167","server":"5486","farm":6,"title":"\"Alcal\u00e1 del Jucar\"","ispublic":1,"isfriend":0,"isfamily":0,"safe":0,"ownername":"Pepelahuerta","latitude":39.194931,"longitude":-1.428599,"accuracy":"11","context":0,"place_id":"rC9ohdNWV7uh3kA","woeid":"751774","geo_is_family":0,"geo_is_friend":0,"geo_is_contact":0,"geo_is_public":1,"media":"photo","media_status":"ready"},{"id":"13969553725","owner":"31472524@N06","secret":"de179ac771","server":"7137","farm":8,"title":"_D7B8636_bis_San_Vito_Lo_Capo","ispublic":1,"isfriend":0,"isfamily":0,"safe":0,"ownername":"Vater_fotografo","latitude":38.175929,"longitude":12.736308,"accuracy":"16","context":0,"place_id":"KyD2cJFWULmEfi0","woeid":"723212","geo_is_family":0,"geo_is_friend":0,"geo_is_contact":0,"geo_is_public":1,"media":"photo","media_status":"ready"},{"id":"13966367331","owner":"101053609@N05","secret":"566b1f989d","server":"2929","farm":3,"title":"High in the Himalayas","ispublic":1,"isfriend":0,"isfamily":0,"safe":0,"ownername":"pietkagab","latitude":30.930795,"longitude":79.079246,"accuracy":"11","context":0,"place_id":"_I8JIsxTW7g6C1cqOQ","woeid":"29214384","geo_is_family":0,"geo_is_friend":0,"geo_is_contact":0,"geo_is_public":1,"media":"photo","media_status":"ready"},{"id":"13946430476","owner":"47910082@N02","secret":"c400b0bd59","server":"7117","farm":8,"title":"La Hiniesta","ispublic":1,"isfriend":0,"isfamily":0,"safe":0,"ownername":"Luis Cort\u00e9s Zacar\u00edas","latitude":41.554774,"longitude":-5.806274,"accuracy":"13","context":0,"place_id":"ne59cuZWVLmcKrY","woeid":"763509","geo_is_family":0,"geo_is_friend":0,"geo_is_contact":0,"geo_is_public":1,"media":"photo","media_status":"ready"},{"id":"13944202596","owner":"49828416@N06","secret":"a7dc30144e","server":"7275","farm":8,"title":"Mariebergsviken from Orrholmen","ispublic":1,"isfriend":0,"isfamily":0,"safe":0,"ownername":"- David Olsson -","latitude":59.370434,"longitude":13.496532,"accuracy":"15","context":0,"place_id":"Qd6o8oZZW77725E","woeid":"894959","geo_is_family":0,"geo_is_friend":0,"geo_is_contact":0,"geo_is_public":1,"media":"photo","media_status":"ready"},{"id":"13986670523","owner":"46621007@N05","secret":"8aa678dd78","server":"7369","farm":8,"title":"... www.facebook.com\/fotografiaserly","ispublic":1,"isfriend":0,"isfamily":0,"safe":0,"ownername":"Erly Nunes Machado facebook.com\/fotografiaserly","latitude":-20.660442,"longitude":-40.470387,"accuracy":"16","context":0,"place_id":"GC1stjNVV72QD8M","woeid":"457244","geo_is_family":0,"geo_is_friend":0,"geo_is_contact":0,"geo_is_public":1,"media":"photo","media_status":"ready"},{"id":"13958868042","owner":"25002245@N00","secret":"e9ce56b23f","server":"5056","farm":6,"title":"OIARTZUN-Oianleku-03","ispublic":1,"isfriend":0,"isfamily":0,"safe":0,"ownername":"ikimilikili-klik","latitude":43.268612,"longitude":-1.845273,"accuracy":"15","context":0,"place_id":"TN5W.aRWV7tpoL4","woeid":"751811","geo_is_family":0,"geo_is_friend":0,"geo_is_contact":0,"geo_is_public":1,"media":"photo","media_status":"ready"},{"id":"13958370785","owner":"26849514@N06","secret":"9833526272","server":"7429","farm":8,"title":"Painted easter eggs","ispublic":1,"isfriend":0,"isfamily":0,"safe":0,"ownername":"Frans.Sellies","latitude":47.902534,"longitude":25.600547,"accuracy":"11","context":0,"place_id":"IDrkp.lZVbnAvfs","woeid":"873414","geo_is_family":0,"geo_is_friend":0,"geo_is_contact":0,"geo_is_public":1,"media":"photo","media_status":"ready"},{"id":"13937984772","owner":"44296911@N03","secret":"4c807e48c3","server":"7037","farm":8,"title":"Ember","ispublic":1,"isfriend":0,"isfamily":0,"safe":0,"ownername":"Rafakoy","latitude":40.833194,"longitude":-73.218727,"accuracy":"12","context":0,"place_id":"SAU_td9UV7PE09Y4WQ","woeid":"55992237","geo_is_family":0,"geo_is_friend":0,"geo_is_contact":0,"geo_is_public":1,"media":"photo","media_status":"ready"},{"id":"13954179455","owner":"25002245@N00","secret":"e709d2b559","server":"3698","farm":4,"title":"PECI\u00d1A-San-Lorenzo","ispublic":1,"isfriend":0,"isfamily":0,"safe":0,"ownername":"ikimilikili-klik","latitude":42.58776,"longitude":-2.725589,"accuracy":"11","context":0,"place_id":"7.KUBntWVLOC1SE","woeid":"769635","geo_is_family":0,"geo_is_friend":0,"geo_is_contact":0,"geo_is_public":1,"media":"photo","media_status":"ready"},{"id":"13923643775","owner":"45115614@N05","secret":"5f5b1cb0ba","server":"7057","farm":8,"title":"Le Pont Notre-Dame. PARIS","ispublic":1,"isfriend":0,"isfamily":0,"safe":0,"ownername":"R.G. Photographe","latitude":48.856286,"longitude":2.348735,"accuracy":"16","context":0,"place_id":"GPoA4aBUV7LCk1SJeQ","woeid":"55843763","geo_is_family":0,"geo_is_friend":0,"geo_is_contact":0,"geo_is_public":1,"media":"photo","media_status":"ready"},{"id":"13923051195","owner":"27278265@N02","secret":"a98d1ef17c","server":"2909","farm":3,"title":"Lac Brome","ispublic":1,"isfriend":0,"isfamily":0,"safe":0,"ownername":"monilague","latitude":45.255353,"longitude":-72.494287,"accuracy":"16","context":0,"place_id":"MTtssfZTUbkMHhAkdA","woeid":"23396388","geo_is_family":0,"geo_is_friend":0,"geo_is_contact":0,"geo_is_public":1,"media":"photo","media_status":"ready"},{"id":"13889998712","owner":"32266663@N06","secret":"383e39dfcd","server":"7027","farm":8,"title":"Cerrado por vacaciones","ispublic":1,"isfriend":0,"isfamily":0,"safe":0,"ownername":"enrique1959 -","latitude":43.256205,"longitude":-2.90451,"accuracy":"11","context":0,"place_id":"FLU8RBVTUrj7kzN_XA","woeid":"20220062","geo_is_family":0,"geo_is_friend":0,"geo_is_contact":0,"geo_is_public":1,"media":"photo","media_status":"ready"},{"id":"13973610906","owner":"44962378@N08","secret":"de6fa21b3d","server":"5448","farm":6,"title":"Senza titolo.","ispublic":1,"isfriend":0,"isfamily":0,"safe":0,"ownername":"FilippoMarchi\uf8ff\uf8ff\uf8ff","latitude":41.374511,"longitude":2.182897,"accuracy":"16","context":0,"place_id":"QUUSpAxTUrjLEtiN4w","woeid":"20220093","geo_is_family":0,"geo_is_friend":0,"geo_is_contact":0,"geo_is_public":1,"media":"photo","media_status":"ready"},{"id":"13977770554","owner":"40999618@N05","secret":"91d937219e","server":"5098","farm":6,"title":"Lots of stamens, Explored","ispublic":1,"isfriend":0,"isfamily":0,"safe":0,"ownername":"CameliaTWU","latitude":46.647079,"longitude":23.328781,"accuracy":"11","context":0,"place_id":"Csip6PxZWrg3Pu0","woeid":"882839","geo_is_family":0,"geo_is_friend":0,"geo_is_contact":0,"geo_is_public":1,"media":"photo","media_status":"ready"}]},"stat":"ok"}