{"photos":{"page":3, "pages":24242, "perpage":60, "total":"1454503", "photo":[{"id":"4791717302", "owner":"25959337@N00", "secret":"f2fa3b7c5a", "server":"4076", "farm":5, "title":"Lakagigar seen from Laki", "ispublic":1, "isfriend":0, "isfamily":0, "safe":0, "ownername":"Martin Ystenes", "latitude":64.067245, "longitude":-18.240737, "accuracy":"12", "context":0, "place_id":"g.DvBdxTUb6KR0Va", "woeid":"2345709", "geo_is_family":0, "geo_is_friend":0, "geo_is_contact":0, "geo_is_public":1, "media":"photo", "media_status":"ready"}, {"id":"4770692674", "owner":"34726560@N00", "secret":"637ab2f017", "server":"4094", "farm":5, "title":"Learning the tricks of the trade", "ispublic":1, "isfriend":0, "isfamily":0, "safe":0, "ownername":"Steve-h", "latitude":53.306297, "longitude":-6.261947, "accuracy":"16", "context":0, "place_id":"BGStrtxUVLhC8SQ", "woeid":"562509", "geo_is_family":0, "geo_is_friend":0, "geo_is_contact":0, "geo_is_public":1, "media":"photo", "media_status":"ready"}, {"id":"3652886921", "owner":"25959337@N00", "secret":"d20b819f9f", "server":"3648", "farm":4, "title":"Norwegian road", "ispublic":1, "isfriend":0, "isfamily":0, "safe":0, "ownername":"Martin Ystenes", "latitude":60.900893, "longitude":6.486482, "accuracy":"13", "context":0, "place_id":"iOFl_GFQUL.B.3t61g", "woeid":"12592780", "geo_is_family":0, "geo_is_friend":0, "geo_is_contact":0, "geo_is_public":1, "media":"photo", "media_status":"ready"}, {"id":"3127383967", "owner":"29958169@N03", "secret":"6ba3d20887", "server":"3030", "farm":4, "title":"Infinity (Thanks for 2.500 comments)", "ispublic":1, "isfriend":0, "isfamily":0, "safe":0, "ownername":"Carmelo61 PhotoPassion Thanks", "latitude":45.988255, "longitude":11.845192, "accuracy":"13", "context":0, "place_id":"mYKPvp5WUL41jUA", "woeid":"724050", "geo_is_family":0, "geo_is_friend":0, "geo_is_contact":0, "geo_is_public":1, "media":"photo", "media_status":"ready"}, {"id":"3110128323", "owner":"29958169@N03", "secret":"3fa9f7ef8d", "server":"3106", "farm":4, "title":"Freedom Libert\u00e0 \u0441\u0432\u043e\u0431\u043e\u0434\u0430 Libertad Libert\u00e8", "ispublic":1, "isfriend":0, "isfamily":0, "safe":0, "ownername":"Carmelo61 PhotoPassion Thanks", "latitude":40.149619, "longitude":18.487672, "accuracy":"13", "context":0, "place_id":"mpu3MiVWU7OtGiE", "woeid":"719700", "geo_is_family":0, "geo_is_friend":0, "geo_is_contact":0, "geo_is_public":1, "media":"photo", "media_status":"ready"}, {"id":"3051910445", "owner":"25959337@N00", "secret":"e886c3bfaf", "server":"3139", "farm":4, "title":"Iceberg on J\u00f6kulsarlon", "ispublic":1, "isfriend":0, "isfamily":0, "safe":0, "ownername":"Martin Ystenes", "latitude":64.053804, "longitude":-16.188354, "accuracy":"11", "context":0, "place_id":"L30o2XlTUb6ZXW0u", "woeid":"2345690", "geo_is_family":0, "geo_is_friend":0, "geo_is_contact":0, "geo_is_public":1, "media":"photo", "media_status":"ready"}, {"id":"2057511598", "owner":"50641433@N00", "secret":"43476c9590", "server":"2261", "farm":3, "title":"Guardians of the gods : Chris Lupetti Photography", "ispublic":1, "isfriend":0, "isfamily":0, "safe":0, "ownername":"Chris Lupetti", "latitude":40.853033, "longitude":-73.962793, "accuracy":"12", "context":0, "place_id":"Owu2KwtTV7sMYK3l", "woeid":"2514888", "geo_is_family":0, "geo_is_friend":0, "geo_is_contact":0, "geo_is_public":1, "media":"photo", "media_status":"ready"}, {"id":"13032285385", "owner":"76586193@N08", "secret":"38139bfa6e", "server":"3160", "farm":4, "title":"Parasails in Turquoise Sea, Cancun Mexico", "ispublic":1, "isfriend":0, "isfamily":0, "safe":1, "ownername":"Simon__X", "latitude":21.081289, "longitude":-86.768882, "accuracy":"11", "context":0, "place_id":"axXgfrFQU76zIoU", "woeid":"114632", "geo_is_family":0, "geo_is_friend":0, "geo_is_contact":0, "geo_is_public":1, "media":"photo", "media_status":"ready"}, {"id":"12940263455", "owner":"97004099@N05", "secret":"d078748883", "server":"2874", "farm":3, "title":"10\/52 (2014) LOOKING DOWN", "ispublic":1, "isfriend":0, "isfamily":0, "safe":1, "ownername":"Fonk De", "latitude":48.841983, "longitude":2.322106, "accuracy":"15", "context":0, "place_id":"kZbonQRUV7JxwWdJRQ", "woeid":"55843828", "geo_is_family":0, "geo_is_friend":0, "geo_is_contact":0, "geo_is_public":1, "media":"photo", "media_status":"ready"}, {"id":"12719268433", "owner":"61874975@N05", "secret":"cde80cee35", "server":"7311", "farm":8, "title":"Bright as the Morning ....\u263c", "ispublic":1, "isfriend":0, "isfamily":0, "safe":1, "ownername":"\u2740\u10e6 Poetic Outlook (Anne)", "latitude":27.781986, "longitude":-15.720055, "accuracy":"11", "context":0, "place_id":"bpf6O9FWVbNLUqc", "woeid":"779199", "geo_is_family":0, "geo_is_friend":0, "geo_is_contact":0, "geo_is_public":1, "media":"photo", "media_status":"ready"}, {"id":"13171542025", "owner":"97023816@N00", "secret":"47757fed98", "server":"3684", "farm":4, "title":"Signal hill light trail, St. John's", "ispublic":1, "isfriend":0, "isfamily":0, "safe":0, "ownername":"tuanland", "latitude":47.57004, "longitude":-52.682189, "accuracy":"11", "context":0, "place_id":"dPlc9SlSW7OA", "woeid":"3996", "geo_is_family":0, "geo_is_friend":0, "geo_is_contact":0, "geo_is_public":1, "media":"photo", "media_status":"ready"}, {"id":"13123631644", "owner":"27420180@N08", "secret":"2d188cd709", "server":"3832", "farm":4, "title":"Paris & La D\u00e9fense", "ispublic":1, "isfriend":0, "isfamily":0, "safe":1, "ownername":"A.G. Photographe", "latitude":48.830938, "longitude":2.355451, "accuracy":"13", "context":0, "place_id":"6WZ.pLJUV7KD6wQMmg", "woeid":"55843811", "geo_is_family":0, "geo_is_friend":0, "geo_is_contact":0, "geo_is_public":1, "media":"photo", "media_status":"ready"}, {"id":"13100422745", "owner":"22461382@N00", "secret":"d046f7c5e7", "server":"7368", "farm":8, "title":"this and that | tangv\u00e5g, norway", "ispublic":1, "isfriend":0, "isfamily":0, "safe":0, "ownername":"elmofoto", "latitude":68.251602, "longitude":13.616822, "accuracy":"16", "context":0, "place_id":"_Xq.CeZTULyU544b3Q", "woeid":"22660256", "geo_is_family":0, "geo_is_friend":0, "geo_is_contact":0, "geo_is_public":1, "media":"photo", "media_status":"ready"}, {"id":"13079102744", "owner":"22461382@N00", "secret":"99e5d3da84", "server":"7345", "farm":8, "title":"h e l i x | eggum, norway", "ispublic":1, "isfriend":0, "isfamily":0, "safe":0, "ownername":"elmofoto", "latitude":68.306883, "longitude":13.650383, "accuracy":"16", "context":0, "place_id":"ej4raLxZV70lk7c", "woeid":"857947", "geo_is_family":0, "geo_is_friend":0, "geo_is_contact":0, "geo_is_public":1, "media":"photo", "media_status":"ready"}, {"id":"13066407874", "owner":"36119280@N04", "secret":"12b33d753a", "server":"2603", "farm":3, "title":"Bella Toscana", "ispublic":1, "isfriend":0, "isfamily":0, "safe":1, "ownername":"blichb", "latitude":43.070927, "longitude":11.587692, "accuracy":"11", "context":0, "place_id":"efmaKclWULnXU.M", "woeid":"723077", "geo_is_family":0, "geo_is_friend":0, "geo_is_contact":0, "geo_is_public":1, "media":"photo", "media_status":"ready"}, {"id":"13065726794", "owner":"38344207@N04", "secret":"0baed06874", "server":"3666", "farm":4, "title":"Evening", "ispublic":1, "isfriend":0, "isfamily":0, "safe":0, "ownername":"Undertable", "latitude":49.437882, "longitude":9.661788, "accuracy":"13", "context":0, "place_id":"gSNkrjpXUb9hm1c", "woeid":"635727", "geo_is_family":0, "geo_is_friend":0, "geo_is_contact":0, "geo_is_public":1, "media":"photo", "media_status":"ready"}, {"id":"13062031364", "owner":"76238381@N08", "secret":"95c0c7254e", "server":"3353", "farm":4, "title":"Deceivingly Hazardous", "ispublic":1, "isfriend":0, "isfamily":0, "safe":1, "ownername":"Sandra's Weeds", "latitude":40.463666, "longitude":-74.005966, "accuracy":"11", "context":0, "place_id":"X6.kC6dTVrrbg0pb", "woeid":"2405718", "geo_is_family":0, "geo_is_friend":0, "geo_is_contact":0, "geo_is_public":1, "media":"photo", "media_status":"ready"}, {"id":"13061109913", "owner":"42812461@N00", "secret":"0d7d62a081", "server":"3127", "farm":4, "title":"P1310007", "ispublic":1, "isfriend":0, "isfamily":0, "safe":0, "ownername":"Akbar Simonse", "latitude":52.075424, "longitude":4.320613, "accuracy":"15", "context":0, "place_id":"gycEsvZWUbkGyFQ", "woeid":"733553", "geo_is_family":0, "geo_is_friend":0, "geo_is_contact":0, "geo_is_public":1, "media":"photo", "media_status":"ready"}, {"id":"13053357985", "owner":"10989519@N06", "secret":"81e88104fa", "server":"7386", "farm":8, "title":"Windmills in Kinderdijk", "ispublic":1, "isfriend":0, "isfamily":0, "safe":0, "ownername":"RuudMorijn", "latitude":51.879127, "longitude":4.640927, "accuracy":"16", "context":0, "place_id":"3Z1u2YJWUbpYOrQ", "woeid":"730730", "geo_is_family":0, "geo_is_friend":0, "geo_is_contact":0, "geo_is_public":1, "media":"photo", "media_status":"ready"}, {"id":"13046895195", "owner":"76238381@N08", "secret":"743c44bba8", "server":"3445", "farm":4, "title":"Sunset at la Oz!", "ispublic":1, "isfriend":0, "isfamily":0, "safe":1, "ownername":"Sandra's Weeds", "latitude":40.465233, "longitude":-74.005279, "accuracy":"11", "context":0, "place_id":"X6.kC6dTVrrbg0pb", "woeid":"2405718", "geo_is_family":0, "geo_is_friend":0, "geo_is_contact":0, "geo_is_public":1, "media":"photo", "media_status":"ready"}, {"id":"13029648143", "owner":"22461382@N00", "secret":"248c754a7d", "server":"2261", "farm":3, "title":"nuclear | ramberg, norway", "ispublic":1, "isfriend":0, "isfamily":0, "safe":1, "ownername":"elmofoto", "latitude":68.098247, "longitude":13.244177, "accuracy":"16", "context":0, "place_id":"TyHVv2VZVLjj2_8", "woeid":"862798", "geo_is_family":0, "geo_is_friend":0, "geo_is_contact":0, "geo_is_public":1, "media":"photo", "media_status":"ready"}, {"id":"13015160214", "owner":"81035653@N00", "secret":"e616eb077f", "server":"2727", "farm":3, "title":"Postcard from the Bodensee", "ispublic":1, "isfriend":0, "isfamily":0, "safe":1, "ownername":"B\u212en", "latitude":47.542888, "longitude":9.683353, "accuracy":"16", "context":0, "place_id":"x_hJwN1TULyM3qC4gQ", "woeid":"22662225", "geo_is_family":0, "geo_is_friend":0, "geo_is_contact":0, "geo_is_public":1, "media":"photo", "media_status":"ready"}, {"id":"13008189833", "owner":"69642831@N02", "secret":"2e22f94512", "server":"3421", "farm":4, "title":"Journ\u00e9e de la Femme", "ispublic":1, "isfriend":0, "isfamily":0, "safe":1, "ownername":"Dominique Rolland @ Laouleventmeporte", "latitude":42.622338, "longitude":3.00682, "accuracy":"11", "context":0, "place_id":"Ql6xFfBXULmjq1Q", "woeid":"623637", "geo_is_family":0, "geo_is_friend":0, "geo_is_contact":0, "geo_is_public":1, "media":"photo", "media_status":"ready"}, {"id":"12993029595", "owner":"58306119@N07", "secret":"51ec68b823", "server":"3618", "farm":4, "title":"Rain & Ice (Explored)", "ispublic":1, "isfriend":0, "isfamily":0, "safe":1, "ownername":"Tore Thiis Fjeld", "latitude":59.957717, "longitude":10.756816, "accuracy":"15", "context":0, "place_id":"arXGPnJZVLopXwM", "woeid":"860793", "geo_is_family":0, "geo_is_friend":0, "geo_is_contact":0, "geo_is_public":1, "media":"photo", "media_status":"ready"}, {"id":"12991779914", "owner":"43155663@N07", "secret":"8a4bbca57e", "server":"2804", "farm":3, "title":"a walk in the park", "ispublic":1, "isfriend":0, "isfamily":0, "safe":0, "ownername":"city\/human\/life", "latitude":51.257134, "longitude":6.749081, "accuracy":"16", "context":0, "place_id":"MA8Ke4hXVrwlyVI", "woeid":"646099", "geo_is_family":0, "geo_is_friend":0, "geo_is_contact":0, "geo_is_public":1, "media":"photo", "media_status":"ready"}, {"id":"12977542574", "owner":"60509750@N08", "secret":"5c666330d4", "server":"3595", "farm":4, "title":"Spring in Amsterdam!", "ispublic":1, "isfriend":0, "isfamily":0, "safe":1, "ownername":"Maria_Globetrotter", "latitude":52.378029, "longitude":4.886287, "accuracy":"16", "context":0, "place_id":"xfcEFYhWULKtjYI", "woeid":"728410", "geo_is_family":0, "geo_is_friend":0, "geo_is_contact":0, "geo_is_public":1, "media":"photo", "media_status":"ready"}, {"id":"12972457425", "owner":"36621592@N06", "secret":"139f04f155", "server":"7406", "farm":8, "title":"Pamukkale", "ispublic":1, "isfriend":0, "isfamily":0, "safe":1, "ownername":"Pilar Aza\u00f1a", "latitude":37.92212, "longitude":29.126443, "accuracy":"14", "context":0, "place_id":"J_VRJzBTUbos19au", "woeid":"2307389", "geo_is_family":0, "geo_is_friend":0, "geo_is_contact":0, "geo_is_public":1, "media":"photo", "media_status":"ready"}, {"id":"12971689945", "owner":"62815410@N04", "secret":"a6cdb51b0a", "server":"7405", "farm":8, "title":"popcorn? (brescia, italy)", "ispublic":1, "isfriend":0, "isfamily":0, "safe":0, "ownername":"bloodybee", "latitude":45.535678, "longitude":10.234322, "accuracy":"15", "context":0, "place_id":"WO1uGLRWU7u69ps", "woeid":"711410", "geo_is_family":0, "geo_is_friend":0, "geo_is_contact":0, "geo_is_public":1, "media":"photo", "media_status":"ready"}, {"id":"12971786374", "owner":"37034324@N05", "secret":"a73fb09434", "server":"7452", "farm":8, "title":"Piccadilly Circus second edition. London July 2013", "ispublic":1, "isfriend":0, "isfamily":0, "safe":1, "ownername":"Smo_Q", "latitude":51.509957, "longitude":-0.134786, "accuracy":"16", "context":0, "place_id":"CQ9kd11TUrqtHSw5Sw", "woeid":"20094342", "geo_is_family":0, "geo_is_friend":0, "geo_is_contact":0, "geo_is_public":1, "media":"photo", "media_status":"ready"}, {"id":"12952657304", "owner":"71193951@N07", "secret":"c81acd96c5", "server":"3825", "farm":4, "title":"The Boat Watcher (explored 05\/03\/14)", "ispublic":1, "isfriend":0, "isfamily":0, "safe":1, "ownername":"galvanol", "latitude":15.867892, "longitude":-61.582832, "accuracy":"16", "context":0, "place_id":"gJNbtuhTVr88cBPshw", "woeid":"24549706", "geo_is_family":0, "geo_is_friend":0, "geo_is_contact":0, "geo_is_public":1, "media":"photo", "media_status":"ready"}, {"id":"12951699904", "owner":"62815410@N04", "secret":"a8123e18ac", "server":"7426", "farm":8, "title":"untitled (padova, italy)", "ispublic":1, "isfriend":0, "isfamily":0, "safe":0, "ownername":"bloodybee", "latitude":45.409278, "longitude":11.872839, "accuracy":"16", "context":0, "place_id":"4j5CapBWU7MDNH0", "woeid":"719751", "geo_is_family":0, "geo_is_friend":0, "geo_is_contact":0, "geo_is_public":1, "media":"photo", "media_status":"ready"}, {"id":"12950990043", "owner":"37034324@N05", "secret":"3e0a6beacf", "server":"3669", "farm":4, "title":"Lazy day in the heart of the City, July 2013", "ispublic":1, "isfriend":0, "isfamily":0, "safe":1, "ownername":"Smo_Q", "latitude":51.513496, "longitude":-0.087665, "accuracy":"16", "context":0, "place_id":"hP_s5s9VVr5Qcg", "woeid":"44418", "geo_is_family":0, "geo_is_friend":0, "geo_is_contact":0, "geo_is_public":1, "media":"photo", "media_status":"ready"}, {"id":"12950524914", "owner":"89854811@N03", "secret":"b39a4aa55d", "server":"2876", "farm":3, "title":"A place of mine [Explored, 2014-03-05]", "ispublic":1, "isfriend":0, "isfamily":0, "safe":0, "ownername":"Photo by M | L - www.ml-foto.se", "latitude":59.375189, "longitude":13.397998, "accuracy":"11", "context":0, "place_id":"Qd6o8oZZW77725E", "woeid":"894959", "geo_is_family":0, "geo_is_friend":0, "geo_is_contact":0, "geo_is_public":1, "media":"photo", "media_status":"ready"}, {"id":"12931849085", "owner":"30992106@N07", "secret":"b93f5d0546", "server":"7451", "farm":8, "title":"Farben im Fr\u00fchling", "ispublic":1, "isfriend":0, "isfamily":0, "safe":0, "ownername":"J\u00f6rgenshaus", "latitude":50.79697, "longitude":7.212374, "accuracy":"16", "context":0, "place_id":"GkbM5_xXW77add4", "woeid":"694844", "geo_is_family":0, "geo_is_friend":0, "geo_is_contact":0, "geo_is_public":1, "media":"photo", "media_status":"ready"}, {"id":"12930729193", "owner":"80516886@N00", "secret":"7b6c34fe8c", "server":"3692", "farm":4, "title":"Rio de Janeiro - 449 anos - 449 Years", "ispublic":1, "isfriend":0, "isfamily":0, "safe":0, "ownername":".**rickipanema**.", "latitude":-22.95257, "longitude":-43.2263, "accuracy":"16", "context":0, "place_id":"cw_rvIlUV7M21kN9tQ", "woeid":"55943717", "geo_is_family":0, "geo_is_friend":0, "geo_is_contact":0, "geo_is_public":1, "media":"photo", "media_status":"ready"}, {"id":"12925523005", "owner":"37708438@N05", "secret":"f0e98d66ec", "server":"3794", "farm":4, "title":"AE DROOKIT COO", "ispublic":1, "isfriend":0, "isfamily":0, "safe":1, "ownername":"kenny barker", "latitude":56.474248, "longitude":-4.828491, "accuracy":"11", "context":0, "place_id":"hegpbi1QUbIhtg", "woeid":"13847", "geo_is_family":0, "geo_is_friend":0, "geo_is_contact":0, "geo_is_public":1, "media":"photo", "media_status":"ready"}, {"id":"12923748284", "owner":"32553078@N08", "secret":"d2235071f8", "server":"7400", "farm":8, "title":"Puddle Mirror Reflection on Notre Dame", "ispublic":1, "isfriend":0, "isfamily":0, "safe":0, "ownername":"Lo\u00efc Lagarde", "latitude":48.850586, "longitude":2.354955, "accuracy":"16", "context":0, "place_id":"l6ezWo1UV7J685f0sQ", "woeid":"55843761", "geo_is_family":0, "geo_is_friend":0, "geo_is_contact":0, "geo_is_public":1, "media":"photo", "media_status":"ready"}, {"id":"12923111133", "owner":"36449002@N08", "secret":"76ddc7b586", "server":"7369", "farm":8, "title":"Windy colors", "ispublic":1, "isfriend":0, "isfamily":0, "safe":1, "ownername":"Antonio Carrillo (Ancalop)", "latitude":37.40221, "longitude":-1.582975, "accuracy":"14", "context":0, "place_id":"hHThVwBWV7sNu5I", "woeid":"751538", "geo_is_family":0, "geo_is_friend":0, "geo_is_contact":0, "geo_is_public":1, "media":"photo", "media_status":"ready"}, {"id":"12918314753", "owner":"22461382@N00", "secret":"2a3db57eea", "server":"3820", "farm":4, "title":"swirl | hamn\u00f8y, norway", "ispublic":1, "isfriend":0, "isfamily":0, "safe":1, "ownername":"elmofoto", "latitude":67.947886, "longitude":13.131383, "accuracy":"16", "context":0, "place_id":".Rko95lZVLj.cwQ", "woeid":"862886", "geo_is_family":0, "geo_is_friend":0, "geo_is_contact":0, "geo_is_public":1, "media":"photo", "media_status":"ready"}, {"id":"12907819273", "owner":"30032844@N05", "secret":"e0b84d240f", "server":"2834", "farm":3, "title":"ONCE UPON...A DREAM II", "ispublic":1, "isfriend":0, "isfamily":0, "safe":0, "ownername":"R a q u e l d e C a s t r o | Images", "latitude":43.40657, "longitude":-2.96215, "accuracy":"11", "context":0, "place_id":"_a5spc5WVb7C.oY", "woeid":"774819", "geo_is_family":0, "geo_is_friend":0, "geo_is_contact":0, "geo_is_public":1, "media":"photo", "media_status":"ready"}, {"id":"12902426145", "owner":"34256037@N00", "secret":"ed7d6939f6", "server":"7389", "farm":8, "title":"Ter Heijde", "ispublic":1, "isfriend":0, "isfamily":0, "safe":1, "ownername":"Bart van Damme", "latitude":52.034858, "longitude":4.171071, "accuracy":"14", "context":0, "place_id":"J0yKVrhWUbtTq50", "woeid":"731778", "geo_is_family":0, "geo_is_friend":0, "geo_is_contact":0, "geo_is_public":1, "media":"photo", "media_status":"ready"}, {"id":"12885157345", "owner":"30992106@N07", "secret":"ea573346d8", "server":"3726", "farm":4, "title":"Gelber Fr\u00fchling", "ispublic":1, "isfriend":0, "isfamily":0, "safe":0, "ownername":"J\u00f6rgenshaus", "latitude":50.796265, "longitude":7.212846, "accuracy":"16", "context":0, "place_id":"GkbM5_xXW77add4", "woeid":"694844", "geo_is_family":0, "geo_is_friend":0, "geo_is_contact":0, "geo_is_public":1, "media":"photo", "media_status":"ready"}, {"id":"12881367513", "owner":"43155663@N07", "secret":"2ae38bb1f9", "server":"7357", "farm":8, "title":"standing still", "ispublic":1, "isfriend":0, "isfamily":0, "safe":0, "ownername":"city\/human\/life", "latitude":51.388574, "longitude":6.998376, "accuracy":"16", "context":0, "place_id":"UZIHF3RXVrIRFRQ", "woeid":"648820", "geo_is_family":0, "geo_is_friend":0, "geo_is_contact":0, "geo_is_public":1, "media":"photo", "media_status":"ready"}, {"id":"12853886905", "owner":"79688583@N03", "secret":"4c5f0f3680", "server":"3713", "farm":4, "title":"The View Beyond", "ispublic":1, "isfriend":0, "isfamily":0, "safe":1, "ownername":"Jamie Frith", "latitude":51.507754, "longitude":-0.127909, "accuracy":"16", "context":0, "place_id":"1EPGyGtTUrrDXJmGCA", "woeid":"20094364", "geo_is_family":0, "geo_is_friend":0, "geo_is_contact":0, "geo_is_public":1, "media":"photo", "media_status":"ready"}, {"id":"12852189355", "owner":"30829023@N03", "secret":"2f0a3e60bc", "server":"7383", "farm":8, "title":"What Lies Beneath", "ispublic":1, "isfriend":0, "isfamily":0, "safe":0, "ownername":"Daniel Borg", "latitude":51.515097, "longitude":-0.093287, "accuracy":"16", "context":0, "place_id":"87OE4Q1TUrpz8Ex55Q", "woeid":"20094307", "geo_is_family":0, "geo_is_friend":0, "geo_is_contact":0, "geo_is_public":1, "media":"photo", "media_status":"ready"}, {"id":"12840530544", "owner":"68562669@N06", "secret":"2082fdd2c2", "server":"2882", "farm":3, "title":"incoming Waves", "ispublic":1, "isfriend":0, "isfamily":0, "safe":1, "ownername":"Ken Came", "latitude":50.712737, "longitude":-1.752362, "accuracy":"15", "context":0, "place_id":"TbYmzT1QVLqiFA", "woeid":"16017", "geo_is_family":0, "geo_is_friend":0, "geo_is_contact":0, "geo_is_public":1, "media":"photo", "media_status":"ready"}, {"id":"12836937054", "owner":"43155663@N07", "secret":"01bdbf533d", "server":"7371", "farm":8, "title":"walk by the water - extreme edition", "ispublic":1, "isfriend":0, "isfamily":0, "safe":0, "ownername":"city\/human\/life", "latitude":51.387717, "longitude":6.99975, "accuracy":"16", "context":0, "place_id":"UZIHF3RXVrIRFRQ", "woeid":"648820", "geo_is_family":0, "geo_is_friend":0, "geo_is_contact":0, "geo_is_public":1, "media":"photo", "media_status":"ready"}, {"id":"12831460114", "owner":"27420180@N08", "secret":"f30756bf3e", "server":"2809", "farm":3, "title":"Tour Eiffel & Alexandre III", "ispublic":1, "isfriend":0, "isfamily":0, "safe":0, "ownername":"A.G. Photographe", "latitude":48.853096, "longitude":2.369173, "accuracy":"16", "context":0, "place_id":"o87ZyUpUV7IfkA8sMw", "woeid":"55843760", "geo_is_family":0, "geo_is_friend":0, "geo_is_contact":0, "geo_is_public":1, "media":"photo", "media_status":"ready"}, {"id":"12829189453", "owner":"76805638@N07", "secret":"1993196657", "server":"3814", "farm":4, "title":"a promise", "ispublic":1, "isfriend":0, "isfamily":0, "safe":1, "ownername":"Sergey S Ponomarev", "latitude":58.724514, "longitude":50.285882, "accuracy":"13", "context":0, "place_id":"aT3aYL1TUr3nEYUP", "woeid":"2077704", "geo_is_family":0, "geo_is_friend":0, "geo_is_contact":0, "geo_is_public":1, "media":"photo", "media_status":"ready"}, {"id":"12819572665", "owner":"37034324@N05", "secret":"8e439e9d2c", "server":"3772", "farm":4, "title":"Liverpool Street. July 2013", "ispublic":1, "isfriend":0, "isfamily":0, "safe":1, "ownername":"Smo_Q", "latitude":51.517929, "longitude":-0.081603, "accuracy":"15", "context":0, "place_id":"3Vyv899TUroWiiTGDg", "woeid":"20094298", "geo_is_family":0, "geo_is_friend":0, "geo_is_contact":0, "geo_is_public":1, "media":"photo", "media_status":"ready"}, {"id":"12816482165", "owner":"30992106@N07", "secret":"0d295577e6", "server":"2858", "farm":3, "title":"Fr\u00fchlingsregen", "ispublic":1, "isfriend":0, "isfamily":0, "safe":0, "ownername":"J\u00f6rgenshaus", "latitude":50.794678, "longitude":7.211923, "accuracy":"16", "context":0, "place_id":"GkbM5_xXW77add4", "woeid":"694844", "geo_is_family":0, "geo_is_friend":0, "geo_is_contact":0, "geo_is_public":1, "media":"photo", "media_status":"ready"}, {"id":"12815361625", "owner":"42812461@N00", "secret":"35dd7a6d14", "server":"7437", "farm":8, "title":"Eye contact", "ispublic":1, "isfriend":0, "isfamily":0, "safe":0, "ownername":"Akbar Simonse", "latitude":51.925273, "longitude":4.476867, "accuracy":"15", "context":0, "place_id":"lhM3WGRWUbndGLo", "woeid":"733075", "geo_is_family":0, "geo_is_friend":0, "geo_is_contact":0, "geo_is_public":1, "media":"photo", "media_status":"ready"}, {"id":"12812926754", "owner":"21488930@N04", "secret":"4176515aa9", "server":"2867", "farm":3, "title":"\u2600.....   APPENNINI - la spina dorsale d'Italia - the backbone of Italy.....2702", "ispublic":1, "isfriend":0, "isfamily":0, "safe":0, "ownername":"\u01bfier", "latitude":44.704238, "longitude":10.007131, "accuracy":"16", "context":0, "place_id":"RYVc.B5WUL_XHHM", "woeid":"725664", "geo_is_family":0, "geo_is_friend":0, "geo_is_contact":0, "geo_is_public":1, "media":"photo", "media_status":"ready"}, {"id":"12812362054", "owner":"61874975@N05", "secret":"612d0f76de", "server":"3767", "farm":4, "title":"I was Walking in the Park . .", "ispublic":1, "isfriend":0, "isfamily":0, "safe":1, "ownername":"\u2740\u10e6 Poetic Outlook (Anne)", "latitude":40.588005, "longitude":-73.966964, "accuracy":"15", "context":0, "place_id":".skCPTpTVr.Q3WKW", "woeid":"2459115", "geo_is_family":0, "geo_is_friend":0, "geo_is_contact":0, "geo_is_public":1, "media":"photo", "media_status":"ready"}, {"id":"12809248495", "owner":"40760810@N05", "secret":"66aae6a80e", "server":"3682", "farm":4, "title":"#smoked   #Explorer", "ispublic":1, "isfriend":0, "isfamily":0, "safe":0, "ownername":"Orione Photographer\uf8ff", "latitude":41.90311, "longitude":12.495759, "accuracy":"11", "context":0, "place_id":"uijRnjBWULsQTwc", "woeid":"721943", "geo_is_family":0, "geo_is_friend":0, "geo_is_contact":0, "geo_is_public":1, "media":"photo", "media_status":"ready"}, {"id":"12797145225", "owner":"18718027@N00", "secret":"59efbb1860", "server":"7418", "farm":8, "title":"Astronomical events half-moon +Venus planet , 26\/02\/2014", "ispublic":1, "isfriend":0, "isfamily":0, "safe":1, "ownername":"Marinyu..", "latitude":47.518673, "longitude":19.099775, "accuracy":"15", "context":0, "place_id":"SapnqUFTUL3LERY_jA", "woeid":"22723953", "geo_is_family":0, "geo_is_friend":0, "geo_is_contact":0, "geo_is_public":1, "media":"photo", "media_status":"ready"}, {"id":"12797247814", "owner":"100063725@N06", "secret":"719d4d0119", "server":"7325", "farm":8, "title":"Puesta de sol en la costa", "ispublic":1, "isfriend":0, "isfamily":0, "safe":1, "ownername":"Antonio Chac", "latitude":36.505692, "longitude":-4.876525, "accuracy":"16", "context":0, "place_id":"b6ANCk5WVLwQivI", "woeid":"766537", "geo_is_family":0, "geo_is_friend":0, "geo_is_contact":0, "geo_is_public":1, "media":"photo", "media_status":"ready"}, {"id":"12796884054", "owner":"80516886@N00", "secret":"ce176f09dc", "server":"3773", "farm":4, "title":"Rio de Janeiro", "ispublic":1, "isfriend":0, "isfamily":0, "safe":0, "ownername":".**rickipanema**.", "latitude":-22.946556, "longitude":-43.198245, "accuracy":"16", "context":0, "place_id":"3zn3YeVUV7M7GCXybA", "woeid":"55944356", "geo_is_family":0, "geo_is_friend":0, "geo_is_contact":0, "geo_is_public":1, "media":"photo", "media_status":"ready"}, {"id":"12795963043", "owner":"54838723@N02", "secret":"cfe943b548", "server":"7438", "farm":8, "title":"karwendel", "ispublic":1, "isfriend":0, "isfamily":0, "safe":1, "ownername":"koaxial", "latitude":47.428319, "longitude":11.293215, "accuracy":"14", "context":0, "place_id":"xynEpKlXVb.tUHE", "woeid":"675601", "geo_is_family":0, "geo_is_friend":0, "geo_is_contact":0, "geo_is_public":1, "media":"photo", "media_status":"ready"}, {"id":"12773313664", "owner":"43155663@N07", "secret":"c9e90a0dd9", "server":"7358", "farm":8, "title":"young explorer - part III", "ispublic":1, "isfriend":0, "isfamily":0, "safe":0, "ownername":"city\/human\/life", "latitude":51.388829, "longitude":6.998977, "accuracy":"16", "context":0, "place_id":"UZIHF3RXVrIRFRQ", "woeid":"648820", "geo_is_family":0, "geo_is_friend":0, "geo_is_contact":0, "geo_is_public":1, "media":"photo", "media_status":"ready"}]}, "stat":"ok"}