{"photos":{"page":62,"pages":26552,"perpage":60,"total":"1593105","photo":[{"id":"14018016133","owner":"39653127@N03","secret":"aa6fe90e64","server":"2902","farm":3,"title":"Sundown on the Rocks","ispublic":1,"isfriend":0,"isfamily":0,"safe":0,"ownername":"Wilma v H - thnx dear friends 4 U'r kind feedback","latitude":-34.419404,"longitude":19.181615,"accuracy":"16","context":0,"place_id":"GfMu5IRQV7Juyv_H","woeid":"1587167","geo_is_family":0,"geo_is_friend":0,"geo_is_contact":0,"geo_is_public":1,"media":"photo","media_status":"ready"},{"id":"13974591696","owner":"46944516@N00","secret":"ca81f46021","server":"5530","farm":6,"title":"Jaguar E Type Coupe\u0301","ispublic":1,"isfriend":0,"isfamily":0,"safe":0,"ownername":"pedrosimoes7","latitude":38.774896,"longitude":-9.095907,"accuracy":"16","context":0,"place_id":"9PULcGxWVr6.zNQ","woeid":"744690","geo_is_family":0,"geo_is_friend":0,"geo_is_contact":0,"geo_is_public":1,"media":"photo","media_status":"ready"},{"id":"13997620554","owner":"80046198@N00","secret":"6f377593ca","server":"7395","farm":8,"title":"One scoop..","ispublic":1,"isfriend":0,"isfamily":0,"safe":0,"ownername":"areyarey","latitude":43.773154,"longitude":11.255418,"accuracy":"16","context":0,"place_id":"drN1SbBTUrsvdwZ2VA","woeid":"20150265","geo_is_family":0,"geo_is_friend":0,"geo_is_contact":0,"geo_is_public":1,"media":"photo","media_status":"ready"},{"id":"13993664292","owner":"53245021@N07","secret":"de5f6018d2","server":"2909","farm":3,"title":"Cave Reef, St Johns, Red sea","ispublic":1,"isfriend":0,"isfamily":0,"safe":0,"ownername":"Mercury dog","latitude":23.800423,"longitude":35.763244,"accuracy":"8","context":0,"place_id":"C85FhwdTUb4HKe6Q","woeid":"2345224","geo_is_family":0,"geo_is_friend":0,"geo_is_contact":0,"geo_is_public":1,"media":"photo","media_status":"ready"},{"id":"13992377982","owner":"55960877@N08","secret":"ba662304ec","server":"7148","farm":8,"title":"misty morning","ispublic":1,"isfriend":0,"isfamily":0,"safe":0,"ownername":"green.pit","latitude":52.622773,"longitude":13.459839,"accuracy":"15","context":0,"place_id":"beap05tTUrvP98CJCw","woeid":"20161037","geo_is_family":0,"geo_is_friend":0,"geo_is_contact":0,"geo_is_public":1,"media":"photo","media_status":"ready"},{"id":"13972243896","owner":"90451570@N07","secret":"093af1b88b","server":"7313","farm":8,"title":"Vernazza","ispublic":1,"isfriend":0,"isfamily":0,"safe":0,"ownername":"CarolynEaton","latitude":44.135567,"longitude":9.681712,"accuracy":"16","context":0,"place_id":"CeX_wMxWUL_Av2w","woeid":"725783","geo_is_family":0,"geo_is_friend":0,"geo_is_contact":0,"geo_is_public":1,"media":"photo","media_status":"ready"},{"id":"13991906811","owner":"8836196@N06","secret":"48d0a59d14","server":"5594","farm":6,"title":"\" Tracer la voie , un bonheur !...\"","ispublic":1,"isfriend":0,"isfamily":0,"safe":0,"ownername":"jeanmical","latitude":45.480359,"longitude":6.413607,"accuracy":"16","context":0,"place_id":"YAQClp1TW7mXKktFCw","woeid":"29329964","geo_is_family":0,"geo_is_friend":0,"geo_is_contact":0,"geo_is_public":1,"media":"photo","media_status":"ready"},{"id":"13969503106","owner":"13048208@N02","secret":"9664e9079e","server":"2905","farm":3,"title":"Ettrick Bay","ispublic":1,"isfriend":0,"isfamily":0,"safe":0,"ownername":"Damian_Ward","latitude":55.850216,"longitude":-5.142931,"accuracy":"15","context":0,"place_id":"tJEgy8VQUL8nXf9pFQ","woeid":"12578048","geo_is_family":0,"geo_is_friend":0,"geo_is_contact":0,"geo_is_public":1,"media":"photo","media_status":"ready"},{"id":"13961760726","owner":"65240438@N02","secret":"f79f92f02d","server":"7083","farm":8,"title":"Waterfalls... sk\u00f3garfoss :-)","ispublic":1,"isfriend":0,"isfamily":0,"safe":0,"ownername":"Christine1744-thanksforover2millionviews!","latitude":64.963943,"longitude":-19.02116,"accuracy":"2","context":0,"place_id":"jPn7LAVTUb5tyPnsog","woeid":"23424845","geo_is_family":0,"geo_is_friend":0,"geo_is_contact":0,"geo_is_public":1,"media":"photo","media_status":"ready"},{"id":"13960725456","owner":"16854222@N05","secret":"c9bb0b8e98","server":"7460","farm":8,"title":"Aspiring Green","ispublic":1,"isfriend":0,"isfamily":0,"safe":0,"ownername":"AnyMotion","latitude":50.123271,"longitude":8.6804,"accuracy":"16","context":0,"place_id":"Z0FRRfRXV7oIeew","woeid":"650272","geo_is_family":0,"geo_is_friend":0,"geo_is_contact":0,"geo_is_public":1,"media":"photo","media_status":"ready"},{"id":"13979630292","owner":"36095498@N02","secret":"352e1e65bc","server":"5294","farm":6,"title":"reflections","ispublic":1,"isfriend":0,"isfamily":0,"safe":0,"ownername":"margaret.k","latitude":51.890477,"longitude":-8.306393,"accuracy":"14","context":0,"place_id":"4GidkgxTUrq8Skhpcg","woeid":"20071604","geo_is_family":0,"geo_is_friend":0,"geo_is_contact":0,"geo_is_public":1,"media":"photo","media_status":"ready"},{"id":"13977139802","owner":"17306541@N06","secret":"8b9ef5299b","server":"7116","farm":8,"title":"The Blue [Explored]","ispublic":1,"isfriend":0,"isfamily":0,"safe":0,"ownername":"jellyfire","latitude":52.561638,"longitude":0.840711,"accuracy":"14","context":0,"place_id":"UMA.v6BSW7nuqA","woeid":"39338","geo_is_family":0,"geo_is_friend":0,"geo_is_contact":0,"geo_is_public":1,"media":"photo","media_status":"ready"},{"id":"13973750525","owner":"68314550@N05","secret":"1b4cf07770","server":"5114","farm":6,"title":"Chateau fontainebleau 2","ispublic":1,"isfriend":0,"isfamily":0,"safe":0,"ownername":"ollyaz","latitude":48.399738,"longitude":2.697883,"accuracy":"14","context":0,"place_id":"9n1SdG5UW7uKCwc","woeid":"591395","geo_is_family":0,"geo_is_friend":0,"geo_is_contact":0,"geo_is_public":1,"media":"photo","media_status":"ready"},{"id":"13870708583","owner":"67833313@N08","secret":"09f30e2b03","server":"3798","farm":4,"title":"My sweet May...","ispublic":1,"isfriend":0,"isfamily":0,"safe":0,"ownername":"Dimitra Kirgiannaki \u266a\u00b8.\u2022*\u00b4spring-lover \u00a8\u00b4","latitude":37.929124,"longitude":23.694454,"accuracy":"11","context":0,"place_id":"hXFuKQ5YV7JgOUY","woeid":"958836","geo_is_family":0,"geo_is_friend":0,"geo_is_contact":0,"geo_is_public":1,"media":"photo","media_status":"ready"},{"id":"13638747214","owner":"48293483@N02","secret":"7e0d6b0d15","server":"2817","farm":3,"title":"Around Bald Sayt, Wadi Ban Awf, Oman","ispublic":1,"isfriend":0,"isfamily":0,"safe":0,"ownername":"Sekitar","latitude":23.380077,"longitude":57.74414,"accuracy":"10","context":0,"place_id":"20iFnc1UV7PcqwOY.g","woeid":"55926654","geo_is_family":0,"geo_is_friend":0,"geo_is_contact":0,"geo_is_public":1,"media":"photo","media_status":"ready"},{"id":"13462445715","owner":"48293483@N02","secret":"309fba5e40","server":"7172","farm":8,"title":"Prepearing flat bread, Bait Al Safah, old Al-Hamra, Oman","ispublic":1,"isfriend":0,"isfamily":0,"safe":1,"ownername":"Sekitar","latitude":23.101207,"longitude":57.281513,"accuracy":"12","context":0,"place_id":"grVlZsVTULzQkg0U","woeid":"2268081","geo_is_family":0,"geo_is_friend":0,"geo_is_contact":0,"geo_is_public":1,"media":"photo","media_status":"ready"},{"id":"12222639174","owner":"95143399@N04","secret":"81a2f17a32","server":"5477","farm":6,"title":"Tetouan - \u062a\u0637\u0648\u0627\u0646 - Morocco","ispublic":1,"isfriend":0,"isfamily":0,"safe":0,"ownername":"PhotoGSuS","latitude":35.570877,"longitude":-5.365383,"accuracy":"16","context":0,"place_id":"Ga9coidQV76drqKL","woeid":"1541445","geo_is_family":0,"geo_is_friend":0,"geo_is_contact":0,"geo_is_public":1,"media":"photo","media_status":"ready"},{"id":"10877305594","owner":"70139913@N02","secret":"e249cb5ba8","server":"3735","farm":4,"title":"Gartenhummel und Malve - Bumblebee and mallow","ispublic":1,"isfriend":0,"isfamily":0,"safe":1,"ownername":"MaiGoede","latitude":53.595994,"longitude":8.352377,"accuracy":"16","context":0,"place_id":"KpHKFSlXVrPMThQ","woeid":"649398","geo_is_family":0,"geo_is_friend":0,"geo_is_contact":0,"geo_is_public":1,"media":"photo","media_status":"ready"},{"id":"9328773963","owner":"25959337@N00","secret":"a1a02d0b46","server":"3765","farm":4,"title":"Vestrahorn","ispublic":1,"isfriend":0,"isfamily":0,"safe":1,"ownername":"Martin Ystenes - celebrating 5 million views","latitude":64.264652,"longitude":-14.997196,"accuracy":"16","context":0,"place_id":"L30o2XlTUb6ZXW0u","woeid":"2345690","geo_is_family":0,"geo_is_friend":0,"geo_is_contact":0,"geo_is_public":1,"media":"photo","media_status":"ready"},{"id":"8286835485","owner":"66792513@N07","secret":"7099c90e8e","server":"8197","farm":9,"title":"Aigina Island, Greece","ispublic":1,"isfriend":0,"isfamily":0,"safe":1,"ownername":"Ioannisdg","latitude":37.723082,"longitude":23.461594,"accuracy":"16","context":0,"place_id":"W_Py8lNTVr_nP5V4Mw","woeid":"24544175","geo_is_family":0,"geo_is_friend":0,"geo_is_contact":0,"geo_is_public":1,"media":"photo","media_status":"ready"},{"id":"7556931090","owner":"65166290@N00","secret":"22ff5020f4","server":"7140","farm":8,"title":"Howmore","ispublic":1,"isfriend":0,"isfamily":0,"safe":0,"ownername":"Hugh Spicer \/ UIsdean Spicer","latitude":57.299999,"longitude":-7.383329,"accuracy":"11","context":0,"place_id":"UD2CJnZTVrremg","woeid":"24058","geo_is_family":0,"geo_is_friend":0,"geo_is_contact":0,"geo_is_public":1,"media":"photo","media_status":"ready"},{"id":"4121371395","owner":"41374607@N02","secret":"245856e4d0","server":"2503","farm":3,"title":"O bosque mal assombrado","ispublic":1,"isfriend":0,"isfamily":0,"safe":1,"ownername":"Di\u00f3genes Ara\u00fajo","latitude":59.43647,"longitude":24.752599,"accuracy":"11","context":0,"place_id":"71PCSlJZVr86iLM","woeid":"845743","geo_is_family":0,"geo_is_friend":0,"geo_is_contact":0,"geo_is_public":1,"media":"photo","media_status":"ready"},{"id":"3004441132","owner":"28600449@N02","secret":"8298b0c9fc","server":"3161","farm":4,"title":"Isn't fog just beautiful?","ispublic":1,"isfriend":0,"isfamily":0,"safe":0,"ownername":"Mez\u0151, Korn\u00e9l (mostly away)","latitude":42.326443,"longitude":-71.532926,"accuracy":"13","context":0,"place_id":"YyQxNH5TVrPqBXcx","woeid":"2496965","geo_is_family":0,"geo_is_friend":0,"geo_is_contact":0,"geo_is_public":1,"media":"photo","media_status":"ready"},{"id":"2100781655","owner":"12275982@N06","secret":"363d595d8f","server":"2327","farm":3,"title":"1230 le havre Sunset for container vessel \u65e5\u843d \uc120\uc14b","ispublic":1,"isfriend":0,"isfamily":0,"safe":1,"ownername":"Rolye","latitude":49.486193,"longitude":0.101022,"accuracy":"13","context":0,"place_id":"62vbCnRXUrkSOzc","woeid":"603259","geo_is_family":0,"geo_is_friend":0,"geo_is_contact":0,"geo_is_public":1,"media":"photo","media_status":"ready"},{"id":"14239753774","owner":"56205589@N00","secret":"b5e9a85019","server":"5528","farm":6,"title":"[Exolore #136] BreakDance...  and WUUUUuuuuuusch!","ispublic":1,"isfriend":0,"isfamily":0,"safe":0,"ownername":"Froschk\u00f6nig Photos","latitude":51.339966,"longitude":12.342712,"accuracy":"15","context":0,"place_id":"UH8CL0dXVbu23sY","woeid":"671072","geo_is_family":0,"geo_is_friend":0,"geo_is_contact":0,"geo_is_public":1,"media":"photo","media_status":"ready"},{"id":"14258311273","owner":"56310743@N08","secret":"71ec2b8f85","server":"5542","farm":6,"title":"Aldham at Twilight","ispublic":1,"isfriend":0,"isfamily":0,"safe":0,"ownername":"dogmarten28","latitude":52.060815,"longitude":0.975036,"accuracy":"15","context":0,"place_id":"pKTVDohQULywn.SKPg","woeid":"12696080","geo_is_family":0,"geo_is_friend":0,"geo_is_contact":0,"geo_is_public":1,"media":"photo","media_status":"ready"},{"id":"14050342567","owner":"24853959@N05","secret":"2aaa4c6aa7","server":"5153","farm":6,"title":"Il y a 1 an... Sarajevo","ispublic":1,"isfriend":0,"isfamily":0,"safe":0,"ownername":"Musard Futile","latitude":43.858296,"longitude":18.436059,"accuracy":"14","context":0,"place_id":"7VOB1UVUV7LCYWHkXw","woeid":"55869076","geo_is_family":0,"geo_is_friend":0,"geo_is_contact":0,"geo_is_public":1,"media":"photo","media_status":"ready"},{"id":"14050313650","owner":"22381287@N06","secret":"3a90081e7b","server":"2934","farm":3,"title":"Camomilla - explore","ispublic":1,"isfriend":0,"isfamily":0,"safe":0,"ownername":"Paolo Perco","latitude":45.935475,"longitude":13.572385,"accuracy":"16","context":0,"place_id":"0eaqnjZWU72Lvz8","woeid":"717472","geo_is_family":0,"geo_is_friend":0,"geo_is_contact":0,"geo_is_public":1,"media":"photo","media_status":"ready"},{"id":"14232482151","owner":"91794896@N00","secret":"15b011644f","server":"2895","farm":3,"title":"Sch\u00f6nbrunn Palace \/ Explore # 387 \/ 20.05.2014","ispublic":1,"isfriend":0,"isfamily":0,"safe":0,"ownername":"Gerhard Singer","latitude":48.197675,"longitude":16.371688,"accuracy":"11","context":0,"place_id":"vyIUe41UV7uao.Y","woeid":"551801","geo_is_family":0,"geo_is_friend":0,"geo_is_contact":0,"geo_is_public":1,"media":"photo","media_status":"ready"},{"id":"14228828851","owner":"56996889@N04","secret":"fbbdf03481","server":"5481","farm":6,"title":"Summer Steps in the cold of London","ispublic":1,"isfriend":0,"isfamily":0,"safe":0,"ownername":"GDJVJ","latitude":51.584688,"longitude":-0.020949,"accuracy":"16","context":0,"place_id":"ssuiRrZSW7rw4w","woeid":"39076","geo_is_family":0,"geo_is_friend":0,"geo_is_contact":0,"geo_is_public":1,"media":"photo","media_status":"ready"},{"id":"14045294470","owner":"46209713@N00","secret":"753ac3c363","server":"2935","farm":3,"title":"Dubious","ispublic":1,"isfriend":0,"isfamily":0,"safe":0,"ownername":"Ralph Friedman","latitude":48.204126,"longitude":16.370508,"accuracy":"16","context":0,"place_id":"G7TwxipUV7uNr80","woeid":"551759","geo_is_family":0,"geo_is_friend":0,"geo_is_contact":0,"geo_is_public":1,"media":"photo","media_status":"ready"},{"id":"14228947912","owner":"76458369@N07","secret":"a597c12035","server":"5313","farm":6,"title":"Beauty and the mist.","ispublic":1,"isfriend":0,"isfamily":0,"safe":1,"ownername":"Eric Goncalves","latitude":51.785842,"longitude":-2.497329,"accuracy":"13","context":0,"place_id":"Tcv12YtQULOIpg","woeid":"12982","geo_is_family":0,"geo_is_friend":0,"geo_is_contact":0,"geo_is_public":1,"media":"photo","media_status":"ready"},{"id":"14250244243","owner":"90189924@N08","secret":"9ec9cfac42","server":"5200","farm":6,"title":"Insect and Flower","ispublic":1,"isfriend":0,"isfamily":0,"safe":0,"ownername":"Guilherme GMP","latitude":-25.442595,"longitude":-49.237831,"accuracy":"16","context":0,"place_id":"3ACEZmtUV7OiNAH0Xg","woeid":"55944412","geo_is_family":0,"geo_is_friend":0,"geo_is_contact":0,"geo_is_public":1,"media":"photo","media_status":"ready"},{"id":"14229460735","owner":"57866871@N03","secret":"7067f84f1c","server":"5275","farm":6,"title":"Fern family","ispublic":1,"isfriend":0,"isfamily":0,"safe":0,"ownername":"snowyturner","latitude":50.415505,"longitude":-4.084579,"accuracy":"13","context":0,"place_id":"e9UmEEFQW7nxtQ","woeid":"19395","geo_is_family":0,"geo_is_friend":0,"geo_is_contact":0,"geo_is_public":1,"media":"photo","media_status":"ready"},{"id":"13992276986","owner":"53662163@N06","secret":"ca4213f3ff","server":"7221","farm":8,"title":"reflections in the evening","ispublic":1,"isfriend":0,"isfamily":0,"safe":0,"ownername":"Georgie Pauwels","latitude":51.451801,"longitude":7.01062,"accuracy":"11","context":0,"place_id":"UZIHF3RXVrIRFRQ","woeid":"648820","geo_is_family":0,"geo_is_friend":0,"geo_is_contact":0,"geo_is_public":1,"media":"photo","media_status":"ready"},{"id":"14015341265","owner":"56298149@N07","secret":"c41c0b71f4","server":"5215","farm":6,"title":"Renaissance","ispublic":1,"isfriend":0,"isfamily":0,"safe":0,"ownername":"Emmanuel Lem\u00e9e | Photographie","latitude":47.989864,"longitude":-3.335123,"accuracy":"13","context":0,"place_id":"d.7A7p5UW7yPevA","woeid":"596134","geo_is_family":0,"geo_is_friend":0,"geo_is_contact":0,"geo_is_public":1,"media":"photo","media_status":"ready"},{"id":"14010476772","owner":"16987948@N08","secret":"56673b7d1d","server":"5146","farm":6,"title":"Flower Girl","ispublic":1,"isfriend":0,"isfamily":0,"safe":0,"ownername":"Kals Pics","latitude":25.307407,"longitude":83.004798,"accuracy":"11","context":0,"place_id":"nEX_M9FTULMmohZs","woeid":"2295380","geo_is_family":0,"geo_is_friend":0,"geo_is_contact":0,"geo_is_public":1,"media":"photo","media_status":"ready"},{"id":"14032409443","owner":"31052408@N04","secret":"654926b004","server":"5279","farm":6,"title":"The guide","ispublic":1,"isfriend":0,"isfamily":0,"safe":0,"ownername":"Perez Alonso Photography","latitude":43.406294,"longitude":-2.970428,"accuracy":"11","context":0,"place_id":"C4IcSOJTUrhqhqeiqg","woeid":"20220803","geo_is_family":0,"geo_is_friend":0,"geo_is_contact":0,"geo_is_public":1,"media":"photo","media_status":"ready"},{"id":"14009058032","owner":"8070463@N03","secret":"92285e7239","server":"7274","farm":8,"title":"Profile of a bee eater","ispublic":1,"isfriend":0,"isfamily":0,"safe":0,"ownername":"Tambako the Jaguar","latitude":47.547277,"longitude":7.578163,"accuracy":"14","context":0,"place_id":"Cp3nkIJWWr5tTLM","woeid":"784257","geo_is_family":0,"geo_is_friend":0,"geo_is_contact":0,"geo_is_public":1,"media":"photo","media_status":"ready"},{"id":"14029455383","owner":"38337348@N06","secret":"5ccf232b7c","server":"2917","farm":3,"title":"Industrial details","ispublic":1,"isfriend":0,"isfamily":0,"safe":0,"ownername":"Passie13(Ines van Megen-Thijssen)","latitude":51.967049,"longitude":4.0979,"accuracy":"15","context":0,"place_id":"Fh70gKNWULOAb5Q","woeid":"729195","geo_is_family":0,"geo_is_friend":0,"geo_is_contact":0,"geo_is_public":1,"media":"photo","media_status":"ready"},{"id":"14026920833","owner":"73414467@N02","secret":"f25cc40d2d","server":"7142","farm":8,"title":"A pleno sol","ispublic":1,"isfriend":0,"isfamily":0,"safe":0,"ownername":"Jos\u00e9 Luis Vega","latitude":40.402933,"longitude":-3.770542,"accuracy":"16","context":0,"place_id":"u2JCGChTUriEZ6WcWQ","woeid":"20219929","geo_is_family":0,"geo_is_friend":0,"geo_is_contact":0,"geo_is_public":1,"media":"photo","media_status":"ready"},{"id":"14006034785","owner":"78942874@N06","secret":"c66121057d","server":"7151","farm":8,"title":"Very Vernazza","ispublic":1,"isfriend":0,"isfamily":0,"safe":0,"ownername":"Saffron Blaze","latitude":44.135658,"longitude":9.684869,"accuracy":"11","context":0,"place_id":"CeX_wMxWUL_Av2w","woeid":"725783","geo_is_family":0,"geo_is_friend":0,"geo_is_contact":0,"geo_is_public":1,"media":"photo","media_status":"ready"},{"id":"14005695095","owner":"49858586@N07","secret":"7e547f5980","server":"7266","farm":8,"title":"Rajuri.  Pushkar","ispublic":1,"isfriend":0,"isfamily":0,"safe":0,"ownername":"Claire Pismont","latitude":26.479349,"longitude":74.562866,"accuracy":"11","context":0,"place_id":"M2j__qJTULJ1VaVH","woeid":"2284692","geo_is_family":0,"geo_is_friend":0,"geo_is_contact":0,"geo_is_public":1,"media":"photo","media_status":"ready"},{"id":"13982008726","owner":"38337348@N06","secret":"91f4ecd456","server":"7207","farm":8,"title":"Dynamics on all elements","ispublic":1,"isfriend":0,"isfamily":0,"safe":0,"ownername":"Passie13(Ines van Megen-Thijssen)","latitude":51.9781,"longitude":4.076228,"accuracy":"15","context":0,"place_id":"LtaqaHpWUbo77K8","woeid":"730165","geo_is_family":0,"geo_is_friend":0,"geo_is_contact":0,"geo_is_public":1,"media":"photo","media_status":"ready"},{"id":"14024311553","owner":"42645785@N04","secret":"541b8b5240","server":"5536","farm":6,"title":"Morgen im Staffelseemoor","ispublic":1,"isfriend":0,"isfamily":0,"safe":0,"ownername":"dorena-wm","latitude":47.707492,"longitude":11.153929,"accuracy":"15","context":0,"place_id":"Vki1sJxWUrp5fBY","woeid":"700443","geo_is_family":0,"geo_is_friend":0,"geo_is_contact":0,"geo_is_public":1,"media":"photo","media_status":"ready"},{"id":"14004360494","owner":"90378082@N07","secret":"4850bbc366","server":"2912","farm":3,"title":"Holiday snap","ispublic":1,"isfriend":0,"isfamily":0,"safe":0,"ownername":"Baz 120","latitude":41.910677,"longitude":12.47549,"accuracy":"15","context":0,"place_id":"62ufGyBUUb26u2g","woeid":"537842","geo_is_family":0,"geo_is_friend":0,"geo_is_contact":0,"geo_is_public":1,"media":"photo","media_status":"ready"},{"id":"14020868993","owner":"87317128@N08","secret":"5c25082b45","server":"5215","farm":6,"title":"Around Amberley","ispublic":1,"isfriend":0,"isfamily":0,"safe":0,"ownername":"Pu\u00e9rtolas","latitude":50.895129,"longitude":-0.530261,"accuracy":"12","context":0,"place_id":"6CsEXRZQU7pGUg","woeid":"11086","geo_is_family":0,"geo_is_friend":0,"geo_is_contact":0,"geo_is_public":1,"media":"photo","media_status":"ready"},{"id":"13999186894","owner":"25122972@N04","secret":"5a7de6438c","server":"5145","farm":6,"title":"Bluebell Glade","ispublic":1,"isfriend":0,"isfamily":0,"safe":0,"ownername":"jactoll","latitude":52.187089,"longitude":-1.883984,"accuracy":"14","context":0,"place_id":"U1WW_6tQU7rxiw","woeid":"11077","geo_is_family":0,"geo_is_friend":0,"geo_is_contact":0,"geo_is_public":1,"media":"photo","media_status":"ready"},{"id":"13974310516","owner":"27964309@N06","secret":"194d12e290","server":"7021","farm":8,"title":"An ice-cold Golgotha","ispublic":1,"isfriend":0,"isfamily":0,"safe":0,"ownername":"vittorio vida","latitude":46.006143,"longitude":7.716522,"accuracy":"13","context":0,"place_id":"fzcftaRTUrstrVCQcA","woeid":"20104896","geo_is_family":0,"geo_is_friend":0,"geo_is_contact":0,"geo_is_public":1,"media":"photo","media_status":"ready"},{"id":"13974249676","owner":"46930004@N08","secret":"5cce561e16","server":"5021","farm":6,"title":"Sonniges Dresden","ispublic":1,"isfriend":0,"isfamily":0,"safe":0,"ownername":"fresch-energy","latitude":51.051805,"longitude":13.73953,"accuracy":"16","context":0,"place_id":"dmWCl_9XUb6jbKI","woeid":"634861","geo_is_family":0,"geo_is_friend":0,"geo_is_contact":0,"geo_is_public":1,"media":"photo","media_status":"ready"},{"id":"13997221974","owner":"42574877@N06","secret":"17a5536bce","server":"5330","farm":6,"title":"London in red,blue and more...","ispublic":1,"isfriend":0,"isfamily":0,"safe":0,"ownername":"Olympe B.","latitude":51.508802,"longitude":-0.137998,"accuracy":"16","context":0,"place_id":"CQ9kd11TUrqtHSw5Sw","woeid":"20094342","geo_is_family":0,"geo_is_friend":0,"geo_is_contact":0,"geo_is_public":1,"media":"photo","media_status":"ready"},{"id":"13995833173","owner":"15200836@N02","secret":"9d99ce38ec","server":"7460","farm":8,"title":"MENORCA : PARAISO DE AGUAS TRANSPARENTES","ispublic":1,"isfriend":0,"isfamily":0,"safe":0,"ownername":"marthinotf","latitude":39.81325,"longitude":4.28132,"accuracy":"14","context":0,"place_id":"Pd6Y5ldWVbvomUI","woeid":"771058","geo_is_family":0,"geo_is_friend":0,"geo_is_contact":0,"geo_is_public":1,"media":"photo","media_status":"ready"},{"id":"13951789786","owner":"50419751@N06","secret":"cc14519cb2","server":"5470","farm":6,"title":"wind in Vale's hair","ispublic":1,"isfriend":0,"isfamily":0,"safe":0,"ownername":"RedBlond","latitude":40.467239,"longitude":16.936939,"accuracy":"11","context":0,"place_id":"0UCfavZWU737xfw","woeid":"717904","geo_is_family":0,"geo_is_friend":0,"geo_is_contact":0,"geo_is_public":1,"media":"photo","media_status":"ready"},{"id":"13891453251","owner":"70139913@N02","secret":"2a4ea2f808","server":"3824","farm":4,"title":"Gro\u00dfe Schwebfliege - Hoverfly","ispublic":1,"isfriend":0,"isfamily":0,"safe":0,"ownername":"MaiGoede","latitude":53.59597,"longitude":8.352452,"accuracy":"16","context":0,"place_id":"KpHKFSlXVrPMThQ","woeid":"649398","geo_is_family":0,"geo_is_friend":0,"geo_is_contact":0,"geo_is_public":1,"media":"photo","media_status":"ready"},{"id":"13908767865","owner":"34374692@N06","secret":"c640f31f7b","server":"7348","farm":8,"title":"Shooting","ispublic":1,"isfriend":0,"isfamily":0,"safe":0,"ownername":"www.darnoc.fr","latitude":44.148572,"longitude":12.46183,"accuracy":"16","context":0,"place_id":"OiAc3.xWU7qj1c0","woeid":"710837","geo_is_family":0,"geo_is_friend":0,"geo_is_contact":0,"geo_is_public":1,"media":"photo","media_status":"ready"},{"id":"13805772454","owner":"32438882@N07","secret":"01b37ccc78","server":"7198","farm":8,"title":"Lamium maculatum por TeresalaLoba","ispublic":1,"isfriend":0,"isfamily":0,"safe":0,"ownername":"TeresalaLoba","latitude":42.106286,"longitude":-8.754264,"accuracy":"16","context":0,"place_id":"7wl6b9tWVLsWOv0","woeid":"761676","geo_is_family":0,"geo_is_friend":0,"geo_is_contact":0,"geo_is_public":1,"media":"photo","media_status":"ready"},{"id":"9604282572","owner":"49746210@N07","secret":"a024557c42","server":"7370","farm":8,"title":"Dancing on Kjeragbolten","ispublic":1,"isfriend":0,"isfamily":0,"safe":1,"ownername":"Normann Photography","latitude":59.033372,"longitude":6.593522,"accuracy":"16","context":0,"place_id":"RziZl5hZVLtEQ2Y","woeid":"861595","geo_is_family":0,"geo_is_friend":0,"geo_is_contact":0,"geo_is_public":1,"media":"photo","media_status":"ready"},{"id":"9573250582","owner":"25959337@N00","secret":"776a200625","server":"3745","farm":4,"title":"Store Standal sett fra Tungremstindane","ispublic":1,"isfriend":0,"isfamily":0,"safe":1,"ownername":"Martin Ystenes - celebrating 5 million views","latitude":62.304126,"longitude":6.486396,"accuracy":"13","context":0,"place_id":"0ClrhBxZVL7tnio","woeid":"864507","geo_is_family":0,"geo_is_friend":0,"geo_is_contact":0,"geo_is_public":1,"media":"photo","media_status":"ready"},{"id":"5028827102","owner":"41924773@N03","secret":"95a57d393c","server":"4148","farm":5,"title":"Traffic Chaos Under A Bridge :: DRI","ispublic":1,"isfriend":0,"isfamily":0,"safe":0,"ownername":"servalpe","latitude":40.434166,"longitude":-3.733889,"accuracy":"16","context":0,"place_id":"m9Luef9TUrhEDtes3A","woeid":"20219878","geo_is_family":0,"geo_is_friend":0,"geo_is_contact":0,"geo_is_public":1,"media":"photo","media_status":"ready"},{"id":"14235751924","owner":"8868875@N03","secret":"f0083ca011","server":"5577","farm":6,"title":"short break","ispublic":1,"isfriend":0,"isfamily":0,"safe":0,"ownername":"gato-gato-gato","latitude":45.465422,"longitude":9.185922,"accuracy":"16","context":0,"place_id":"49Gidk1WU7JxrFY","woeid":"718345","geo_is_family":0,"geo_is_friend":0,"geo_is_contact":0,"geo_is_public":1,"media":"photo","media_status":"ready"}]},"stat":"ok"}