{"photos":{"page":5, "pages":24253, "perpage":60, "total":"1455177", "photo":[{"id":"5844735224", "owner":"10326907@N00", "secret":"cbf6e09a19", "server":"2689", "farm":3, "title":"Plage priv\u00e9e, mer de Lybie [Explore 202 du 18\/6\/2011]", "ispublic":1, "isfriend":0, "isfamily":0, "safe":1, "ownername":"Vins 64", "latitude":35.202568, "longitude":24.123487, "accuracy":"13", "context":0, "place_id":"Kg9vnjJYVLwfTNA", "woeid":"966190", "geo_is_family":0, "geo_is_friend":0, "geo_is_contact":0, "geo_is_public":1, "media":"photo", "media_status":"ready"}, {"id":"5597393486", "owner":"26849514@N06", "secret":"d9e9de396a", "server":"5307", "farm":6, "title":"Pamukkale at sunset", "ispublic":1, "isfriend":0, "isfamily":0, "safe":1, "ownername":"Frans.Sellies", "latitude":37.920918, "longitude":29.124767, "accuracy":"16", "context":0, "place_id":"7QNlepJTUb7zg1UV", "woeid":"2347277", "geo_is_family":0, "geo_is_friend":0, "geo_is_contact":0, "geo_is_public":1, "media":"photo", "media_status":"ready"}, {"id":"5236102913", "owner":"25959337@N00", "secret":"b1e1e105b5", "server":"5246", "farm":6, "title":"A very cold Saturday morning in Hell, Norway", "ispublic":1, "isfriend":0, "isfamily":0, "safe":0, "ownername":"Martin Ystenes", "latitude":63.468457, "longitude":10.908393, "accuracy":"12", "context":0, "place_id":"dvJ.K0lTULwxE.6WHw", "woeid":"22658524", "geo_is_family":0, "geo_is_friend":0, "geo_is_contact":0, "geo_is_public":1, "media":"photo", "media_status":"ready"}, {"id":"5123405634", "owner":"46226755@N04", "secret":"d9ec550582", "server":"4088", "farm":5, "title":"The dream begins with a teacher who believes in you, who tugs and pushes and leads you to the next plateau, sometimes poking you with a sharp stick called \"truth\".", "ispublic":1, "isfriend":0, "isfamily":0, "safe":1, "ownername":"** Nico **", "latitude":41.902548, "longitude":12.457938, "accuracy":"14", "context":0, "place_id":"62ufGyBUUb26u2g", "woeid":"537842", "geo_is_family":0, "geo_is_friend":0, "geo_is_contact":0, "geo_is_public":1, "media":"photo", "media_status":"ready"}, {"id":"5042177010", "owner":"25959337@N00", "secret":"44ef2ca5ac", "server":"4086", "farm":5, "title":"Vassetra og Sandvikshornet, Sykkylven", "ispublic":1, "isfriend":0, "isfamily":0, "safe":0, "ownername":"Martin Ystenes", "latitude":62.422731, "longitude":6.615486, "accuracy":"11", "context":0, "place_id":"QNHb8wVZVL7wGOo", "woeid":"864838", "geo_is_family":0, "geo_is_friend":0, "geo_is_contact":0, "geo_is_public":1, "media":"photo", "media_status":"ready"}, {"id":"4837717030", "owner":"25959337@N00", "secret":"662ceb88c2", "server":"4125", "farm":5, "title":"A photographer's nightmare?", "ispublic":1, "isfriend":0, "isfamily":0, "safe":0, "ownername":"Martin Ystenes", "latitude":64.048171, "longitude":-16.177368, "accuracy":"9", "context":0, "place_id":"L30o2XlTUb6ZXW0u", "woeid":"2345690", "geo_is_family":0, "geo_is_friend":0, "geo_is_contact":0, "geo_is_public":1, "media":"photo", "media_status":"ready"}, {"id":"4777859479", "owner":"25959337@N00", "secret":"849ce7522d", "server":"4122", "farm":5, "title":"Blue ice on Fjallsarlon, Iceland", "ispublic":1, "isfriend":0, "isfamily":0, "safe":0, "ownername":"Martin Ystenes", "latitude":64.046969, "longitude":-16.188354, "accuracy":"9", "context":0, "place_id":"L30o2XlTUb6ZXW0u", "woeid":"2345690", "geo_is_family":0, "geo_is_friend":0, "geo_is_contact":0, "geo_is_public":1, "media":"photo", "media_status":"ready"}, {"id":"4772360801", "owner":"25959337@N00", "secret":"eb6d7cf0cb", "server":"4140", "farm":5, "title":"Bright ice, blue ice", "ispublic":1, "isfriend":0, "isfamily":0, "safe":0, "ownername":"Martin Ystenes", "latitude":64.046368, "longitude":-16.188354, "accuracy":"9", "context":0, "place_id":"L30o2XlTUb6ZXW0u", "woeid":"2345690", "geo_is_family":0, "geo_is_friend":0, "geo_is_contact":0, "geo_is_public":1, "media":"photo", "media_status":"ready"}, {"id":"4247777007", "owner":"32489584@N05", "secret":"5375f21f5d", "server":"2776", "farm":3, "title":"Manhattan Bridge thomaspyttel.com", "ispublic":1, "isfriend":0, "isfamily":0, "safe":0, "ownername":"thomaspyttel.com", "latitude":40.704798, "longitude":-73.990473, "accuracy":"14", "context":0, "place_id":"mc9Z.Q1TWr3DPVhZ5g", "woeid":"28751217", "geo_is_family":0, "geo_is_friend":0, "geo_is_contact":0, "geo_is_public":1, "media":"photo", "media_status":"ready"}, {"id":"4229807004", "owner":"25959337@N00", "secret":"b69f85db11", "server":"4005", "farm":5, "title":"Sykkylven, quay, snow, pink light", "ispublic":1, "isfriend":0, "isfamily":0, "safe":0, "ownername":"Martin Ystenes", "latitude":62.408055, "longitude":6.553044, "accuracy":"14", "context":0, "place_id":"QNHb8wVZVL7wGOo", "woeid":"864838", "geo_is_family":0, "geo_is_friend":0, "geo_is_contact":0, "geo_is_public":1, "media":"photo", "media_status":"ready"}, {"id":"4060252487", "owner":"32489584@N05", "secret":"da8c9e65c5", "server":"2587", "farm":3, "title":"Brooklyn Bridge thomaspyttel.com", "ispublic":1, "isfriend":0, "isfamily":0, "safe":1, "ownername":"thomaspyttel.com", "latitude":40.705725, "longitude":-73.996438, "accuracy":"13", "context":0, "place_id":"pUfLvixTWr2dFTQFfg", "woeid":"28751260", "geo_is_family":0, "geo_is_friend":0, "geo_is_contact":0, "geo_is_public":1, "media":"photo", "media_status":"ready"}, {"id":"3821146163", "owner":"25959337@N00", "secret":"4caf454339", "server":"3464", "farm":4, "title":"Traktoregg - \"Tractor eggs\"", "ispublic":1, "isfriend":0, "isfamily":0, "safe":0, "ownername":"Martin Ystenes", "latitude":62.97625, "longitude":8.762369, "accuracy":"13", "context":0, "place_id":"4ULSdGpQV7qzHTMJKg", "woeid":"15000792", "geo_is_family":0, "geo_is_friend":0, "geo_is_contact":0, "geo_is_public":1, "media":"photo", "media_status":"ready"}, {"id":"3491306811", "owner":"25959337@N00", "secret":"214eab439f", "server":"3270", "farm":4, "title":"Reflections", "ispublic":1, "isfriend":0, "isfamily":0, "safe":0, "ownername":"Martin Ystenes", "latitude":63.390579, "longitude":10.486364, "accuracy":"13", "context":0, "place_id":"4ENgaYRZVL.NwR4", "woeid":"865157", "geo_is_family":0, "geo_is_friend":0, "geo_is_contact":0, "geo_is_public":1, "media":"photo", "media_status":"ready"}, {"id":"3282032842", "owner":"25959337@N00", "secret":"c940576b0f", "server":"3193", "farm":4, "title":"The old one out", "ispublic":1, "isfriend":0, "isfamily":0, "safe":0, "ownername":"Martin Ystenes", "latitude":63.434046, "longitude":10.404739, "accuracy":"12", "context":0, "place_id":"v9uhdiBTUruxMSemkQ", "woeid":"20100274", "geo_is_family":0, "geo_is_friend":0, "geo_is_contact":0, "geo_is_public":1, "media":"photo", "media_status":"ready"}, {"id":"3149257668", "owner":"25959337@N00", "secret":"e7c11c2689", "server":"3203", "farm":4, "title":"Husavik, Iceland", "ispublic":1, "isfriend":0, "isfamily":0, "safe":0, "ownername":"Martin Ystenes", "latitude":66.112731, "longitude":-17.262268, "accuracy":"8", "context":0, "place_id":"ZtQTQ_hTUb6uqVhu", "woeid":"2345705", "geo_is_family":0, "geo_is_friend":0, "geo_is_contact":0, "geo_is_public":1, "media":"photo", "media_status":"ready"}, {"id":"3071904643", "owner":"32489584@N05", "secret":"145929a802", "server":"3209", "farm":4, "title":"Namib thomaspyttel.com", "ispublic":1, "isfriend":0, "isfamily":0, "safe":0, "ownername":"thomaspyttel.com", "latitude":-24.144247, "longitude":15.128173, "accuracy":"7", "context":0, "place_id":"wLNDBzpTUrp2iqQa8w", "woeid":"20069844", "geo_is_family":0, "geo_is_friend":0, "geo_is_contact":0, "geo_is_public":1, "media":"photo", "media_status":"ready"}, {"id":"2958623642", "owner":"29958169@N03", "secret":"1cc12456db", "server":"3247", "farm":4, "title":"Venice (Thanks x 1500 comments)", "ispublic":1, "isfriend":0, "isfamily":0, "safe":1, "ownername":"Carmelo61 PhotoPassion Thanks", "latitude":45.437791, "longitude":12.319579, "accuracy":"14", "context":0, "place_id":"4PC5YP1TUrvqSOUpsQ", "woeid":"20150613", "geo_is_family":0, "geo_is_friend":0, "geo_is_contact":0, "geo_is_public":1, "media":"photo", "media_status":"ready"}, {"id":"1217207689", "owner":"97042891@N00", "secret":"1d2aa23a1e", "server":"1271", "farm":2, "title":"Praia Vermelha - Urca - Rio de Janeiro - Brasil", "ispublic":1, "isfriend":0, "isfamily":0, "safe":0, "ownername":"\u02d9 \u266a Claudio Lara \u2714", "latitude":-22.954125, "longitude":-43.164596, "accuracy":"12", "context":0, "place_id":".aq0U89VUbK6fW4", "woeid":"438473", "geo_is_family":0, "geo_is_friend":0, "geo_is_contact":0, "geo_is_public":1, "media":"photo", "media_status":"ready"}, {"id":"13008556073", "owner":"21775664@N07", "secret":"9cbf6564d4", "server":"7385", "farm":8, "title":"Roca London Gallery Interior", "ispublic":1, "isfriend":0, "isfamily":0, "safe":1, "ownername":"david gutierrez [ www.davidgutierrez.co.uk ]", "latitude":51.475116, "longitude":-0.18148, "accuracy":"13", "context":0, "place_id":"QjhNbcBTUrrAlDf3mA", "woeid":"20094308", "geo_is_family":0, "geo_is_friend":0, "geo_is_contact":0, "geo_is_public":1, "media":"photo", "media_status":"ready"}, {"id":"12863688035", "owner":"94015342@N04", "secret":"3e62647f15", "server":"7367", "farm":8, "title":"Beam Me Up", "ispublic":1, "isfriend":0, "isfamily":0, "safe":0, "ownername":"Adrian Kingsley-Hughes", "latitude":53.352498, "longitude":-4.256182, "accuracy":"16", "context":0, "place_id":"UfWnkGJTW7vp4Q", "woeid":"29167", "geo_is_family":0, "geo_is_friend":0, "geo_is_contact":0, "geo_is_public":1, "media":"photo", "media_status":"ready"}, {"id":"12850898763", "owner":"48988488@N04", "secret":"e8d5da814e", "server":"2888", "farm":3, "title":"blue sugar", "ispublic":1, "isfriend":0, "isfamily":0, "safe":1, "ownername":"claudius1954", "latitude":46.105761, "longitude":10.016312, "accuracy":"15", "context":0, "place_id":"CtN_YvRWU7rTap4", "woeid":"710308", "geo_is_family":0, "geo_is_friend":0, "geo_is_contact":0, "geo_is_public":1, "media":"photo", "media_status":"ready"}, {"id":"12842721055", "owner":"21775664@N07", "secret":"da44534fe1", "server":"7449", "farm":8, "title":"London Art Gallery Interior", "ispublic":1, "isfriend":0, "isfamily":0, "safe":1, "ownername":"david gutierrez [ www.davidgutierrez.co.uk ]", "latitude":51.510772, "longitude":-0.113801, "accuracy":"13", "context":0, "place_id":"jy4nJpJTUrqO2uKrkQ", "woeid":"20094354", "geo_is_family":0, "geo_is_friend":0, "geo_is_contact":0, "geo_is_public":1, "media":"photo", "media_status":"ready"}, {"id":"12833164825", "owner":"89854811@N03", "secret":"fe501c0989", "server":"7442", "farm":8, "title":"The time has come to say goodbye [Explored, 2014-02-28]", "ispublic":1, "isfriend":0, "isfamily":0, "safe":0, "ownername":"Photo by M | L - www.ml-foto.se", "latitude":59.379561, "longitude":13.41422, "accuracy":"13", "context":0, "place_id":"HPgz5V1YUrNBMX0", "woeid":"909880", "geo_is_family":0, "geo_is_friend":0, "geo_is_contact":0, "geo_is_public":1, "media":"photo", "media_status":"ready"}, {"id":"12828448795", "owner":"85150392@N05", "secret":"030490d468", "server":"2819", "farm":3, "title":"The confused old mountain man", "ispublic":1, "isfriend":0, "isfamily":0, "safe":1, "ownername":"Manuel.Martin_72", "latitude":46.949569, "longitude":9.749595, "accuracy":"16", "context":0, "place_id":"oJx.OydQULxlAGf7Zg", "woeid":"12682837", "geo_is_family":0, "geo_is_friend":0, "geo_is_contact":0, "geo_is_public":1, "media":"photo", "media_status":"ready"}, {"id":"12794750223", "owner":"29865930@N07", "secret":"0a62e2ef70", "server":"3688", "farm":4, "title":"to a better world", "ispublic":1, "isfriend":0, "isfamily":0, "safe":0, "ownername":"Zione's pictures...\u00a9", "latitude":41.898955, "longitude":12.493515, "accuracy":"11", "context":0, "place_id":"uijRnjBWULsQTwc", "woeid":"721943", "geo_is_family":0, "geo_is_friend":0, "geo_is_contact":0, "geo_is_public":1, "media":"photo", "media_status":"ready"}, {"id":"12766074933", "owner":"8904576@N03", "secret":"24e0540a68", "server":"7350", "farm":8, "title":"Spain - Tabernas (Sergio Leone's set)", "ispublic":1, "isfriend":0, "isfamily":0, "safe":1, "ownername":"gionni br@vo", "latitude":37.062642, "longitude":-2.370042, "accuracy":"13", "context":0, "place_id":"57qMHrBQULxJq11j7Q", "woeid":"12688710", "geo_is_family":0, "geo_is_friend":0, "geo_is_contact":0, "geo_is_public":1, "media":"photo", "media_status":"ready"}, {"id":"12739403345", "owner":"85150392@N05", "secret":"ef1a102f23", "server":"2832", "farm":3, "title":"The other side of the world", "ispublic":1, "isfriend":0, "isfamily":0, "safe":1, "ownername":"Manuel.Martin_72", "latitude":46.955385, "longitude":9.769731, "accuracy":"16", "context":0, "place_id":"oJx.OydQULxlAGf7Zg", "woeid":"12682837", "geo_is_family":0, "geo_is_friend":0, "geo_is_contact":0, "geo_is_public":1, "media":"photo", "media_status":"ready"}, {"id":"12724336995", "owner":"93269402@N08", "secret":"e9afa08b0f", "server":"3755", "farm":4, "title":"St\u00f8nnesbotn, Senja, Norway.", "ispublic":1, "isfriend":0, "isfamily":0, "safe":1, "ownername":"Bhalalhaika", "latitude":69.447732, "longitude":17.872352, "accuracy":"16", "context":0, "place_id":"w9UHQ.5ZV71gxrc", "woeid":"857438", "geo_is_family":0, "geo_is_friend":0, "geo_is_contact":0, "geo_is_public":1, "media":"photo", "media_status":"ready"}, {"id":"12694375053", "owner":"62691288@N00", "secret":"4dec64d488", "server":"7386", "farm":8, "title":"London Bridge Sunrise", "ispublic":1, "isfriend":0, "isfamily":0, "safe":1, "ownername":"Ray Wise", "latitude":51.508528, "longitude":-0.087386, "accuracy":"16", "context":0, "place_id":"X6buuH1VVrmrDw", "woeid":"44364", "geo_is_family":0, "geo_is_friend":0, "geo_is_contact":0, "geo_is_public":1, "media":"photo", "media_status":"ready"}, {"id":"12692008933", "owner":"66403925@N03", "secret":"a7d2b7493a", "server":"5491", "farm":6, "title":"\"Libelinha\", Sympetrum sanguineum, f\u00eamea, female - em Liberdade [wildLife]", "ispublic":1, "isfriend":0, "isfamily":0, "safe":1, "ownername":"ana & xavier", "latitude":40.059661, "longitude":-8.624119, "accuracy":"11", "context":0, "place_id":"YsnI3pVWVrN93_Q", "woeid":"749030", "geo_is_family":0, "geo_is_friend":0, "geo_is_contact":0, "geo_is_public":1, "media":"photo", "media_status":"ready"}, {"id":"12650378383", "owner":"23594595@N02", "secret":"5596b7eba1", "server":"3749", "farm":4, "title":"Dolomiti", "ispublic":1, "isfriend":0, "isfamily":0, "safe":1, "ownername":"(:Andrzej:)", "latitude":46.551155, "longitude":11.804752, "accuracy":"16", "context":0, "place_id":"FAor3ApQULw23aWkbA", "woeid":"12681147", "geo_is_family":0, "geo_is_friend":0, "geo_is_contact":0, "geo_is_public":1, "media":"photo", "media_status":"ready"}, {"id":"12639418835", "owner":"8904576@N03", "secret":"b001187964", "server":"2834", "farm":3, "title":"Spain - Ronda", "ispublic":1, "isfriend":0, "isfamily":0, "safe":1, "ownername":"gionni br@vo", "latitude":36.740809, "longitude":-5.165934, "accuracy":"15", "context":0, "place_id":"17_VhSNWVbht0b4", "woeid":"772179", "geo_is_family":0, "geo_is_friend":0, "geo_is_contact":0, "geo_is_public":1, "media":"photo", "media_status":"ready"}, {"id":"12571396115", "owner":"93269402@N08", "secret":"6ca3b1a6e2", "server":"3785", "farm":4, "title":"Ersfjord, Senja, Norway.", "ispublic":1, "isfriend":0, "isfamily":0, "safe":1, "ownername":"Bhalalhaika", "latitude":69.48947, "longitude":17.335267, "accuracy":"14", "context":0, "place_id":"w_vteXZZVLnNKfY", "woeid":"863708", "geo_is_family":0, "geo_is_friend":0, "geo_is_contact":0, "geo_is_public":1, "media":"photo", "media_status":"ready"}, {"id":"3652635319", "owner":"18556835@N05", "secret":"08068fd994", "server":"3369", "farm":4, "title":"in mezzo al mar", "ispublic":1, "isfriend":0, "isfamily":0, "safe":1, "ownername":"Fot\u00f2filo.Mimmo", "latitude":41.771855, "longitude":12.220873, "accuracy":"15", "context":0, "place_id":"_pzbGnlWU78Pf0o", "woeid":"715520", "geo_is_family":0, "geo_is_friend":0, "geo_is_contact":0, "geo_is_public":1, "media":"photo", "media_status":"ready"}, {"id":"13179136223", "owner":"94214577@N00", "secret":"78a00c021e", "server":"7129", "farm":8, "title":"", "ispublic":1, "isfriend":0, "isfamily":0, "safe":0, "ownername":"Barry Yanowitz", "latitude":40.707522, "longitude":-74.004141, "accuracy":"16", "context":0, "place_id":"jj.ryTRUV7NfTPRIXA", "woeid":"55992191", "geo_is_family":0, "geo_is_friend":0, "geo_is_contact":0, "geo_is_public":1, "media":"photo", "media_status":"ready"}, {"id":"13173306885", "owner":"72397655@N07", "secret":"dd98917f4f", "server":"7419", "farm":8, "title":"Il rentre chez lui, vers le brouillard ...", "ispublic":1, "isfriend":0, "isfamily":0, "safe":0, "ownername":"Lucien Vatynan", "latitude":49.318408, "longitude":-0.351905, "accuracy":"11", "context":0, "place_id":"zOMoHs9XUrJRj.U", "woeid":"608884", "geo_is_family":0, "geo_is_friend":0, "geo_is_contact":0, "geo_is_public":1, "media":"photo", "media_status":"ready"}, {"id":"13172830875", "owner":"38181284@N06", "secret":"7afff32531", "server":"2730", "farm":3, "title":"Former Glory", "ispublic":1, "isfriend":0, "isfamily":0, "safe":0, "ownername":"vulture labs", "latitude":50.828208, "longitude":-0.134489, "accuracy":"11", "context":0, "place_id":"cv1TwRlQUbMd6A", "woeid":"13911", "geo_is_family":0, "geo_is_friend":0, "geo_is_contact":0, "geo_is_public":1, "media":"photo", "media_status":"ready"}, {"id":"13171308824", "owner":"16854222@N05", "secret":"4d4002e491", "server":"7390", "farm":8, "title":"A Safe Place For The Night", "ispublic":1, "isfriend":0, "isfamily":0, "safe":1, "ownername":"AnyMotion", "latitude":-24.19037, "longitude":30.561518, "accuracy":"14", "context":0, "place_id":"cQIoWFBUV7NSkfdOMA", "woeid":"55921371", "geo_is_family":0, "geo_is_friend":0, "geo_is_contact":0, "geo_is_public":1, "media":"photo", "media_status":"ready"}, {"id":"13170606133", "owner":"21513809@N05", "secret":"0bcfa17324", "server":"2726", "farm":3, "title":"HAVING AN ETHEREAL MOMENT", "ispublic":1, "isfriend":0, "isfamily":0, "safe":0, "ownername":"craftedfromtheheart", "latitude":55.210418, "longitude":-6.583385, "accuracy":"13", "context":0, "place_id":"99NMT_xVV7poTA", "woeid":"45086", "geo_is_family":0, "geo_is_friend":0, "geo_is_contact":0, "geo_is_public":1, "media":"photo", "media_status":"ready"}, {"id":"13169986814", "owner":"21488930@N04", "secret":"961e779a56", "server":"7079", "farm":8, "title":"\u2600.............aspetteranno questi turisti ...these tourists will wait for my comfy ...1503", "ispublic":1, "isfriend":0, "isfamily":0, "safe":0, "ownername":"\u01bfier ...dried up", "latitude":45.472869, "longitude":10.851369, "accuracy":"11", "context":0, "place_id":"UTKd431WU7s7rbw", "woeid":"711572", "geo_is_family":0, "geo_is_friend":0, "geo_is_contact":0, "geo_is_public":1, "media":"photo", "media_status":"ready"}, {"id":"13169170325", "owner":"37578663@N02", "secret":"ffc55c71a1", "server":"3762", "farm":4, "title":"The Chimney Sweep House. Explored #120", "ispublic":1, "isfriend":0, "isfamily":0, "safe":0, "ownername":"elinor04", "latitude":47.492778, "longitude":19.066169, "accuracy":"16", "context":0, "place_id":"kCcW045ZU7mwJCU", "woeid":"813744", "geo_is_family":0, "geo_is_friend":0, "geo_is_contact":0, "geo_is_public":1, "media":"photo", "media_status":"ready"}, {"id":"13166680705", "owner":"33726922@N05", "secret":"5af37e6df3", "server":"7382", "farm":8, "title":"Red-tailed Hawk", "ispublic":1, "isfriend":0, "isfamily":0, "safe":0, "ownername":"Brian E Kushner", "latitude":39.282761, "longitude":-75.018175, "accuracy":"16", "context":0, "place_id":"k84SdKRTVrtR996F", "woeid":"2416210", "geo_is_family":0, "geo_is_friend":0, "geo_is_contact":0, "geo_is_public":1, "media":"photo", "media_status":"ready"}, {"id":"13165249865", "owner":"31804708@N02", "secret":"82d5196046", "server":"3732", "farm":4, "title":"Ciudad lluviosa - Rainy city", "ispublic":1, "isfriend":0, "isfamily":0, "safe":1, "ownername":"celta4", "latitude":-34.589525, "longitude":-58.423125, "accuracy":"15", "context":0, "place_id":"BkPyiYpSUbtortc", "woeid":"331580", "geo_is_family":0, "geo_is_friend":0, "geo_is_contact":0, "geo_is_public":1, "media":"photo", "media_status":"ready"}, {"id":"13162993225", "owner":"51051596@N06", "secret":"57e9163756", "server":"7370", "farm":8, "title":"_MG_3354 Pouting Spout", "ispublic":1, "isfriend":0, "isfamily":0, "safe":0, "ownername":"Alisonashton1", "latitude":53.16925, "longitude":-1.311012, "accuracy":"14", "context":0, "place_id":"rOfvrDZSVb.95g", "woeid":"37548", "geo_is_family":0, "geo_is_friend":0, "geo_is_contact":0, "geo_is_public":1, "media":"photo", "media_status":"ready"}, {"id":"13163246664", "owner":"48988488@N04", "secret":"0f66606b2f", "server":"2513", "farm":3, "title":"due rami (molti i rametti)", "ispublic":1, "isfriend":0, "isfamily":0, "safe":0, "ownername":"claudius1954", "latitude":46.057538, "longitude":9.230575, "accuracy":"15", "context":0, "place_id":"S_GnQfVTUrvPnJt4og", "woeid":"20112890", "geo_is_family":0, "geo_is_friend":0, "geo_is_contact":0, "geo_is_public":1, "media":"photo", "media_status":"ready"}, {"id":"13163026904", "owner":"51358421@N07", "secret":"5acfc01bdf", "server":"2106", "farm":3, "title":"55 Woodside Wildlife and Falconry Park EXPLORE", "ispublic":1, "isfriend":0, "isfamily":0, "safe":1, "ownername":"Jan McGeachie - East Yorks", "latitude":53.268549, "longitude":-0.376796, "accuracy":"13", "context":0, "place_id":"aQL.6B1SUrpqZw", "woeid":"30010", "geo_is_family":0, "geo_is_friend":0, "geo_is_contact":0, "geo_is_public":1, "media":"photo", "media_status":"ready"}, {"id":"13162126913", "owner":"22461382@N00", "secret":"d94cf2dd3f", "server":"7341", "farm":8, "title":"topsy curvy | fredvang, norway", "ispublic":1, "isfriend":0, "isfamily":0, "safe":0, "ownername":"elmofoto", "latitude":68.074552, "longitude":13.201552, "accuracy":"16", "context":0, "place_id":"YhLe4NVZV7LfxXg", "woeid":"858718", "geo_is_family":0, "geo_is_friend":0, "geo_is_contact":0, "geo_is_public":1, "media":"photo", "media_status":"ready"}, {"id":"13155599093", "owner":"60027857@N00", "secret":"04cc60e052", "server":"2100", "farm":3, "title":"", "ispublic":1, "isfriend":0, "isfamily":0, "safe":0, "ownername":"Sameli", "latitude":60.240258, "longitude":24.786701, "accuracy":"14", "context":0, "place_id":"Zho.KvZTV7MRkdEFow", "woeid":"25944935", "geo_is_family":0, "geo_is_friend":0, "geo_is_contact":0, "geo_is_public":1, "media":"photo", "media_status":"ready"}, {"id":"13153720115", "owner":"7159073@N04", "secret":"3447b68f20", "server":"2688", "farm":3, "title":"Tower Bridge, Morning Fog", "ispublic":1, "isfriend":0, "isfamily":0, "safe":0, "ownername":"{Laura McGregor}", "latitude":51.505563, "longitude":-0.080122, "accuracy":"15", "context":0, "place_id":"v70Y8qlTUrrLiiTZAg", "woeid":"20094363", "geo_is_family":0, "geo_is_friend":0, "geo_is_contact":0, "geo_is_public":1, "media":"photo", "media_status":"ready"}, {"id":"13153612775", "owner":"81035653@N00", "secret":"c57d947717", "server":"2614", "farm":3, "title":"Slowly, this glacier water worn this cave marble", "ispublic":1, "isfriend":0, "isfamily":0, "safe":0, "ownername":"B\u212en", "latitude":47.139529, "longitude":11.640355, "accuracy":"14", "context":0, "place_id":"t5B7qptUV7rA21I", "woeid":"550710", "geo_is_family":0, "geo_is_friend":0, "geo_is_contact":0, "geo_is_public":1, "media":"photo", "media_status":"ready"}, {"id":"13153275033", "owner":"95034158@N00", "secret":"9772a551c1", "server":"2675", "farm":3, "title":"haringvliet", "ispublic":1, "isfriend":0, "isfamily":0, "safe":0, "ownername":"Cybergabi", "latitude":51.921, "longitude":4.498166, "accuracy":"16", "context":0, "place_id":"lhM3WGRWUbndGLo", "woeid":"733075", "geo_is_family":0, "geo_is_friend":0, "geo_is_contact":0, "geo_is_public":1, "media":"photo", "media_status":"ready"}, {"id":"13151235764", "owner":"12039065@N00", "secret":"3821db6eec", "server":"7330", "farm":8, "title":"Meseta Alul", "ispublic":1, "isfriend":0, "isfamily":0, "safe":1, "ownername":"Mono Andes", "latitude":-37.637922, "longitude":-71.476192, "accuracy":"15", "context":0, "place_id":"F_qiuc9TVL1AibMYDg", "woeid":"26793978", "geo_is_family":0, "geo_is_friend":0, "geo_is_contact":0, "geo_is_public":1, "media":"photo", "media_status":"ready"}, {"id":"13150622485", "owner":"97023816@N00", "secret":"fb93db3b92", "server":"2631", "farm":3, "title":"bright Montreal night", "ispublic":1, "isfriend":0, "isfamily":0, "safe":0, "ownername":"tuanland", "latitude":45.503459, "longitude":-73.586511, "accuracy":"14", "context":0, "place_id":"VMbMMUFTVLlG4aWz_Q", "woeid":"26332799", "geo_is_family":0, "geo_is_friend":0, "geo_is_contact":0, "geo_is_public":1, "media":"photo", "media_status":"ready"}, {"id":"13149019604", "owner":"91522684@N02", "secret":"59cf49c8b9", "server":"3803", "farm":4, "title":"Le moulin de Quinard - Brittany's seascape", "ispublic":1, "isfriend":0, "isfamily":0, "safe":0, "ownername":"Luc Neuville", "latitude":48.592249, "longitude":-1.967883, "accuracy":"14", "context":0, "place_id":"xjqwSAtXUL7NPhc", "woeid":"624903", "geo_is_family":0, "geo_is_friend":0, "geo_is_contact":0, "geo_is_public":1, "media":"photo", "media_status":"ready"}, {"id":"13148812934", "owner":"16854222@N05", "secret":"f851721a51", "server":"3763", "farm":4, "title":"TGIF", "ispublic":1, "isfriend":0, "isfamily":0, "safe":0, "ownername":"AnyMotion", "latitude":50.128006, "longitude":8.658674, "accuracy":"16", "context":0, "place_id":"GuvElQxXWr7NzgU", "woeid":"684130", "geo_is_family":0, "geo_is_friend":0, "geo_is_contact":0, "geo_is_public":1, "media":"photo", "media_status":"ready"}, {"id":"13148302505", "owner":"21692577@N02", "secret":"d3e0b11662", "server":"3737", "farm":4, "title":"I wish I could play outside with the others :)", "ispublic":1, "isfriend":0, "isfamily":0, "safe":0, "ownername":"Danny VB", "latitude":48.407326, "longitude":-64.419364, "accuracy":"11", "context":0, "place_id":"sSFrnxZTUbkmonSnOA", "woeid":"23394550", "geo_is_family":0, "geo_is_friend":0, "geo_is_contact":0, "geo_is_public":1, "media":"photo", "media_status":"ready"}, {"id":"13146850184", "owner":"22876654@N00", "secret":"3a7e60afff", "server":"7345", "farm":8, "title":"Choose a colour", "ispublic":1, "isfriend":0, "isfamily":0, "safe":0, "ownername":"halifaxlight", "latitude":35.167774, "longitude":-5.26906, "accuracy":"15", "context":0, "place_id":"KEjBGm5QV7l4UTkL", "woeid":"1532799", "geo_is_family":0, "geo_is_friend":0, "geo_is_contact":0, "geo_is_public":1, "media":"photo", "media_status":"ready"}, {"id":"13146086163", "owner":"57764026@N02", "secret":"4f71539623", "server":"7357", "farm":8, "title":"Morning Foggy Commute at Queen's Square, Bristol", "ispublic":1, "isfriend":0, "isfamily":0, "safe":1, "ownername":"HectikHector", "latitude":51.450329, "longitude":-2.594811, "accuracy":"15", "context":0, "place_id":"dnJp7MJTUrpwbc3FhA", "woeid":"20094207", "geo_is_family":0, "geo_is_friend":0, "geo_is_contact":0, "geo_is_public":1, "media":"photo", "media_status":"ready"}, {"id":"13145329154", "owner":"31804708@N02", "secret":"a712e44e32", "server":"3765", "farm":4, "title":"A la tarde en la laguna - In the afternoon in the lagoon", "ispublic":1, "isfriend":0, "isfamily":0, "safe":1, "ownername":"celta4", "latitude":-31.634803, "longitude":-60.675108, "accuracy":"16", "context":0, "place_id":"T0iHV9tSUbhXpfI", "woeid":"332470", "geo_is_family":0, "geo_is_friend":0, "geo_is_contact":0, "geo_is_public":1, "media":"photo", "media_status":"ready"}, {"id":"13144766505", "owner":"37708438@N05", "secret":"6121134339", "server":"3674", "farm":4, "title":"BLOWING IN THE WIND", "ispublic":1, "isfriend":0, "isfamily":0, "safe":1, "ownername":"kenny barker", "latitude":56.02832, "longitude":-3.65982, "accuracy":"11", "context":0, "place_id":"Lk.zdMVTU7.PJw", "woeid":"21500", "geo_is_family":0, "geo_is_friend":0, "geo_is_contact":0, "geo_is_public":1, "media":"photo", "media_status":"ready"}]}, "stat":"ok"}