{"photos":{"page":52,"pages":26696,"perpage":60,"total":"1601717","photo":[{"id":"14021966964","owner":"7132158@N07","secret":"17d1302e14","server":"7227","farm":8,"title":"I dream of painting and then I paint my dream","ispublic":1,"isfriend":0,"isfamily":0,"safe":0,"ownername":"Rui Almeida.","latitude":37.767458,"longitude":-25.258941,"accuracy":"10","context":0,"place_id":"nq6X7cFUUbIg_bQ","woeid":"538229","geo_is_family":0,"geo_is_friend":0,"geo_is_contact":0,"geo_is_public":1,"media":"photo","media_status":"ready"},{"id":"14014261072","owner":"22543235@N05","secret":"2709535d11","server":"7296","farm":8,"title":"Visitors","ispublic":1,"isfriend":0,"isfamily":0,"safe":0,"ownername":"Gareth Wray Photography -Thanks = 1.5 Million Hits","latitude":54.829994,"longitude":-7.472109,"accuracy":"16","context":0,"place_id":"DfFjAU1UVLsREGU","woeid":"561535","geo_is_family":0,"geo_is_friend":0,"geo_is_contact":0,"geo_is_public":1,"media":"photo","media_status":"ready"},{"id":"13994211196","owner":"42645785@N04","secret":"85eef86353","server":"2917","farm":3,"title":"Wie war das mit dem Gold in der Morgenstunde?","ispublic":1,"isfriend":0,"isfamily":0,"safe":0,"ownername":"dorena-wm","latitude":47.709085,"longitude":11.153517,"accuracy":"14","context":0,"place_id":"Vki1sJxWUrp5fBY","woeid":"700443","geo_is_family":0,"geo_is_friend":0,"geo_is_contact":0,"geo_is_public":1,"media":"photo","media_status":"ready"},{"id":"14036222853","owner":"82484300@N00","secret":"6f91f2564b","server":"2895","farm":3,"title":"Plaza del Torico (Teruel)","ispublic":1,"isfriend":0,"isfamily":0,"safe":0,"ownername":"dleiva","latitude":40.342095,"longitude":-1.10876,"accuracy":"12","context":0,"place_id":"uBi3.3NWVb96Jno","woeid":"775399","geo_is_family":0,"geo_is_friend":0,"geo_is_contact":0,"geo_is_public":1,"media":"photo","media_status":"ready"},{"id":"14012684722","owner":"100139134@N03","secret":"94df19561b","server":"5167","farm":6,"title":"Rosella poppy amapola pavot papavero","ispublic":1,"isfriend":0,"isfamily":0,"safe":0,"ownername":"Jes\u00fas 56","latitude":45.769064,"longitude":4.83039,"accuracy":"16","context":0,"place_id":"gUrZ2NhXUrPDYlI","woeid":"609125","geo_is_family":0,"geo_is_friend":0,"geo_is_contact":0,"geo_is_public":1,"media":"photo","media_status":"ready"},{"id":"14013250244","owner":"45722248@N07","secret":"59c28bb5ee","server":"7225","farm":8,"title":"Paparazzo","ispublic":1,"isfriend":0,"isfamily":0,"safe":0,"ownername":"ffela","latitude":52.532669,"longitude":13.382619,"accuracy":"16","context":0,"place_id":"zot2ouJXUbKOJRM","woeid":"638242","geo_is_family":0,"geo_is_friend":0,"geo_is_contact":0,"geo_is_public":1,"media":"photo","media_status":"ready"},{"id":"14004977312","owner":"14279081@N08","secret":"bb0f625bc4","server":"7079","farm":8,"title":"cloudscape #2","ispublic":1,"isfriend":0,"isfamily":0,"safe":0,"ownername":"\u039eSS\u039e\u00ae\u00ae\u039e","latitude":41.949492,"longitude":12.847008,"accuracy":"16","context":0,"place_id":"4wIrb3xTUrso1yq7YQ","woeid":"20109990","geo_is_family":0,"geo_is_friend":0,"geo_is_contact":0,"geo_is_public":1,"media":"photo","media_status":"ready"},{"id":"14028061153","owner":"61525316@N06","secret":"cc0f5a0d8a","server":"7142","farm":8,"title":"rebel","ispublic":1,"isfriend":0,"isfamily":0,"safe":0,"ownername":"Macariogomes","latitude":51.684955,"longitude":4.269518,"accuracy":"14","context":0,"place_id":"IcaOGhtWUL3J2KM","woeid":"727096","geo_is_family":0,"geo_is_friend":0,"geo_is_contact":0,"geo_is_public":1,"media":"photo","media_status":"ready"},{"id":"13983049116","owner":"29225114@N08","secret":"ae93888ab9","server":"7164","farm":8,"title":"White-browed Coucal in its domain","ispublic":1,"isfriend":0,"isfamily":0,"safe":0,"ownername":"Sergei Golyshev","latitude":-4.114957,"longitude":36.081848,"accuracy":"10","context":0,"place_id":"9YampqlTUb4Vw2d6","woeid":"2345938","geo_is_family":0,"geo_is_friend":0,"geo_is_contact":0,"geo_is_public":1,"media":"photo","media_status":"ready"},{"id":"14025661703","owner":"95930823@N08","secret":"4393932cb5","server":"7460","farm":8,"title":"Coucher de soleil sur le bord du Saguenay 4\/24\/2014","ispublic":1,"isfriend":0,"isfamily":0,"safe":0,"ownername":"gaudreaultnormand","latitude":48.435137,"longitude":-71.097164,"accuracy":"16","context":0,"place_id":"Q4Y2zUBTW7kk5vJ.wA","woeid":"29374154","geo_is_family":0,"geo_is_friend":0,"geo_is_contact":0,"geo_is_public":1,"media":"photo","media_status":"ready"},{"id":"14002324121","owner":"90451570@N07","secret":"93ab41bdc6","server":"7155","farm":8,"title":"Firenze!","ispublic":1,"isfriend":0,"isfamily":0,"safe":0,"ownername":"CarolynEaton","latitude":43.763159,"longitude":11.264162,"accuracy":"15","context":0,"place_id":"utNU8bNTUrsElznJGg","woeid":"20150268","geo_is_family":0,"geo_is_friend":0,"geo_is_contact":0,"geo_is_public":1,"media":"photo","media_status":"ready"},{"id":"14005852884","owner":"90365553@N08","secret":"5cac1f4661","server":"7325","farm":8,"title":"Following the river","ispublic":1,"isfriend":0,"isfamily":0,"safe":0,"ownername":"Jean S..","latitude":46.715856,"longitude":-71.2817,"accuracy":"11","context":0,"place_id":"uAsNxd9TVLI","woeid":"268","geo_is_family":0,"geo_is_friend":0,"geo_is_contact":0,"geo_is_public":1,"media":"photo","media_status":"ready"},{"id":"14002165292","owner":"8645675@N02","secret":"4b85f40992","server":"2908","farm":3,"title":"Rain Season","ispublic":1,"isfriend":0,"isfamily":0,"safe":0,"ownername":"Drachenfanger","latitude":36.661638,"longitude":-76.0324,"accuracy":"16","context":0,"place_id":"yMKol1xTV7vG0onE","woeid":"2512636","geo_is_family":0,"geo_is_friend":0,"geo_is_contact":0,"geo_is_public":1,"media":"photo","media_status":"ready"},{"id":"13981838386","owner":"59552935@N07","secret":"0498b710bf","server":"2921","farm":3,"title":"Free thinker - Explored #12 !","ispublic":1,"isfriend":0,"isfamily":0,"safe":0,"ownername":"*Glaukopis*","latitude":42.63449,"longitude":11.671779,"accuracy":"11","context":0,"place_id":"GU0E6HZWULp1Crc","woeid":"720649","geo_is_family":0,"geo_is_friend":0,"geo_is_contact":0,"geo_is_public":1,"media":"photo","media_status":"ready"},{"id":"13981823096","owner":"39028849@N06","secret":"b8ac1a3286","server":"7323","farm":8,"title":"Tram Basel Switzerland","ispublic":1,"isfriend":0,"isfamily":0,"safe":0,"ownername":"hrs51","latitude":47.54874,"longitude":7.587679,"accuracy":"11","context":0,"place_id":"b1CWwAlWWrsOdFU","woeid":"781739","geo_is_family":0,"geo_is_friend":0,"geo_is_contact":0,"geo_is_public":1,"media":"photo","media_status":"ready"},{"id":"13997674552","owner":"10299033@N04","secret":"bc9ff9372c","server":"7117","farm":8,"title":"Tessa's Moment - Air Guitar Solo at The Royal Phoenix MTL","ispublic":1,"isfriend":0,"isfamily":0,"safe":0,"ownername":"Nadia Not Included","latitude":45.527224,"longitude":-73.602255,"accuracy":"16","context":0,"place_id":"miyLSgNUV7JunKnX8A","woeid":"55855870","geo_is_family":0,"geo_is_friend":0,"geo_is_contact":0,"geo_is_public":1,"media":"photo","media_status":"ready"},{"id":"13996064181","owner":"75475942@N07","secret":"0410b97164","server":"7273","farm":8,"title":"every sunset brings the promise of a new dawn","ispublic":1,"isfriend":0,"isfamily":0,"safe":0,"ownername":"patiigraphy","latitude":52.148215,"longitude":21.09027,"accuracy":"14","context":0,"place_id":"Tp3ytFBUUL4PURA","woeid":"524793","geo_is_family":0,"geo_is_friend":0,"geo_is_contact":0,"geo_is_public":1,"media":"photo","media_status":"ready"},{"id":"13995502571","owner":"34885474@N03","secret":"84265234f9","server":"2904","farm":3,"title":"atardecer en la playa de los Ouda\u00efas, reflejos","ispublic":1,"isfriend":0,"isfamily":0,"safe":0,"ownername":"alcachofa1960","latitude":34.032318,"longitude":-6.843098,"accuracy":"16","context":0,"place_id":"9IpbSoNQV7k.WYJZ","woeid":"1538348","geo_is_family":0,"geo_is_friend":0,"geo_is_contact":0,"geo_is_public":1,"media":"photo","media_status":"ready"},{"id":"14018238563","owner":"22666370@N08","secret":"2c1210ee9d","server":"7320","farm":8,"title":"Wearing A Dress Was Not In The Job Description","ispublic":1,"isfriend":0,"isfamily":0,"safe":0,"ownername":"Few Peeps - Thanks for >1.5 Million Views","latitude":56.948369,"longitude":24.105134,"accuracy":"15","context":0,"place_id":"TRJ17gxTUb1tr.Js5Q","woeid":"23701367","geo_is_family":0,"geo_is_friend":0,"geo_is_contact":0,"geo_is_public":1,"media":"photo","media_status":"ready"},{"id":"13993806461","owner":"45686660@N02","secret":"2f4b827622","server":"7032","farm":8,"title":"Genova, skyline","ispublic":1,"isfriend":0,"isfamily":0,"safe":0,"ownername":"forastico","latitude":44.410331,"longitude":8.93889,"accuracy":"11","context":0,"place_id":"lMM6F6BWU7y2OJc","woeid":"716085","geo_is_family":0,"geo_is_friend":0,"geo_is_contact":0,"geo_is_public":1,"media":"photo","media_status":"ready"},{"id":"13996852814","owner":"91976414@N04","secret":"367a8fd305","server":"2927","farm":3,"title":"traffic light coalition","ispublic":1,"isfriend":0,"isfamily":0,"safe":0,"ownername":"H\u00e4nsel & Gretel","latitude":51.081959,"longitude":14.699106,"accuracy":"14","context":0,"place_id":"ghcooShXVbhV7Pc","woeid":"672239","geo_is_family":0,"geo_is_friend":0,"geo_is_contact":0,"geo_is_public":1,"media":"photo","media_status":"ready"},{"id":"13995085275","owner":"73414467@N02","secret":"71782f86d8","server":"2915","farm":3,"title":"L\u00edneas paralelas","ispublic":1,"isfriend":0,"isfamily":0,"safe":0,"ownername":"Jos\u00e9 Luis Vega","latitude":40.404088,"longitude":-3.769331,"accuracy":"16","context":0,"place_id":"u2JCGChTUriEZ6WcWQ","woeid":"20219929","geo_is_family":0,"geo_is_friend":0,"geo_is_contact":0,"geo_is_public":1,"media":"photo","media_status":"ready"},{"id":"13993615585","owner":"88491387@N00","secret":"3f51fef5db","server":"2920","farm":3,"title":"Salvation","ispublic":1,"isfriend":0,"isfamily":0,"safe":0,"ownername":"_anab_","latitude":42.425628,"longitude":3.16135,"accuracy":"16","context":0,"place_id":"Y7_WLwNUWrktq8c","woeid":"583613","geo_is_family":0,"geo_is_friend":0,"geo_is_contact":0,"geo_is_public":1,"media":"photo","media_status":"ready"},{"id":"13990259221","owner":"58155871@N06","secret":"067a89866e","server":"7358","farm":8,"title":"- S\u00ec, ma questo \u00e8 quadrato!! Capisci ?!?","ispublic":1,"isfriend":0,"isfamily":0,"safe":0,"ownername":"Umberto Poto","latitude":25.429632,"longitude":81.890029,"accuracy":"11","context":0,"place_id":"kvSp8lJTULODk4QJ","woeid":"2295379","geo_is_family":0,"geo_is_friend":0,"geo_is_contact":0,"geo_is_public":1,"media":"photo","media_status":"ready"},{"id":"14012433813","owner":"96794675@N02","secret":"57f0e07784","server":"5481","farm":6,"title":"I Colori della Natura","ispublic":1,"isfriend":0,"isfamily":0,"safe":0,"ownername":"Donca 66","latitude":41.961862,"longitude":12.525377,"accuracy":"15","context":0,"place_id":"kOpMcSlTUrtNzC5HBA","woeid":"20150542","geo_is_family":0,"geo_is_friend":0,"geo_is_contact":0,"geo_is_public":1,"media":"photo","media_status":"ready"},{"id":"13989587034","owner":"39273888@N00","secret":"0f8f3db38a","server":"7104","farm":8,"title":"Car envy!","ispublic":1,"isfriend":0,"isfamily":0,"safe":0,"ownername":"N3ptun0","latitude":25.650052,"longitude":-80.433737,"accuracy":"16","context":0,"place_id":"gdwHXUJTUb7ldsrepQ","woeid":"23417410","geo_is_family":0,"geo_is_friend":0,"geo_is_contact":0,"geo_is_public":1,"media":"photo","media_status":"ready"},{"id":"13983279771","owner":"59852454@N03","secret":"83dc319ccc","server":"2907","farm":3,"title":"My Mother-in-Law's Allotment","ispublic":1,"isfriend":0,"isfamily":0,"safe":0,"ownername":"Pavel P.","latitude":49.349808,"longitude":17.293407,"accuracy":"15","context":0,"place_id":"T7N7DhFWW7sD.zY","woeid":"791481","geo_is_family":0,"geo_is_friend":0,"geo_is_contact":0,"geo_is_public":1,"media":"photo","media_status":"ready"},{"id":"13985049245","owner":"29352895@N02","secret":"cfca3c1bd2","server":"7366","farm":8,"title":"The Tragedy of the African Western People","ispublic":1,"isfriend":0,"isfamily":0,"safe":0,"ownername":"ybiberman","latitude":31.778598,"longitude":35.229613,"accuracy":"15","context":0,"place_id":"ALrZDl9TUL2PvWFW7w","woeid":"22724638","geo_is_family":0,"geo_is_friend":0,"geo_is_contact":0,"geo_is_public":1,"media":"photo","media_status":"ready"},{"id":"13960395066","owner":"69414137@N00","secret":"8dc62be33f","server":"7140","farm":8,"title":"Amici","ispublic":1,"isfriend":0,"isfamily":0,"safe":0,"ownername":"fiumeazzurro","latitude":43.790923,"longitude":11.277465,"accuracy":"8","context":0,"place_id":"ZPDshblWU7_DgSs","woeid":"715496","geo_is_family":0,"geo_is_friend":0,"geo_is_contact":0,"geo_is_public":1,"media":"photo","media_status":"ready"},{"id":"14002130253","owner":"96323831@N06","secret":"3b9e60b35d","server":"7071","farm":8,"title":"Umbrella","ispublic":1,"isfriend":0,"isfamily":0,"safe":0,"ownername":"kohlmann.sascha","latitude":52.521091,"longitude":13.412613,"accuracy":"16","context":0,"place_id":"zot2ouJXUbKOJRM","woeid":"638242","geo_is_family":0,"geo_is_friend":0,"geo_is_contact":0,"geo_is_public":1,"media":"photo","media_status":"ready"},{"id":"13978367851","owner":"36426732@N05","secret":"a896ac8e92","server":"7378","farm":8,"title":"Alice Mizrachi AM @ Bushwick collective","ispublic":1,"isfriend":0,"isfamily":0,"safe":0,"ownername":"ZUCCONY","latitude":40.708702,"longitude":-73.922751,"accuracy":"16","context":0,"place_id":"hMYkt5BTWr0zXn1SZg","woeid":"28751393","geo_is_family":0,"geo_is_friend":0,"geo_is_contact":0,"geo_is_public":1,"media":"photo","media_status":"ready"},{"id":"13977860762","owner":"82484300@N00","secret":"77afc49af5","server":"7315","farm":8,"title":"Allehandborgen From Svartan river in \u00d6rebro, Sweden","ispublic":1,"isfriend":0,"isfamily":0,"safe":0,"ownername":"dleiva","latitude":59.29878,"longitude":15.211715,"accuracy":"9","context":0,"place_id":"ws6LR9NYUrqW0VE","woeid":"900751","geo_is_family":0,"geo_is_friend":0,"geo_is_contact":0,"geo_is_public":1,"media":"photo","media_status":"ready"},{"id":"14000350443","owner":"25857074@N03","secret":"5b43195870","server":"7231","farm":8,"title":"UNHCR News Story: A Syrian boy who risked his life to cross the sea.","ispublic":1,"isfriend":0,"isfamily":0,"safe":0,"ownername":"UNHCR","latitude":30.08374,"longitude":31.255359,"accuracy":"11","context":0,"place_id":"eWBYcHZQV7jMOZ5W","woeid":"1521894","geo_is_family":0,"geo_is_friend":0,"geo_is_contact":0,"geo_is_public":1,"media":"photo","media_status":"ready"},{"id":"13976270802","owner":"25718393@N04","secret":"392a06978a","server":"5055","farm":6,"title":"Frankfurt Stadion","ispublic":1,"isfriend":0,"isfamily":0,"safe":0,"ownername":"CONTROTONO","latitude":50.067828,"longitude":8.644652,"accuracy":"15","context":0,"place_id":"Z0FRRfRXV7oIeew","woeid":"650272","geo_is_family":0,"geo_is_friend":0,"geo_is_contact":0,"geo_is_public":1,"media":"photo","media_status":"ready"},{"id":"13978940505","owner":"55299332@N05","secret":"749f85e916","server":"2917","farm":3,"title":"Rencontre - Isiliel, artiste de rue","ispublic":1,"isfriend":0,"isfamily":0,"safe":0,"ownername":"DeGust","latitude":46.524441,"longitude":6.632223,"accuracy":"16","context":0,"place_id":"_sb9fLNTUru0OyasPA","woeid":"20102443","geo_is_family":0,"geo_is_friend":0,"geo_is_contact":0,"geo_is_public":1,"media":"photo","media_status":"ready"},{"id":"13972094462","owner":"69414137@N00","secret":"862b8094ea","server":"5454","farm":6,"title":"Le buone letture","ispublic":1,"isfriend":0,"isfamily":0,"safe":0,"ownername":"fiumeazzurro","latitude":43.481822,"longitude":11.374969,"accuracy":"11","context":0,"place_id":"MiFNcSlWULug45g","woeid":"721472","geo_is_family":0,"geo_is_friend":0,"geo_is_contact":0,"geo_is_public":1,"media":"photo","media_status":"ready"},{"id":"13972575244","owner":"31094611@N02","secret":"55eb6feb24","server":"5242","farm":6,"title":"Easter Sky","ispublic":1,"isfriend":0,"isfamily":0,"safe":0,"ownername":"CResende","latitude":38.705003,"longitude":-9.480385,"accuracy":"16","context":0,"place_id":"bqD38lBWUbP00eQ","woeid":"739040","geo_is_family":0,"geo_is_friend":0,"geo_is_contact":0,"geo_is_public":1,"media":"photo","media_status":"ready"},{"id":"13992006553","owner":"60123661@N08","secret":"68a31d005a","server":"7262","farm":8,"title":"Nissa la bella !","ispublic":1,"isfriend":0,"isfamily":0,"safe":0,"ownername":"Kataaku","latitude":43.70153,"longitude":7.27824,"accuracy":"11","context":0,"place_id":"ZKlBAaVXU74JgFo","woeid":"614274","geo_is_family":0,"geo_is_friend":0,"geo_is_contact":0,"geo_is_public":1,"media":"photo","media_status":"ready"},{"id":"13948344186","owner":"59092338@N07","secret":"9611f773d1","server":"2915","farm":3,"title":"Red.","ispublic":1,"isfriend":0,"isfamily":0,"safe":0,"ownername":"Stefano Domenici","latitude":43.875487,"longitude":10.237659,"accuracy":"16","context":0,"place_id":"PLwLBNFWUL_tsu0","woeid":"725860","geo_is_family":0,"geo_is_friend":0,"geo_is_contact":0,"geo_is_public":1,"media":"photo","media_status":"ready"},{"id":"13991310103","owner":"39669415@N05","secret":"226b913066","server":"7187","farm":8,"title":"After a lone tulip, now a lot of tulips :-)","ispublic":1,"isfriend":0,"isfamily":0,"safe":0,"ownername":"BraCom (Bram)","latitude":51.71623,"longitude":4.117972,"accuracy":"16","context":0,"place_id":"Ec3Aji1WUbrD5k8","woeid":"730010","geo_is_family":0,"geo_is_friend":0,"geo_is_contact":0,"geo_is_public":1,"media":"photo","media_status":"ready"},{"id":"13970763684","owner":"32126965@N07","secret":"55b68cbe5d","server":"2907","farm":3,"title":"Edwardian Easter Weekend ..","ispublic":1,"isfriend":0,"isfamily":0,"safe":0,"ownername":"* Janets Photos*","latitude":53.745005,"longitude":-0.330705,"accuracy":"13","context":0,"place_id":"KjFlu9NTV7jyiw","woeid":"25211","geo_is_family":0,"geo_is_friend":0,"geo_is_contact":0,"geo_is_public":1,"media":"photo","media_status":"ready"},{"id":"13969948155","owner":"73414467@N02","secret":"c1f07a41db","server":"5177","farm":6,"title":"Iris Romantic Evening.","ispublic":1,"isfriend":0,"isfamily":0,"safe":0,"ownername":"Jos\u00e9 Luis Vega","latitude":40.411127,"longitude":-3.691151,"accuracy":"16","context":0,"place_id":"XrSazRhTUrh4j1shyQ","woeid":"20219885","geo_is_family":0,"geo_is_friend":0,"geo_is_contact":0,"geo_is_public":1,"media":"photo","media_status":"ready"},{"id":"13969915755","owner":"91564885@N00","secret":"6ba20451fd","server":"2897","farm":3,"title":"Paisaje portuario","ispublic":1,"isfriend":0,"isfamily":0,"safe":0,"ownername":"*k59","latitude":43.364993,"longitude":-8.404326,"accuracy":"16","context":0,"place_id":"sWHFrNNWVLnsxTY","woeid":"763246","geo_is_family":0,"geo_is_friend":0,"geo_is_contact":0,"geo_is_public":1,"media":"photo","media_status":"ready"},{"id":"13966608081","owner":"16854222@N05","secret":"b091f413cd","server":"7059","farm":8,"title":"Who Says That Bluebells ...","ispublic":1,"isfriend":0,"isfamily":0,"safe":0,"ownername":"AnyMotion","latitude":50.123271,"longitude":8.6804,"accuracy":"16","context":0,"place_id":"Z0FRRfRXV7oIeew","woeid":"650272","geo_is_family":0,"geo_is_friend":0,"geo_is_contact":0,"geo_is_public":1,"media":"photo","media_status":"ready"},{"id":"13967852775","owner":"87835616@N07","secret":"76d97d880f","server":"7228","farm":8,"title":"Fulica atra [Explored]","ispublic":1,"isfriend":0,"isfamily":0,"safe":0,"ownername":"MarttiPeramaki","latitude":60.1532,"longitude":24.721931,"accuracy":"16","context":0,"place_id":"0dYvnjJUVL7l.nI","woeid":"564617","geo_is_family":0,"geo_is_friend":0,"geo_is_contact":0,"geo_is_public":1,"media":"photo","media_status":"ready"},{"id":"13957766772","owner":"55416316@N07","secret":"4634b52a65","server":"7134","farm":8,"title":"Maassluis","ispublic":1,"isfriend":0,"isfamily":0,"safe":0,"ownername":"PeterJ\u00a9(serious network problems)","latitude":51.920834,"longitude":4.251365,"accuracy":"16","context":0,"place_id":"IYbI2ptWUbs.AP8","woeid":"731491","geo_is_family":0,"geo_is_friend":0,"geo_is_contact":0,"geo_is_public":1,"media":"photo","media_status":"ready"},{"id":"13947372805","owner":"35581435@N07","secret":"3dc0b96425","server":"2913","farm":3,"title":"O Quadrado de Trancoso","ispublic":1,"isfriend":0,"isfamily":0,"safe":0,"ownername":"marcelo nacinovic","latitude":-16.657901,"longitude":-39.103088,"accuracy":"11","context":0,"place_id":"HTlt5udTUb7fwhxO","woeid":"2344848","geo_is_family":0,"geo_is_friend":0,"geo_is_contact":0,"geo_is_public":1,"media":"photo","media_status":"ready"},{"id":"13878907973","owner":"67084790@N03","secret":"2f21368548","server":"7259","farm":8,"title":"***","ispublic":1,"isfriend":0,"isfamily":0,"safe":0,"ownername":"DmitryRyzhkov","latitude":50.111652,"longitude":32.655238,"accuracy":"16","context":0,"place_id":"jOoI2gBTUb6.tmDa","woeid":"2347534","geo_is_family":0,"geo_is_friend":0,"geo_is_contact":0,"geo_is_public":1,"media":"photo","media_status":"ready"},{"id":"13818563585","owner":"8790735@N04","secret":"abc3627549","server":"7402","farm":8,"title":"I sit and twiddle my thumbs cos I got nothing to do","ispublic":1,"isfriend":0,"isfamily":0,"safe":0,"ownername":"Frank Hendriks","latitude":55.547122,"longitude":-2.017192,"accuracy":"15","context":0,"place_id":"PhOHqqpVU7qfAw","woeid":"41056","geo_is_family":0,"geo_is_friend":0,"geo_is_contact":0,"geo_is_public":1,"media":"photo","media_status":"ready"},{"id":"13738212863","owner":"27278265@N02","secret":"4cb4bd8e29","server":"7173","farm":8,"title":"Splendeurs d'automne","ispublic":1,"isfriend":0,"isfamily":0,"safe":0,"ownername":"monilague","latitude":44.359287,"longitude":-68.236026,"accuracy":"11","context":0,"place_id":"Lpw6Is5TUb9aHlR.","woeid":"2359069","geo_is_family":0,"geo_is_friend":0,"geo_is_contact":0,"geo_is_public":1,"media":"photo","media_status":"ready"},{"id":"13608485245","owner":"48282670@N03","secret":"27c8d3139f","server":"7401","farm":8,"title":"Isn't it romantic?","ispublic":1,"isfriend":0,"isfamily":0,"safe":0,"ownername":"MarcoGiorgiPhoto","latitude":48.856918,"longitude":2.341209,"accuracy":"14","context":0,"place_id":"13NRHfZUV7JBd33spw","woeid":"55843772","geo_is_family":0,"geo_is_friend":0,"geo_is_contact":0,"geo_is_public":1,"media":"photo","media_status":"ready"},{"id":"13563092293","owner":"95104112@N05","secret":"7f28bb5bfb","server":"2878","farm":3,"title":"Acropolis Museum Entrance, Athens, Greece","ispublic":1,"isfriend":0,"isfamily":0,"safe":1,"ownername":"nouregef","latitude":37.968839,"longitude":23.728183,"accuracy":"16","context":0,"place_id":"sbS1GclTUL3W2MeSpg","woeid":"22723932","geo_is_family":0,"geo_is_friend":0,"geo_is_contact":0,"geo_is_public":1,"media":"photo","media_status":"ready"},{"id":"13520862825","owner":"42903611@N00","secret":"cd83e5eeb0","server":"3788","farm":4,"title":"Vision...","ispublic":1,"isfriend":0,"isfamily":0,"safe":1,"ownername":"rogilde - roberto la forgia","latitude":55.679133,"longitude":12.562866,"accuracy":"11","context":0,"place_id":"iHGCOnNUV75MYM0","woeid":"554890","geo_is_family":0,"geo_is_friend":0,"geo_is_contact":0,"geo_is_public":1,"media":"photo","media_status":"ready"},{"id":"13175169134","owner":"55194659@N08","secret":"92e1526289","server":"7416","farm":8,"title":"Woman portrait (Sri Lanka)","ispublic":1,"isfriend":0,"isfamily":0,"safe":1,"ownername":"Josep Castell","latitude":7.2842,"longitude":80.637199,"accuracy":"11","context":0,"place_id":"WdLFHlRTU7KvBEm.","woeid":"2189780","geo_is_family":0,"geo_is_friend":0,"geo_is_contact":0,"geo_is_public":1,"media":"photo","media_status":"ready"},{"id":"12745600764","owner":"61674778@N07","secret":"a19673b31b","server":"5548","farm":6,"title":"Hanneke, Amsterdam 2014: Surrender","ispublic":1,"isfriend":0,"isfamily":0,"safe":0,"ownername":"mdiepraam","latitude":52.369153,"longitude":4.878916,"accuracy":"14","context":0,"place_id":"xfcEFYhWULKtjYI","woeid":"728410","geo_is_family":0,"geo_is_friend":0,"geo_is_contact":0,"geo_is_public":1,"media":"photo","media_status":"ready"},{"id":"11657909146","owner":"52431791@N08","secret":"24353be4d2","server":"2865","farm":3,"title":"\"GOLDENEYE\"  [explored]","ispublic":1,"isfriend":0,"isfamily":0,"safe":1,"ownername":"ipon1","latitude":43.52938,"longitude":3.924799,"accuracy":"11","context":0,"place_id":"y.vs49NXU79LAyM","woeid":"615535","geo_is_family":0,"geo_is_friend":0,"geo_is_contact":0,"geo_is_public":1,"media":"photo","media_status":"ready"},{"id":"11006117095","owner":"34256037@N00","secret":"6a83776db3","server":"3694","farm":4,"title":"Brittannie\u0308haven","ispublic":1,"isfriend":0,"isfamily":0,"safe":1,"ownername":"Bart van Damme","latitude":51.900978,"longitude":4.224457,"accuracy":"15","context":0,"place_id":"uLqAxrFWUbnGPk4","woeid":"733128","geo_is_family":0,"geo_is_friend":0,"geo_is_contact":0,"geo_is_public":1,"media":"photo","media_status":"ready"},{"id":"10692972473","owner":"25959337@N00","secret":"6e6149647a","server":"2872","farm":3,"title":"Blue Ice, birds and fog at J\u00f6kulsarlon","ispublic":1,"isfriend":0,"isfamily":0,"safe":1,"ownername":"Martin Ystenes - celebrating 5 million views","latitude":64.057484,"longitude":-16.172561,"accuracy":"10","context":0,"place_id":"L30o2XlTUb6ZXW0u","woeid":"2345690","geo_is_family":0,"geo_is_friend":0,"geo_is_contact":0,"geo_is_public":1,"media":"photo","media_status":"ready"},{"id":"10579654585","owner":"35913591@N08","secret":"4a8ea65b34","server":"5513","farm":6,"title":"El almacen","ispublic":1,"isfriend":0,"isfamily":0,"safe":1,"ownername":"\u00a9 josehico","latitude":39.476319,"longitude":-0.342807,"accuracy":"15","context":0,"place_id":"IyeQE9lTUrj.deaOow","woeid":"20220218","geo_is_family":0,"geo_is_friend":0,"geo_is_contact":0,"geo_is_public":1,"media":"photo","media_status":"ready"},{"id":"13980248024","owner":"66759125@N00","secret":"db90ddb6b4","server":"7311","farm":8,"title":"","ispublic":1,"isfriend":0,"isfamily":0,"safe":0,"ownername":"Svein Nordrum","latitude":61.373699,"longitude":8.811721,"accuracy":"11","context":0,"place_id":"zqt.Kh9ZV71xrJk","woeid":"857711","geo_is_family":0,"geo_is_friend":0,"geo_is_contact":0,"geo_is_public":1,"media":"photo","media_status":"ready"}]},"stat":"ok"}