{"photos":{"page":74,"pages":26696,"perpage":60,"total":"1601727","photo":[{"id":"13977770554","owner":"40999618@N05","secret":"91d937219e","server":"5098","farm":6,"title":"Lots of stamens, Explored","ispublic":1,"isfriend":0,"isfamily":0,"safe":0,"ownername":"CameliaTWU","latitude":46.647079,"longitude":23.328781,"accuracy":"11","context":0,"place_id":"Csip6PxZWrg3Pu0","woeid":"882839","geo_is_family":0,"geo_is_friend":0,"geo_is_contact":0,"geo_is_public":1,"media":"photo","media_status":"ready"},{"id":"13953516126","owner":"23285057@N04","secret":"1d759d8a85","server":"7346","farm":8,"title":"Brahminy Starling","ispublic":1,"isfriend":0,"isfamily":0,"safe":0,"ownername":"SivamDesign","latitude":23.116048,"longitude":79.873008,"accuracy":"11","context":0,"place_id":"MTBnc2lTW7oNtD4ZyA","woeid":"29028902","geo_is_family":0,"geo_is_friend":0,"geo_is_contact":0,"geo_is_public":1,"media":"photo","media_status":"ready"},{"id":"13972055892","owner":"93600426@N04","secret":"340fa94b71","server":"2924","farm":3,"title":"FCAB \/ Est. Conchi","ispublic":1,"isfriend":0,"isfamily":0,"safe":0,"ownername":"Trenes del Desierto II","latitude":-22.03091,"longitude":-68.619918,"accuracy":"11","context":0,"place_id":"23LgLilSV7rLK6I","woeid":"350405","geo_is_family":0,"geo_is_friend":0,"geo_is_contact":0,"geo_is_public":1,"media":"photo","media_status":"ready"},{"id":"13950663626","owner":"20905078@N04","secret":"b27a8fdb36","server":"7122","farm":8,"title":"","ispublic":1,"isfriend":0,"isfamily":0,"safe":0,"ownername":"patrickjoust","latitude":45.676375,"longitude":-69.788579,"accuracy":"16","context":0,"place_id":"qXjW5ktTWr2Jum7eeg","woeid":"28745127","geo_is_family":0,"geo_is_friend":0,"geo_is_contact":0,"geo_is_public":1,"media":"photo","media_status":"ready"},{"id":"13969680702","owner":"45564437@N08","secret":"8453e97a9c","server":"7257","farm":8,"title":"amor y deseo","ispublic":1,"isfriend":0,"isfamily":0,"safe":0,"ownername":"Mauricio Silerio","latitude":55.702355,"longitude":37.792968,"accuracy":"4","context":0,"place_id":"yFvJfEtTUb5x9_pp","woeid":"2346910","geo_is_family":0,"geo_is_friend":0,"geo_is_contact":0,"geo_is_public":1,"media":"photo","media_status":"ready"},{"id":"13968492202","owner":"20905078@N04","secret":"bd907192ed","server":"7097","farm":8,"title":"","ispublic":1,"isfriend":0,"isfamily":0,"safe":0,"ownername":"patrickjoust","latitude":45.675693,"longitude":-69.78918,"accuracy":"16","context":0,"place_id":"qXjW5ktTWr2Jum7eeg","woeid":"28745127","geo_is_family":0,"geo_is_friend":0,"geo_is_contact":0,"geo_is_public":1,"media":"photo","media_status":"ready"},{"id":"13971851484","owner":"58886831@N03","secret":"3e0008a7d7","server":"7132","farm":8,"title":"Dibuix - Explore","ispublic":1,"isfriend":0,"isfamily":0,"safe":0,"ownername":"Jos\u00e9 M\u00aa Sancho","latitude":39.221506,"longitude":-0.332983,"accuracy":"16","context":0,"place_id":"aQu0a.xWVb66xE8","woeid":"774996","geo_is_family":0,"geo_is_friend":0,"geo_is_contact":0,"geo_is_public":1,"media":"photo","media_status":"ready"},{"id":"13971112815","owner":"23214428@N07","secret":"aae9bc6167","server":"5486","farm":6,"title":"\"Alcal\u00e1 del Jucar\"","ispublic":1,"isfriend":0,"isfamily":0,"safe":0,"ownername":"Pepelahuerta","latitude":39.194931,"longitude":-1.428599,"accuracy":"11","context":0,"place_id":"rC9ohdNWV7uh3kA","woeid":"751774","geo_is_family":0,"geo_is_friend":0,"geo_is_contact":0,"geo_is_public":1,"media":"photo","media_status":"ready"},{"id":"13969553725","owner":"31472524@N06","secret":"de179ac771","server":"7137","farm":8,"title":"_D7B8636_bis_San_Vito_Lo_Capo","ispublic":1,"isfriend":0,"isfamily":0,"safe":0,"ownername":"Vater_fotografo","latitude":38.175929,"longitude":12.736308,"accuracy":"16","context":0,"place_id":"KyD2cJFWULmEfi0","woeid":"723212","geo_is_family":0,"geo_is_friend":0,"geo_is_contact":0,"geo_is_public":1,"media":"photo","media_status":"ready"},{"id":"13966367331","owner":"101053609@N05","secret":"566b1f989d","server":"2929","farm":3,"title":"High in the Himalayas","ispublic":1,"isfriend":0,"isfamily":0,"safe":0,"ownername":"pietkagab","latitude":30.930795,"longitude":79.079246,"accuracy":"11","context":0,"place_id":"_I8JIsxTW7g6C1cqOQ","woeid":"29214384","geo_is_family":0,"geo_is_friend":0,"geo_is_contact":0,"geo_is_public":1,"media":"photo","media_status":"ready"},{"id":"13946430476","owner":"47910082@N02","secret":"c400b0bd59","server":"7117","farm":8,"title":"La Hiniesta","ispublic":1,"isfriend":0,"isfamily":0,"safe":0,"ownername":"Luis Cort\u00e9s Zacar\u00edas","latitude":41.554774,"longitude":-5.806274,"accuracy":"13","context":0,"place_id":"ne59cuZWVLmcKrY","woeid":"763509","geo_is_family":0,"geo_is_friend":0,"geo_is_contact":0,"geo_is_public":1,"media":"photo","media_status":"ready"},{"id":"13944202596","owner":"49828416@N06","secret":"a7dc30144e","server":"7275","farm":8,"title":"Mariebergsviken from Orrholmen","ispublic":1,"isfriend":0,"isfamily":0,"safe":0,"ownername":"- David Olsson -","latitude":59.370434,"longitude":13.496532,"accuracy":"15","context":0,"place_id":"Qd6o8oZZW77725E","woeid":"894959","geo_is_family":0,"geo_is_friend":0,"geo_is_contact":0,"geo_is_public":1,"media":"photo","media_status":"ready"},{"id":"13986670523","owner":"46621007@N05","secret":"8aa678dd78","server":"7369","farm":8,"title":"... www.facebook.com\/fotografiaserly","ispublic":1,"isfriend":0,"isfamily":0,"safe":0,"ownername":"Erly Nunes Machado facebook.com\/fotografiaserly","latitude":-20.660442,"longitude":-40.470387,"accuracy":"16","context":0,"place_id":"GC1stjNVV72QD8M","woeid":"457244","geo_is_family":0,"geo_is_friend":0,"geo_is_contact":0,"geo_is_public":1,"media":"photo","media_status":"ready"},{"id":"13958868042","owner":"25002245@N00","secret":"e9ce56b23f","server":"5056","farm":6,"title":"OIARTZUN-Oianleku-03","ispublic":1,"isfriend":0,"isfamily":0,"safe":0,"ownername":"ikimilikili-klik","latitude":43.268612,"longitude":-1.845273,"accuracy":"15","context":0,"place_id":"TN5W.aRWV7tpoL4","woeid":"751811","geo_is_family":0,"geo_is_friend":0,"geo_is_contact":0,"geo_is_public":1,"media":"photo","media_status":"ready"},{"id":"13958370785","owner":"26849514@N06","secret":"9833526272","server":"7429","farm":8,"title":"Painted easter eggs","ispublic":1,"isfriend":0,"isfamily":0,"safe":0,"ownername":"Frans.Sellies","latitude":47.902534,"longitude":25.600547,"accuracy":"11","context":0,"place_id":"IDrkp.lZVbnAvfs","woeid":"873414","geo_is_family":0,"geo_is_friend":0,"geo_is_contact":0,"geo_is_public":1,"media":"photo","media_status":"ready"},{"id":"13937984772","owner":"44296911@N03","secret":"4c807e48c3","server":"7037","farm":8,"title":"Ember","ispublic":1,"isfriend":0,"isfamily":0,"safe":0,"ownername":"Rafakoy","latitude":40.833194,"longitude":-73.218727,"accuracy":"12","context":0,"place_id":"SAU_td9UV7PE09Y4WQ","woeid":"55992237","geo_is_family":0,"geo_is_friend":0,"geo_is_contact":0,"geo_is_public":1,"media":"photo","media_status":"ready"},{"id":"13954179455","owner":"25002245@N00","secret":"e709d2b559","server":"3698","farm":4,"title":"PECI\u00d1A-San-Lorenzo","ispublic":1,"isfriend":0,"isfamily":0,"safe":0,"ownername":"ikimilikili-klik","latitude":42.58776,"longitude":-2.725589,"accuracy":"11","context":0,"place_id":"7.KUBntWVLOC1SE","woeid":"769635","geo_is_family":0,"geo_is_friend":0,"geo_is_contact":0,"geo_is_public":1,"media":"photo","media_status":"ready"},{"id":"13923643775","owner":"45115614@N05","secret":"5f5b1cb0ba","server":"7057","farm":8,"title":"Le Pont Notre-Dame. PARIS","ispublic":1,"isfriend":0,"isfamily":0,"safe":0,"ownername":"R.G. Photographe","latitude":48.856286,"longitude":2.348735,"accuracy":"16","context":0,"place_id":"GPoA4aBUV7LCk1SJeQ","woeid":"55843763","geo_is_family":0,"geo_is_friend":0,"geo_is_contact":0,"geo_is_public":1,"media":"photo","media_status":"ready"},{"id":"13923051195","owner":"27278265@N02","secret":"a98d1ef17c","server":"2909","farm":3,"title":"Lac Brome","ispublic":1,"isfriend":0,"isfamily":0,"safe":0,"ownername":"monilague","latitude":45.255353,"longitude":-72.494287,"accuracy":"16","context":0,"place_id":"MTtssfZTUbkMHhAkdA","woeid":"23396388","geo_is_family":0,"geo_is_friend":0,"geo_is_contact":0,"geo_is_public":1,"media":"photo","media_status":"ready"},{"id":"13889998712","owner":"32266663@N06","secret":"383e39dfcd","server":"7027","farm":8,"title":"Cerrado por vacaciones","ispublic":1,"isfriend":0,"isfamily":0,"safe":0,"ownername":"enrique1959 -","latitude":43.256205,"longitude":-2.90451,"accuracy":"11","context":0,"place_id":"FLU8RBVTUrj7kzN_XA","woeid":"20220062","geo_is_family":0,"geo_is_friend":0,"geo_is_contact":0,"geo_is_public":1,"media":"photo","media_status":"ready"},{"id":"13883097545","owner":"49746210@N07","secret":"ae95fe4257","server":"7047","farm":8,"title":"Guidance","ispublic":1,"isfriend":0,"isfamily":0,"safe":0,"ownername":"Normann Photography","latitude":69.324127,"longitude":16.116497,"accuracy":"16","context":0,"place_id":"24gnIAJZV7zhmsc","woeid":"856638","geo_is_family":0,"geo_is_friend":0,"geo_is_contact":0,"geo_is_public":1,"media":"photo","media_status":"ready"},{"id":"13882275675","owner":"27278265@N02","secret":"041154c960","server":"2892","farm":3,"title":"Lundi \u00e0 l'\u00eele","ispublic":1,"isfriend":0,"isfamily":0,"safe":0,"ownername":"monilague","latitude":45.494876,"longitude":-73.902225,"accuracy":"11","context":0,"place_id":"T_mLVaVTUbmAwh5qyA","woeid":"23394318","geo_is_family":0,"geo_is_friend":0,"geo_is_contact":0,"geo_is_public":1,"media":"photo","media_status":"ready"},{"id":"13878911953","owner":"67084790@N03","secret":"b0b52bdcd3","server":"5334","farm":6,"title":"***","ispublic":1,"isfriend":0,"isfamily":0,"safe":0,"ownername":"DmitryRyzhkov","latitude":50.093538,"longitude":32.663322,"accuracy":"16","context":0,"place_id":"jOoI2gBTUb6.tmDa","woeid":"2347534","geo_is_family":0,"geo_is_friend":0,"geo_is_contact":0,"geo_is_public":1,"media":"photo","media_status":"ready"},{"id":"13776117733","owner":"49746210@N07","secret":"73aabd9fd3","server":"3784","farm":4,"title":"Silhouettes of R\u00f8st II","ispublic":1,"isfriend":0,"isfamily":0,"safe":0,"ownername":"Normann Photography","latitude":67.526966,"longitude":12.136311,"accuracy":"16","context":0,"place_id":"X2StgH9ZVLmI3Z0","woeid":"863156","geo_is_family":0,"geo_is_friend":0,"geo_is_contact":0,"geo_is_public":1,"media":"photo","media_status":"ready"},{"id":"13696480203","owner":"16956998@N03","secret":"c1ac519257","server":"7259","farm":8,"title":"The last light.","ispublic":1,"isfriend":0,"isfamily":0,"safe":0,"ownername":"am_kaiser[Happy Time]","latitude":43.018454,"longitude":12.165298,"accuracy":"11","context":0,"place_id":"W.j2SA9TUrsws7RG.w","woeid":"20121261","geo_is_family":0,"geo_is_friend":0,"geo_is_contact":0,"geo_is_public":1,"media":"photo","media_status":"ready"},{"id":"13474988185","owner":"101295317@N06","secret":"a767735d61","server":"3750","farm":4,"title":"Drip","ispublic":1,"isfriend":0,"isfamily":0,"safe":1,"ownername":"d_salter","latitude":53.576703,"longitude":-0.175673,"accuracy":"16","context":0,"place_id":"fFL91yhTULJKGw","woeid":"22834","geo_is_family":0,"geo_is_friend":0,"geo_is_contact":0,"geo_is_public":1,"media":"photo","media_status":"ready"},{"id":"13409718474","owner":"76550850@N04","secret":"bfc3531e51","server":"3707","farm":4,"title":"serenamente","ispublic":1,"isfriend":0,"isfamily":0,"safe":0,"ownername":"mesana62","latitude":37.377796,"longitude":-5.986856,"accuracy":"11","context":0,"place_id":"94aKf3ZWVb4cYUQ","woeid":"774508","geo_is_family":0,"geo_is_friend":0,"geo_is_contact":0,"geo_is_public":1,"media":"photo","media_status":"ready"},{"id":"13196293654","owner":"68898571@N00","secret":"d5a622937a","server":"2092","farm":3,"title":"Revital - Sonepur Mela, India","ispublic":1,"isfriend":0,"isfamily":0,"safe":1,"ownername":"Maciej Dakowicz","latitude":25.691061,"longitude":85.185322,"accuracy":"16","context":0,"place_id":"HxKJweNTULIueu3L","woeid":"2288958","geo_is_family":0,"geo_is_friend":0,"geo_is_contact":0,"geo_is_public":1,"media":"photo","media_status":"ready"},{"id":"12990633884","owner":"61674778@N07","secret":"fefeb3106f","server":"7349","farm":8,"title":"Hanneke, Amsterdam 2014: Angelic beauty","ispublic":1,"isfriend":0,"isfamily":0,"safe":0,"ownername":"mdiepraam","latitude":52.369153,"longitude":4.878916,"accuracy":"14","context":0,"place_id":"xfcEFYhWULKtjYI","woeid":"728410","geo_is_family":0,"geo_is_friend":0,"geo_is_contact":0,"geo_is_public":1,"media":"photo","media_status":"ready"},{"id":"12731567733","owner":"33363480@N05","secret":"7789b40e57","server":"7305","farm":8,"title":"Women's work ..Rajasthan .. India","ispublic":1,"isfriend":0,"isfamily":0,"safe":0,"ownername":"Nick Kenrick .","latitude":26.488828,"longitude":74.55275,"accuracy":"14","context":0,"place_id":"uXsTMnRUV7ON1_2XIQ","woeid":"55959208","geo_is_family":0,"geo_is_friend":0,"geo_is_contact":0,"geo_is_public":1,"media":"photo","media_status":"ready"},{"id":"10976246593","owner":"70139913@N02","secret":"99fcbb3e9c","server":"2847","farm":3,"title":"Guten Morgen - Good Morning","ispublic":1,"isfriend":0,"isfamily":0,"safe":0,"ownername":"MaiGoede","latitude":53.597216,"longitude":8.359136,"accuracy":"16","context":0,"place_id":"KpHKFSlXVrPMThQ","woeid":"649398","geo_is_family":0,"geo_is_friend":0,"geo_is_contact":0,"geo_is_public":1,"media":"photo","media_status":"ready"},{"id":"10718155543","owner":"49746210@N07","secret":"cc1d7174a7","server":"5480","farm":6,"title":"Silhouettes in the night","ispublic":1,"isfriend":0,"isfamily":0,"safe":1,"ownername":"Normann Photography","latitude":59.241922,"longitude":10.475283,"accuracy":"16","context":0,"place_id":"3sg7V3lZVLrsjao","woeid":"860180","geo_is_family":0,"geo_is_friend":0,"geo_is_contact":0,"geo_is_public":1,"media":"photo","media_status":"ready"},{"id":"9897805183","owner":"35110249@N05","secret":"a89dc53377","server":"2878","farm":3,"title":"Stadshaven (City harbor) of Goes","ispublic":1,"isfriend":0,"isfamily":0,"safe":1,"ownername":"Foto Martien","latitude":51.50628,"longitude":3.890605,"accuracy":"16","context":0,"place_id":"rOcUNKVWULOGl4A","woeid":"729438","geo_is_family":0,"geo_is_friend":0,"geo_is_contact":0,"geo_is_public":1,"media":"photo","media_status":"ready"},{"id":"9589088485","owner":"94734311@N03","secret":"ba0d31ddd2","server":"3728","farm":4,"title":"Peru - Machu Picchu in hiding","ispublic":1,"isfriend":0,"isfamily":0,"safe":0,"ownername":"flickfischer","latitude":-13.551969,"longitude":-72.069168,"accuracy":"11","context":0,"place_id":"LmF1RNxTUb65ZITr","woeid":"2346475","geo_is_family":0,"geo_is_friend":0,"geo_is_contact":0,"geo_is_public":1,"media":"photo","media_status":"ready"},{"id":"9447726729","owner":"90517756@N07","secret":"cf4e7a11f7","server":"2874","farm":3,"title":"Crutch","ispublic":1,"isfriend":0,"isfamily":0,"safe":1,"ownername":"Nezih Tavlas","latitude":51.503613,"longitude":-0.137329,"accuracy":"9","context":0,"place_id":"hP_s5s9VVr5Qcg","woeid":"44418","geo_is_family":0,"geo_is_friend":0,"geo_is_contact":0,"geo_is_public":1,"media":"photo","media_status":"ready"},{"id":"9326911664","owner":"90517756@N07","secret":"1e494fd47e","server":"5456","farm":6,"title":"Women's Bazaar","ispublic":1,"isfriend":0,"isfamily":0,"safe":0,"ownername":"Nezih Tavlas","latitude":37.876479,"longitude":32.499618,"accuracy":"10","context":0,"place_id":"ThRwxSBTUb7weCNl","woeid":"2344210","geo_is_family":0,"geo_is_friend":0,"geo_is_contact":0,"geo_is_public":1,"media":"photo","media_status":"ready"},{"id":"9024016580","owner":"54612410@N05","secret":"ca05147cb8","server":"3702","farm":4,"title":"besseggen - gjende - jotunheimen - norway","ispublic":1,"isfriend":0,"isfamily":0,"safe":1,"ownername":"gurou45","latitude":61.500751,"longitude":8.670959,"accuracy":"11","context":0,"place_id":"fCXtUSNZV7JYJsw","woeid":"858911","geo_is_family":0,"geo_is_friend":0,"geo_is_contact":0,"geo_is_public":1,"media":"photo","media_status":"ready"},{"id":"8936090067","owner":"25959337@N00","secret":"a850f4da77","server":"5457","farm":6,"title":"Waterfall V\u00e5tedalen","ispublic":1,"isfriend":0,"isfamily":0,"safe":0,"ownername":"Martin Ystenes - celebrating 5 million views","latitude":61.678116,"longitude":6.521286,"accuracy":"15","context":0,"place_id":"WR9wh71ZV71qmDY","woeid":"857938","geo_is_family":0,"geo_is_friend":0,"geo_is_contact":0,"geo_is_public":1,"media":"photo","media_status":"ready"},{"id":"8598994608","owner":"56398981@N03","secret":"12e3964985","server":"8234","farm":9,"title":"smarrito nella nebbia","ispublic":1,"isfriend":0,"isfamily":0,"safe":1,"ownername":"Tobia Scandolara Photographer","latitude":46.560523,"longitude":11.766113,"accuracy":"15","context":0,"place_id":"TJqLtlBWULnEox4","woeid":"723991","geo_is_family":0,"geo_is_friend":0,"geo_is_contact":0,"geo_is_public":1,"media":"photo","media_status":"ready"},{"id":"8519463870","owner":"90076467@N07","secret":"a66314d292","server":"8523","farm":9,"title":"... primeras tardes sin ella!!! \/ ... first evenings without her!!!","ispublic":1,"isfriend":0,"isfamily":0,"safe":1,"ownername":"Fede Falces (OFF & ON)","latitude":41.385719,"longitude":2.170049,"accuracy":"11","context":0,"place_id":"p.gvf6dWV7k1Gpg","woeid":"753692","geo_is_family":0,"geo_is_friend":0,"geo_is_contact":0,"geo_is_public":1,"media":"photo","media_status":"ready"},{"id":"8468422703","owner":"14835317@N04","secret":"9d99687aaa","server":"8112","farm":9,"title":"Keri\u00f0","ispublic":1,"isfriend":0,"isfamily":0,"safe":1,"ownername":"Fjola Dogg","latitude":64.039455,"longitude":-20.884666,"accuracy":"11","context":0,"place_id":"7m1CyztTUb7Ng2Ot","woeid":"2345687","geo_is_family":0,"geo_is_friend":0,"geo_is_contact":0,"geo_is_public":1,"media":"photo","media_status":"ready"},{"id":"8204802434","owner":"52674600@N02","secret":"d38812aabd","server":"8206","farm":9,"title":"Wish You Were Here","ispublic":1,"isfriend":0,"isfamily":0,"safe":0,"ownername":"Avard Woolaver","latitude":44.664746,"longitude":-63.635215,"accuracy":"11","context":0,"place_id":"JKAIZiBVU70T","woeid":"4177","geo_is_family":0,"geo_is_friend":0,"geo_is_contact":0,"geo_is_public":1,"media":"photo","media_status":"ready"},{"id":"8151136331","owner":"56398981@N03","secret":"64e7957edb","server":"7126","farm":8,"title":"ultime foglie","ispublic":1,"isfriend":0,"isfamily":0,"safe":1,"ownername":"Tobia Scandolara Photographer","latitude":45.943778,"longitude":9.464139,"accuracy":"11","context":0,"place_id":"APFWioNWU7pqb8g","woeid":"710749","geo_is_family":0,"geo_is_friend":0,"geo_is_contact":0,"geo_is_public":1,"media":"photo","media_status":"ready"},{"id":"8127802988","owner":"66790899@N05","secret":"7e429d463f","server":"8465","farm":9,"title":"Splish Splash","ispublic":1,"isfriend":0,"isfamily":0,"safe":0,"ownername":"Enricodot \u266b\u266a\u266d","latitude":27.179103,"longitude":78.021769,"accuracy":"15","context":0,"place_id":"f2HdebBUV7MO64xQ3g","woeid":"55951656","geo_is_family":0,"geo_is_friend":0,"geo_is_contact":0,"geo_is_public":1,"media":"photo","media_status":"ready"},{"id":"8113347546","owner":"39233616@N08","secret":"c01fd64373","server":"8465","farm":9,"title":"Saint Malo - Le Plongeoir","ispublic":1,"isfriend":0,"isfamily":0,"safe":1,"ownername":"Maupetit Arnaud","latitude":48.649639,"longitude":-2.028007,"accuracy":"14","context":0,"place_id":"etJASYhXUL.sLu8","woeid":"625391","geo_is_family":0,"geo_is_friend":0,"geo_is_contact":0,"geo_is_public":1,"media":"photo","media_status":"ready"},{"id":"7970693398","owner":"67833313@N08","secret":"e0ef78ac52","server":"8172","farm":9,"title":"what a wonderful world...(photo to explore)","ispublic":1,"isfriend":0,"isfamily":0,"safe":1,"ownername":"Dimitra Kirgiannaki \u266a\u00b8.\u2022*\u00b4spring-lover \u00a8\u00b4","latitude":37.676755,"longitude":23.117294,"accuracy":"11","context":0,"place_id":"JhD8DSxYV71pEns","woeid":"957889","geo_is_family":0,"geo_is_friend":0,"geo_is_contact":0,"geo_is_public":1,"media":"photo","media_status":"ready"},{"id":"7501698268","owner":"71208464@N08","secret":"d919b98048","server":"7258","farm":8,"title":"blown-away man","ispublic":1,"isfriend":0,"isfamily":0,"safe":0,"ownername":"Jake Blues Photography","latitude":50.115404,"longitude":8.681688,"accuracy":"12","context":0,"place_id":"yylkQAhXWrNEQzM","woeid":"689454","geo_is_family":0,"geo_is_friend":0,"geo_is_contact":0,"geo_is_public":1,"media":"photo","media_status":"ready"},{"id":"6992180442","owner":"44161305@N02","secret":"62e4ebfb34","server":"7073","farm":8,"title":"149 Iceland","ispublic":1,"isfriend":0,"isfamily":0,"safe":1,"ownername":"tango-","latitude":64.914227,"longitude":-18.336181,"accuracy":"5","context":0,"place_id":"Wco6JCFTUb4R6d.v","woeid":"2345693","geo_is_family":0,"geo_is_friend":0,"geo_is_contact":0,"geo_is_public":1,"media":"photo","media_status":"ready"},{"id":"7026715011","owner":"43678068@N04","secret":"62699ef7e4","server":"7225","farm":8,"title":"primavera azul","ispublic":1,"isfriend":0,"isfamily":0,"safe":0,"ownername":"feniche","latitude":39.398115,"longitude":-0.408575,"accuracy":"16","context":0,"place_id":"Ey5AYF5WV7sZ_a4","woeid":"751654","geo_is_family":0,"geo_is_friend":0,"geo_is_contact":0,"geo_is_public":1,"media":"photo","media_status":"ready"},{"id":"6859886038","owner":"44161305@N02","secret":"146c1d1c2a","server":"6056","farm":7,"title":"Jokulsarlon, Iceland, 2000 August","ispublic":1,"isfriend":0,"isfamily":0,"safe":1,"ownername":"tango-","latitude":64.914227,"longitude":-18.336181,"accuracy":"5","context":0,"place_id":"Wco6JCFTUb4R6d.v","woeid":"2345693","geo_is_family":0,"geo_is_friend":0,"geo_is_contact":0,"geo_is_public":1,"media":"photo","media_status":"ready"},{"id":"6679239605","owner":"61674778@N07","secret":"ba89ac8d4e","server":"7146","farm":8,"title":"Hanneke, Amersfoort 2011: Pondering the day","ispublic":1,"isfriend":0,"isfamily":0,"safe":0,"ownername":"mdiepraam","latitude":52.155537,"longitude":5.387994,"accuracy":"16","context":0,"place_id":"Y.lpMo1WUbv6xws","woeid":"731285","geo_is_family":0,"geo_is_friend":0,"geo_is_contact":0,"geo_is_public":1,"media":"photo","media_status":"ready"},{"id":"6284569480","owner":"56398981@N03","secret":"3a1e17d040","server":"6052","farm":7,"title":"strada disegnata","ispublic":1,"isfriend":0,"isfamily":0,"safe":1,"ownername":"Tobia Scandolara Photographer","latitude":44.931508,"longitude":9.32028,"accuracy":"16","context":0,"place_id":"OrkXnaNTUrtIouD.bQ","woeid":"20144494","geo_is_family":0,"geo_is_friend":0,"geo_is_contact":0,"geo_is_public":1,"media":"photo","media_status":"ready"},{"id":"6214926950","owner":"65166290@N00","secret":"5aed2e0289","server":"6236","farm":7,"title":"Glen Sannox","ispublic":1,"isfriend":0,"isfamily":0,"safe":0,"ownername":"Hugh Spicer \/ UIsdean Spicer","latitude":55.660642,"longitude":-5.176277,"accuracy":"11","context":0,"place_id":"YnYM65xSVrqY.Q","woeid":"34048","geo_is_family":0,"geo_is_friend":0,"geo_is_contact":0,"geo_is_public":1,"media":"photo","media_status":"ready"},{"id":"5999244877","owner":"39233616@N08","secret":"c94caf0fb2","server":"6146","farm":7,"title":"Cox","ispublic":1,"isfriend":0,"isfamily":0,"safe":1,"ownername":"Maupetit Arnaud","latitude":46.159439,"longitude":6.66996,"accuracy":"11","context":0,"place_id":"wEeEYCxXUrwxmSU","woeid":"606341","geo_is_family":0,"geo_is_friend":0,"geo_is_contact":0,"geo_is_public":1,"media":"photo","media_status":"ready"},{"id":"5980330745","owner":"44292341@N03","secret":"6b2f86b76f","server":"6027","farm":7,"title":"Cadiz Market","ispublic":1,"isfriend":0,"isfamily":0,"safe":1,"ownername":"Light+Shade [spcandler.zenfolio.com]","latitude":36.530553,"longitude":-6.298191,"accuracy":"16","context":0,"place_id":"srBs7G5WV784H04","woeid":"755404","geo_is_family":0,"geo_is_friend":0,"geo_is_contact":0,"geo_is_public":1,"media":"photo","media_status":"ready"},{"id":"5591323361","owner":"29394931@N06","secret":"e0ac4ec8cb","server":"5269","farm":6,"title":"Place de l'Alma, Paris","ispublic":1,"isfriend":0,"isfamily":0,"safe":1,"ownername":"\u2203Scape","latitude":48.864326,"longitude":2.301877,"accuracy":"16","context":0,"place_id":"WU8qo85UV7J7dLZuCw","woeid":"55843784","geo_is_family":0,"geo_is_friend":0,"geo_is_contact":0,"geo_is_public":1,"media":"photo","media_status":"ready"},{"id":"5388438404","owner":"37578663@N02","secret":"1464c9a0cf","server":"5053","farm":6,"title":"Budapest, Art Nouveau","ispublic":1,"isfriend":0,"isfamily":0,"safe":1,"ownername":"elinor04 thanks for 6 million views!","latitude":47.504146,"longitude":19.089179,"accuracy":"16","context":0,"place_id":"f6Ao8MZZU7mlW0k","woeid":"813753","geo_is_family":0,"geo_is_friend":0,"geo_is_contact":0,"geo_is_public":1,"media":"photo","media_status":"ready"},{"id":"5241028659","owner":"49384482@N08","secret":"3cd912f164","server":"5246","farm":6,"title":"Aubagne - the Top","ispublic":1,"isfriend":0,"isfamily":0,"safe":1,"ownername":"bluerockpile","latitude":43.29214,"longitude":5.568699,"accuracy":"11","context":0,"place_id":"8QwoZMlUVbzhTTw","woeid":"576999","geo_is_family":0,"geo_is_friend":0,"geo_is_contact":0,"geo_is_public":1,"media":"photo","media_status":"ready"},{"id":"5050406382","owner":"41924773@N03","secret":"b9ef1432c0","server":"4103","farm":5,"title":"Helical :: HDR","ispublic":1,"isfriend":0,"isfamily":0,"safe":1,"ownername":"servalpe","latitude":40.447883,"longitude":-3.693648,"accuracy":"16","context":0,"place_id":"DvpGBAFTUrjrLkRnbw","woeid":"20219952","geo_is_family":0,"geo_is_friend":0,"geo_is_contact":0,"geo_is_public":1,"media":"photo","media_status":"ready"},{"id":"242481262","owner":"40645538@N00","secret":"974fa0f9e5","server":"80","farm":1,"title":"Happy Weather Girl Cloudy With a Chance of Rainbows","ispublic":1,"isfriend":0,"isfamily":0,"safe":1,"ownername":"Pink Sherbet Photography","latitude":42.462469,"longitude":-71.27891,"accuracy":"16","context":0,"place_id":".8uUy8dTUbzpjw7A","woeid":"2361178","geo_is_family":0,"geo_is_friend":0,"geo_is_contact":0,"geo_is_public":1,"media":"photo","media_status":"ready"}]},"stat":"ok"}