{"photos":{"page":33,"pages":26139,"perpage":60,"total":"1568336","photo":[{"id":"14076719403","owner":"93250327@N05","secret":"16fb170ef1","server":"5240","farm":6,"title":"Time to say thank You...for 1 million views on my gallery in 14 months","ispublic":1,"isfriend":0,"isfamily":0,"safe":0,"ownername":"Patrizia Ilaria Sechi","latitude":51.513443,"longitude":-0.128746,"accuracy":"12","context":0,"place_id":"w._AYAJTUrpsS.M3xw","woeid":"20089577","geo_is_family":0,"geo_is_friend":0,"geo_is_contact":0,"geo_is_public":1,"media":"photo","media_status":"ready"},{"id":"14051479131","owner":"22897666@N00","secret":"bebb8fd05c","server":"2915","farm":3,"title":"Reflections Under An Arching Bridge *Explore*","ispublic":1,"isfriend":0,"isfamily":0,"safe":0,"ownername":"Catskills Photography","latitude":41.994711,"longitude":-73.201904,"accuracy":"10","context":0,"place_id":"DWat4qJTVrw59Hsm","woeid":"2460387","geo_is_family":0,"geo_is_friend":0,"geo_is_contact":0,"geo_is_public":1,"media":"photo","media_status":"ready"},{"id":"14073531753","owner":"45722248@N07","secret":"5d82b69fc8","server":"7199","farm":8,"title":"Outbreak","ispublic":1,"isfriend":0,"isfamily":0,"safe":0,"ownername":"ffela","latitude":52.532669,"longitude":13.382619,"accuracy":"16","context":0,"place_id":"zot2ouJXUbKOJRM","woeid":"638242","geo_is_family":0,"geo_is_friend":0,"geo_is_contact":0,"geo_is_public":1,"media":"photo","media_status":"ready"},{"id":"14073381353","owner":"36103179@N05","secret":"1e99fddb9a","server":"7243","farm":8,"title":"pose thomise ~ the crab spider's golden pose","ispublic":1,"isfriend":0,"isfamily":0,"safe":0,"ownername":"xden","latitude":43.615137,"longitude":3.872176,"accuracy":"16","context":0,"place_id":"xSGtyOFXU7jOVCU","woeid":"612977","geo_is_family":0,"geo_is_friend":0,"geo_is_contact":0,"geo_is_public":1,"media":"photo","media_status":"ready"},{"id":"14024407846","owner":"112711738@N06","secret":"ef5f1971ca","server":"2930","farm":3,"title":"Songs Of Sirens.","ispublic":1,"isfriend":0,"isfamily":0,"safe":0,"ownername":"dasanes77","latitude":36.722209,"longitude":-2.192159,"accuracy":"11","context":0,"place_id":"SW3.oBBTULzVYAHv4w","woeid":"22661164","geo_is_family":0,"geo_is_friend":0,"geo_is_contact":0,"geo_is_public":1,"media":"photo","media_status":"ready"},{"id":"14040684332","owner":"62448022@N00","secret":"6122d6e60f","server":"7071","farm":8,"title":"Single Tree","ispublic":1,"isfriend":0,"isfamily":0,"safe":0,"ownername":"Aerial Photography","latitude":48.847955,"longitude":11.961644,"accuracy":"16","context":0,"place_id":"ntcci1BXVLwLcAU","woeid":"666895","geo_is_family":0,"geo_is_friend":0,"geo_is_contact":0,"geo_is_public":1,"media":"photo","media_status":"ready"},{"id":"14035284281","owner":"39070943@N04","secret":"7f022a83da","server":"7400","farm":8,"title":"lasers","ispublic":1,"isfriend":0,"isfamily":0,"safe":0,"ownername":"Zino2009 (bob van den berg)","latitude":52.245986,"longitude":6.255855,"accuracy":"13","context":0,"place_id":"gQBEwV5WUL3aLGI","woeid":"727501","geo_is_family":0,"geo_is_friend":0,"geo_is_contact":0,"geo_is_public":1,"media":"photo","media_status":"ready"},{"id":"14038297394","owner":"43757114@N04","secret":"89b05d9701","server":"7321","farm":8,"title":"Sagrada Familia","ispublic":1,"isfriend":0,"isfamily":0,"safe":0,"ownername":"kinojam","latitude":41.402622,"longitude":2.173147,"accuracy":"16","context":0,"place_id":"IvvtAodTUrjtVEVMmA","woeid":"20220084","geo_is_family":0,"geo_is_friend":0,"geo_is_contact":0,"geo_is_public":1,"media":"photo","media_status":"ready"},{"id":"14037699425","owner":"30992106@N07","secret":"b9d729cf62","server":"5320","farm":6,"title":"126 Sekunden Sonnenuntergang","ispublic":1,"isfriend":0,"isfamily":0,"safe":0,"ownername":"J\u00f6rgenshaus","latitude":51.500982,"longitude":3.478438,"accuracy":"16","context":0,"place_id":"BDlWLuJWUb_iQXg","woeid":"735097","geo_is_family":0,"geo_is_friend":0,"geo_is_contact":0,"geo_is_public":1,"media":"photo","media_status":"ready"},{"id":"14034205444","owner":"59852454@N03","secret":"eccb0d096a","server":"2905","farm":3,"title":"Last Warning","ispublic":1,"isfriend":0,"isfamily":0,"safe":0,"ownername":"Pavel P.","latitude":49.826215,"longitude":18.205045,"accuracy":"16","context":0,"place_id":"U18vRAhWW7_Fnvo","woeid":"795610","geo_is_family":0,"geo_is_friend":0,"geo_is_contact":0,"geo_is_public":1,"media":"photo","media_status":"ready"},{"id":"14030348521","owner":"65949682@N00","secret":"79465c3785","server":"7229","farm":8,"title":"Posing for another picture","ispublic":1,"isfriend":0,"isfamily":0,"safe":0,"ownername":"OR_U","latitude":39.453558,"longitude":-0.34712,"accuracy":"16","context":0,"place_id":"vIyLPqlTUrjdN6QxyA","woeid":"20220212","geo_is_family":0,"geo_is_friend":0,"geo_is_contact":0,"geo_is_public":1,"media":"photo","media_status":"ready"},{"id":"14032100645","owner":"37708438@N05","secret":"3316327345","server":"7262","farm":8,"title":"KNIGHT OF THE ROAD","ispublic":1,"isfriend":0,"isfamily":0,"safe":0,"ownername":"kenny barker","latitude":56.020875,"longitude":-3.759109,"accuracy":"11","context":0,"place_id":"39QYR7JQULxENCi9dQ","woeid":"12696196","geo_is_family":0,"geo_is_friend":0,"geo_is_contact":0,"geo_is_public":1,"media":"photo","media_status":"ready"},{"id":"14052088063","owner":"49234145@N04","secret":"2f3aa59d99","server":"5523","farm":6,"title":"Noordhoek Beach Sunset 1","ispublic":1,"isfriend":0,"isfamily":0,"safe":0,"ownername":"David_McA","latitude":-34.096311,"longitude":18.35349,"accuracy":"12","context":0,"place_id":"mR9RZuBQV7P9aH9x","woeid":"1590917","geo_is_family":0,"geo_is_friend":0,"geo_is_contact":0,"geo_is_public":1,"media":"photo","media_status":"ready"},{"id":"14031696395","owner":"24355450@N07","secret":"7b09cc02d5","server":"7198","farm":8,"title":"Strathconon Loch and Burn.","ispublic":1,"isfriend":0,"isfamily":0,"safe":0,"ownername":"Gordie Broon.","latitude":57.521907,"longitude":-4.965906,"accuracy":"13","context":0,"place_id":"tTwfxBNSVru1bQ","woeid":"34162","geo_is_family":0,"geo_is_friend":0,"geo_is_contact":0,"geo_is_public":1,"media":"photo","media_status":"ready"},{"id":"14031483915","owner":"65949682@N00","secret":"2150035502","server":"7254","farm":8,"title":"Strategies Against Architecture","ispublic":1,"isfriend":0,"isfamily":0,"safe":0,"ownername":"OR_U","latitude":39.46958,"longitude":-0.381856,"accuracy":"16","context":0,"place_id":"aOaiaoRTUrjdUgVu0g","woeid":"20220220","geo_is_family":0,"geo_is_friend":0,"geo_is_contact":0,"geo_is_public":1,"media":"photo","media_status":"ready"},{"id":"14030823375","owner":"48988488@N04","secret":"8d45ae4923","server":"2919","farm":3,"title":"vertigo","ispublic":1,"isfriend":0,"isfamily":0,"safe":0,"ownername":"claudius1954","latitude":46.259244,"longitude":9.657969,"accuracy":"16","context":0,"place_id":"wYIBowpTW7m_DbimOw","woeid":"29335574","geo_is_family":0,"geo_is_friend":0,"geo_is_contact":0,"geo_is_public":1,"media":"photo","media_status":"ready"},{"id":"14022977812","owner":"45722248@N07","secret":"2bae9c3ff5","server":"7129","farm":8,"title":"Hidden Object","ispublic":1,"isfriend":0,"isfamily":0,"safe":0,"ownername":"ffela","latitude":52.532669,"longitude":13.382619,"accuracy":"16","context":0,"place_id":"zot2ouJXUbKOJRM","woeid":"638242","geo_is_family":0,"geo_is_friend":0,"geo_is_contact":0,"geo_is_public":1,"media":"photo","media_status":"ready"},{"id":"14019045271","owner":"21484776@N00","secret":"a8703c4557","server":"2917","farm":3,"title":"Iran","ispublic":1,"isfriend":0,"isfamily":0,"safe":0,"ownername":"Ginas Pics","latitude":29.954934,"longitude":58.359375,"accuracy":"5","context":0,"place_id":"PItzNqFTUb4heUk4","woeid":"2345788","geo_is_family":0,"geo_is_friend":0,"geo_is_contact":0,"geo_is_public":1,"media":"photo","media_status":"ready"},{"id":"14041227443","owner":"90451570@N07","secret":"59302004c5","server":"7237","farm":8,"title":"Penarth Pier","ispublic":1,"isfriend":0,"isfamily":0,"safe":0,"ownername":"CarolynEaton","latitude":51.435082,"longitude":-3.166165,"accuracy":"15","context":0,"place_id":"bmMhQzZSU7z_UQ","woeid":"31623","geo_is_family":0,"geo_is_friend":0,"geo_is_contact":0,"geo_is_public":1,"media":"photo","media_status":"ready"},{"id":"14039772483","owner":"95575326@N03","secret":"02021a125b","server":"5567","farm":6,"title":"Bowermans Nose","ispublic":1,"isfriend":0,"isfamily":0,"safe":0,"ownername":"Robgreen13","latitude":50.566711,"longitude":-3.898679,"accuracy":"10","context":0,"place_id":"jgZYP_hSUL_A.Q","woeid":"32512","geo_is_family":0,"geo_is_friend":0,"geo_is_contact":0,"geo_is_public":1,"media":"photo","media_status":"ready"},{"id":"13996427826","owner":"51035555243@N01","secret":"068a3e7d33","server":"2899","farm":3,"title":"Deeper Than","ispublic":1,"isfriend":0,"isfamily":0,"safe":0,"ownername":"Thomas Hawk","latitude":25.002486,"longitude":-40,"accuracy":"16","context":0,"geo_is_family":0,"geo_is_friend":0,"geo_is_contact":0,"geo_is_public":1,"media":"photo","media_status":"ready"},{"id":"14017997924","owner":"45899140@N03","secret":"9b9a0b551c","server":"7314","farm":8,"title":"trees in reflection","ispublic":1,"isfriend":0,"isfamily":0,"safe":0,"ownername":"Jon Downs","latitude":52.043786,"longitude":-0.7573,"accuracy":"16","context":0,"place_id":"_x44RMlTWrLlIvLBuw","woeid":"28835368","geo_is_family":0,"geo_is_friend":0,"geo_is_contact":0,"geo_is_public":1,"media":"photo","media_status":"ready"},{"id":"14017423065","owner":"65949682@N00","secret":"cafe0308b2","server":"7430","farm":8,"title":"keep smiling!","ispublic":1,"isfriend":0,"isfamily":0,"safe":0,"ownername":"OR_U","latitude":39.45321,"longitude":-0.347571,"accuracy":"16","context":0,"place_id":"vIyLPqlTUrjdN6QxyA","woeid":"20220212","geo_is_family":0,"geo_is_friend":0,"geo_is_contact":0,"geo_is_public":1,"media":"photo","media_status":"ready"},{"id":"14015615275","owner":"46059838@N04","secret":"0874f16810","server":"7338","farm":8,"title":"Kolmanskop, Namibia","ispublic":1,"isfriend":0,"isfamily":0,"safe":0,"ownername":"Marie.L.Manzor","latitude":-26.683639,"longitude":15.2349,"accuracy":"11","context":0,"place_id":"4PuO.rVQVrwgShIH","woeid":"1465229","geo_is_family":0,"geo_is_friend":0,"geo_is_contact":0,"geo_is_public":1,"media":"photo","media_status":"ready"},{"id":"13988901456","owner":"35742910@N05","secret":"7df758bf05","server":"7017","farm":8,"title":"Rapsfeld zur Blauen Stunde \/ Rapeseed field during the blue Hour","ispublic":1,"isfriend":0,"isfamily":0,"safe":0,"ownername":"Maarten Takens","latitude":51.647637,"longitude":6.469659,"accuracy":"14","context":0,"place_id":"YIWrbR1WUrJ2ND4","woeid":"708400","geo_is_family":0,"geo_is_friend":0,"geo_is_contact":0,"geo_is_public":1,"media":"photo","media_status":"ready"},{"id":"14008482942","owner":"59852454@N03","secret":"8db12fd12b","server":"7165","farm":8,"title":"Blue Shirt","ispublic":1,"isfriend":0,"isfamily":0,"safe":0,"ownername":"Pavel P.","latitude":49.824906,"longitude":18.27864,"accuracy":"14","context":0,"place_id":"pRqArnZWW77x3iM","woeid":"794224","geo_is_family":0,"geo_is_friend":0,"geo_is_contact":0,"geo_is_public":1,"media":"photo","media_status":"ready"},{"id":"14011245305","owner":"59192203@N00","secret":"6c41726cb4","server":"7126","farm":8,"title":"cap backwards","ispublic":1,"isfriend":0,"isfamily":0,"safe":0,"ownername":"Michelle Rick","latitude":40.723545,"longitude":-74.000885,"accuracy":"16","context":0,"place_id":"3EThnclTUb84UBBE3g","woeid":"23511891","geo_is_family":0,"geo_is_friend":0,"geo_is_contact":0,"geo_is_public":1,"media":"photo","media_status":"ready"},{"id":"14008110394","owner":"53794995@N05","secret":"cb3525258a","server":"5035","farm":6,"title":"Despu\u00e9s de la lluvia","ispublic":1,"isfriend":0,"isfamily":0,"safe":0,"ownername":"Helena de Riquer","latitude":41.484988,"longitude":1.287231,"accuracy":"11","context":0,"place_id":"bdyxeBtWVbjh6GM","woeid":"772089","geo_is_family":0,"geo_is_friend":0,"geo_is_contact":0,"geo_is_public":1,"media":"photo","media_status":"ready"},{"id":"13981549296","owner":"76805638@N07","secret":"00683fa6e0","server":"7093","farm":8,"title":"stray spring","ispublic":1,"isfriend":0,"isfamily":0,"safe":0,"ownername":"Sergey S Ponomarev","latitude":58.635684,"longitude":49.724292,"accuracy":"14","context":0,"place_id":"TNFhWbJTUb60weqf","woeid":"2346902","geo_is_family":0,"geo_is_friend":0,"geo_is_contact":0,"geo_is_public":1,"media":"photo","media_status":"ready"},{"id":"14000897352","owner":"26429763@N08","secret":"c29455cd4d","server":"2928","farm":3,"title":"Local History Centre, Poole, Dorset","ispublic":1,"isfriend":0,"isfamily":0,"safe":0,"ownername":"Born in The 40's.. Explored again!","latitude":50.712323,"longitude":-1.989705,"accuracy":"16","context":0,"place_id":"aoldIMxSULkIcQ","woeid":"32326","geo_is_family":0,"geo_is_friend":0,"geo_is_contact":0,"geo_is_public":1,"media":"photo","media_status":"ready"},{"id":"14000896612","owner":"46059838@N04","secret":"55da10ee63","server":"7443","farm":8,"title":"kalahari desert. Namibia","ispublic":1,"isfriend":0,"isfamily":0,"safe":0,"ownername":"Marie.L.Manzor","latitude":-22.96566,"longitude":18.486169,"accuracy":"10","context":0,"place_id":"Z1lRCjFTUb5PPkX0","woeid":"2344743","geo_is_family":0,"geo_is_friend":0,"geo_is_contact":0,"geo_is_public":1,"media":"photo","media_status":"ready"},{"id":"13999943031","owner":"34317782@N03","secret":"63442a6896","server":"7304","farm":8,"title":"Panorama Centro Niemeyer bn (explore)","ispublic":1,"isfriend":0,"isfamily":0,"safe":0,"ownername":"sairacaz","latitude":43.557287,"longitude":-5.917811,"accuracy":"15","context":0,"place_id":"fOxylQJWV7lssVg","woeid":"753332","geo_is_family":0,"geo_is_friend":0,"geo_is_contact":0,"geo_is_public":1,"media":"photo","media_status":"ready"},{"id":"14002658614","owner":"62448022@N00","secret":"9e80beedff","server":"7115","farm":8,"title":"Farmers Painting - 30","ispublic":1,"isfriend":0,"isfamily":0,"safe":0,"ownername":"Aerial Photography","latitude":48.424216,"longitude":12.037625,"accuracy":"16","context":0,"place_id":"BQPeQCBWUrg032Q","woeid":"702067","geo_is_family":0,"geo_is_friend":0,"geo_is_contact":0,"geo_is_public":1,"media":"photo","media_status":"ready"},{"id":"13998888374","owner":"99574551@N04","secret":"f7cd3fed92","server":"2906","farm":3,"title":"Golden Sundown","ispublic":1,"isfriend":0,"isfamily":0,"safe":0,"ownername":"Massmo Relsig","latitude":54.525539,"longitude":9.702215,"accuracy":"14","context":0,"place_id":"bLiDbTJTW7kO.hVkNQ","woeid":"29351194","geo_is_family":0,"geo_is_friend":0,"geo_is_contact":0,"geo_is_public":1,"media":"photo","media_status":"ready"},{"id":"13974522586","owner":"42990908@N02","secret":"dcdb1b18a5","server":"5122","farm":6,"title":"Map butterfly","ispublic":1,"isfriend":0,"isfamily":0,"safe":0,"ownername":"Wilma1962*","latitude":52.005121,"longitude":6.143331,"accuracy":"15","context":0,"place_id":"oDUO6bxWULK2Vb8","woeid":"728748","geo_is_family":0,"geo_is_friend":0,"geo_is_contact":0,"geo_is_public":1,"media":"photo","media_status":"ready"},{"id":"13997833084","owner":"44161305@N02","secret":"50e9d35b3b","server":"2925","farm":3,"title":"(Explored) G\u00f6reme, Cappadocia (Kapadokya, Turkey) 952","ispublic":1,"isfriend":0,"isfamily":0,"safe":0,"ownername":"tango-","latitude":38.645567,"longitude":34.830265,"accuracy":"12","context":0,"place_id":"OIvmaeNTUbmsxu00","woeid":"2339815","geo_is_family":0,"geo_is_friend":0,"geo_is_contact":0,"geo_is_public":1,"media":"photo","media_status":"ready"},{"id":"13994114762","owner":"66460484@N06","secret":"a2e2483786","server":"7444","farm":8,"title":"Cuando volvemos a casa?","ispublic":1,"isfriend":0,"isfamily":0,"safe":0,"ownername":"David Ruiz Luna","latitude":45.433033,"longitude":12.335602,"accuracy":"16","context":0,"place_id":"UQEdl5BTUrv2TyTgZw","woeid":"20150616","geo_is_family":0,"geo_is_friend":0,"geo_is_contact":0,"geo_is_public":1,"media":"photo","media_status":"ready"},{"id":"14015760863","owner":"73665853@N07","secret":"1c9e5a31ed","server":"5474","farm":6,"title":"Otzarretako pagoa","ispublic":1,"isfriend":0,"isfamily":0,"safe":0,"ownername":"juan luis olaeta","latitude":43.058854,"longitude":-2.714824,"accuracy":"13","context":0,"place_id":"nE3kEzBTULwSgYHWJw","woeid":"22661355","geo_is_family":0,"geo_is_friend":0,"geo_is_contact":0,"geo_is_public":1,"media":"photo","media_status":"ready"},{"id":"13971578266","owner":"48447300@N02","secret":"6a1291d32c","server":"7122","farm":8,"title":"Caithlin birdwatching","ispublic":1,"isfriend":0,"isfamily":0,"safe":0,"ownername":"Finn Frode (DK)","latitude":55.653258,"longitude":12.26984,"accuracy":"15","context":0,"place_id":"A_kOnhxUV731Hzs","woeid":"557938","geo_is_family":0,"geo_is_friend":0,"geo_is_contact":0,"geo_is_public":1,"media":"photo","media_status":"ready"},{"id":"13994483825","owner":"37708438@N05","secret":"6096a37145","server":"7301","farm":8,"title":"Walking on the sea,Walking to the moon","ispublic":1,"isfriend":0,"isfamily":0,"safe":0,"ownername":"kenny barker","latitude":55.983037,"longitude":-3.301082,"accuracy":"12","context":0,"place_id":"h6DLpG1QVbuQfg","woeid":"17185","geo_is_family":0,"geo_is_friend":0,"geo_is_contact":0,"geo_is_public":1,"media":"photo","media_status":"ready"},{"id":"13993987854","owner":"28778620@N04","secret":"dcb6d137a4","server":"5349","farm":6,"title":"April 24,,EXPLORED","ispublic":1,"isfriend":0,"isfamily":0,"safe":0,"ownername":"Ani \u2660 Melikyan","latitude":40.12429,"longitude":44.736328,"accuracy":"8","context":0,"place_id":"A.EsbzdQV7og4BQEnA","woeid":"15022525","geo_is_family":0,"geo_is_friend":0,"geo_is_contact":0,"geo_is_public":1,"media":"photo","media_status":"ready"},{"id":"13993210234","owner":"52607599@N03","secret":"0a58d366ee","server":"2923","farm":3,"title":"Sunset at Blankensee III","ispublic":1,"isfriend":0,"isfamily":0,"safe":1,"ownername":".vermilion","latitude":52.223803,"longitude":13.120422,"accuracy":"11","context":0,"place_id":"_rUlMLZXUbM5DdM","woeid":"639390","geo_is_family":0,"geo_is_friend":0,"geo_is_contact":0,"geo_is_public":1,"media":"photo","media_status":"ready"},{"id":"13988153811","owner":"58013555@N07","secret":"5d878d3649","server":"7141","farm":8,"title":"The Stacks Explored April 23rd 2014. Thank you Flikr friends x","ispublic":1,"isfriend":0,"isfamily":0,"safe":0,"ownername":"Vide Cor Meum Images","latitude":52.338854,"longitude":-0.601577,"accuracy":"13","context":0,"place_id":"katN5e9TVr_ngQ","woeid":"24541","geo_is_family":0,"geo_is_friend":0,"geo_is_contact":0,"geo_is_public":1,"media":"photo","media_status":"ready"},{"id":"13987316164","owner":"20905078@N04","secret":"d2457c63b7","server":"2920","farm":3,"title":"","ispublic":1,"isfriend":0,"isfamily":0,"safe":0,"ownername":"patrickjoust","latitude":44.415568,"longitude":-70.840295,"accuracy":"16","context":0,"place_id":"wfleNCJTUbw5TNx6","woeid":"2363479","geo_is_family":0,"geo_is_friend":0,"geo_is_contact":0,"geo_is_public":1,"media":"photo","media_status":"ready"},{"id":"14005774333","owner":"7132158@N07","secret":"9dc77b5bca","server":"2928","farm":3,"title":"You cannot change the wind, but you can adjust the sails to get where you want","ispublic":1,"isfriend":0,"isfamily":0,"safe":0,"ownername":"Rui Almeida.","latitude":39.601852,"longitude":-9.07505,"accuracy":"14","context":0,"place_id":"x0KOSJ1WVr4YRmY","woeid":"744516","geo_is_family":0,"geo_is_friend":0,"geo_is_contact":0,"geo_is_public":1,"media":"photo","media_status":"ready"},{"id":"14002115553","owner":"94015342@N04","secret":"a86a098172","server":"2933","farm":3,"title":"'Chunks of Gold' - Porth Swtan\/Church Bay, Anglesey","ispublic":1,"isfriend":0,"isfamily":0,"safe":0,"ownername":"Adrian Kingsley-Hughes","latitude":53.367557,"longitude":-4.557909,"accuracy":"14","context":0,"place_id":"E88kYYJSUbiE0A","woeid":"33258","geo_is_family":0,"geo_is_friend":0,"geo_is_contact":0,"geo_is_public":1,"media":"photo","media_status":"ready"},{"id":"13980970374","owner":"63947271@N06","secret":"30f62f1504","server":"7240","farm":8,"title":"The Last Stand","ispublic":1,"isfriend":0,"isfamily":0,"safe":0,"ownername":"S l a w e k","latitude":50.691238,"longitude":-4.008293,"accuracy":"11","context":0,"place_id":"PLDCjDdQULx9ZelyCg","woeid":"12695921","geo_is_family":0,"geo_is_friend":0,"geo_is_contact":0,"geo_is_public":1,"media":"photo","media_status":"ready"},{"id":"13980636534","owner":"30858303@N04","secret":"a9ccecd6a9","server":"7410","farm":8,"title":"The Lighthouse","ispublic":1,"isfriend":0,"isfamily":0,"safe":0,"ownername":"DavidFrutos","latitude":38.505821,"longitude":-0.23272,"accuracy":"11","context":0,"place_id":"5PGGVGlWVb3AUMc","woeid":"777782","geo_is_family":0,"geo_is_friend":0,"geo_is_contact":0,"geo_is_public":1,"media":"photo","media_status":"ready"},{"id":"13971331352","owner":"92719325@N07","secret":"f39e8a7751","server":"2931","farm":3,"title":"through the window","ispublic":1,"isfriend":0,"isfamily":0,"safe":0,"ownername":"rapunzel2901","latitude":48.181654,"longitude":16.304783,"accuracy":"16","context":0,"place_id":"ickNFDRUV7v9KBw","woeid":"551785","geo_is_family":0,"geo_is_friend":0,"geo_is_contact":0,"geo_is_public":1,"media":"photo","media_status":"ready"},{"id":"13970875221","owner":"38134034@N04","secret":"fe631d7325","server":"7187","farm":8,"title":"Sunset on the shore","ispublic":1,"isfriend":0,"isfamily":0,"safe":0,"ownername":"blavandmaster","latitude":55.54399,"longitude":8.130741,"accuracy":"13","context":0,"place_id":"HjovhuRUV7gwujw","woeid":"552390","geo_is_family":0,"geo_is_friend":0,"geo_is_contact":0,"geo_is_public":1,"media":"photo","media_status":"ready"},{"id":"13969704252","owner":"53196512@N07","secret":"c7244e41cd","server":"2905","farm":3,"title":"Gallery Forest, Bohinj Jezero","ispublic":1,"isfriend":0,"isfamily":0,"safe":0,"ownername":"flatworldsedge","latitude":46.277456,"longitude":13.883968,"accuracy":"14","context":0,"place_id":"xb6SG2BTUb2eXvMLJA","woeid":"23701302","geo_is_family":0,"geo_is_friend":0,"geo_is_contact":0,"geo_is_public":1,"media":"photo","media_status":"ready"},{"id":"13966829422","owner":"89765119@N06","secret":"fdd6927dda","server":"7365","farm":8,"title":"At the fjord (Explore)","ispublic":1,"isfriend":0,"isfamily":0,"safe":0,"ownername":"Vidar Ringstad, Norway","latitude":59.894835,"longitude":10.674945,"accuracy":"16","context":0,"place_id":"ht3te0RZV73WBu0","woeid":"857713","geo_is_family":0,"geo_is_friend":0,"geo_is_contact":0,"geo_is_public":1,"media":"photo","media_status":"ready"},{"id":"13941180501","owner":"49036575@N02","secret":"b343c5cf28","server":"7122","farm":8,"title":"Back of Notre-Dame, Paris.","ispublic":1,"isfriend":0,"isfamily":0,"safe":0,"ownername":"Zed The Dragon","latitude":48.8521,"longitude":2.353466,"accuracy":"16","context":0,"place_id":"l6ezWo1UV7J685f0sQ","woeid":"55843761","geo_is_family":0,"geo_is_friend":0,"geo_is_contact":0,"geo_is_public":1,"media":"photo","media_status":"ready"},{"id":"13803685444","owner":"14473732@N00","secret":"c5c77cecb9","server":"3692","farm":4,"title":"looking for atlantis","ispublic":1,"isfriend":0,"isfamily":0,"safe":0,"ownername":"jesuscm","latitude":38.710562,"longitude":-9.487209,"accuracy":"12","context":0,"place_id":"bqD38lBWUbP00eQ","woeid":"739040","geo_is_family":0,"geo_is_friend":0,"geo_is_contact":0,"geo_is_public":1,"media":"photo","media_status":"ready"},{"id":"13762330314","owner":"75509492@N07","secret":"2e1912fcf0","server":"5080","farm":6,"title":"Oslo 1.9, Norway","ispublic":1,"isfriend":0,"isfamily":0,"safe":0,"ownername":"knutsi12","latitude":59.816775,"longitude":10.582675,"accuracy":"16","context":0,"place_id":"d8yTFdZZV7IMVsc","woeid":"858480","geo_is_family":0,"geo_is_friend":0,"geo_is_contact":0,"geo_is_public":1,"media":"photo","media_status":"ready"},{"id":"13724253545","owner":"42903611@N00","secret":"18fca996e0","server":"7306","farm":8,"title":"Vision...","ispublic":1,"isfriend":0,"isfamily":0,"safe":0,"ownername":"rogilde - roberto la forgia","latitude":55.676311,"longitude":12.56935,"accuracy":"11","context":0,"place_id":"iHGCOnNUV75MYM0","woeid":"554890","geo_is_family":0,"geo_is_friend":0,"geo_is_contact":0,"geo_is_public":1,"media":"photo","media_status":"ready"},{"id":"13471680044","owner":"95104112@N05","secret":"b497806425","server":"2878","farm":3,"title":"Just a Peek, Parga, Greece","ispublic":1,"isfriend":0,"isfamily":0,"safe":1,"ownername":"nouregef","latitude":39.28316,"longitude":20.398757,"accuracy":"16","context":0,"place_id":"6033SAxYV7OUmsU","woeid":"959329","geo_is_family":0,"geo_is_friend":0,"geo_is_contact":0,"geo_is_public":1,"media":"photo","media_status":"ready"},{"id":"12992608674","owner":"61674778@N07","secret":"8acdd7f64b","server":"2232","farm":3,"title":"Hanneke, Amsterdam 2014: A look of mystery","ispublic":1,"isfriend":0,"isfamily":0,"safe":0,"ownername":"mdiepraam","latitude":52.369153,"longitude":4.878916,"accuracy":"14","context":0,"place_id":"xfcEFYhWULKtjYI","woeid":"728410","geo_is_family":0,"geo_is_friend":0,"geo_is_contact":0,"geo_is_public":1,"media":"photo","media_status":"ready"},{"id":"12946458013","owner":"61674778@N07","secret":"cdbecf20e7","server":"3767","farm":4,"title":"Hanneke, Amsterdam 2014: Grasping for coffee","ispublic":1,"isfriend":0,"isfamily":0,"safe":0,"ownername":"mdiepraam","latitude":52.369153,"longitude":4.878916,"accuracy":"14","context":0,"place_id":"xfcEFYhWULKtjYI","woeid":"728410","geo_is_family":0,"geo_is_friend":0,"geo_is_contact":0,"geo_is_public":1,"media":"photo","media_status":"ready"},{"id":"12117014354","owner":"52515510@N04","secret":"8a3322894f","server":"7381","farm":8,"title":"F-2000 Mirage na CRUZEX 2013","ispublic":1,"isfriend":0,"isfamily":0,"safe":1,"ownername":"For\u00e7a A\u00e9rea Brasileira - P\u00e1gina Oficial","latitude":-5.90546,"longitude":-35.24605,"accuracy":"16","context":0,"place_id":"l0ycYmpVVriacd0","woeid":"442895","geo_is_family":0,"geo_is_friend":0,"geo_is_contact":0,"geo_is_public":1,"media":"photo","media_status":"ready"}]},"stat":"ok"}