{"photos":{"page":25,"pages":26136,"perpage":60,"total":"1568122","photo":[{"id":"14046156257","owner":"55648226@N03","secret":"aae1ee6d8d","server":"5480","farm":6,"title":"Shambles.","ispublic":1,"isfriend":0,"isfamily":0,"safe":0,"ownername":"Shawn Harquail","latitude":46.067373,"longitude":-65.275511,"accuracy":"16","context":0,"place_id":"nc_o495TUbnWjEiNeg","woeid":"23392701","geo_is_family":0,"geo_is_friend":0,"geo_is_contact":0,"geo_is_public":1,"media":"photo","media_status":"ready"},{"id":"14044690318","owner":"71646081@N05","secret":"50dbbd21e5","server":"5076","farm":6,"title":"N345AB(43-30652)W7 Douglas C-47A Skytrain Glasgow Prestwick 20\/5\/14","ispublic":1,"isfriend":0,"isfamily":0,"safe":0,"ownername":"Pwkman","latitude":55.509388,"longitude":-4.611704,"accuracy":"16","context":0,"place_id":"LxGAW95SULz7Vw","woeid":"32600","geo_is_family":0,"geo_is_friend":0,"geo_is_contact":0,"geo_is_public":1,"media":"photo","media_status":"ready"},{"id":"14043277178","owner":"94855723@N03","secret":"eef7baf4d7","server":"5576","farm":6,"title":"Tilfredshet Kapell \u2013 Tilfredshet Chapell","ispublic":1,"isfriend":0,"isfamily":0,"safe":0,"ownername":"ArveBerntzen","latitude":63.416729,"longitude":10.390416,"accuracy":"16","context":0,"place_id":"kInlOrxTUrot_ZxkRg","woeid":"20099969","geo_is_family":0,"geo_is_friend":0,"geo_is_contact":0,"geo_is_public":1,"media":"photo","media_status":"ready"},{"id":"14245639613","owner":"53196512@N07","secret":"52fd401c25","server":"2904","farm":3,"title":"Anna (Stranger #46\/100), Paris Notre Dame","ispublic":1,"isfriend":0,"isfamily":0,"safe":0,"ownername":"flatworldsedge","latitude":48.854004,"longitude":2.347569,"accuracy":"16","context":0,"place_id":"l6ezWo1UV7J685f0sQ","woeid":"55843761","geo_is_family":0,"geo_is_friend":0,"geo_is_contact":0,"geo_is_public":1,"media":"photo","media_status":"ready"},{"id":"14223720314","owner":"52735684@N07","secret":"9d3615852b","server":"2904","farm":3,"title":"Chioggia - 14051406","ispublic":1,"isfriend":0,"isfamily":0,"safe":0,"ownername":"Klaus Kehrls","latitude":45.220772,"longitude":12.280161,"accuracy":"16","context":0,"place_id":"HAN1d5VWU77v0Fk","woeid":"714016","geo_is_family":0,"geo_is_friend":0,"geo_is_contact":0,"geo_is_public":1,"media":"photo","media_status":"ready"},{"id":"14243897313","owner":"8089996@N06","secret":"90475e1ce1","server":"2928","farm":3,"title":"Sunset at the Rock Cemetery","ispublic":1,"isfriend":0,"isfamily":0,"safe":0,"ownername":"DaveKav","latitude":52.964658,"longitude":-1.154329,"accuracy":"16","context":0,"place_id":"M0Ml2yRSVrzkLQ","woeid":"34600","geo_is_family":0,"geo_is_friend":0,"geo_is_contact":0,"geo_is_public":1,"media":"photo","media_status":"ready"},{"id":"14036193209","owner":"44962378@N08","secret":"0a788040b0","server":"2919","farm":3,"title":"Confidenze.","ispublic":1,"isfriend":0,"isfamily":0,"safe":0,"ownername":"FilippoMarchi\uf8ff\uf8ff\uf8ff","latitude":42.438366,"longitude":11.210949,"accuracy":"16","context":0,"place_id":"E54Ej_1WU7Oz2h0","woeid":"719557","geo_is_family":0,"geo_is_friend":0,"geo_is_contact":0,"geo_is_public":1,"media":"photo","media_status":"ready"},{"id":"14218286041","owner":"79688583@N03","secret":"4a919288d8","server":"2931","farm":3,"title":"London","ispublic":1,"isfriend":0,"isfamily":0,"safe":0,"ownername":"Jamie Frith","latitude":51.500341,"longitude":-0.117781,"accuracy":"15","context":0,"place_id":"mGtVnjtVUbiyqA","woeid":"43203","geo_is_family":0,"geo_is_friend":0,"geo_is_contact":0,"geo_is_public":1,"media":"photo","media_status":"ready"},{"id":"14190506256","owner":"89218664@N00","secret":"83b7980286","server":"5559","farm":6,"title":"May Afternoon","ispublic":1,"isfriend":0,"isfamily":0,"safe":0,"ownername":"Tati@","latitude":39.126398,"longitude":9.513902,"accuracy":"14","context":0,"place_id":"1nYaIFdWULwDYAA","woeid":"726201","geo_is_family":0,"geo_is_friend":0,"geo_is_contact":0,"geo_is_public":1,"media":"photo","media_status":"ready"},{"id":"14026779739","owner":"45686660@N02","secret":"d1af6213b6","server":"2936","farm":3,"title":"Trapani, Piazza del Mercato del Pesce","ispublic":1,"isfriend":0,"isfamily":0,"safe":0,"ownername":"forastico","latitude":38.018348,"longitude":12.51366,"accuracy":"11","context":0,"place_id":"8KrfnMdWUL_7xC4","woeid":"725194","geo_is_family":0,"geo_is_friend":0,"geo_is_contact":0,"geo_is_public":1,"media":"photo","media_status":"ready"},{"id":"14190077546","owner":"53340207@N07","secret":"19de010ff7","server":"2914","farm":3,"title":"Agapanthes","ispublic":1,"isfriend":0,"isfamily":0,"safe":0,"ownername":"Pifou 2010","latitude":43.599786,"longitude":6.997604,"accuracy":"10","context":0,"place_id":"NJvLvJBXU7k4Zq8","woeid":"613418","geo_is_family":0,"geo_is_friend":0,"geo_is_contact":0,"geo_is_public":1,"media":"photo","media_status":"ready"},{"id":"14210997734","owner":"37708438@N05","secret":"1e81d8190f","server":"5562","farm":6,"title":"The Arteries of Spring","ispublic":1,"isfriend":0,"isfamily":0,"safe":0,"ownername":"kenny barker","latitude":56.007288,"longitude":-3.836425,"accuracy":"10","context":0,"place_id":"HZ280wZTV7L1Qg","woeid":"25842","geo_is_family":0,"geo_is_friend":0,"geo_is_contact":0,"geo_is_public":1,"media":"photo","media_status":"ready"},{"id":"14201550325","owner":"14568674@N08","secret":"23475212ca","server":"5238","farm":6,"title":"Silhouettes \u00e0 Etretat","ispublic":1,"isfriend":0,"isfamily":0,"safe":0,"ownername":"Titi92.","latitude":49.70814,"longitude":0.201791,"accuracy":"15","context":0,"place_id":"agZvH55UW7rnH2o","woeid":"590324","geo_is_family":0,"geo_is_friend":0,"geo_is_contact":0,"geo_is_public":1,"media":"photo","media_status":"ready"},{"id":"14009922067","owner":"34911734@N07","secret":"1afcf6559f","server":"2925","farm":3,"title":"The Shadows","ispublic":1,"isfriend":0,"isfamily":0,"safe":0,"ownername":"Worthing Wanderer","latitude":50.860826,"longitude":-0.384015,"accuracy":"14","context":0,"place_id":"HzabUPBTUro999BczA","woeid":"20093462","geo_is_family":0,"geo_is_friend":0,"geo_is_contact":0,"geo_is_public":1,"media":"photo","media_status":"ready"},{"id":"14006495520","owner":"15133799@N02","secret":"85552077aa","server":"7392","farm":8,"title":"Torups Slott","ispublic":1,"isfriend":0,"isfamily":0,"safe":0,"ownername":"*Kicki*","latitude":55.566213,"longitude":13.208913,"accuracy":"13","context":0,"place_id":"bnXYQ9xTW7iywbzDeQ","woeid":"29282120","geo_is_family":0,"geo_is_friend":0,"geo_is_contact":0,"geo_is_public":1,"media":"photo","media_status":"ready"},{"id":"14003042620","owner":"34911734@N07","secret":"f59d1fbdc1","server":"5523","farm":6,"title":"Vulnerable","ispublic":1,"isfriend":0,"isfamily":0,"safe":0,"ownername":"Worthing Wanderer","latitude":50.860826,"longitude":-0.384015,"accuracy":"14","context":0,"place_id":"HzabUPBTUro999BczA","woeid":"20093462","geo_is_family":0,"geo_is_friend":0,"geo_is_contact":0,"geo_is_public":1,"media":"photo","media_status":"ready"},{"id":"14163907446","owner":"15133799@N02","secret":"244a8af387","server":"7444","farm":8,"title":"Triangeln","ispublic":1,"isfriend":0,"isfamily":0,"safe":0,"ownername":"*Kicki*","latitude":55.591975,"longitude":13.001332,"accuracy":"14","context":0,"place_id":"8Zg6tTxYUr.moa4","woeid":"905083","geo_is_family":0,"geo_is_friend":0,"geo_is_contact":0,"geo_is_public":1,"media":"photo","media_status":"ready"},{"id":"14182614361","owner":"62597931@N02","secret":"a8b495ffb4","server":"7378","farm":8,"title":"Between Tunnels","ispublic":1,"isfriend":0,"isfamily":0,"safe":0,"ownername":"Jim the Joker","latitude":54.332766,"longitude":-2.319531,"accuracy":"15","context":0,"place_id":"fCm9vSVTVbOwTA","woeid":"27973","geo_is_family":0,"geo_is_friend":0,"geo_is_contact":0,"geo_is_public":1,"media":"photo","media_status":"ready"},{"id":"14205572453","owner":"76238381@N08","secret":"76e41db98c","server":"7378","farm":8,"title":"Abbazia di San Galgano","ispublic":1,"isfriend":0,"isfamily":0,"safe":0,"ownername":"Sandra's Weeds-Traveling -intermittent connection","latitude":43.286203,"longitude":11.258926,"accuracy":"10","context":0,"place_id":"mtjPrX1TUrt9qG9vHQ","woeid":"20149088","geo_is_family":0,"geo_is_friend":0,"geo_is_contact":0,"geo_is_public":1,"media":"photo","media_status":"ready"},{"id":"14180258234","owner":"76238381@N08","secret":"88be018221","server":"7365","farm":8,"title":"Good Morning Tuscany","ispublic":1,"isfriend":0,"isfamily":0,"safe":0,"ownername":"Sandra's Weeds-Traveling -intermittent connection","latitude":43.061613,"longitude":11.603622,"accuracy":"11","context":0,"place_id":"Baywkq9QULyW1B9VmQ","woeid":"12676449","geo_is_family":0,"geo_is_friend":0,"geo_is_contact":0,"geo_is_public":1,"media":"photo","media_status":"ready"},{"id":"13990316968","owner":"112711738@N06","secret":"a410922a0b","server":"7423","farm":8,"title":"Splashing The SunRays.","ispublic":1,"isfriend":0,"isfamily":0,"safe":0,"ownername":"dasanes77","latitude":39.6156,"longitude":-0.30088,"accuracy":"11","context":0,"place_id":".ihsmPBWVbto06E","woeid":"771079","geo_is_family":0,"geo_is_friend":0,"geo_is_contact":0,"geo_is_public":1,"media":"photo","media_status":"ready"},{"id":"14169771071","owner":"77190669@N06","secret":"efcc70fd09","server":"2940","farm":3,"title":"Detalle","ispublic":1,"isfriend":0,"isfamily":0,"safe":0,"ownername":"Daroo Fotografia","latitude":-34.618159,"longitude":-58.476018,"accuracy":"16","context":0,"place_id":"4.e4oO9TUL8m7eo_1w","woeid":"22530018","geo_is_family":0,"geo_is_friend":0,"geo_is_contact":0,"geo_is_public":1,"media":"photo","media_status":"ready"},{"id":"13985503477","owner":"30477482@N00","secret":"3b4d4c7b0d","server":"2917","farm":3,"title":"Goldfinch (Explored on 12th May 2014)","ispublic":1,"isfriend":0,"isfamily":0,"safe":0,"ownername":"Oliver St\u00f6r","latitude":50.011158,"longitude":8.577404,"accuracy":"14","context":0,"place_id":"Qxznr_BTUrvofiSmMg","woeid":"20162174","geo_is_family":0,"geo_is_friend":0,"geo_is_contact":0,"geo_is_public":1,"media":"photo","media_status":"ready"},{"id":"13982713620","owner":"76458369@N07","secret":"d2dc536f69","server":"7297","farm":8,"title":"","ispublic":1,"isfriend":0,"isfamily":0,"safe":0,"ownername":"Eric Goncalves","latitude":51.793965,"longitude":-2.566852,"accuracy":"13","context":0,"place_id":"hVIJNVZQV7o.hA","woeid":"15044","geo_is_family":0,"geo_is_friend":0,"geo_is_contact":0,"geo_is_public":1,"media":"photo","media_status":"ready"},{"id":"13981925799","owner":"24355450@N07","secret":"b2c28a103e","server":"7436","farm":8,"title":"May Day Sunset..","ispublic":1,"isfriend":0,"isfamily":0,"safe":1,"ownername":"Gordie Broon.","latitude":57.325223,"longitude":-4.266901,"accuracy":"13","context":0,"place_id":"otLd97dQVblhVw","woeid":"17331","geo_is_family":0,"geo_is_friend":0,"geo_is_contact":0,"geo_is_public":1,"media":"photo","media_status":"ready"},{"id":"13975928459","owner":"91902221@N04","secret":"a614767641","server":"7371","farm":8,"title":"divergent","ispublic":1,"isfriend":0,"isfamily":0,"safe":0,"ownername":"Dan_W8","latitude":51.500435,"longitude":-0.194449,"accuracy":"16","context":0,"place_id":"S0oVE6xTVr3ajw","woeid":"24796","geo_is_family":0,"geo_is_friend":0,"geo_is_contact":0,"geo_is_public":1,"media":"photo","media_status":"ready"},{"id":"14157994652","owner":"16854222@N05","secret":"0fedd40631","server":"5574","farm":6,"title":"Rain-Bow","ispublic":1,"isfriend":0,"isfamily":0,"safe":0,"ownername":"AnyMotion","latitude":50.123271,"longitude":8.6804,"accuracy":"16","context":0,"place_id":"Z0FRRfRXV7oIeew","woeid":"650272","geo_is_family":0,"geo_is_friend":0,"geo_is_contact":0,"geo_is_public":1,"media":"photo","media_status":"ready"},{"id":"13973274679","owner":"62597931@N02","secret":"4b680786e4","server":"2917","farm":3,"title":"Batty Moss Cherry Colas","ispublic":1,"isfriend":0,"isfamily":0,"safe":0,"ownername":"Jim the Joker","latitude":54.210949,"longitude":-2.370729,"accuracy":"14","context":0,"place_id":"c0_c6BdQV7x8Xw","woeid":"15620","geo_is_family":0,"geo_is_friend":0,"geo_is_contact":0,"geo_is_public":1,"media":"photo","media_status":"ready"},{"id":"14153016164","owner":"62815410@N04","secret":"a2221c455a","server":"7406","farm":8,"title":"\u043c\u0430\u0442\u0440\u0451\u0448\u043a\u0430 (brescia, italy)","ispublic":1,"isfriend":0,"isfamily":0,"safe":0,"ownername":"bloodybee","latitude":45.536152,"longitude":10.233464,"accuracy":"16","context":0,"place_id":"WO1uGLRWU7u69ps","woeid":"711410","geo_is_family":0,"geo_is_friend":0,"geo_is_contact":0,"geo_is_public":1,"media":"photo","media_status":"ready"},{"id":"14151450625","owner":"26849514@N06","secret":"2657cdbd06","server":"5102","farm":6,"title":"A half-timbered bridgehouse over the Grube, Wismar, Germany","ispublic":1,"isfriend":0,"isfamily":0,"safe":0,"ownername":"Frans.Sellies","latitude":53.895197,"longitude":11.460521,"accuracy":"16","context":0,"place_id":"HcRMSrJWUr0VGK0","woeid":"707241","geo_is_family":0,"geo_is_friend":0,"geo_is_contact":0,"geo_is_public":1,"media":"photo","media_status":"ready"},{"id":"13964289038","owner":"39130983@N04","secret":"7841e326c3","server":"5151","farm":6,"title":"Fields Of Gold (Campi di Oro)","ispublic":1,"isfriend":0,"isfamily":0,"safe":0,"ownername":"Giovanni Giannandrea","latitude":56.463245,"longitude":-3.191528,"accuracy":"11","context":0,"place_id":"VE_IOGRQUrgzMw","woeid":"10281","geo_is_family":0,"geo_is_friend":0,"geo_is_contact":0,"geo_is_public":1,"media":"photo","media_status":"ready"},{"id":"14140008621","owner":"41558538@N02","secret":"7225749127","server":"5520","farm":6,"title":"Mittelalterliche Abteilung - Medieval Department","ispublic":1,"isfriend":0,"isfamily":0,"safe":0,"ownername":"vampire-carmen","latitude":40.779306,"longitude":-73.96349,"accuracy":"16","context":0,"place_id":"zzA0hmBTUb9GY797pA","woeid":"23511893","geo_is_family":0,"geo_is_friend":0,"geo_is_contact":0,"geo_is_public":1,"media":"photo","media_status":"ready"},{"id":"13954203727","owner":"53196512@N07","secret":"5bcb4f613d","server":"2929","farm":3,"title":"Morning Light On Ojstrica, Logarska Dolina","ispublic":1,"isfriend":0,"isfamily":0,"safe":0,"ownername":"flatworldsedge","latitude":46.397561,"longitude":14.630334,"accuracy":"15","context":0,"place_id":"eXTe2JlUUbvBHE8","woeid":"531630","geo_is_family":0,"geo_is_friend":0,"geo_is_contact":0,"geo_is_public":1,"media":"photo","media_status":"ready"},{"id":"14135448951","owner":"8188882@N05","secret":"e7225d2c65","server":"5232","farm":6,"title":"Pont d'Alma, Paris. HDR","ispublic":1,"isfriend":0,"isfamily":0,"safe":0,"ownername":"DinosaursAreNotDead","latitude":48.863345,"longitude":2.301785,"accuracy":"15","context":0,"place_id":"WU8qo85UV7J7dLZuCw","woeid":"55843784","geo_is_family":0,"geo_is_friend":0,"geo_is_contact":0,"geo_is_public":1,"media":"photo","media_status":"ready"},{"id":"14138974834","owner":"60913863@N08","secret":"fa618531f7","server":"7296","farm":8,"title":"Foce del Po (Mouth of the River Po)","ispublic":1,"isfriend":0,"isfamily":0,"safe":0,"ownername":"Goethe58","latitude":44.849031,"longitude":12.465898,"accuracy":"16","context":0,"place_id":"OTObQvxTW7nhAVWEDg","woeid":"29342936","geo_is_family":0,"geo_is_friend":0,"geo_is_contact":0,"geo_is_public":1,"media":"photo","media_status":"ready"},{"id":"13951789937","owner":"100063725@N06","secret":"16c3f00177","server":"2903","farm":3,"title":"Hermosa dorada","ispublic":1,"isfriend":0,"isfamily":0,"safe":0,"ownername":"Antonio Chac","latitude":36.507644,"longitude":-4.872264,"accuracy":"16","context":0,"place_id":"b6ANCk5WVLwQivI","woeid":"766537","geo_is_family":0,"geo_is_friend":0,"geo_is_contact":0,"geo_is_public":1,"media":"photo","media_status":"ready"},{"id":"13950469397","owner":"62815410@N04","secret":"cd38714586","server":"7372","farm":8,"title":"expect the unexpected (brescia, italy)","ispublic":1,"isfriend":0,"isfamily":0,"safe":0,"ownername":"bloodybee","latitude":45.536107,"longitude":10.23415,"accuracy":"16","context":0,"place_id":"WO1uGLRWU7u69ps","woeid":"711410","geo_is_family":0,"geo_is_friend":0,"geo_is_contact":0,"geo_is_public":1,"media":"photo","media_status":"ready"},{"id":"14157079723","owner":"94855723@N03","secret":"e89fcac7e1","server":"7332","farm":8,"title":"Vingrom Kirke \u2013 Vingrom Church","ispublic":1,"isfriend":0,"isfamily":0,"safe":0,"ownername":"ArveBerntzen","latitude":61.068999,"longitude":10.426883,"accuracy":"12","context":0,"place_id":"RLb0aNZZVL.euIE","woeid":"865823","geo_is_family":0,"geo_is_friend":0,"geo_is_contact":0,"geo_is_public":1,"media":"photo","media_status":"ready"},{"id":"14113252396","owner":"43372015@N02","secret":"ea9b093087","server":"7334","farm":8,"title":"BB MAGIC","ispublic":1,"isfriend":0,"isfamily":0,"safe":0,"ownername":"Galway Pete.","latitude":53.091549,"longitude":-8.21228,"accuracy":"10","context":0,"place_id":"pSo46J9UVLtS.Tk","woeid":"561978","geo_is_family":0,"geo_is_friend":0,"geo_is_contact":0,"geo_is_public":1,"media":"photo","media_status":"ready"},{"id":"14133477742","owner":"66644631@N05","secret":"81daff901f","server":"7397","farm":8,"title":"Versailles castle","ispublic":1,"isfriend":0,"isfamily":0,"safe":0,"ownername":"jmlpyt","latitude":48.801929,"longitude":2.131119,"accuracy":"11","context":0,"place_id":"RtpMgPNXUbrqF08","woeid":"630908","geo_is_family":0,"geo_is_friend":0,"geo_is_contact":0,"geo_is_public":1,"media":"photo","media_status":"ready"},{"id":"14132596661","owner":"88083861@N03","secret":"7b4d6ba075","server":"2937","farm":3,"title":"Sniffing","ispublic":1,"isfriend":0,"isfamily":0,"safe":0,"ownername":"Gikon","latitude":51.06731,"longitude":5.08758,"accuracy":"11","context":0,"place_id":"JKsyMSFYVb2JYe4","woeid":"977732","geo_is_family":0,"geo_is_friend":0,"geo_is_contact":0,"geo_is_public":1,"media":"photo","media_status":"ready"},{"id":"13945003277","owner":"57464079@N03","secret":"d3363e8c05","server":"5199","farm":6,"title":"39","ispublic":1,"isfriend":0,"isfamily":0,"safe":0,"ownername":"sandroraffini","latitude":44.476829,"longitude":11.407894,"accuracy":"11","context":0,"place_id":"DgCuL_FWULgO4wM","woeid":"722709","geo_is_family":0,"geo_is_friend":0,"geo_is_contact":0,"geo_is_public":1,"media":"photo","media_status":"ready"},{"id":"14151612433","owner":"30477482@N00","secret":"1bed617cf5","server":"5488","farm":6,"title":"Touchdown (Explored on 7th May 2014)","ispublic":1,"isfriend":0,"isfamily":0,"safe":0,"ownername":"Oliver St\u00f6r","latitude":49.980812,"longitude":8.508224,"accuracy":"11","context":0,"place_id":"Qxznr_BTUrvofiSmMg","woeid":"20162174","geo_is_family":0,"geo_is_friend":0,"geo_is_contact":0,"geo_is_public":1,"media":"photo","media_status":"ready"},{"id":"13944770829","owner":"54894481@N04","secret":"a8cb4e5a4c","server":"7449","farm":8,"title":"Under the bridge of sighs","ispublic":1,"isfriend":0,"isfamily":0,"safe":0,"ownername":"3peaker","latitude":53.135392,"longitude":-2.698173,"accuracy":"13","context":0,"place_id":"GIqnvGVTVrguGQ","woeid":"24252","geo_is_family":0,"geo_is_friend":0,"geo_is_contact":0,"geo_is_public":1,"media":"photo","media_status":"ready"},{"id":"14107907266","owner":"16854222@N05","secret":"4ab8a6b956","server":"7297","farm":8,"title":"A New Beauty","ispublic":1,"isfriend":0,"isfamily":0,"safe":0,"ownername":"AnyMotion","latitude":50.123271,"longitude":8.6804,"accuracy":"16","context":0,"place_id":"Z0FRRfRXV7oIeew","woeid":"650272","geo_is_family":0,"geo_is_friend":0,"geo_is_contact":0,"geo_is_public":1,"media":"photo","media_status":"ready"},{"id":"13943958219","owner":"75802603@N05","secret":"d396a0307c","server":"5476","farm":6,"title":"The Farm","ispublic":1,"isfriend":0,"isfamily":0,"safe":0,"ownername":"highlights6","latitude":53.253403,"longitude":-2.076759,"accuracy":"12","context":0,"place_id":"5FHAOt1TWrrizA","woeid":"28094","geo_is_family":0,"geo_is_friend":0,"geo_is_contact":0,"geo_is_public":1,"media":"photo","media_status":"ready"},{"id":"14149674493","owner":"34288348@N07","secret":"315bb82329","server":"7381","farm":8,"title":"The Romulus temple (Explored)","ispublic":1,"isfriend":0,"isfamily":0,"safe":0,"ownername":"DameBoudicca","latitude":41.891887,"longitude":12.487109,"accuracy":"16","context":0,"place_id":"0in3o3RWULj.Ogw","woeid":"722964","geo_is_family":0,"geo_is_friend":0,"geo_is_contact":0,"geo_is_public":1,"media":"photo","media_status":"ready"},{"id":"14129522404","owner":"31804708@N02","secret":"07a1d980cb","server":"5465","farm":6,"title":"Pesca nocturna - Night fishing","ispublic":1,"isfriend":0,"isfamily":0,"safe":0,"ownername":"celta4","latitude":-34.562934,"longitude":-58.404919,"accuracy":"16","context":0,"place_id":"BkPyiYpSUbtortc","woeid":"331580","geo_is_family":0,"geo_is_friend":0,"geo_is_contact":0,"geo_is_public":1,"media":"photo","media_status":"ready"},{"id":"13942390730","owner":"63412147@N05","secret":"24ba78194e","server":"7440","farm":8,"title":"LOS ARRIBES DEL DUERO -EXPLORE-","ispublic":1,"isfriend":0,"isfamily":0,"safe":0,"ownername":"Susana M.L.","latitude":41.231863,"longitude":-6.569824,"accuracy":"10","context":0,"place_id":"t6iVZipWV7uAT2w","woeid":"751912","geo_is_family":0,"geo_is_friend":0,"geo_is_contact":0,"geo_is_public":1,"media":"photo","media_status":"ready"},{"id":"13941966427","owner":"37517453@N08","secret":"b40bb05274","server":"7396","farm":8,"title":"low-level flight \/ Explore May 7, 2014 #271","ispublic":1,"isfriend":0,"isfamily":0,"safe":0,"ownername":"MK|PHOTOGRAPHY","latitude":50.750067,"longitude":10.329165,"accuracy":"16","context":0,"place_id":"wfYlc8xXVrscv4E","woeid":"641117","geo_is_family":0,"geo_is_friend":0,"geo_is_contact":0,"geo_is_public":1,"media":"photo","media_status":"ready"},{"id":"14124922912","owner":"66644631@N05","secret":"3bbe1e62bf","server":"7445","farm":8,"title":"Roof of the Versailles castle","ispublic":1,"isfriend":0,"isfamily":0,"safe":0,"ownername":"jmlpyt","latitude":48.801929,"longitude":2.131119,"accuracy":"11","context":0,"place_id":"RtpMgPNXUbrqF08","woeid":"630908","geo_is_family":0,"geo_is_friend":0,"geo_is_contact":0,"geo_is_public":1,"media":"photo","media_status":"ready"},{"id":"14125208925","owner":"63270671@N03","secret":"c9d55fec89","server":"7384","farm":8,"title":"B\u00f8rsen (The Stock Exchange), Copenhagen - FlickR Explore 06.05.2014","ispublic":1,"isfriend":0,"isfamily":0,"safe":0,"ownername":"S.R.Murphy","latitude":55.675569,"longitude":12.584023,"accuracy":"16","context":0,"place_id":"GDrxGSpTUriqnEXvkg","woeid":"20229513","geo_is_family":0,"geo_is_friend":0,"geo_is_contact":0,"geo_is_public":1,"media":"photo","media_status":"ready"},{"id":"13938515930","owner":"46674859@N04","secret":"d61a25f6ea","server":"5574","farm":6,"title":"Reflections Salisbury Cathedral","ispublic":1,"isfriend":0,"isfamily":0,"safe":0,"ownername":"iwillbehomesoon","latitude":51.0648,"longitude":-1.797483,"accuracy":"16","context":0,"place_id":"edeDUBtSUbKJgw","woeid":"33893","geo_is_family":0,"geo_is_friend":0,"geo_is_contact":0,"geo_is_public":1,"media":"photo","media_status":"ready"},{"id":"13937331070","owner":"59269150@N08","secret":"fe863fe542","server":"2939","farm":3,"title":"Goal In Mind","ispublic":1,"isfriend":0,"isfamily":0,"safe":0,"ownername":"TablinumCarlson","latitude":-22.908435,"longitude":-43.169059,"accuracy":"11","context":0,"place_id":"mAqmHW5VV78OT5o","woeid":"455825","geo_is_family":0,"geo_is_friend":0,"geo_is_contact":0,"geo_is_public":1,"media":"photo","media_status":"ready"},{"id":"14143539353","owner":"93704958@N03","secret":"9ab89414d2","server":"2912","farm":3,"title":"Magic Blossom in Black","ispublic":1,"isfriend":0,"isfamily":0,"safe":0,"ownername":"Jazzteffe","latitude":58.59479,"longitude":16.190714,"accuracy":"16","context":0,"place_id":"DuZHagpZW7P6e4I","woeid":"899981","geo_is_family":0,"geo_is_friend":0,"geo_is_contact":0,"geo_is_public":1,"media":"photo","media_status":"ready"},{"id":"14122743895","owner":"75802603@N05","secret":"312c553592","server":"2919","farm":3,"title":"Seat with a view","ispublic":1,"isfriend":0,"isfamily":0,"safe":0,"ownername":"highlights6","latitude":53.255149,"longitude":-2.075643,"accuracy":"13","context":0,"place_id":"5FHAOt1TWrrizA","woeid":"28094","geo_is_family":0,"geo_is_friend":0,"geo_is_contact":0,"geo_is_public":1,"media":"photo","media_status":"ready"},{"id":"13934721979","owner":"31804708@N02","secret":"f9a0870631","server":"7400","farm":8,"title":"A Coru\u00f1a","ispublic":1,"isfriend":0,"isfamily":0,"safe":0,"ownername":"celta4","latitude":43.377323,"longitude":-8.432081,"accuracy":"16","context":0,"place_id":"sWHFrNNWVLnsxTY","woeid":"763246","geo_is_family":0,"geo_is_friend":0,"geo_is_contact":0,"geo_is_public":1,"media":"photo","media_status":"ready"},{"id":"13933850089","owner":"34096574@N06","secret":"9be38b5b89","server":"7411","farm":8,"title":"Venice : Tintoretto house \/ 1\/2 - Explore #497","ispublic":1,"isfriend":0,"isfamily":0,"safe":0,"ownername":"Pantchoa","latitude":45.445994,"longitude":12.332722,"accuracy":"16","context":0,"place_id":"EzRUzuJTUrtWx_W.dw","woeid":"20150612","geo_is_family":0,"geo_is_friend":0,"geo_is_contact":0,"geo_is_public":1,"media":"photo","media_status":"ready"},{"id":"14120734574","owner":"63412147@N05","secret":"531e3452be","server":"2934","farm":3,"title":"ACARICIADA POR EL SOL -EXPLORE-","ispublic":1,"isfriend":0,"isfamily":0,"safe":0,"ownername":"Susana M.L.","latitude":40.222518,"longitude":-5.751699,"accuracy":"11","context":0,"place_id":"17EYPXJWVLiWnRQ","woeid":"762836","geo_is_family":0,"geo_is_friend":0,"geo_is_contact":0,"geo_is_public":1,"media":"photo","media_status":"ready"},{"id":"14117072832","owner":"26849514@N06","secret":"69b40d939e","server":"2895","farm":3,"title":"Mysterious forest","ispublic":1,"isfriend":0,"isfamily":0,"safe":0,"ownername":"Frans.Sellies","latitude":52.344568,"longitude":5.27275,"accuracy":"11","context":0,"place_id":"I8jfc_5TUrqjIjg5Ww","woeid":"20064106","geo_is_family":0,"geo_is_friend":0,"geo_is_contact":0,"geo_is_public":1,"media":"photo","media_status":"ready"}]},"stat":"ok"}