{"photos":{"page":34,"pages":26686,"perpage":60,"total":"1601101","photo":[{"id":"14015760863","owner":"73665853@N07","secret":"1c9e5a31ed","server":"5474","farm":6,"title":"Otzarretako pagoa","ispublic":1,"isfriend":0,"isfamily":0,"safe":0,"ownername":"juan luis olaeta","latitude":43.058854,"longitude":-2.714824,"accuracy":"13","context":0,"place_id":"nE3kEzBTULwSgYHWJw","woeid":"22661355","geo_is_family":0,"geo_is_friend":0,"geo_is_contact":0,"geo_is_public":1,"media":"photo","media_status":"ready"},{"id":"13994483825","owner":"37708438@N05","secret":"6096a37145","server":"7301","farm":8,"title":"Walking on the sea,Walking to the moon","ispublic":1,"isfriend":0,"isfamily":0,"safe":0,"ownername":"kenny barker","latitude":55.983037,"longitude":-3.301082,"accuracy":"12","context":0,"place_id":"h6DLpG1QVbuQfg","woeid":"17185","geo_is_family":0,"geo_is_friend":0,"geo_is_contact":0,"geo_is_public":1,"media":"photo","media_status":"ready"},{"id":"13993987854","owner":"28778620@N04","secret":"dcb6d137a4","server":"5349","farm":6,"title":"April 24,,EXPLORED","ispublic":1,"isfriend":0,"isfamily":0,"safe":0,"ownername":"Ani \u2660 Melikyan","latitude":40.12429,"longitude":44.736328,"accuracy":"8","context":0,"place_id":"A.EsbzdQV7og4BQEnA","woeid":"15022525","geo_is_family":0,"geo_is_friend":0,"geo_is_contact":0,"geo_is_public":1,"media":"photo","media_status":"ready"},{"id":"13993210234","owner":"52607599@N03","secret":"0a58d366ee","server":"2923","farm":3,"title":"Sunset at Blankensee III","ispublic":1,"isfriend":0,"isfamily":0,"safe":1,"ownername":".vermilion","latitude":52.223803,"longitude":13.120422,"accuracy":"11","context":0,"place_id":"_rUlMLZXUbM5DdM","woeid":"639390","geo_is_family":0,"geo_is_friend":0,"geo_is_contact":0,"geo_is_public":1,"media":"photo","media_status":"ready"},{"id":"13988153811","owner":"58013555@N07","secret":"5d878d3649","server":"7141","farm":8,"title":"The Stacks    Explored April 23rd 2014.  Thank you Flikr friends x","ispublic":1,"isfriend":0,"isfamily":0,"safe":0,"ownername":"Vide Cor Meum Images","latitude":52.338854,"longitude":-0.601577,"accuracy":"13","context":0,"place_id":"katN5e9TVr_ngQ","woeid":"24541","geo_is_family":0,"geo_is_friend":0,"geo_is_contact":0,"geo_is_public":1,"media":"photo","media_status":"ready"},{"id":"13987316164","owner":"20905078@N04","secret":"d2457c63b7","server":"2920","farm":3,"title":"","ispublic":1,"isfriend":0,"isfamily":0,"safe":0,"ownername":"patrickjoust","latitude":44.415568,"longitude":-70.840295,"accuracy":"16","context":0,"place_id":"wfleNCJTUbw5TNx6","woeid":"2363479","geo_is_family":0,"geo_is_friend":0,"geo_is_contact":0,"geo_is_public":1,"media":"photo","media_status":"ready"},{"id":"14002115553","owner":"94015342@N04","secret":"a86a098172","server":"2933","farm":3,"title":"'Chunks of Gold' - Porth Swtan\/Church Bay, Anglesey","ispublic":1,"isfriend":0,"isfamily":0,"safe":0,"ownername":"Adrian Kingsley-Hughes","latitude":53.367557,"longitude":-4.557909,"accuracy":"14","context":0,"place_id":"E88kYYJSUbiE0A","woeid":"33258","geo_is_family":0,"geo_is_friend":0,"geo_is_contact":0,"geo_is_public":1,"media":"photo","media_status":"ready"},{"id":"13971331352","owner":"92719325@N07","secret":"f39e8a7751","server":"2931","farm":3,"title":"through the window","ispublic":1,"isfriend":0,"isfamily":0,"safe":0,"ownername":"rapunzel2901","latitude":48.181654,"longitude":16.304783,"accuracy":"16","context":0,"place_id":"ickNFDRUV7v9KBw","woeid":"551785","geo_is_family":0,"geo_is_friend":0,"geo_is_contact":0,"geo_is_public":1,"media":"photo","media_status":"ready"},{"id":"13970875221","owner":"38134034@N04","secret":"fe631d7325","server":"7187","farm":8,"title":"Sunset on the shore","ispublic":1,"isfriend":0,"isfamily":0,"safe":0,"ownername":"blavandmaster","latitude":55.54399,"longitude":8.130741,"accuracy":"13","context":0,"place_id":"HjovhuRUV7gwujw","woeid":"552390","geo_is_family":0,"geo_is_friend":0,"geo_is_contact":0,"geo_is_public":1,"media":"photo","media_status":"ready"},{"id":"13969704252","owner":"53196512@N07","secret":"c7244e41cd","server":"2905","farm":3,"title":"Gallery Forest, Bohinj Jezero","ispublic":1,"isfriend":0,"isfamily":0,"safe":0,"ownername":"flatworldsedge","latitude":46.277456,"longitude":13.883968,"accuracy":"14","context":0,"place_id":"xb6SG2BTUb2eXvMLJA","woeid":"23701302","geo_is_family":0,"geo_is_friend":0,"geo_is_contact":0,"geo_is_public":1,"media":"photo","media_status":"ready"},{"id":"13966863601","owner":"58767708@N05","secret":"a213c26252","server":"2917","farm":3,"title":"Lough Leane, Muckross, Killarney (Explored 22\/04\/2014)","ispublic":1,"isfriend":0,"isfamily":0,"safe":0,"ownername":"Paul O'B","latitude":52.035069,"longitude":-9.493646,"accuracy":"13","context":0,"place_id":"UVWqOYlUVLsaIaw","woeid":"561789","geo_is_family":0,"geo_is_friend":0,"geo_is_contact":0,"geo_is_public":1,"media":"photo","media_status":"ready"},{"id":"13966829422","owner":"89765119@N06","secret":"fdd6927dda","server":"7365","farm":8,"title":"At the fjord  (Explore)","ispublic":1,"isfriend":0,"isfamily":0,"safe":0,"ownername":"Vidar Ringstad, Norway","latitude":59.894835,"longitude":10.674945,"accuracy":"16","context":0,"place_id":"ht3te0RZV73WBu0","woeid":"857713","geo_is_family":0,"geo_is_friend":0,"geo_is_contact":0,"geo_is_public":1,"media":"photo","media_status":"ready"},{"id":"13941180501","owner":"49036575@N02","secret":"b343c5cf28","server":"7122","farm":8,"title":"Back of Notre-Dame, Paris.","ispublic":1,"isfriend":0,"isfamily":0,"safe":0,"ownername":"Zed The Dragon","latitude":48.8521,"longitude":2.353466,"accuracy":"16","context":0,"place_id":"l6ezWo1UV7J685f0sQ","woeid":"55843761","geo_is_family":0,"geo_is_friend":0,"geo_is_contact":0,"geo_is_public":1,"media":"photo","media_status":"ready"},{"id":"13762330314","owner":"75509492@N07","secret":"2e1912fcf0","server":"5080","farm":6,"title":"Oslo 1.9, Norway","ispublic":1,"isfriend":0,"isfamily":0,"safe":0,"ownername":"knutsi12","latitude":59.816775,"longitude":10.582675,"accuracy":"16","context":0,"place_id":"d8yTFdZZV7IMVsc","woeid":"858480","geo_is_family":0,"geo_is_friend":0,"geo_is_contact":0,"geo_is_public":1,"media":"photo","media_status":"ready"},{"id":"13724253545","owner":"42903611@N00","secret":"18fca996e0","server":"7306","farm":8,"title":"Vision...","ispublic":1,"isfriend":0,"isfamily":0,"safe":0,"ownername":"rogilde - roberto la forgia","latitude":55.676311,"longitude":12.56935,"accuracy":"11","context":0,"place_id":"iHGCOnNUV75MYM0","woeid":"554890","geo_is_family":0,"geo_is_friend":0,"geo_is_contact":0,"geo_is_public":1,"media":"photo","media_status":"ready"},{"id":"13471680044","owner":"95104112@N05","secret":"b497806425","server":"2878","farm":3,"title":"Just a Peek, Parga, Greece","ispublic":1,"isfriend":0,"isfamily":0,"safe":1,"ownername":"nouregef","latitude":39.28316,"longitude":20.398757,"accuracy":"16","context":0,"place_id":"6033SAxYV7OUmsU","woeid":"959329","geo_is_family":0,"geo_is_friend":0,"geo_is_contact":0,"geo_is_public":1,"media":"photo","media_status":"ready"},{"id":"12992608674","owner":"61674778@N07","secret":"8acdd7f64b","server":"2232","farm":3,"title":"Hanneke, Amsterdam 2014: A look of mystery","ispublic":1,"isfriend":0,"isfamily":0,"safe":0,"ownername":"mdiepraam","latitude":52.369153,"longitude":4.878916,"accuracy":"14","context":0,"place_id":"xfcEFYhWULKtjYI","woeid":"728410","geo_is_family":0,"geo_is_friend":0,"geo_is_contact":0,"geo_is_public":1,"media":"photo","media_status":"ready"},{"id":"12946458013","owner":"61674778@N07","secret":"cdbecf20e7","server":"3767","farm":4,"title":"Hanneke, Amsterdam 2014: Grasping for coffee","ispublic":1,"isfriend":0,"isfamily":0,"safe":0,"ownername":"mdiepraam","latitude":52.369153,"longitude":4.878916,"accuracy":"14","context":0,"place_id":"xfcEFYhWULKtjYI","woeid":"728410","geo_is_family":0,"geo_is_friend":0,"geo_is_contact":0,"geo_is_public":1,"media":"photo","media_status":"ready"},{"id":"12117014354","owner":"52515510@N04","secret":"8a3322894f","server":"7381","farm":8,"title":"F-2000 Mirage na CRUZEX 2013","ispublic":1,"isfriend":0,"isfamily":0,"safe":1,"ownername":"For\u00e7a A\u00e9rea Brasileira - P\u00e1gina Oficial","latitude":-5.90546,"longitude":-35.24605,"accuracy":"16","context":0,"place_id":"l0ycYmpVVriacd0","woeid":"442895","geo_is_family":0,"geo_is_friend":0,"geo_is_contact":0,"geo_is_public":1,"media":"photo","media_status":"ready"},{"id":"11610726443","owner":"26849514@N06","secret":"92a05ea56d","server":"5544","farm":6,"title":"Mont Saint Michel","ispublic":1,"isfriend":0,"isfamily":0,"safe":1,"ownername":"Frans.Sellies","latitude":48.619633,"longitude":-1.515855,"accuracy":"13","context":0,"place_id":"9jg6l1lXUrkXjao","woeid":"603714","geo_is_family":0,"geo_is_friend":0,"geo_is_contact":0,"geo_is_public":1,"media":"photo","media_status":"ready"},{"id":"11295257806","owner":"25959337@N00","secret":"56ab7b0bb3","server":"2870","farm":3,"title":"Double Kirkjufell with insects and clouds","ispublic":1,"isfriend":0,"isfamily":0,"safe":1,"ownername":"Martin Ystenes - celebrating 5 million views","latitude":64.924232,"longitude":-23.306035,"accuracy":"13","context":0,"place_id":"qlYnE6ZYWrqvBLI","woeid":"980160","geo_is_family":0,"geo_is_friend":0,"geo_is_contact":0,"geo_is_public":1,"media":"photo","media_status":"ready"},{"id":"10782161825","owner":"65166290@N00","secret":"4be07c1cab","server":"3759","farm":4,"title":"Loch Eck","ispublic":1,"isfriend":0,"isfamily":0,"safe":1,"ownername":"Hugh Spicer \/ UIsdean Spicer","latitude":56.050183,"longitude":-4.984703,"accuracy":"11","context":0,"place_id":"vy_KlPVTVbgYcQ","woeid":"27205","geo_is_family":0,"geo_is_friend":0,"geo_is_contact":0,"geo_is_public":1,"media":"photo","media_status":"ready"},{"id":"9502189460","owner":"25959337@N00","secret":"d3c4c40fcc","server":"3748","farm":4,"title":"J\u00f6kulgil, valley east of Bl\u00e1hnjukur","ispublic":1,"isfriend":0,"isfamily":0,"safe":1,"ownername":"Martin Ystenes - celebrating 5 million views","latitude":64.493499,"longitude":-18.81134,"accuracy":"9","context":0,"place_id":"LQtxGLZTUb61KmtE","woeid":"2345700","geo_is_family":0,"geo_is_friend":0,"geo_is_contact":0,"geo_is_public":1,"media":"photo","media_status":"ready"},{"id":"8736159180","owner":"67833313@N08","secret":"1788189f21","server":"7293","farm":8,"title":"E\u03c0\u03b5\u03b9\u03b4\u03ae \u03c3 ' \u03b1\u03b3\u03b1\u03c0\u03ce \u03ba\u03b1\u03b9 \u03c3\u03c4\u03b7\u03bd \u03b1\u03b3\u03ac\u03c0\u03b7 \u03be\u03ad\u03c1\u03c9 \u03bd\u03b1 \u03bc\u03c0\u03b1\u03af\u03bd\u03c9 \u03c3\u03b1\u03bd \u03a0\u03b1\u03bd\u03c3\u03ad\u03bb\u03b7\u03bd\u03bf\u03c2....","ispublic":1,"isfriend":0,"isfamily":0,"safe":1,"ownername":"Dimitra Kirgiannaki \u266a\u00b8.\u2022*\u00b4spring-lover \u00a8\u00b4","latitude":37.978199,"longitude":23.7268,"accuracy":"13","context":0,"place_id":"zHcyhcBTUb2NHVMV4A","woeid":"23701324","geo_is_family":0,"geo_is_friend":0,"geo_is_contact":0,"geo_is_public":1,"media":"photo","media_status":"ready"},{"id":"8539362126","owner":"71208464@N08","secret":"fd568d4eca","server":"8386","farm":9,"title":"square to be hip","ispublic":1,"isfriend":0,"isfamily":0,"safe":0,"ownername":"Jake Blues Photography","latitude":52.518649,"longitude":13.452973,"accuracy":"14","context":0,"place_id":"zEN0.m9XV7rtWy0","woeid":"650744","geo_is_family":0,"geo_is_friend":0,"geo_is_contact":0,"geo_is_public":1,"media":"photo","media_status":"ready"},{"id":"8293388369","owner":"7676405@N04","secret":"e848dce373","server":"8353","farm":9,"title":"Westminster Crossing...","ispublic":1,"isfriend":0,"isfamily":0,"safe":0,"ownername":"JH Images.co.uk","latitude":51.499719,"longitude":-0.129395,"accuracy":"16","context":0,"place_id":"_8cuSp1TVrKmbg67ew","woeid":"24875645","geo_is_family":0,"geo_is_friend":0,"geo_is_contact":0,"geo_is_public":1,"media":"photo","media_status":"ready"},{"id":"8023383359","owner":"27964309@N06","secret":"5ca01b7cac","server":"8174","farm":9,"title":"Going for water","ispublic":1,"isfriend":0,"isfamily":0,"safe":1,"ownername":"vittorio vida","latitude":-22.96566,"longitude":18.486169,"accuracy":"2","context":0,"place_id":"Vp.AXUJTUb6pwzv0rQ","woeid":"23424987","geo_is_family":0,"geo_is_friend":0,"geo_is_contact":0,"geo_is_public":1,"media":"photo","media_status":"ready"},{"id":"7160043125","owner":"46154217@N07","secret":"1772c52018","server":"7091","farm":8,"title":"Closed during the Holidays","ispublic":1,"isfriend":0,"isfamily":0,"safe":1,"ownername":"jjamv","latitude":41.068924,"longitude":1.098212,"accuracy":"16","context":0,"place_id":"eONvz3dWVb3_PZM","woeid":"777696","geo_is_family":0,"geo_is_friend":0,"geo_is_contact":0,"geo_is_public":1,"media":"photo","media_status":"ready"},{"id":"7149610997","owner":"36426732@N05","secret":"495dd6eb6c","server":"8014","farm":9,"title":"Pool in Countryside home","ispublic":1,"isfriend":0,"isfamily":0,"safe":1,"ownername":"ZUCCONY","latitude":18.566202,"longitude":-70.094146,"accuracy":"10","context":0,"place_id":"MzRIprNTWrkUv9jD2Q","woeid":"28358196","geo_is_family":0,"geo_is_friend":0,"geo_is_contact":0,"geo_is_public":1,"media":"photo","media_status":"ready"},{"id":"6813732981","owner":"26446174@N06","secret":"5888dc37ff","server":"7156","farm":8,"title":"GALERIE 4","ispublic":1,"isfriend":0,"isfamily":0,"safe":0,"ownername":"Eric Schaeff","latitude":48.873349,"longitude":2.332338,"accuracy":"16","context":0,"place_id":"9s06vldUV7JEzx_hgA","woeid":"55843788","geo_is_family":0,"geo_is_friend":0,"geo_is_contact":0,"geo_is_public":1,"media":"photo","media_status":"ready"},{"id":"5636066426","owner":"46742405@N04","secret":"c224f36a54","server":"5145","farm":6,"title":"Innercity cow \/ Rotterdam","ispublic":1,"isfriend":0,"isfamily":0,"safe":1,"ownername":"zzapback","latitude":51.909093,"longitude":4.482464,"accuracy":"14","context":0,"place_id":"hTbmyA1TUrq4YsYMMA","woeid":"20063955","geo_is_family":0,"geo_is_friend":0,"geo_is_contact":0,"geo_is_public":1,"media":"photo","media_status":"ready"},{"id":"5312537125","owner":"8839968@N03","secret":"bae7aa96bc","server":"5123","farm":6,"title":"Aprovechando el poco sol del Paseo Santa Fe","ispublic":1,"isfriend":0,"isfamily":0,"safe":0,"ownername":"jesusgag","latitude":37.263124,"longitude":-6.94725,"accuracy":"9","context":0,"place_id":"9RFSCDBWVLhvO7Q","woeid":"762399","geo_is_family":0,"geo_is_friend":0,"geo_is_contact":0,"geo_is_public":1,"media":"photo","media_status":"ready"},{"id":"4923303844","owner":"32489584@N05","secret":"e641c9843b","server":"4093","farm":5,"title":"Enjoying sunset thomaspyttel.com","ispublic":1,"isfriend":0,"isfamily":0,"safe":1,"ownername":"thomaspyttel.com","latitude":50.909798,"longitude":18.213615,"accuracy":"13","context":0,"place_id":"qN6fBtRQUL989ENLiQ","woeid":"12577942","geo_is_family":0,"geo_is_friend":0,"geo_is_contact":0,"geo_is_public":1,"media":"photo","media_status":"ready"},{"id":"1215590429","owner":"11925274@N02","secret":"7cc0201cd8","server":"1156","farm":2,"title":"FELISSA 002.1","ispublic":1,"isfriend":0,"isfamily":0,"safe":0,"ownername":"liontas-Andreas Droussiotis","latitude":34.698578,"longitude":33.04636,"accuracy":"11","context":0,"place_id":"Ko0YvfRZVrvakP8","woeid":"841452","geo_is_family":0,"geo_is_friend":0,"geo_is_contact":0,"geo_is_public":1,"media":"photo","media_status":"ready"},{"id":"14054011148","owner":"69467450@N05","secret":"5b5c36e2b7","server":"2938","farm":3,"title":"La luz de la hora azul acaricia las piedras milenarias \/ The Blue Hour Light caressing the Ancient Stones       [EXPLORED - 21\/05\/2014]","ispublic":1,"isfriend":0,"isfamily":0,"safe":0,"ownername":"MiquelGP54","latitude":41.556958,"longitude":1.583061,"accuracy":"14","context":0,"place_id":"T3ysSVtWVblZfPg","woeid":"773795","geo_is_family":0,"geo_is_friend":0,"geo_is_contact":0,"geo_is_public":1,"media":"photo","media_status":"ready"},{"id":"14052424749","owner":"10730035@N08","secret":"fd035589a8","server":"5037","farm":6,"title":"Poggio Covili","ispublic":1,"isfriend":0,"isfamily":0,"safe":0,"ownername":"Guido Barberis","latitude":43.019207,"longitude":11.644134,"accuracy":"11","context":0,"place_id":"JLpkSY5WU7l.YQg","woeid":"713513","geo_is_family":0,"geo_is_friend":0,"geo_is_contact":0,"geo_is_public":1,"media":"photo","media_status":"ready"},{"id":"14238640195","owner":"7691436@N06","secret":"8355621e0a","server":"5199","farm":6,"title":"Summer is coming","ispublic":1,"isfriend":0,"isfamily":0,"safe":0,"ownername":"Lolowaro974","latitude":51.20848,"longitude":3.224509,"accuracy":"16","context":0,"place_id":"g2nsfmxYVL3Ys0E","woeid":"967071","geo_is_family":0,"geo_is_friend":0,"geo_is_contact":0,"geo_is_public":1,"media":"photo","media_status":"ready"},{"id":"14051589757","owner":"45389964@N06","secret":"7d13c78fbe","server":"5525","farm":6,"title":"White Stork - Ciconia ciconia","ispublic":1,"isfriend":0,"isfamily":0,"safe":0,"ownername":"My Planet Experience","latitude":46.003639,"longitude":5.031738,"accuracy":"11","context":0,"place_id":"5tb2k9pXUbsFXi0","woeid":"631512","geo_is_family":0,"geo_is_friend":0,"geo_is_contact":0,"geo_is_public":1,"media":"photo","media_status":"ready"},{"id":"14230686875","owner":"47487330@N05","secret":"50d6fafc6c","server":"5559","farm":6,"title":"100_7226","ispublic":1,"isfriend":0,"isfamily":0,"safe":0,"ownername":"Cassiop\u00e9e2010","latitude":44.273721,"longitude":4.126996,"accuracy":"13","context":0,"place_id":"TnWjqq9XU7MJJd4","woeid":"619611","geo_is_family":0,"geo_is_friend":0,"geo_is_contact":0,"geo_is_public":1,"media":"photo","media_status":"ready"},{"id":"14227687682","owner":"60415213@N03","secret":"ce1908c874","server":"2936","farm":3,"title":"Great Blasket Island","ispublic":1,"isfriend":0,"isfamily":0,"safe":0,"ownername":"Barbara Walsh Photography","latitude":52.097595,"longitude":-10.519838,"accuracy":"13","context":0,"place_id":"4rCO9WxTUroj0812zg","woeid":"20072639","geo_is_family":0,"geo_is_friend":0,"geo_is_contact":0,"geo_is_public":1,"media":"photo","media_status":"ready"},{"id":"14226688872","owner":"36426732@N05","secret":"973c721289","server":"2909","farm":3,"title":"Twin Boys","ispublic":1,"isfriend":0,"isfamily":0,"safe":0,"ownername":"ZUCCONY","latitude":40.777876,"longitude":-73.974773,"accuracy":"16","context":0,"place_id":".skCPTpTVr.Q3WKW","woeid":"2459115","geo_is_family":0,"geo_is_friend":0,"geo_is_contact":0,"geo_is_public":1,"media":"photo","media_status":"ready"},{"id":"14041065877","owner":"44161305@N02","secret":"ba187a8ce7","server":"2934","farm":3,"title":"Castel San Pietro Terme, Italy maggio 2014 035","ispublic":1,"isfriend":0,"isfamily":0,"safe":0,"ownername":"tango-","latitude":44.391475,"longitude":11.599073,"accuracy":"13","context":0,"place_id":"lSR7f4FWU7kjJqo","woeid":"713264","geo_is_family":0,"geo_is_friend":0,"geo_is_contact":0,"geo_is_public":1,"media":"photo","media_status":"ready"},{"id":"14220050361","owner":"8071044@N04","secret":"0c323ff847","server":"5507","farm":6,"title":"Heinrichstrasse, D\u00fcsseldorf","ispublic":1,"isfriend":0,"isfamily":0,"safe":0,"ownername":"Torsten Reuschling","latitude":51.24514,"longitude":6.810836,"accuracy":"15","context":0,"place_id":"MA8Ke4hXVrwlyVI","woeid":"646099","geo_is_family":0,"geo_is_friend":0,"geo_is_contact":0,"geo_is_public":1,"media":"photo","media_status":"ready"},{"id":"14216145222","owner":"37517453@N08","secret":"2658bc6851","server":"2904","farm":3,"title":"41 1150-6 - Plandampf 2014 \/ Explore May 18, 2014 #447","ispublic":1,"isfriend":0,"isfamily":0,"safe":0,"ownername":"MK|PHOTOGRAPHY","latitude":50.964177,"longitude":10.285263,"accuracy":"16","context":0,"place_id":"whp0fcVXVr37luM","woeid":"647320","geo_is_family":0,"geo_is_friend":0,"geo_is_contact":0,"geo_is_public":1,"media":"photo","media_status":"ready"},{"id":"14029857249","owner":"54894481@N04","secret":"55eb380e57","server":"2925","farm":3,"title":"River Alyn, Llanarmon-yn-Ial","ispublic":1,"isfriend":0,"isfamily":0,"safe":0,"ownername":"3peaker","latitude":52.888191,"longitude":-3.246459,"accuracy":"12","context":0,"place_id":"hhy9KttTVL0zHQ","woeid":"26755","geo_is_family":0,"geo_is_friend":0,"geo_is_contact":0,"geo_is_public":1,"media":"photo","media_status":"ready"},{"id":"14027129579","owner":"49475392@N04","secret":"2e903ca169","server":"5498","farm":6,"title":"Redington Shores","ispublic":1,"isfriend":0,"isfamily":0,"safe":0,"ownername":"theo0023","latitude":27.818582,"longitude":-82.824468,"accuracy":"13","context":0,"place_id":"r2iHcoBTVr39hH5.","woeid":"2479614","geo_is_family":0,"geo_is_friend":0,"geo_is_contact":0,"geo_is_public":1,"media":"photo","media_status":"ready"},{"id":"14198241042","owner":"21258720@N03","secret":"3f321095d0","server":"5493","farm":6,"title":"Eilean Donan Castle","ispublic":1,"isfriend":0,"isfamily":0,"safe":0,"ownername":"photosbychinwe","latitude":57.274194,"longitude":-5.515587,"accuracy":"15","context":0,"place_id":"cIqu7CBQWrkndQ","woeid":"18345","geo_is_family":0,"geo_is_friend":0,"geo_is_contact":0,"geo_is_public":1,"media":"photo","media_status":"ready"},{"id":"14012995890","owner":"31612046@N04","secret":"07bfc2e511","server":"2899","farm":3,"title":"Cremona - Corso Vittorio Emanuele II","ispublic":1,"isfriend":0,"isfamily":0,"safe":0,"ownername":"Alessia Cross","latitude":45.132542,"longitude":10.019295,"accuracy":"16","context":0,"place_id":"N2PEfo1QULzXQZeRSQ","woeid":"12678992","geo_is_family":0,"geo_is_friend":0,"geo_is_contact":0,"geo_is_public":1,"media":"photo","media_status":"ready"},{"id":"14008439748","owner":"92036053@N06","secret":"1d1976b925","server":"7340","farm":8,"title":"Butterfly on tree. Borboleta na arvore.","ispublic":1,"isfriend":0,"isfamily":0,"safe":0,"ownername":"IVOLINES","latitude":-22.658215,"longitude":-50.426557,"accuracy":"13","context":0,"place_id":"7a64CttVV7_vUwA","woeid":"455933","geo_is_family":0,"geo_is_friend":0,"geo_is_contact":0,"geo_is_public":1,"media":"photo","media_status":"ready"},{"id":"14187556942","owner":"112711738@N06","secret":"a0024477f1","server":"7450","farm":8,"title":"Green Dawn II.","ispublic":1,"isfriend":0,"isfamily":0,"safe":0,"ownername":"dasanes77","latitude":39.6156,"longitude":-0.30088,"accuracy":"11","context":0,"place_id":".ihsmPBWVbto06E","woeid":"771079","geo_is_family":0,"geo_is_friend":0,"geo_is_contact":0,"geo_is_public":1,"media":"photo","media_status":"ready"},{"id":"13999330630","owner":"47487330@N05","secret":"3ebbc23ce1","server":"7425","farm":8,"title":"100_7163","ispublic":1,"isfriend":0,"isfamily":0,"safe":0,"ownername":"Cassiop\u00e9e2010","latitude":44.273721,"longitude":4.127168,"accuracy":"13","context":0,"place_id":"TnWjqq9XU7MJJd4","woeid":"619611","geo_is_family":0,"geo_is_friend":0,"geo_is_contact":0,"geo_is_public":1,"media":"photo","media_status":"ready"},{"id":"14183495834","owner":"29826595@N06","secret":"7be3775ac6","server":"7443","farm":8,"title":"Barn Swallow","ispublic":1,"isfriend":0,"isfamily":0,"safe":0,"ownername":"themadbirdlady - anne cotton","latitude":56.066022,"longitude":-3.743634,"accuracy":"14","context":0,"place_id":"10VqgUJQUr6L0w","woeid":"10495","geo_is_family":0,"geo_is_friend":0,"geo_is_contact":0,"geo_is_public":1,"media":"photo","media_status":"ready"},{"id":"14198258643","owner":"13507958@N00","secret":"d6d090899e","server":"7439","farm":8,"title":"Tramonto sul mare da Santa Barbara - Marina di Ragusa","ispublic":1,"isfriend":0,"isfamily":0,"safe":0,"ownername":"Mirko Chessari","latitude":36.781452,"longitude":14.529811,"accuracy":"16","context":0,"place_id":"7GO9xEBTW7njMzZCZQ","woeid":"29343825","geo_is_family":0,"geo_is_friend":0,"geo_is_contact":0,"geo_is_public":1,"media":"photo","media_status":"ready"},{"id":"14178099735","owner":"8188882@N05","secret":"ce8d691e2b","server":"7408","farm":8,"title":"At the ranch, not afraid","ispublic":1,"isfriend":0,"isfamily":0,"safe":0,"ownername":"DinosaursAreNotDead","latitude":48.716726,"longitude":1.873866,"accuracy":"16","context":0,"place_id":"QLdv_.RWU7_jEfrE","woeid":"7153319","geo_is_family":0,"geo_is_friend":0,"geo_is_contact":0,"geo_is_public":1,"media":"photo","media_status":"ready"},{"id":"13983503367","owner":"47487330@N05","secret":"1bd5397402","server":"2896","farm":3,"title":"100_7162","ispublic":1,"isfriend":0,"isfamily":0,"safe":0,"ownername":"Cassiop\u00e9e2010","latitude":44.273721,"longitude":4.127511,"accuracy":"13","context":0,"place_id":"TnWjqq9XU7MJJd4","woeid":"619611","geo_is_family":0,"geo_is_friend":0,"geo_is_contact":0,"geo_is_public":1,"media":"photo","media_status":"ready"},{"id":"13982348677","owner":"68176223@N07","secret":"cfb1908877","server":"7388","farm":8,"title":"Blue Hour Baptistry","ispublic":1,"isfriend":0,"isfamily":0,"safe":0,"ownername":"Franco Beccari","latitude":43.70996,"longitude":10.399459,"accuracy":"11","context":0,"place_id":"x8RcoNFWULpV8AY","woeid":"720627","geo_is_family":0,"geo_is_friend":0,"geo_is_contact":0,"geo_is_public":1,"media":"photo","media_status":"ready"},{"id":"13979857809","owner":"82924248@N00","secret":"f6584ac66d","server":"7343","farm":8,"title":"Vezelay (in explore)","ispublic":1,"isfriend":0,"isfamily":0,"safe":0,"ownername":"BrigitteChanson","latitude":47.466012,"longitude":3.748204,"accuracy":"16","context":0,"place_id":"lptGa7dXUbth0mc","woeid":"631045","geo_is_family":0,"geo_is_friend":0,"geo_is_contact":0,"geo_is_public":1,"media":"photo","media_status":"ready"},{"id":"14161729925","owner":"34731278@N05","secret":"f7e44aaeae","server":"5567","farm":6,"title":"Scheunenbar","ispublic":1,"isfriend":0,"isfamily":0,"safe":0,"ownername":"Adabo!","latitude":50.786838,"longitude":12.13648,"accuracy":"11","context":0,"place_id":"4F937O5XVr1helA","woeid":"647955","geo_is_family":0,"geo_is_friend":0,"geo_is_contact":0,"geo_is_public":1,"media":"photo","media_status":"ready"},{"id":"13973683788","owner":"49010317@N07","secret":"41cb4cd6e7","server":"2907","farm":3,"title":"tulipano variegato all'amarena ...","ispublic":1,"isfriend":0,"isfamily":0,"safe":0,"ownername":"miriam259","latitude":44.269296,"longitude":9.398783,"accuracy":"11","context":0,"place_id":"qAPzkyhWUL5EdTA","woeid":"724146","geo_is_family":0,"geo_is_friend":0,"geo_is_contact":0,"geo_is_public":1,"media":"photo","media_status":"ready"},{"id":"14005774333","owner":"7132158@N07","secret":"9dc77b5bca","server":"2928","farm":3,"title":"You cannot change the wind, but you can adjust the sails to get where you want","ispublic":1,"isfriend":0,"isfamily":0,"safe":0,"ownername":"Rui Almeida.","latitude":39.601852,"longitude":-9.07505,"accuracy":"14","context":0,"place_id":"x0KOSJ1WVr4YRmY","woeid":"744516","geo_is_family":0,"geo_is_friend":0,"geo_is_contact":0,"geo_is_public":1,"media":"photo","media_status":"ready"}]},"stat":"ok"}