{"photos":{"page":12,"pages":26122,"perpage":60,"total":"1567313","photo":[{"id":"14076199531","owner":"59269150@N08","secret":"fa2ca9da60","server":"2913","farm":3,"title":"Dinner's ready!","ispublic":1,"isfriend":0,"isfamily":0,"safe":0,"ownername":"TablinumCarlson","latitude":-23.21672,"longitude":-44.718009,"accuracy":"11","context":0,"place_id":"bFZZOQtVV7xtTD0","woeid":"456392","geo_is_family":0,"geo_is_friend":0,"geo_is_contact":0,"geo_is_public":1,"media":"photo","media_status":"ready"},{"id":"14075970762","owner":"46267286@N07","secret":"12cb9cca84","server":"5454","farm":6,"title":"Reflecting On Another Time Part Two - Syon House London (On Explore 30th April 2014)","ispublic":1,"isfriend":0,"isfamily":0,"safe":0,"ownername":"Simon & His Camera","latitude":51.476939,"longitude":-0.313872,"accuracy":"16","context":0,"place_id":"7b8jn_lVUbn02g","woeid":"43351","geo_is_family":0,"geo_is_friend":0,"geo_is_contact":0,"geo_is_public":1,"media":"photo","media_status":"ready"},{"id":"14073104911","owner":"7432018@N02","secret":"eb1cc5ca23","server":"5193","farm":6,"title":"Decatlon, Antwerpen Luchtbal","ispublic":1,"isfriend":0,"isfamily":0,"safe":0,"ownername":"(ph).otography","latitude":51.246541,"longitude":4.417855,"accuracy":"16","context":0,"place_id":"Zx1xVdhYVb7_KoY","woeid":"974235","geo_is_family":0,"geo_is_friend":0,"geo_is_contact":0,"geo_is_public":1,"media":"photo","media_status":"ready"},{"id":"13889619460","owner":"35079936@N07","secret":"9381a08a9b","server":"5595","farm":6,"title":"C57A8785","ispublic":1,"isfriend":0,"isfamily":0,"safe":0,"ownername":"Carlos A. Objio Sarraff: 3 million+Viewers.Thanks","latitude":26.70288,"longitude":-80.036613,"accuracy":"11","context":0,"place_id":"jS92zbJTVrzJbYUa","woeid":"2467663","geo_is_family":0,"geo_is_friend":0,"geo_is_contact":0,"geo_is_public":1,"media":"photo","media_status":"ready"},{"id":"14052780146","owner":"67590306@N03","secret":"54baef318d","server":"5504","farm":6,"title":"Delfin Mular \/ Common bottlenose dolphin, Strait of Gibraltar ( Explore )","ispublic":1,"isfriend":0,"isfamily":0,"safe":0,"ownername":"Jos\u00e9 Rambaud","latitude":35.966336,"longitude":-5.61676,"accuracy":"11","context":0,"place_id":"tPBM7tlWVb8VFRo","woeid":"775238","geo_is_family":0,"geo_is_friend":0,"geo_is_contact":0,"geo_is_public":1,"media":"photo","media_status":"ready"},{"id":"14052671996","owner":"28101813@N04","secret":"a9765b6ab3","server":"2932","farm":3,"title":"Looking into the heart of light, the silence [Explore 30.04.2014]","ispublic":1,"isfriend":0,"isfamily":0,"safe":0,"ownername":"Herminio.","latitude":41.368982,"longitude":2.160723,"accuracy":"16","context":0,"place_id":"Dlz6F11TUrgZI22gDQ","woeid":"20220095","geo_is_family":0,"geo_is_friend":0,"geo_is_contact":0,"geo_is_public":1,"media":"photo","media_status":"ready"},{"id":"14075609075","owner":"11473706@N03","secret":"19c1791607","server":"5349","farm":6,"title":"Erysinum Cheiri. Mic\u0219unea","ispublic":1,"isfriend":0,"isfamily":0,"safe":0,"ownername":"Cost3l","latitude":47.187397,"longitude":27.555538,"accuracy":"16","context":0,"place_id":"DaqK9LZZVbmQF8Q","woeid":"873915","geo_is_family":0,"geo_is_friend":0,"geo_is_contact":0,"geo_is_public":1,"media":"photo","media_status":"ready"},{"id":"13888829079","owner":"63118615@N02","secret":"c688d22d56","server":"7297","farm":8,"title":"Under the arcades","ispublic":1,"isfriend":0,"isfamily":0,"safe":0,"ownername":"Enzo D.","latitude":41.8983,"longitude":12.474525,"accuracy":"16","context":0,"place_id":"FphPyURWU7ux6h4","woeid":"711883","geo_is_family":0,"geo_is_friend":0,"geo_is_contact":0,"geo_is_public":1,"media":"photo","media_status":"ready"},{"id":"14075218145","owner":"88386804@N05","secret":"cfa916371d","server":"7352","farm":8,"title":"the end of the show - sunset on Hertzelia beach - Israel - Explored","ispublic":1,"isfriend":0,"isfamily":0,"safe":0,"ownername":"Lior. L","latitude":32.163866,"longitude":34.782528,"accuracy":"14","context":0,"place_id":"IHIe.9pQW7yFpb7q","woeid":"1968178","geo_is_family":0,"geo_is_friend":0,"geo_is_contact":0,"geo_is_public":1,"media":"photo","media_status":"ready"},{"id":"14052070286","owner":"49214499@N06","secret":"6caee51e8f","server":"5472","farm":6,"title":"Blossoming magnolia","ispublic":1,"isfriend":0,"isfamily":0,"safe":0,"ownername":"Jurek.P","latitude":46.204452,"longitude":6.151167,"accuracy":"15","context":0,"place_id":"aOSFn3NUVLpLzC5_Mw","woeid":"56043562","geo_is_family":0,"geo_is_friend":0,"geo_is_contact":0,"geo_is_public":1,"media":"photo","media_status":"ready"},{"id":"14095214693","owner":"75501901@N08","secret":"5e20c82ae5","server":"7068","farm":8,"title":"Singing Wren","ispublic":1,"isfriend":0,"isfamily":0,"safe":0,"ownername":"Sh4un65_Artistry","latitude":51.576696,"longitude":-2.828207,"accuracy":"13","context":0,"place_id":"Ii95VaZTWruemw","woeid":"28150","geo_is_family":0,"geo_is_friend":0,"geo_is_contact":0,"geo_is_public":1,"media":"photo","media_status":"ready"},{"id":"13888212239","owner":"93704958@N03","secret":"25d1bca1b9","server":"7376","farm":8,"title":"Sky Walk","ispublic":1,"isfriend":0,"isfamily":0,"safe":1,"ownername":"Jazzteffe","latitude":51.510638,"longitude":-0.100121,"accuracy":"16","context":0,"place_id":"87OE4Q1TUrpz8Ex55Q","woeid":"20094307","geo_is_family":0,"geo_is_friend":0,"geo_is_contact":0,"geo_is_public":1,"media":"photo","media_status":"ready"},{"id":"14071481452","owner":"16854222@N05","secret":"5306954bc6","server":"7360","farm":8,"title":"Good Neighbourhood","ispublic":1,"isfriend":0,"isfamily":0,"safe":0,"ownername":"AnyMotion","latitude":50.123271,"longitude":8.6804,"accuracy":"16","context":0,"place_id":"Z0FRRfRXV7oIeew","woeid":"650272","geo_is_family":0,"geo_is_friend":0,"geo_is_contact":0,"geo_is_public":1,"media":"photo","media_status":"ready"},{"id":"13887544899","owner":"43155663@N07","secret":"9d4af4941f","server":"7197","farm":8,"title":"everything is connected","ispublic":1,"isfriend":0,"isfamily":0,"safe":0,"ownername":"city\/human\/life","latitude":51.522482,"longitude":7.036743,"accuracy":"16","context":0,"place_id":"es8R3pBXV7hSfpo","woeid":"652038","geo_is_family":0,"geo_is_friend":0,"geo_is_contact":0,"geo_is_public":1,"media":"photo","media_status":"ready"},{"id":"14070782392","owner":"112711738@N06","secret":"83ffd27b09","server":"7460","farm":8,"title":"Sirens At Night II.","ispublic":1,"isfriend":0,"isfamily":0,"safe":0,"ownername":"dasanes77","latitude":36.722209,"longitude":-2.192159,"accuracy":"11","context":0,"place_id":"SW3.oBBTULzVYAHv4w","woeid":"22661164","geo_is_family":0,"geo_is_friend":0,"geo_is_contact":0,"geo_is_public":1,"media":"photo","media_status":"ready"},{"id":"14050697196","owner":"8288986@N06","secret":"f9d04e0413","server":"7452","farm":8,"title":"sunset","ispublic":1,"isfriend":0,"isfamily":0,"safe":0,"ownername":"aycasan","latitude":41.137864,"longitude":40.745544,"accuracy":"9","context":0,"place_id":"sRGM1xdTUb4CeALT","woeid":"2343876","geo_is_family":0,"geo_is_friend":0,"geo_is_contact":0,"geo_is_public":1,"media":"photo","media_status":"ready"},{"id":"14093795833","owner":"73414467@N02","secret":"e4f60fa926","server":"2910","farm":3,"title":"Iris.-","ispublic":1,"isfriend":0,"isfamily":0,"safe":0,"ownername":"Jos\u00e9 Luis Vega","latitude":40.411127,"longitude":-3.691151,"accuracy":"16","context":0,"place_id":"XrSazRhTUrh4j1shyQ","woeid":"20219885","geo_is_family":0,"geo_is_friend":0,"geo_is_contact":0,"geo_is_public":1,"media":"photo","media_status":"ready"},{"id":"13886749188","owner":"60527064@N00","secret":"b5dbcd0dea","server":"7448","farm":8,"title":"Inside the Palais des congr\u00e8s de Montr\u00e9al","ispublic":1,"isfriend":0,"isfamily":0,"safe":0,"ownername":"Eric Flexyourhead","latitude":45.503572,"longitude":-73.560601,"accuracy":"16","context":0,"place_id":"HoVmiF9TVLni..gR9Q","woeid":"26332795","geo_is_family":0,"geo_is_friend":0,"geo_is_contact":0,"geo_is_public":1,"media":"photo","media_status":"ready"},{"id":"14073095415","owner":"35110249@N05","secret":"de15c49fb0","server":"5338","farm":6,"title":"Yellow and red tulips in Keukenhof","ispublic":1,"isfriend":0,"isfamily":0,"safe":0,"ownername":"Foto Martien","latitude":52.269436,"longitude":4.544752,"accuracy":"16","context":0,"place_id":"YIcvpsNWUbvQJDc","woeid":"731349","geo_is_family":0,"geo_is_friend":0,"geo_is_contact":0,"geo_is_public":1,"media":"photo","media_status":"ready"},{"id":"14049851526","owner":"80365011@N08","secret":"8d6bc054a8","server":"2908","farm":3,"title":"Sunset view near Gerardmer (explore 01-05-2014)","ispublic":1,"isfriend":0,"isfamily":0,"safe":0,"ownername":"kali_merette2002","latitude":48.068644,"longitude":6.836199,"accuracy":"14","context":0,"place_id":"tcXnU0xWU7_DQtMC","woeid":"7153322","geo_is_family":0,"geo_is_friend":0,"geo_is_contact":0,"geo_is_public":1,"media":"photo","media_status":"ready"},{"id":"14069707112","owner":"90451570@N07","secret":"2a6fafc908","server":"2917","farm":3,"title":"Penarth Pier II (Explored, thank you! #5)","ispublic":1,"isfriend":0,"isfamily":0,"safe":0,"ownername":"CarolynEaton","latitude":51.435082,"longitude":-3.166165,"accuracy":"15","context":0,"place_id":"bmMhQzZSU7z_UQ","woeid":"31623","geo_is_family":0,"geo_is_friend":0,"geo_is_contact":0,"geo_is_public":1,"media":"photo","media_status":"ready"},{"id":"14073281324","owner":"45283106@N08","secret":"c03ba106cb","server":"7397","farm":8,"title":"727 - Grosshadern","ispublic":1,"isfriend":0,"isfamily":0,"safe":0,"ownername":"Huey_Chris","latitude":48.114508,"longitude":11.477065,"accuracy":"14","context":0,"place_id":"eyi8S6pXV79sDks","woeid":"655015","geo_is_family":0,"geo_is_friend":0,"geo_is_contact":0,"geo_is_public":1,"media":"photo","media_status":"ready"},{"id":"14072786405","owner":"11397477@N05","secret":"c9c4da27c5","server":"7037","farm":8,"title":"bicicletas -explore-","ispublic":1,"isfriend":0,"isfamily":0,"safe":0,"ownername":"archifra -francesco de vincenzi-","latitude":44.418846,"longitude":12.197678,"accuracy":"16","context":0,"place_id":"G9knHz9WULsKJWI","woeid":"721535","geo_is_family":0,"geo_is_friend":0,"geo_is_contact":0,"geo_is_public":1,"media":"photo","media_status":"ready"},{"id":"14092791333","owner":"8645675@N02","secret":"7d3815dd5d","server":"5457","farm":6,"title":"Luke sniffed by Crispy","ispublic":1,"isfriend":0,"isfamily":0,"safe":0,"ownername":"Drachenfanger","latitude":36.847177,"longitude":-76.105148,"accuracy":"16","context":0,"place_id":"GNLKBZtTVr550_Tz","woeid":"2444457","geo_is_family":0,"geo_is_friend":0,"geo_is_contact":0,"geo_is_public":1,"media":"photo","media_status":"ready"},{"id":"13886049700","owner":"66759125@N00","secret":"9f05fd5955","server":"7317","farm":8,"title":"","ispublic":1,"isfriend":0,"isfamily":0,"safe":0,"ownername":"Svein Nordrum","latitude":61.495508,"longitude":8.807601,"accuracy":"10","context":0,"place_id":"fCXtUSNZV7JYJsw","woeid":"858911","geo_is_family":0,"geo_is_friend":0,"geo_is_contact":0,"geo_is_public":1,"media":"photo","media_status":"ready"},{"id":"13885965149","owner":"48988488@N04","secret":"32238b00ae","server":"2911","farm":3,"title":"chiareggio di Luna","ispublic":1,"isfriend":0,"isfamily":0,"safe":0,"ownername":"claudius1954","latitude":46.318836,"longitude":9.793453,"accuracy":"14","context":0,"place_id":"eSJgbL5TW7l1ZU3uPg","woeid":"29335537","geo_is_family":0,"geo_is_friend":0,"geo_is_contact":0,"geo_is_public":1,"media":"photo","media_status":"ready"},{"id":"14069260372","owner":"47035764@N03","secret":"89ac883fed","server":"7309","farm":8,"title":"Wooden Horse, Bourtange, Groningen, Netherlands - 1755","ispublic":1,"isfriend":0,"isfamily":0,"safe":0,"ownername":"HereIsTom","latitude":53.006546,"longitude":7.19198,"accuracy":"16","context":0,"place_id":"ewwUmXlWUL0Nh5o","woeid":"727918","geo_is_family":0,"geo_is_friend":0,"geo_is_contact":0,"geo_is_public":1,"media":"photo","media_status":"ready"},{"id":"14072359525","owner":"34256037@N00","secret":"0c2c32ecfc","server":"2933","farm":3,"title":"Antwerp","ispublic":1,"isfriend":0,"isfamily":0,"safe":0,"ownername":"Bart van Damme","latitude":51.232136,"longitude":4.402084,"accuracy":"16","context":0,"place_id":"Zx1xVdhYVb7_KoY","woeid":"974235","geo_is_family":0,"geo_is_friend":0,"geo_is_contact":0,"geo_is_public":1,"media":"photo","media_status":"ready"},{"id":"14069085711","owner":"39870654@N04","secret":"172c3dc860","server":"5469","farm":6,"title":"Monsanto - campan\u00e1rio","ispublic":1,"isfriend":0,"isfamily":0,"safe":0,"ownername":"Ant\u00f3nio Alfarroba","latitude":40.037046,"longitude":-7.112655,"accuracy":"16","context":0,"place_id":"5gAck95WVrl2ny8","woeid":"743731","geo_is_family":0,"geo_is_friend":0,"geo_is_contact":0,"geo_is_public":1,"media":"photo","media_status":"ready"},{"id":"14072198495","owner":"44215472@N04","secret":"b44f37413c","server":"7450","farm":8,"title":"308 - Abside - Iglesia del Salvador - Pozancos (Palencia) - Spain.","ispublic":1,"isfriend":0,"isfamily":0,"safe":0,"ownername":"ELCABALLOALVARO","latitude":42.715678,"longitude":-4.226474,"accuracy":"13","context":0,"place_id":"yKIQSENWVbo9xP8","woeid":"770645","geo_is_family":0,"geo_is_friend":0,"geo_is_contact":0,"geo_is_public":1,"media":"photo","media_status":"ready"},{"id":"14071980855","owner":"30829023@N03","secret":"a24c177f5e","server":"5181","farm":6,"title":"Rotated","ispublic":1,"isfriend":0,"isfamily":0,"safe":0,"ownername":"Daniel Borg","latitude":51.511752,"longitude":-0.091312,"accuracy":"16","context":0,"place_id":"X6buuH1VVrmrDw","woeid":"44364","geo_is_family":0,"geo_is_friend":0,"geo_is_contact":0,"geo_is_public":1,"media":"photo","media_status":"ready"},{"id":"14071728535","owner":"13297363@N08","secret":"c1cf48038d","server":"7401","farm":8,"title":"many possibilities \u2026","ispublic":1,"isfriend":0,"isfamily":0,"safe":0,"ownername":"duque\u0131ros","latitude":23.1168,"longitude":-82.388587,"accuracy":"11","context":0,"place_id":"mfX4siRXUbJJTg","woeid":"63817","geo_is_family":0,"geo_is_friend":0,"geo_is_contact":0,"geo_is_public":1,"media":"photo","media_status":"ready"},{"id":"14068434981","owner":"59269150@N08","secret":"82cd852122","server":"5087","farm":6,"title":"Good Evening Corcovado","ispublic":1,"isfriend":0,"isfamily":0,"safe":0,"ownername":"TablinumCarlson","latitude":-22.956496,"longitude":-43.211975,"accuracy":"11","context":0,"place_id":"mAqmHW5VV78OT5o","woeid":"455825","geo_is_family":0,"geo_is_friend":0,"geo_is_contact":0,"geo_is_public":1,"media":"photo","media_status":"ready"},{"id":"13884993398","owner":"70667315@N07","secret":"b2711b700d","server":"7382","farm":8,"title":"An island","ispublic":1,"isfriend":0,"isfamily":0,"safe":0,"ownername":"Laurent photography","latitude":47.303679,"longitude":-3.230924,"accuracy":"13","context":0,"place_id":"XLbyV0lTW7nk8oePiQ","woeid":"29330883","geo_is_family":0,"geo_is_friend":0,"geo_is_contact":0,"geo_is_public":1,"media":"photo","media_status":"ready"},{"id":"13884928509","owner":"121182662@N02","secret":"43a53f22de","server":"7366","farm":8,"title":"Lost Light","ispublic":1,"isfriend":0,"isfamily":0,"safe":0,"ownername":"Pannonius Rex","latitude":47.435156,"longitude":19.180036,"accuracy":"16","context":0,"place_id":"fSJ3doZZU7mZ1oM","woeid":"813754","geo_is_family":0,"geo_is_friend":0,"geo_is_contact":0,"geo_is_public":1,"media":"photo","media_status":"ready"},{"id":"13883239509","owner":"93250327@N05","secret":"8f686fef78","server":"7425","farm":8,"title":"All by herself","ispublic":1,"isfriend":0,"isfamily":0,"safe":0,"ownername":"Patrizia Ilaria Sechi","latitude":51.507126,"longitude":-0.122469,"accuracy":"16","context":0,"place_id":"I.7fkAxTUrq7FstgaA","woeid":"20094318","geo_is_family":0,"geo_is_friend":0,"geo_is_contact":0,"geo_is_public":1,"media":"photo","media_status":"ready"},{"id":"14065503571","owner":"14873749@N02","secret":"9e542e276b","server":"5075","farm":6,"title":"Bridge Crossing (Explored)","ispublic":1,"isfriend":0,"isfamily":0,"safe":0,"ownername":"Click And Pray","latitude":56.012352,"longitude":-4.973828,"accuracy":"16","context":0,"place_id":".6BX31BSULMTJg","woeid":"32931","geo_is_family":0,"geo_is_friend":0,"geo_is_contact":0,"geo_is_public":1,"media":"photo","media_status":"ready"},{"id":"14065082222","owner":"26849514@N06","secret":"a3ccba5dbd","server":"7060","farm":8,"title":"The Stoclet house, Brussels (Unesco World heritage)","ispublic":1,"isfriend":0,"isfamily":0,"safe":0,"ownername":"Frans.Sellies","latitude":50.835188,"longitude":4.416267,"accuracy":"16","context":0,"place_id":"b_4P.TNYVLL65Ls","woeid":"968019","geo_is_family":0,"geo_is_friend":0,"geo_is_contact":0,"geo_is_public":1,"media":"photo","media_status":"ready"},{"id":"14088281793","owner":"11473706@N03","secret":"ea87518227","server":"2928","farm":3,"title":"Working","ispublic":1,"isfriend":0,"isfamily":0,"safe":0,"ownername":"Cost3l","latitude":47.187811,"longitude":27.555552,"accuracy":"16","context":0,"place_id":"DaqK9LZZVbmQF8Q","woeid":"873915","geo_is_family":0,"geo_is_friend":0,"geo_is_contact":0,"geo_is_public":1,"media":"photo","media_status":"ready"},{"id":"14088210693","owner":"81035653@N00","secret":"33c9e8aff3","server":"7406","farm":8,"title":"Kanitha on Kingsday","ispublic":1,"isfriend":0,"isfamily":0,"safe":0,"ownername":"B\u212en","latitude":52.370359,"longitude":4.882757,"accuracy":"16","context":0,"place_id":"xfcEFYhWULKtjYI","woeid":"728410","geo_is_family":0,"geo_is_friend":0,"geo_is_contact":0,"geo_is_public":1,"media":"photo","media_status":"ready"},{"id":"14067756574","owner":"69082729@N05","secret":"e1b2d31bd8","server":"7067","farm":8,"title":"See more World","ispublic":1,"isfriend":0,"isfamily":0,"safe":0,"ownername":"Paola Morosin","latitude":43.104972,"longitude":12.375397,"accuracy":"15","context":0,"place_id":"mrsPREpWULpKrGg","woeid":"720187","geo_is_family":0,"geo_is_friend":0,"geo_is_contact":0,"geo_is_public":1,"media":"photo","media_status":"ready"},{"id":"14087240083","owner":"67590306@N03","secret":"a1a3bd8b03","server":"5448","farm":6,"title":"Delfin Mular \/ Common bottlenose dolphin, Strait of Gibraltar ( Explore )","ispublic":1,"isfriend":0,"isfamily":0,"safe":0,"ownername":"Jos\u00e9 Rambaud","latitude":35.945771,"longitude":-5.605773,"accuracy":"11","context":0,"place_id":"DbRw23lQUL_5EX_WEQ","woeid":"12578029","geo_is_family":0,"geo_is_friend":0,"geo_is_contact":0,"geo_is_public":1,"media":"photo","media_status":"ready"},{"id":"14067183114","owner":"25122972@N04","secret":"0604995d4e","server":"2910","farm":3,"title":"Misty Dawn Glow","ispublic":1,"isfriend":0,"isfamily":0,"safe":0,"ownername":"jactoll","latitude":52.1946,"longitude":-1.880979,"accuracy":"15","context":0,"place_id":"kIVrCOZQUr9zCA","woeid":"10527","geo_is_family":0,"geo_is_friend":0,"geo_is_contact":0,"geo_is_public":1,"media":"photo","media_status":"ready"},{"id":"14062753102","owner":"49214499@N06","secret":"9c33809eff","server":"2899","farm":3,"title":"Flowering sweet cherry","ispublic":1,"isfriend":0,"isfamily":0,"safe":0,"ownername":"Jurek.P","latitude":52.26264,"longitude":20.973872,"accuracy":"16","context":0,"place_id":"960MZvlUULPLZTc","woeid":"529129","geo_is_family":0,"geo_is_friend":0,"geo_is_contact":0,"geo_is_public":1,"media":"photo","media_status":"ready"},{"id":"14062644391","owner":"58013555@N07","secret":"c995507796","server":"7322","farm":8,"title":"Remains of the Day Explored 29th April 2014 another one, I really am on the train. Thank you all.","ispublic":1,"isfriend":0,"isfamily":0,"safe":0,"ownername":"Vide Cor Meum Images","latitude":52.455493,"longitude":-0.6725,"accuracy":"11","context":0,"place_id":"KlJntfhTUrMSEA","woeid":"20971","geo_is_family":0,"geo_is_friend":0,"geo_is_contact":0,"geo_is_public":1,"media":"photo","media_status":"ready"},{"id":"14065878574","owner":"62815410@N04","secret":"537186893c","server":"2921","farm":3,"title":"minimal (brescia, italy)","ispublic":1,"isfriend":0,"isfamily":0,"safe":0,"ownername":"bloodybee","latitude":45.535986,"longitude":10.233228,"accuracy":"16","context":0,"place_id":"WO1uGLRWU7u69ps","woeid":"711410","geo_is_family":0,"geo_is_friend":0,"geo_is_contact":0,"geo_is_public":1,"media":"photo","media_status":"ready"},{"id":"14085260633","owner":"42574877@N06","secret":"efd385910e","server":"5306","farm":6,"title":"The Thames is blue","ispublic":1,"isfriend":0,"isfamily":0,"safe":0,"ownername":"Olympe B.","latitude":51.508613,"longitude":-0.099053,"accuracy":"16","context":0,"place_id":"OSWzL_pTUrqOB8Dpqg","woeid":"20094299","geo_is_family":0,"geo_is_friend":0,"geo_is_contact":0,"geo_is_public":1,"media":"photo","media_status":"ready"},{"id":"14065496434","owner":"8288986@N06","secret":"741bee2690","server":"5100","farm":6,"title":"sunset","ispublic":1,"isfriend":0,"isfamily":0,"safe":0,"ownername":"aycasan","latitude":41.099585,"longitude":40.733184,"accuracy":"9","context":0,"place_id":"sRGM1xdTUb4CeALT","woeid":"2343876","geo_is_family":0,"geo_is_friend":0,"geo_is_contact":0,"geo_is_public":1,"media":"photo","media_status":"ready"},{"id":"14064903044","owner":"73414467@N02","secret":"e21ab47a76","server":"5271","farm":6,"title":"La protagonista soy yo, y solo yo debo estar bella.","ispublic":1,"isfriend":0,"isfamily":0,"safe":0,"ownername":"Jos\u00e9 Luis Vega","latitude":40.414638,"longitude":-3.776209,"accuracy":"16","context":0,"place_id":"vrp6B5FTUriH6ARCNw","woeid":"20219953","geo_is_family":0,"geo_is_friend":0,"geo_is_contact":0,"geo_is_public":1,"media":"photo","media_status":"ready"},{"id":"14060863571","owner":"30420396@N03","secret":"e6c8d08e8c","server":"7178","farm":8,"title":"My first attempt on Astrophotography on a Viking burial ground.","ispublic":1,"isfriend":0,"isfamily":0,"safe":0,"ownername":"'Ajnagraphy'","latitude":56.847376,"longitude":13.974008,"accuracy":"14","context":0,"place_id":"AtzXFHtZW70vzR8","woeid":"897466","geo_is_family":0,"geo_is_friend":0,"geo_is_contact":0,"geo_is_public":1,"media":"photo","media_status":"ready"},{"id":"14060690932","owner":"77190669@N06","secret":"266ff55b68","server":"2927","farm":3,"title":"Gavil\u00e1n","ispublic":1,"isfriend":0,"isfamily":0,"safe":0,"ownername":"Daroo Fotografia","latitude":-34.609245,"longitude":-58.483486,"accuracy":"14","context":0,"place_id":"4.e4oO9TUL8m7eo_1w","woeid":"22530018","geo_is_family":0,"geo_is_friend":0,"geo_is_contact":0,"geo_is_public":1,"media":"photo","media_status":"ready"},{"id":"14063505395","owner":"47532811@N03","secret":"8bcf5d7103","server":"5031","farm":6,"title":"great stamp Iceland 20 kr. Great Cormorant (Phalacrocorax carbo, Kormoran, Grand Cormoran, \u0411\u043e\u043b\u044c\u0448\u043e\u0439 \u0431\u0430\u043a\u043b\u0430\u043d ) fr\u00edmerki Island postage Islande timbre \u043f\u043e\u0447\u0442\u043e\u0432\u0430\u044f \u043c\u0430\u0440\u043a\u0430 \u0418\u0441\u043b\u0430\u0301\u043d\u0434\u0438\u044f Island Briefmarken \u51b0\u5c9b \u90ae\u7968 selo Isl\u00e2ndia sello Islandia znaczek francobolli Islanda","ispublic":1,"isfriend":0,"isfamily":0,"safe":0,"ownername":"stampolina - thanks to all for sending stamps!! :)","latitude":64.137382,"longitude":-21.902479,"accuracy":"11","context":0,"place_id":"PGxy3mRYWrpnp5g","woeid":"980389","geo_is_family":0,"geo_is_friend":0,"geo_is_contact":0,"geo_is_public":1,"media":"photo","media_status":"ready"},{"id":"14059844062","owner":"22543235@N05","secret":"085e7768e3","server":"2902","farm":3,"title":"Kylemore Abbey - Ireland","ispublic":1,"isfriend":0,"isfamily":0,"safe":0,"ownername":"Gareth Wray Photography -Thanks = 1.5 Million Hits","latitude":53.560122,"longitude":-9.891148,"accuracy":"16","context":0,"place_id":"NB5ofWJTUrq4uIK55g","woeid":"20072535","geo_is_family":0,"geo_is_friend":0,"geo_is_contact":0,"geo_is_public":1,"media":"photo","media_status":"ready"},{"id":"14039900446","owner":"41558538@N02","secret":"4c5da90f8e","server":"2932","farm":3,"title":"Sphinx of Hatshepsut","ispublic":1,"isfriend":0,"isfamily":0,"safe":0,"ownername":"vampire-carmen","latitude":40.779499,"longitude":-73.962664,"accuracy":"16","context":0,"place_id":"zzA0hmBTUb9GY797pA","woeid":"23511893","geo_is_family":0,"geo_is_friend":0,"geo_is_contact":0,"geo_is_public":1,"media":"photo","media_status":"ready"},{"id":"14062548245","owner":"21608855@N03","secret":"da40f3443f","server":"5067","farm":6,"title":"Booze floozies?","ispublic":1,"isfriend":0,"isfamily":0,"safe":0,"ownername":"Julie Bracken","latitude":51.415963,"longitude":-0.429239,"accuracy":"14","context":0,"place_id":"EtACgeBSVLz6DQ","woeid":"36613","geo_is_family":0,"geo_is_friend":0,"geo_is_contact":0,"geo_is_public":1,"media":"photo","media_status":"ready"},{"id":"14059238541","owner":"23414563@N04","secret":"a7fbeb5b75","server":"7406","farm":8,"title":"Who's looking at who? (Flickr Explore 29 April 2014). No. 11","ispublic":1,"isfriend":0,"isfamily":0,"safe":0,"ownername":"Belinda Fewings (thank you for 700,000 + views)","latitude":50.710999,"longitude":-2.759,"accuracy":"12","context":0,"place_id":"6ThqlAlSW7_mkQ","woeid":"39559","geo_is_family":0,"geo_is_friend":0,"geo_is_contact":0,"geo_is_public":1,"media":"photo","media_status":"ready"},{"id":"14058573752","owner":"45283106@N08","secret":"1e61158f8c","server":"7447","farm":8,"title":"725 - F\u00fcrstenried West","ispublic":1,"isfriend":0,"isfamily":0,"safe":0,"ownername":"Huey_Chris","latitude":48.088314,"longitude":11.481099,"accuracy":"14","context":0,"place_id":"SvjwzxZXV7q0RDQ","woeid":"650134","geo_is_family":0,"geo_is_friend":0,"geo_is_contact":0,"geo_is_public":1,"media":"photo","media_status":"ready"},{"id":"14058362771","owner":"31798876@N02","secret":"4576a3be02","server":"2931","farm":3,"title":"","ispublic":1,"isfriend":0,"isfamily":0,"safe":0,"ownername":"alant79","latitude":52.635858,"longitude":-1.134723,"accuracy":"16","context":0,"place_id":"0bs9mAtQULxX0NuJFw","woeid":"12696154","geo_is_family":0,"geo_is_friend":0,"geo_is_contact":0,"geo_is_public":1,"media":"photo","media_status":"ready"},{"id":"14058208701","owner":"47035764@N03","secret":"d221af72ed","server":"2912","farm":3,"title":"Meestraat, Bourtange, Groningen, Netherlands - 1751","ispublic":1,"isfriend":0,"isfamily":0,"safe":0,"ownername":"HereIsTom","latitude":53.006403,"longitude":7.191239,"accuracy":"16","context":0,"place_id":"ewwUmXlWUL0Nh5o","woeid":"727918","geo_is_family":0,"geo_is_friend":0,"geo_is_contact":0,"geo_is_public":1,"media":"photo","media_status":"ready"},{"id":"14061600644","owner":"44602415@N03","secret":"425c808bdd","server":"5038","farm":6,"title":"Nase","ispublic":1,"isfriend":0,"isfamily":0,"safe":0,"ownername":"StellaMarisHH","latitude":53.237122,"longitude":10.043649,"accuracy":"15","context":0,"place_id":"VvudoepTUrvi1Vu6dQ","woeid":"20166659","geo_is_family":0,"geo_is_friend":0,"geo_is_contact":0,"geo_is_public":1,"media":"photo","media_status":"ready"}]},"stat":"ok"}