{"photos":{"page":50,"pages":26696,"perpage":60,"total":"1601713","photo":[{"id":"14156264143","owner":"75632071@N00","secret":"7d2bbbc243","server":"7320","farm":8,"title":"Le passager de la pluie","ispublic":1,"isfriend":0,"isfamily":0,"safe":0,"ownername":"Christine Lebrasseur","latitude":46.388099,"longitude":-0.963299,"accuracy":"11","context":0,"place_id":"_I8LgwZXUbjQ_vw","woeid":"632662","geo_is_family":0,"geo_is_friend":0,"geo_is_contact":0,"geo_is_public":1,"media":"photo","media_status":"ready"},{"id":"13949105087","owner":"34096574@N06","secret":"7a1257a846","server":"7428","farm":8,"title":"La Ciotat : The entrance to the Vieux Port","ispublic":1,"isfriend":0,"isfamily":0,"safe":0,"ownername":"Pantchoa","latitude":43.173102,"longitude":5.610591,"accuracy":"16","context":0,"place_id":"shSpA4JUW72cGJc","woeid":"597742","geo_is_family":0,"geo_is_friend":0,"geo_is_contact":0,"geo_is_public":1,"media":"photo","media_status":"ready"},{"id":"13948016047","owner":"67414582@N07","secret":"9fd1335472","server":"7407","farm":8,"title":"Track Level Escalators Of Triangeln Station","ispublic":1,"isfriend":0,"isfamily":0,"safe":0,"ownername":"Mabry Campbell","latitude":40.74858,"longitude":-73.970483,"accuracy":"16","context":0,"place_id":"OrExS.VTUb8DJmvcVg","woeid":"23511898","geo_is_family":0,"geo_is_friend":0,"geo_is_contact":0,"geo_is_public":1,"media":"photo","media_status":"ready"},{"id":"14130353291","owner":"97711075@N08","secret":"e21bc784e2","server":"7298","farm":8,"title":"Madrid Highway","ispublic":1,"isfriend":0,"isfamily":0,"safe":0,"ownername":"RaulHudson1986","latitude":40.444856,"longitude":-3.658447,"accuracy":"13","context":0,"place_id":"EDO1qNJTUrh.6Muy_g","woeid":"20219853","geo_is_family":0,"geo_is_friend":0,"geo_is_contact":0,"geo_is_public":1,"media":"photo","media_status":"ready"},{"id":"14129283301","owner":"10817753@N03","secret":"01fee0bd37","server":"7351","farm":8,"title":"","ispublic":1,"isfriend":0,"isfamily":0,"safe":0,"ownername":"Ulf Bodin","latitude":58.659825,"longitude":16.424741,"accuracy":"16","context":0,"place_id":"KNOhD65ZW7_QlHc","woeid":"895661","geo_is_family":0,"geo_is_friend":0,"geo_is_contact":0,"geo_is_public":1,"media":"photo","media_status":"ready"},{"id":"13945925720","owner":"55365548@N08","secret":"59e179507f","server":"7397","farm":8,"title":"Shades of Kronenburg","ispublic":1,"isfriend":0,"isfamily":0,"safe":0,"ownername":"dhr Peter","latitude":50.361424,"longitude":6.473135,"accuracy":"14","context":0,"place_id":"afAG6YtXVLNW0Rk","woeid":"669051","geo_is_family":0,"geo_is_friend":0,"geo_is_contact":0,"geo_is_public":1,"media":"photo","media_status":"ready"},{"id":"13945240639","owner":"15133799@N02","secret":"3634d9a0d3","server":"7410","farm":8,"title":"running water","ispublic":1,"isfriend":0,"isfamily":0,"safe":0,"ownername":"*Kicki*","latitude":59.966723,"longitude":16.009719,"accuracy":"16","context":0,"place_id":"RIF_E.NZWr7t9tA","woeid":"884834","geo_is_family":0,"geo_is_friend":0,"geo_is_contact":0,"geo_is_public":1,"media":"photo","media_status":"ready"},{"id":"13945018660","owner":"32126965@N07","secret":"e6d8bdbfa2","server":"2907","farm":3,"title":"Introducing \"Snow\" and \"Paige\"","ispublic":1,"isfriend":0,"isfamily":0,"safe":0,"ownername":"* Janets Photos*","latitude":53.845184,"longitude":-0.432672,"accuracy":"13","context":0,"place_id":"rglZu.1QUL9EAg","woeid":"12508","geo_is_family":0,"geo_is_friend":0,"geo_is_contact":0,"geo_is_public":1,"media":"photo","media_status":"ready"},{"id":"13944864889","owner":"44161305@N02","secret":"0c6afe4c23","server":"5585","farm":6,"title":"498 San Vito Lo Capo, Sicily","ispublic":1,"isfriend":0,"isfamily":0,"safe":0,"ownername":"tango-","latitude":38.178683,"longitude":12.734107,"accuracy":"13","context":0,"place_id":"KyD2cJFWULmEfi0","woeid":"723212","geo_is_family":0,"geo_is_friend":0,"geo_is_contact":0,"geo_is_public":1,"media":"photo","media_status":"ready"},{"id":"14128474832","owner":"8868875@N03","secret":"960e73ecc5","server":"5036","farm":6,"title":"where suffering and art come together","ispublic":1,"isfriend":0,"isfamily":0,"safe":0,"ownername":"gato-gato-gato","latitude":47.481077,"longitude":8.300463,"accuracy":"16","context":0,"place_id":"1R8aqcVTUrt6iQOVaw","woeid":"20103813","geo_is_family":0,"geo_is_friend":0,"geo_is_contact":0,"geo_is_public":1,"media":"photo","media_status":"ready"},{"id":"13944777517","owner":"100738664@N05","secret":"4b687aa659","server":"2917","farm":3,"title":"Lago D'iseo","ispublic":1,"isfriend":0,"isfamily":0,"safe":0,"ownername":"IVAN 63","latitude":45.715648,"longitude":10.117585,"accuracy":"15","context":0,"place_id":"AhM0e_NWULieYEY","woeid":"722227","geo_is_family":0,"geo_is_friend":0,"geo_is_contact":0,"geo_is_public":1,"media":"photo","media_status":"ready"},{"id":"14130530465","owner":"35110249@N05","secret":"eef88b3fef","server":"5195","farm":6,"title":"Burgers Kings","ispublic":1,"isfriend":0,"isfamily":0,"safe":0,"ownername":"Foto Martien","latitude":52.012486,"longitude":5.899688,"accuracy":"16","context":0,"place_id":"5nFzkyJWUL3NZbY","woeid":"727349","geo_is_family":0,"geo_is_friend":0,"geo_is_contact":0,"geo_is_public":1,"media":"photo","media_status":"ready"},{"id":"13943629768","owner":"50471075@N06","secret":"ca2bebe5da","server":"2895","farm":3,"title":"Paradisurako atea","ispublic":1,"isfriend":0,"isfamily":0,"safe":0,"ownername":"Obikani","latitude":42.835947,"longitude":-2.309188,"accuracy":"11","context":0,"place_id":"qd9xyzhWVLJ9wQk","woeid":"768830","geo_is_family":0,"geo_is_friend":0,"geo_is_contact":0,"geo_is_public":1,"media":"photo","media_status":"ready"},{"id":"13942027600","owner":"13048208@N02","secret":"c0c5189d4f","server":"7353","farm":8,"title":"Meall a' Bh\u00f9iridh","ispublic":1,"isfriend":0,"isfamily":0,"safe":0,"ownername":"Damian_Ward","latitude":56.648877,"longitude":-4.868531,"accuracy":"16","context":0,"place_id":"tJEgy8VQUL8nXf9pFQ","woeid":"12578048","geo_is_family":0,"geo_is_friend":0,"geo_is_contact":0,"geo_is_public":1,"media":"photo","media_status":"ready"},{"id":"13938778119","owner":"48888412@N02","secret":"632b08deb7","server":"7337","farm":8,"title":"The Emotions Weight","ispublic":1,"isfriend":0,"isfamily":0,"safe":0,"ownername":"aminefassi","latitude":34.004573,"longitude":-6.864738,"accuracy":"11","context":0,"place_id":"FldE0_ZQV7mL1Dpk","woeid":"1539359","geo_is_family":0,"geo_is_friend":0,"geo_is_contact":0,"geo_is_public":1,"media":"photo","media_status":"ready"},{"id":"14121945532","owner":"37596256@N07","secret":"59c637ccdb","server":"7424","farm":8,"title":"Sunset at Plaza de Espa\u00f1a [Explored]","ispublic":1,"isfriend":0,"isfamily":0,"safe":0,"ownername":"jkpark78","latitude":37.377574,"longitude":-5.986025,"accuracy":"15","context":0,"place_id":"X.syr7RTUrimktU_sg","woeid":"20220191","geo_is_family":0,"geo_is_friend":0,"geo_is_contact":0,"geo_is_public":1,"media":"photo","media_status":"ready"},{"id":"14119528452","owner":"17528760@N00","secret":"5a1b721f65","server":"2913","farm":3,"title":"Rufous-tailed Jacamar, Brazil","ispublic":1,"isfriend":0,"isfamily":0,"safe":0,"ownername":"David Schenfeld","latitude":-19.586945,"longitude":-56.106667,"accuracy":"16","context":0,"place_id":"7NrFPstQUL9PwAxjRA","woeid":"12579110","geo_is_family":0,"geo_is_friend":0,"geo_is_contact":0,"geo_is_public":1,"media":"photo","media_status":"ready"},{"id":"13935409160","owner":"54816077@N03","secret":"177f5b199c","server":"7414","farm":8,"title":"Mister Coyote","ispublic":1,"isfriend":0,"isfamily":0,"safe":0,"ownername":"Thousand Word Images by Dustin Abbott","latitude":45.690172,"longitude":-74.964095,"accuracy":"16","context":0,"place_id":"7Yd7b.hSV7gz","woeid":"3525","geo_is_family":0,"geo_is_friend":0,"geo_is_contact":0,"geo_is_public":1,"media":"photo","media_status":"ready"},{"id":"14120221514","owner":"33142493@N02","secret":"81a27ab96e","server":"5035","farm":6,"title":"VERAMANECER","ispublic":1,"isfriend":0,"isfamily":0,"safe":0,"ownername":"pibepa","latitude":37.189245,"longitude":-1.816434,"accuracy":"14","context":0,"place_id":"cKVTJ4lTW7lbA_6IGQ","woeid":"29370567","geo_is_family":0,"geo_is_friend":0,"geo_is_contact":0,"geo_is_public":1,"media":"photo","media_status":"ready"},{"id":"14118226074","owner":"88135282@N02","secret":"591680dd0f","server":"2895","farm":3,"title":"Graying into the night","ispublic":1,"isfriend":0,"isfamily":0,"safe":0,"ownername":"Sam0hsong","latitude":35.831174,"longitude":-78.801727,"accuracy":"10","context":0,"place_id":"v5XGnkNTUb261Vfm","woeid":"2375810","geo_is_family":0,"geo_is_friend":0,"geo_is_contact":0,"geo_is_public":1,"media":"photo","media_status":"ready"},{"id":"13930551127","owner":"91553093@N02","secret":"0e34768ca9","server":"7305","farm":8,"title":"Urban geometric","ispublic":1,"isfriend":0,"isfamily":0,"safe":0,"ownername":"Sebastian Waszak Photography","latitude":51.217771,"longitude":6.777845,"accuracy":"16","context":0,"place_id":"MA8Ke4hXVrwlyVI","woeid":"646099","geo_is_family":0,"geo_is_friend":0,"geo_is_contact":0,"geo_is_public":1,"media":"photo","media_status":"ready"},{"id":"13929712417","owner":"59848996@N08","secret":"72ebfdd2d5","server":"2897","farm":3,"title":"","ispublic":1,"isfriend":0,"isfamily":0,"safe":0,"ownername":"paolounique","latitude":39.792182,"longitude":18.350608,"accuracy":"11","context":0,"place_id":"fesDcpNWU78GzQD4","woeid":"7153342","geo_is_family":0,"geo_is_friend":0,"geo_is_contact":0,"geo_is_public":1,"media":"photo","media_status":"ready"},{"id":"13929466890","owner":"39549476@N08","secret":"66d78dc51b","server":"7379","farm":8,"title":"| | | |","ispublic":1,"isfriend":0,"isfamily":0,"safe":0,"ownername":"sisssou","latitude":48.840655,"longitude":2.268826,"accuracy":"16","context":0,"place_id":"8pZpvHJUV7K0rV0XVw","woeid":"55843824","geo_is_family":0,"geo_is_friend":0,"geo_is_contact":0,"geo_is_public":1,"media":"photo","media_status":"ready"},{"id":"14116056465","owner":"77878777@N08","secret":"13c35b646b","server":"2902","farm":3,"title":"L'Estany de Cullera (Valencia)","ispublic":1,"isfriend":0,"isfamily":0,"safe":0,"ownername":"Paco Mir 66","latitude":39.12713,"longitude":-0.233201,"accuracy":"16","context":0,"place_id":"SBGaOW5TUriZy3y5Uw","woeid":"20222553","geo_is_family":0,"geo_is_friend":0,"geo_is_contact":0,"geo_is_public":1,"media":"photo","media_status":"ready"},{"id":"13929313139","owner":"96404105@N08","secret":"763fa2b361","server":"7391","farm":8,"title":"000113LS-S Forchtenberg","ispublic":1,"isfriend":0,"isfamily":0,"safe":0,"ownername":"Impressionen-Digital","latitude":49.287258,"longitude":9.562159,"accuracy":"11","context":0,"place_id":"GIo2pGxXV7qJ1ec","woeid":"650078","geo_is_family":0,"geo_is_friend":0,"geo_is_contact":0,"geo_is_public":1,"media":"photo","media_status":"ready"},{"id":"13927648237","owner":"68176223@N07","secret":"9885e2fbb0","server":"7459","farm":8,"title":"Glued 2","ispublic":1,"isfriend":0,"isfamily":0,"safe":0,"ownername":"Franco Beccari","latitude":43.325439,"longitude":11.33076,"accuracy":"11","context":0,"place_id":"ETlqzr1WUL6FcKo","woeid":"724196","geo_is_family":0,"geo_is_friend":0,"geo_is_contact":0,"geo_is_public":1,"media":"photo","media_status":"ready"},{"id":"14110187142","owner":"100739203@N06","secret":"e257b462b6","server":"2902","farm":3,"title":"WP_20ss1","ispublic":1,"isfriend":0,"isfamily":0,"safe":0,"ownername":"f g r a p h i a","latitude":39.311111,"longitude":-76.615,"accuracy":"16","context":0,"place_id":"FFpbc4RTW7jyN1Nexg","woeid":"29229393","geo_is_family":0,"geo_is_friend":0,"geo_is_contact":0,"geo_is_public":1,"media":"photo","media_status":"ready"},{"id":"14109401291","owner":"31804708@N02","secret":"80aea65565","server":"2905","farm":3,"title":"El terrapl\u00e9n del final - The embankment of the end","ispublic":1,"isfriend":0,"isfamily":0,"safe":0,"ownername":"celta4","latitude":-34.573387,"longitude":-58.401668,"accuracy":"15","context":0,"place_id":"6a60.9VSUbtRfWE","woeid":"331770","geo_is_family":0,"geo_is_friend":0,"geo_is_contact":0,"geo_is_public":1,"media":"photo","media_status":"ready"},{"id":"14112937994","owner":"21608855@N03","secret":"859aa25fb0","server":"2909","farm":3,"title":"A theory of relativity","ispublic":1,"isfriend":0,"isfamily":0,"safe":0,"ownername":"Julie Bracken","latitude":51.241527,"longitude":-0.729212,"accuracy":"16","context":0,"place_id":"TTnsU.1QUr_h3g","woeid":"10559","geo_is_family":0,"geo_is_friend":0,"geo_is_contact":0,"geo_is_public":1,"media":"photo","media_status":"ready"},{"id":"14088043646","owner":"90378082@N07","secret":"d6e06386b2","server":"2915","farm":3,"title":"You have either got it or you haven't","ispublic":1,"isfriend":0,"isfamily":0,"safe":0,"ownername":"Baz 120","latitude":41.91074,"longitude":12.477142,"accuracy":"15","context":0,"place_id":"62ufGyBUUb26u2g","woeid":"537842","geo_is_family":0,"geo_is_friend":0,"geo_is_contact":0,"geo_is_public":1,"media":"photo","media_status":"ready"},{"id":"13924521877","owner":"90378082@N07","secret":"fb3d46e15f","server":"7327","farm":8,"title":"No time to sit around here then","ispublic":1,"isfriend":0,"isfamily":0,"safe":0,"ownername":"Baz 120","latitude":41.906668,"longitude":12.481327,"accuracy":"15","context":0,"place_id":"FphPyURWU7ux6h4","woeid":"711883","geo_is_family":0,"geo_is_friend":0,"geo_is_contact":0,"geo_is_public":1,"media":"photo","media_status":"ready"},{"id":"14107888224","owner":"93704958@N03","secret":"5943461142","server":"5075","farm":6,"title":"Big Ben","ispublic":1,"isfriend":0,"isfamily":0,"safe":0,"ownername":"Jazzteffe","latitude":51.508889,"longitude":-0.117244,"accuracy":"15","context":0,"place_id":"jy4nJpJTUrqO2uKrkQ","woeid":"20094354","geo_is_family":0,"geo_is_friend":0,"geo_is_contact":0,"geo_is_public":1,"media":"photo","media_status":"ready"},{"id":"13920490157","owner":"74791582@N08","secret":"73db577cca","server":"2931","farm":3,"title":"mali 04-2014","ispublic":1,"isfriend":0,"isfamily":0,"safe":0,"ownername":"manto1952","latitude":14.538391,"longitude":-4.0979,"accuracy":"8","context":0,"place_id":"Mod6JL9TUb4impcJ","woeid":"2346183","geo_is_family":0,"geo_is_friend":0,"geo_is_contact":0,"geo_is_public":1,"media":"photo","media_status":"ready"},{"id":"13920452810","owner":"60423624@N05","secret":"3822a66f56","server":"2925","farm":3,"title":"Gro\u00dfenbroder Felde","ispublic":1,"isfriend":0,"isfamily":0,"safe":0,"ownername":"dubdream","latitude":54.377358,"longitude":11.106491,"accuracy":"11","context":0,"place_id":"GpXxIs1TW7nFysws_w","woeid":"29350870","geo_is_family":0,"geo_is_friend":0,"geo_is_contact":0,"geo_is_public":1,"media":"photo","media_status":"ready"},{"id":"14126937863","owner":"43467227@N08","secret":"981c4cb701","server":"7302","farm":8,"title":"untitled","ispublic":1,"isfriend":0,"isfamily":0,"safe":0,"ownername":"nicolasheinzelmann","latitude":46.946849,"longitude":7.452249,"accuracy":"16","context":0,"place_id":".iiiX6FWWrjsGDg","woeid":"782916","geo_is_family":0,"geo_is_friend":0,"geo_is_contact":0,"geo_is_public":1,"media":"photo","media_status":"ready"},{"id":"14102939311","owner":"96404105@N08","secret":"5cc85cfa93","server":"5344","farm":6,"title":"000117LS-F Kloster Sch\u00f6ntal","ispublic":1,"isfriend":0,"isfamily":0,"safe":0,"ownername":"Impressionen-Digital","latitude":49.329681,"longitude":9.506429,"accuracy":"11","context":0,"place_id":"K9eH7o9TUb7.dUdbxw","woeid":"23411551","geo_is_family":0,"geo_is_friend":0,"geo_is_contact":0,"geo_is_public":1,"media":"photo","media_status":"ready"},{"id":"14105964615","owner":"101109840@N06","secret":"afa5d6fc1b","server":"7295","farm":8,"title":"The wait is ending","ispublic":1,"isfriend":0,"isfamily":0,"safe":0,"ownername":"Brigante\uf8ff","latitude":45.46894,"longitude":9.18103,"accuracy":"11","context":0,"place_id":"49Gidk1WU7JxrFY","woeid":"718345","geo_is_family":0,"geo_is_friend":0,"geo_is_contact":0,"geo_is_public":1,"media":"photo","media_status":"ready"},{"id":"13919290489","owner":"41580255@N02","secret":"cc5946bd50","server":"7301","farm":8,"title":"El Quinto Elemento y la transmutaci\u00f3n de la materia en oro. \/ The Fifth Element and the transmutation of matter into gold.","ispublic":1,"isfriend":0,"isfamily":0,"safe":0,"ownername":"OMA photo","latitude":43.190909,"longitude":-3.744277,"accuracy":"13","context":0,"place_id":"2INAQ7tWVbrIroA","woeid":"770297","geo_is_family":0,"geo_is_friend":0,"geo_is_contact":0,"geo_is_public":1,"media":"photo","media_status":"ready"},{"id":"14102505791","owner":"75367184@N05","secret":"9772fd37cd","server":"7210","farm":8,"title":"Leptophyes punctatissima","ispublic":1,"isfriend":0,"isfamily":0,"safe":0,"ownername":"Wolkenrose","latitude":50.062511,"longitude":10.247463,"accuracy":"16","context":0,"place_id":"ezG5EhpXW7nrUYI","woeid":"693838","geo_is_family":0,"geo_is_friend":0,"geo_is_contact":0,"geo_is_public":1,"media":"photo","media_status":"ready"},{"id":"14106046544","owner":"96092563@N08","secret":"1b06b90974","server":"7194","farm":8,"title":"Suspendu - Moment of doubt","ispublic":1,"isfriend":0,"isfamily":0,"safe":0,"ownername":"Max Sat","latitude":48.84283,"longitude":2.323436,"accuracy":"15","context":0,"place_id":"kZbonQRUV7JxwWdJRQ","woeid":"55843828","geo_is_family":0,"geo_is_friend":0,"geo_is_contact":0,"geo_is_public":1,"media":"photo","media_status":"ready"},{"id":"14102101012","owner":"33607628@N02","secret":"220fbe159a","server":"2940","farm":3,"title":"Hillman Badge (B\/W)","ispublic":1,"isfriend":0,"isfamily":0,"safe":0,"ownername":"DaveJC90","latitude":52.066033,"longitude":1.157619,"accuracy":"16","context":0,"place_id":"EM78huVQULyqSWH_Sw","woeid":"12696082","geo_is_family":0,"geo_is_friend":0,"geo_is_contact":0,"geo_is_public":1,"media":"photo","media_status":"ready"},{"id":"14104472015","owner":"24023039@N08","secret":"084106efd7","server":"7375","farm":8,"title":"smoothie","ispublic":1,"isfriend":0,"isfamily":0,"safe":0,"ownername":"futyesz","latitude":51.495305,"longitude":-0.142757,"accuracy":"15","context":0,"place_id":"BjVxeKdVU7z_Fw","woeid":"41676","geo_is_family":0,"geo_is_friend":0,"geo_is_contact":0,"geo_is_public":1,"media":"photo","media_status":"ready"},{"id":"14122821993","owner":"35977279@N02","secret":"0290691b52","server":"2900","farm":3,"title":"Mandarin Duck","ispublic":1,"isfriend":0,"isfamily":0,"safe":0,"ownername":"andyoafmcgarry","latitude":53.414925,"longitude":-2.04057,"accuracy":"16","context":0,"place_id":"Yjwe4o1SUbwszA","woeid":"33649","geo_is_family":0,"geo_is_friend":0,"geo_is_contact":0,"geo_is_public":1,"media":"photo","media_status":"ready"},{"id":"14102544435","owner":"105795038@N03","secret":"a28c14f5bb","server":"2910","farm":3,"title":"Nicolas Reinoso in front of the Bar Alhambra_Rolleiflex 2.8E","ispublic":1,"isfriend":0,"isfamily":0,"safe":0,"ownername":"ksadjina","latitude":39.877682,"longitude":3.01418,"accuracy":"16","context":0,"place_id":"A.3etedWVbrNIc8","woeid":"770434","geo_is_family":0,"geo_is_friend":0,"geo_is_contact":0,"geo_is_public":1,"media":"photo","media_status":"ready"},{"id":"14122523553","owner":"50628097@N05","secret":"93651afdf4","server":"2904","farm":3,"title":".","ispublic":1,"isfriend":0,"isfamily":0,"safe":0,"ownername":"ngravity","latitude":41.381719,"longitude":2.171409,"accuracy":"15","context":0,"place_id":"Az_nBkdTUriOQRKL_Q","woeid":"20220094","geo_is_family":0,"geo_is_friend":0,"geo_is_contact":0,"geo_is_public":1,"media":"photo","media_status":"ready"},{"id":"14099179922","owner":"72843301@N03","secret":"5a11fec397","server":"2928","farm":3,"title":"\"Camouflage\"","ispublic":1,"isfriend":0,"isfamily":0,"safe":0,"ownername":"Die Pu","latitude":49.011061,"longitude":8.403264,"accuracy":"16","context":0,"place_id":"ukFZOyVXVL5G0V0","woeid":"664942","geo_is_family":0,"geo_is_friend":0,"geo_is_contact":0,"geo_is_public":1,"media":"photo","media_status":"ready"},{"id":"13915080227","owner":"92981517@N03","secret":"5b768e20f0","server":"7416","farm":8,"title":"Inhabit\u00e9 VII","ispublic":1,"isfriend":0,"isfamily":0,"safe":0,"ownername":"dono heneman","latitude":47.218109,"longitude":-1.55306,"accuracy":"11","context":0,"place_id":"ujh96DNXU7nOPuo","woeid":"613858","geo_is_family":0,"geo_is_friend":0,"geo_is_contact":0,"geo_is_public":1,"media":"photo","media_status":"ready"},{"id":"13914801677","owner":"44161305@N02","secret":"c9e08f6cc7","server":"2937","farm":3,"title":"011 Sciacca, Sicily","ispublic":1,"isfriend":0,"isfamily":0,"safe":0,"ownername":"tango-","latitude":37.503325,"longitude":13.079738,"accuracy":"14","context":0,"place_id":"RXkhnPhWULlZY5k","woeid":"723897","geo_is_family":0,"geo_is_friend":0,"geo_is_contact":0,"geo_is_public":1,"media":"photo","media_status":"ready"},{"id":"13912193947","owner":"65741821@N02","secret":"d72a79990e","server":"7390","farm":8,"title":"In my garden  (Explored)","ispublic":1,"isfriend":0,"isfamily":0,"safe":0,"ownername":"Jicardee29","latitude":51.650939,"longitude":-0.708789,"accuracy":"13","context":0,"place_id":"cvqXYZJTULI5Ng","woeid":"22805","geo_is_family":0,"geo_is_friend":0,"geo_is_contact":0,"geo_is_public":1,"media":"photo","media_status":"ready"},{"id":"14098647474","owner":"10817753@N03","secret":"b74847bbbb","server":"7178","farm":8,"title":"","ispublic":1,"isfriend":0,"isfamily":0,"safe":0,"ownername":"Ulf Bodin","latitude":58.588594,"longitude":16.190733,"accuracy":"16","context":0,"place_id":"O2Qqa0ZYUr5QW6g","woeid":"904234","geo_is_family":0,"geo_is_friend":0,"geo_is_contact":0,"geo_is_public":1,"media":"photo","media_status":"ready"},{"id":"13910712699","owner":"38458895@N03","secret":"30df1a7575","server":"5111","farm":6,"title":"Ferratas. Teletubbies-Olmo Soler","ispublic":1,"isfriend":0,"isfamily":0,"safe":0,"ownername":"pajaro alberto","latitude":42.029404,"longitude":0.667247,"accuracy":"13","context":0,"place_id":"lUIQlulTUrjMOLITIw","woeid":"20221979","geo_is_family":0,"geo_is_friend":0,"geo_is_contact":0,"geo_is_public":1,"media":"photo","media_status":"ready"},{"id":"13910647449","owner":"39669415@N05","secret":"9a2f0cc6c6","server":"7373","farm":8,"title":"Black-headed Gull (Chroicocephalus ridibundus)","ispublic":1,"isfriend":0,"isfamily":0,"safe":0,"ownername":"BraCom (Bram)","latitude":51.817388,"longitude":3.983027,"accuracy":"16","context":0,"place_id":".IbU9BdWULONIvw","woeid":"729434","geo_is_family":0,"geo_is_friend":0,"geo_is_contact":0,"geo_is_public":1,"media":"photo","media_status":"ready"},{"id":"14074051646","owner":"37529292@N05","secret":"3f8504a9dc","server":"2898","farm":3,"title":"FAUCON LANIER","ispublic":1,"isfriend":0,"isfamily":0,"safe":0,"ownername":"((o: pattoune :o))","latitude":45.311279,"longitude":4.10425,"accuracy":"16","context":0,"place_id":"ynkJegRUVbK3DWI","woeid":"578317","geo_is_family":0,"geo_is_friend":0,"geo_is_contact":0,"geo_is_public":1,"media":"photo","media_status":"ready"},{"id":"14093671922","owner":"21484776@N00","secret":"872172b6df","server":"7408","farm":8,"title":"Iran pond in front of mosque","ispublic":1,"isfriend":0,"isfamily":0,"safe":0,"ownername":"Ginas Pics","latitude":32.65139,"longitude":51.679191,"accuracy":"11","context":0,"place_id":"TBWrXzFTUL.szzcA","woeid":"2254572","geo_is_family":0,"geo_is_friend":0,"geo_is_contact":0,"geo_is_public":1,"media":"photo","media_status":"ready"},{"id":"13909829130","owner":"14279081@N08","secret":"4034a99c7f","server":"7412","farm":8,"title":"iphoneography","ispublic":1,"isfriend":0,"isfamily":0,"safe":0,"ownername":"\u039eSS\u039e\u00ae\u00ae\u039e","latitude":41.876718,"longitude":12.574539,"accuracy":"11","context":0,"place_id":"Txy_tk1WU79uo4MR","woeid":"7153336","geo_is_family":0,"geo_is_friend":0,"geo_is_contact":0,"geo_is_public":1,"media":"photo","media_status":"ready"},{"id":"14072583996","owner":"66759125@N00","secret":"438471a64c","server":"7351","farm":8,"title":"","ispublic":1,"isfriend":0,"isfamily":0,"safe":0,"ownername":"Svein Nordrum","latitude":61.46961,"longitude":8.813095,"accuracy":"10","context":0,"place_id":"fCXtUSNZV7JYJsw","woeid":"858911","geo_is_family":0,"geo_is_friend":0,"geo_is_contact":0,"geo_is_public":1,"media":"photo","media_status":"ready"},{"id":"14095795294","owner":"23414563@N04","secret":"126d49d86a","server":"5339","farm":6,"title":"Jumbo Topiary. Flickr Explore 3 May 2014.","ispublic":1,"isfriend":0,"isfamily":0,"safe":0,"ownername":"Belinda Fewings (thank you for 700,000 + views)","latitude":50.948443,"longitude":-1.552951,"accuracy":"13","context":0,"place_id":"pnUpvpJQVLKWTw","woeid":"16844","geo_is_family":0,"geo_is_friend":0,"geo_is_contact":0,"geo_is_public":1,"media":"photo","media_status":"ready"},{"id":"14071721496","owner":"23502939@N02","secret":"85ab173bc0","server":"7063","farm":8,"title":"Nose pierced  blonde","ispublic":1,"isfriend":0,"isfamily":0,"safe":0,"ownername":"Jan Herremans","latitude":51.52384,"longitude":-0.097961,"accuracy":"9","context":0,"place_id":"hP_s5s9VVr5Qcg","woeid":"44418","geo_is_family":0,"geo_is_friend":0,"geo_is_contact":0,"geo_is_public":1,"media":"photo","media_status":"ready"},{"id":"13908033377","owner":"96439392@N03","secret":"f9296ffe19","server":"7180","farm":8,"title":"There She Goes","ispublic":1,"isfriend":0,"isfamily":0,"safe":0,"ownername":"Kristin Van den Eede","latitude":51.042439,"longitude":3.726219,"accuracy":"16","context":0,"place_id":"AbVpUCdYVboU7JU","woeid":"970013","geo_is_family":0,"geo_is_friend":0,"geo_is_contact":0,"geo_is_public":1,"media":"photo","media_status":"ready"},{"id":"14091384652","owner":"80365011@N08","secret":"69597c2085","server":"7443","farm":8,"title":"Walk on the \"hohneck\" (explore 03-05-2014)","ispublic":1,"isfriend":0,"isfamily":0,"safe":0,"ownername":"kali_merette2002","latitude":48.050718,"longitude":7.068243,"accuracy":"14","context":0,"place_id":"tcXnU0xWU7_DQtMC","woeid":"7153322","geo_is_family":0,"geo_is_friend":0,"geo_is_contact":0,"geo_is_public":1,"media":"photo","media_status":"ready"}]},"stat":"ok"}