{"photos":{"page":56,"pages":26696,"perpage":60,"total":"1601725","photo":[{"id":"14095273615","owner":"90451570@N07","secret":"9190944f89","server":"2924","farm":3,"title":"Vernazza","ispublic":1,"isfriend":0,"isfamily":0,"safe":0,"ownername":"CarolynEaton","latitude":44.136684,"longitude":9.681186,"accuracy":"16","context":0,"place_id":"CeX_wMxWUL_Av2w","woeid":"725783","geo_is_family":0,"geo_is_friend":0,"geo_is_contact":0,"geo_is_public":1,"media":"photo","media_status":"ready"},{"id":"14114647133","owner":"13048208@N02","secret":"08a332c29d","server":"7425","farm":8,"title":"The Flow of the Coe","ispublic":1,"isfriend":0,"isfamily":0,"safe":0,"ownername":"Damian_Ward","latitude":56.649856,"longitude":-4.868531,"accuracy":"15","context":0,"place_id":"tJEgy8VQUL8nXf9pFQ","woeid":"12578048","geo_is_family":0,"geo_is_friend":0,"geo_is_contact":0,"geo_is_public":1,"media":"photo","media_status":"ready"},{"id":"14070970896","owner":"75972341@N04","secret":"e2bccc7758","server":"2917","farm":3,"title":"just arrived in amsterdam","ispublic":1,"isfriend":0,"isfamily":0,"safe":0,"ownername":"Gerard Koopen","latitude":52.378291,"longitude":4.899333,"accuracy":"16","context":0,"place_id":"xfcEFYhWULKtjYI","woeid":"728410","geo_is_family":0,"geo_is_friend":0,"geo_is_contact":0,"geo_is_public":1,"media":"photo","media_status":"ready"},{"id":"14091828585","owner":"91063876@N05","secret":"b8fd048dee","server":"7184","farm":8,"title":"Zen and the Art of Fishing","ispublic":1,"isfriend":0,"isfamily":0,"safe":0,"ownername":"JMHart2","latitude":41.371849,"longitude":-72.589416,"accuracy":"13","context":0,"place_id":"77iRDp9TVrmCYC0C","woeid":"2432297","geo_is_family":0,"geo_is_friend":0,"geo_is_contact":0,"geo_is_public":1,"media":"photo","media_status":"ready"},{"id":"14091391144","owner":"87850323@N03","secret":"64b4cc9626","server":"5157","farm":6,"title":"Madeira view from Ponta de Sa\u0303o Lourenc\u0327o","ispublic":1,"isfriend":0,"isfamily":0,"safe":0,"ownername":"Jon Bagge","latitude":32.746649,"longitude":-16.690206,"accuracy":"14","context":0,"place_id":"hftGDitUV7IBt3vQHA","woeid":"55868363","geo_is_family":0,"geo_is_friend":0,"geo_is_contact":0,"geo_is_public":1,"media":"photo","media_status":"ready"},{"id":"14067777106","owner":"45686660@N02","secret":"1f5b467ec8","server":"7422","farm":8,"title":"Milano, Vicolo Ciovasso","ispublic":1,"isfriend":0,"isfamily":0,"safe":0,"ownername":"forastico","latitude":45.46894,"longitude":9.18103,"accuracy":"11","context":0,"place_id":"49Gidk1WU7JxrFY","woeid":"718345","geo_is_family":0,"geo_is_friend":0,"geo_is_contact":0,"geo_is_public":1,"media":"photo","media_status":"ready"},{"id":"14087180421","owner":"42201042@N05","secret":"396d224c69","server":"7040","farm":8,"title":"Ibiza 7","ispublic":1,"isfriend":0,"isfamily":0,"safe":0,"ownername":"Eloy Rodr\u00edguez","latitude":38.890878,"longitude":1.221896,"accuracy":"16","context":0,"place_id":"iPgvOHJTUrgwb4eyUA","woeid":"20220242","geo_is_family":0,"geo_is_friend":0,"geo_is_contact":0,"geo_is_public":1,"media":"photo","media_status":"ready"},{"id":"14090098694","owner":"46944516@N00","secret":"dd2e5970df","server":"7314","farm":8,"title":"25th April 2014 : Drawing Lisbon","ispublic":1,"isfriend":0,"isfamily":0,"safe":0,"ownername":"pedrosimoes7","latitude":38.714564,"longitude":-9.137234,"accuracy":"16","context":0,"place_id":"b7Uf2J5WUbxRDb4","woeid":"736833","geo_is_family":0,"geo_is_friend":0,"geo_is_contact":0,"geo_is_public":1,"media":"photo","media_status":"ready"},{"id":"14087473545","owner":"82475308@N05","secret":"6dd7c6d68e","server":"7057","farm":8,"title":"\"Looks like a painting\"","ispublic":1,"isfriend":0,"isfamily":0,"safe":0,"ownername":"Carola Photography \u221e","latitude":44.752097,"longitude":8.153228,"accuracy":"11","context":0,"place_id":"xipUJQBWU7k5G5k","woeid":"713192","geo_is_family":0,"geo_is_friend":0,"geo_is_contact":0,"geo_is_public":1,"media":"photo","media_status":"ready"},{"id":"14087232174","owner":"53557692@N08","secret":"3e0f2c0ca8","server":"5594","farm":6,"title":"Aquiloni e i suoi colori","ispublic":1,"isfriend":0,"isfamily":0,"safe":0,"ownername":"solematt_o","latitude":44.255527,"longitude":12.363059,"accuracy":"11","context":0,"place_id":"QDPjZ2NWU7kg3_o","woeid":"713854","geo_is_family":0,"geo_is_friend":0,"geo_is_contact":0,"geo_is_public":1,"media":"photo","media_status":"ready"},{"id":"13897353937","owner":"38904635@N03","secret":"e7052e3b3e","server":"7329","farm":8,"title":"Parque Nacional La Campana - Chile","ispublic":1,"isfriend":0,"isfamily":0,"safe":0,"ownername":"Daniel Diaz Vera","latitude":-32.970579,"longitude":-71.082916,"accuracy":"13","context":0,"place_id":"6T2VCG9TUb4e2Iw3","woeid":"2345018","geo_is_family":0,"geo_is_friend":0,"geo_is_contact":0,"geo_is_public":1,"media":"photo","media_status":"ready"},{"id":"13897293447","owner":"32686294@N08","secret":"c784d5dc50","server":"5335","farm":6,"title":"Alvorada na Praia Vermelha - Rio de Janeiro","ispublic":1,"isfriend":0,"isfamily":0,"safe":0,"ownername":"mariohowat","latitude":-22.851795,"longitude":-42.839357,"accuracy":"4","context":0,"place_id":"fCgNtJ9TUb7DgEOD","woeid":"2344862","geo_is_family":0,"geo_is_friend":0,"geo_is_contact":0,"geo_is_public":1,"media":"photo","media_status":"ready"},{"id":"14093255726","owner":"7361280@N03","secret":"a926cf9394","server":"7362","farm":8,"title":"Rio de Janeiro port","ispublic":1,"isfriend":0,"isfamily":0,"safe":0,"ownername":"tramsteer","latitude":-22.880498,"longitude":-43.211746,"accuracy":"11","context":0,"place_id":"mAqmHW5VV78OT5o","woeid":"455825","geo_is_family":0,"geo_is_friend":0,"geo_is_contact":0,"geo_is_public":1,"media":"photo","media_status":"ready"},{"id":"13929613668","owner":"39669415@N05","secret":"4cf0603556","server":"7038","farm":8,"title":"Poppy","ispublic":1,"isfriend":0,"isfamily":0,"safe":0,"ownername":"BraCom (Bram)","latitude":51.801963,"longitude":4.052175,"accuracy":"16","context":0,"place_id":"EzqMfXZWUblU.es","woeid":"733652","geo_is_family":0,"geo_is_friend":0,"geo_is_contact":0,"geo_is_public":1,"media":"photo","media_status":"ready"},{"id":"14112933381","owner":"97877116@N03","secret":"d59a2516e9","server":"5491","farm":6,"title":"434","ispublic":1,"isfriend":0,"isfamily":0,"safe":0,"ownername":"vanessakhler74","latitude":51.32682,"longitude":6.971539,"accuracy":"11","context":0,"place_id":"B2p.SDJXV7IjkxI","woeid":"658538","geo_is_family":0,"geo_is_friend":0,"geo_is_contact":0,"geo_is_public":1,"media":"photo","media_status":"ready"},{"id":"13929524857","owner":"53035251@N03","secret":"d48f8f3ff3","server":"7354","farm":8,"title":"\u00cdsafj\u00f6r\u00f0ur","ispublic":1,"isfriend":0,"isfamily":0,"safe":0,"ownername":"mummibjarni","latitude":66.082684,"longitude":-23.112487,"accuracy":"9","context":0,"place_id":"QX9.D1RYWrryoTA","woeid":"980266","geo_is_family":0,"geo_is_friend":0,"geo_is_contact":0,"geo_is_public":1,"media":"photo","media_status":"ready"},{"id":"13929115959","owner":"44161305@N02","secret":"1759d4b954","server":"5499","farm":6,"title":"045 Sciacca, Sicily","ispublic":1,"isfriend":0,"isfamily":0,"safe":0,"ownername":"tango-","latitude":37.503325,"longitude":13.079738,"accuracy":"14","context":0,"place_id":"RXkhnPhWULlZY5k","woeid":"723897","geo_is_family":0,"geo_is_friend":0,"geo_is_contact":0,"geo_is_public":1,"media":"photo","media_status":"ready"},{"id":"14092024216","owner":"8188882@N05","secret":"38b5379448","server":"7059","farm":8,"title":"Where is Martine ???","ispublic":1,"isfriend":0,"isfamily":0,"safe":0,"ownername":"DinosaursAreNotDead","latitude":48.860973,"longitude":2.325432,"accuracy":"15","context":0,"place_id":".jdUillUV7Kt1uHqAg","woeid":"55843777","geo_is_family":0,"geo_is_friend":0,"geo_is_contact":0,"geo_is_public":1,"media":"photo","media_status":"ready"},{"id":"14115133735","owner":"15005196@N07","secret":"e385dd0024","server":"7323","farm":8,"title":"\u4f34\u821e Dance with me  ~ Comune di Varenna, \u74e6\u502b\u7d0d~","ispublic":1,"isfriend":0,"isfamily":0,"safe":0,"ownername":"PS\u5154~\u5154\u5154\u5154~","latitude":46.011405,"longitude":9.269971,"accuracy":"14","context":0,"place_id":"Hp6P20VQULxDPIQIkg","woeid":"12681344","geo_is_family":0,"geo_is_friend":0,"geo_is_contact":0,"geo_is_public":1,"media":"photo","media_status":"ready"},{"id":"14111878192","owner":"69132312@N03","secret":"0f71e50a15","server":"7199","farm":8,"title":"Hassam. Tuareg. Gente del Desierto","ispublic":1,"isfriend":0,"isfamily":0,"safe":0,"ownername":"Oscard48","latitude":31.43885,"longitude":-4.24373,"accuracy":"11","context":0,"place_id":"Gydf3G1QV7laGCQ_","woeid":"1535330","geo_is_family":0,"geo_is_friend":0,"geo_is_contact":0,"geo_is_public":1,"media":"photo","media_status":"ready"},{"id":"14134852963","owner":"16854222@N05","secret":"1da0fa301e","server":"5467","farm":6,"title":"Coming Soon ...","ispublic":1,"isfriend":0,"isfamily":0,"safe":0,"ownername":"AnyMotion","latitude":50.123271,"longitude":8.6804,"accuracy":"16","context":0,"place_id":"Z0FRRfRXV7oIeew","woeid":"650272","geo_is_family":0,"geo_is_friend":0,"geo_is_contact":0,"geo_is_public":1,"media":"photo","media_status":"ready"},{"id":"13926460407","owner":"7132158@N07","secret":"7bda803f21","server":"7344","farm":8,"title":"Parque Nacional Peneda-Ger\u00eas","ispublic":1,"isfriend":0,"isfamily":0,"safe":0,"ownername":"Rui Almeida.","latitude":41.684707,"longitude":-8.171768,"accuracy":"11","context":0,"place_id":"h4lv9bZWVr1PpnY","woeid":"747341","geo_is_family":0,"geo_is_friend":0,"geo_is_contact":0,"geo_is_public":1,"media":"photo","media_status":"ready"},{"id":"14133087593","owner":"7132158@N07","secret":"a4b92f55e8","server":"7190","farm":8,"title":"All that is earth has once been sky","ispublic":1,"isfriend":0,"isfamily":0,"safe":0,"ownername":"Rui Almeida.","latitude":37.805149,"longitude":-25.49768,"accuracy":"10","context":0,"place_id":"pUegk7RQV7pjnOPNeA","woeid":"15021776","geo_is_family":0,"geo_is_friend":0,"geo_is_contact":0,"geo_is_public":1,"media":"photo","media_status":"ready"},{"id":"13925945127","owner":"38337348@N06","secret":"27c401d10a","server":"2901","farm":3,"title":"Petroleum Tanks","ispublic":1,"isfriend":0,"isfamily":0,"safe":0,"ownername":"Passie13(Ines van Megen-Thijssen)","latitude":51.978219,"longitude":4.061164,"accuracy":"16","context":0,"place_id":"sYGpdP1QV7oultVSWw","woeid":"15021017","geo_is_family":0,"geo_is_friend":0,"geo_is_contact":0,"geo_is_public":1,"media":"photo","media_status":"ready"},{"id":"14112777744","owner":"61674778@N07","secret":"f4cff036ea","server":"2935","farm":3,"title":"Mari\u00eblle, Rome 2014: Blocking the view","ispublic":1,"isfriend":0,"isfamily":0,"safe":0,"ownername":"mdiepraam","latitude":41.885649,"longitude":12.479653,"accuracy":"15","context":0,"place_id":"0in3o3RWULj.Ogw","woeid":"722964","geo_is_family":0,"geo_is_friend":0,"geo_is_contact":0,"geo_is_public":1,"media":"photo","media_status":"ready"},{"id":"13924910549","owner":"50027776@N05","secret":"499247c717","server":"2898","farm":3,"title":"Cavalli sul Pian Grande","ispublic":1,"isfriend":0,"isfamily":0,"safe":0,"ownername":"Luigi Alesi","latitude":42.828299,"longitude":13.206467,"accuracy":"14","context":0,"place_id":"IcB85V1WU7lCiZ8","woeid":"713407","geo_is_family":0,"geo_is_friend":0,"geo_is_contact":0,"geo_is_public":1,"media":"photo","media_status":"ready"},{"id":"14111533165","owner":"93608894@N02","secret":"5a9d3d1800","server":"7343","farm":8,"title":"Classic Street #116 (explore)","ispublic":1,"isfriend":0,"isfamily":0,"safe":0,"ownername":"Jean-Pierre ARIBAU","latitude":43.945186,"longitude":4.799437,"accuracy":"15","context":0,"place_id":"tMUAxnlUVb1lkGU","woeid":"577605","geo_is_family":0,"geo_is_friend":0,"geo_is_contact":0,"geo_is_public":1,"media":"photo","media_status":"ready"},{"id":"13921591299","owner":"96794675@N02","secret":"5b0c47b08b","server":"7368","farm":8,"title":"Scilla e Cariddi","ispublic":1,"isfriend":0,"isfamily":0,"safe":0,"ownername":"Donca 66","latitude":38.263577,"longitude":15.683944,"accuracy":"11","context":0,"place_id":"Z73sjGxWULlivZw","woeid":"723909","geo_is_family":0,"geo_is_friend":0,"geo_is_contact":0,"geo_is_public":1,"media":"photo","media_status":"ready"},{"id":"13920980820","owner":"72738192@N00","secret":"72b57bca46","server":"2898","farm":3,"title":"A \u00cf C  H A. Balhil","ispublic":1,"isfriend":0,"isfamily":0,"safe":0,"ownername":"Claude Renault Photography","latitude":33.931966,"longitude":-4.995346,"accuracy":"10","context":0,"place_id":"pCC.REBTUb5BtlYW","woeid":"2346201","geo_is_family":0,"geo_is_friend":0,"geo_is_contact":0,"geo_is_public":1,"media":"photo","media_status":"ready"},{"id":"13920060797","owner":"21484776@N00","secret":"f9bffae636","server":"5151","farm":6,"title":"Iran","ispublic":1,"isfriend":0,"isfamily":0,"safe":0,"ownername":"Ginas Pics","latitude":32.656719,"longitude":51.672821,"accuracy":"11","context":0,"place_id":"TBWrXzFTUL.szzcA","woeid":"2254572","geo_is_family":0,"geo_is_friend":0,"geo_is_contact":0,"geo_is_public":1,"media":"photo","media_status":"ready"},{"id":"14083177496","owner":"67534619@N02","secret":"5c7f92302c","server":"2918","farm":3,"title":"home by the sea","ispublic":1,"isfriend":0,"isfamily":0,"safe":0,"ownername":"FH | Photography","latitude":54.643644,"longitude":13.222732,"accuracy":"11","context":0,"place_id":"PiDCtcVXVr9vhFg","woeid":"645556","geo_is_family":0,"geo_is_friend":0,"geo_is_contact":0,"geo_is_public":1,"media":"photo","media_status":"ready"},{"id":"14102559622","owner":"67590306@N03","secret":"7b735e95d2","server":"2896","farm":3,"title":"Llegando a Europa \/ Reaching Europe ( vultures ) Explore","ispublic":1,"isfriend":0,"isfamily":0,"safe":0,"ownername":"Jos\u00e9 Rambaud","latitude":36.095857,"longitude":-5.533246,"accuracy":"13","context":0,"place_id":"F_1KonRQULwbfMI1WQ","woeid":"12688730","geo_is_family":0,"geo_is_friend":0,"geo_is_contact":0,"geo_is_public":1,"media":"photo","media_status":"ready"},{"id":"14100787231","owner":"52735684@N07","secret":"10d1ed3a37","server":"7200","farm":8,"title":"Chioggia - 04051402","ispublic":1,"isfriend":0,"isfamily":0,"safe":0,"ownername":"Klaus Kehrls","latitude":45.221845,"longitude":12.280633,"accuracy":"16","context":0,"place_id":"HAN1d5VWU77v0Fk","woeid":"714016","geo_is_family":0,"geo_is_friend":0,"geo_is_contact":0,"geo_is_public":1,"media":"photo","media_status":"ready"},{"id":"13916693339","owner":"35715563@N04","secret":"cc8da3c43f","server":"2911","farm":3,"title":"The saddest puppy...","ispublic":1,"isfriend":0,"isfamily":0,"safe":0,"ownername":"lionel682","latitude":35.047775,"longitude":-78.885633,"accuracy":"15","context":0,"place_id":"TamiK.tTVrLv413O","woeid":"2489362","geo_is_family":0,"geo_is_friend":0,"geo_is_contact":0,"geo_is_public":1,"media":"photo","media_status":"ready"},{"id":"14100156832","owner":"52232377@N08","secret":"4b1e1cba0d","server":"5495","farm":6,"title":"My first publication on paper.","ispublic":1,"isfriend":0,"isfamily":0,"safe":0,"ownername":"nemi1968","latitude":59.919752,"longitude":10.704263,"accuracy":"16","context":0,"place_id":"gS0JANFTUb2keaHPqg","woeid":"23701339","geo_is_family":0,"geo_is_friend":0,"geo_is_contact":0,"geo_is_public":1,"media":"photo","media_status":"ready"},{"id":"13916098720","owner":"13048208@N02","secret":"306662ba72","server":"7361","farm":8,"title":"Black Rock Cottage","ispublic":1,"isfriend":0,"isfamily":0,"safe":0,"ownername":"Damian_Ward","latitude":56.637108,"longitude":-4.825851,"accuracy":"16","context":0,"place_id":"tJEgy8VQUL8nXf9pFQ","woeid":"12578048","geo_is_family":0,"geo_is_friend":0,"geo_is_contact":0,"geo_is_public":1,"media":"photo","media_status":"ready"},{"id":"14099552612","owner":"19685823@N00","secret":"27c3e2cc7e","server":"5158","farm":6,"title":"Ponte dei Salti @ Valle Verzasca . Ticino Svizzera","ispublic":1,"isfriend":0,"isfamily":0,"safe":0,"ownername":"Toni_V","latitude":46.258509,"longitude":8.837878,"accuracy":"16","context":0,"place_id":"IdHlnsNWWrm.nrU","woeid":"783061","geo_is_family":0,"geo_is_friend":0,"geo_is_contact":0,"geo_is_public":1,"media":"photo","media_status":"ready"},{"id":"14100681355","owner":"26254665@N02","secret":"13a03bd443","server":"5472","farm":6,"title":"Index Kiss","ispublic":1,"isfriend":0,"isfamily":0,"safe":0,"ownername":"Claire Louise J","latitude":54.683854,"longitude":-1.162834,"accuracy":"12","context":0,"place_id":"0a5QnIJTUL8EDA","woeid":"22551","geo_is_family":0,"geo_is_friend":0,"geo_is_contact":0,"geo_is_public":1,"media":"photo","media_status":"ready"},{"id":"14096474001","owner":"75133058@N00","secret":"55416f7fe9","server":"2902","farm":3,"title":"La overa y los moros","ispublic":1,"isfriend":0,"isfamily":0,"safe":0,"ownername":"Eduardo Amorim","latitude":-34.233802,"longitude":-59.499206,"accuracy":"11","context":0,"place_id":"K.q5MK9SUbg4DZE","woeid":"332504","geo_is_family":0,"geo_is_friend":0,"geo_is_contact":0,"geo_is_public":1,"media":"photo","media_status":"ready"},{"id":"14099397184","owner":"30996501@N07","secret":"34892c2ec1","server":"2914","farm":3,"title":"\" LA TRILLA\" CERECEDA GUADALAJARA ESPA\u00d1A APROX A\u00d1OS 60 SIGLO XX","ispublic":1,"isfriend":0,"isfamily":0,"safe":0,"ownername":"Jose Javier Martin Espartosa","latitude":40.621879,"longitude":-2.635309,"accuracy":"13","context":0,"place_id":"xeW1VcdWV73Bu.A","woeid":"757290","geo_is_family":0,"geo_is_friend":0,"geo_is_contact":0,"geo_is_public":1,"media":"photo","media_status":"ready"},{"id":"13912354828","owner":"91722814@N02","secret":"7435c052ac","server":"5312","farm":6,"title":"Twin Falls","ispublic":1,"isfriend":0,"isfamily":0,"safe":0,"ownername":"nalamanpics","latitude":50.529852,"longitude":-3.851823,"accuracy":"14","context":0,"place_id":"jgZYP_hSUL_A.Q","woeid":"32512","geo_is_family":0,"geo_is_friend":0,"geo_is_contact":0,"geo_is_public":1,"media":"photo","media_status":"ready"},{"id":"14098919955","owner":"35742910@N05","secret":"102c3c37c4","server":"2898","farm":3,"title":"De Oversteek deel III","ispublic":1,"isfriend":0,"isfamily":0,"safe":0,"ownername":"Maarten Takens","latitude":51.854442,"longitude":5.841636,"accuracy":"16","context":0,"place_id":"WwnpGs5WUbguJu8","woeid":"732073","geo_is_family":0,"geo_is_friend":0,"geo_is_contact":0,"geo_is_public":1,"media":"photo","media_status":"ready"},{"id":"13911468877","owner":"62816064@N04","secret":"3fa2f8d685","server":"7065","farm":8,"title":"\"I Love You\". EXPLORED 3 May 2014 (Highest #112)","ispublic":1,"isfriend":0,"isfamily":0,"safe":0,"ownername":"D@nnyR Photogr@phics(no time for group invites)","latitude":36.596786,"longitude":-4.51847,"accuracy":"11","context":0,"place_id":"C9Y3qzpWVbO9gLw","woeid":"779237","geo_is_family":0,"geo_is_friend":0,"geo_is_contact":0,"geo_is_public":1,"media":"photo","media_status":"ready"},{"id":"14094760222","owner":"91463065@N06","secret":"0e5d985d2d","server":"5158","farm":6,"title":"King David Park (Explored)","ispublic":1,"isfriend":0,"isfamily":0,"safe":0,"ownername":"BennyM Photography","latitude":31.451217,"longitude":35.385246,"accuracy":"11","context":0,"place_id":"2YMkYfNQW7y_tx1d","woeid":"1968172","geo_is_family":0,"geo_is_friend":0,"geo_is_contact":0,"geo_is_public":1,"media":"photo","media_status":"ready"},{"id":"13910029290","owner":"24061413@N04","secret":"36348d5e10","server":"2931","farm":3,"title":"Shooting by Nico","ispublic":1,"isfriend":0,"isfamily":0,"safe":0,"ownername":"french_lolita","latitude":48.856428,"longitude":2.340356,"accuracy":"16","context":0,"place_id":"EsIQUYZXU79_kEA","woeid":"615702","geo_is_family":0,"geo_is_friend":0,"geo_is_contact":0,"geo_is_public":1,"media":"photo","media_status":"ready"},{"id":"14096626805","owner":"24061413@N04","secret":"acbcc625c1","server":"7348","farm":8,"title":"Shooting by Nico","ispublic":1,"isfriend":0,"isfamily":0,"safe":0,"ownername":"french_lolita","latitude":48.852263,"longitude":2.347866,"accuracy":"16","context":0,"place_id":"EsIQUYZXU79_kEA","woeid":"615702","geo_is_family":0,"geo_is_friend":0,"geo_is_contact":0,"geo_is_public":1,"media":"photo","media_status":"ready"},{"id":"14073531096","owner":"24061413@N04","secret":"d2464f6894","server":"7337","farm":8,"title":"Shooting by Nico","ispublic":1,"isfriend":0,"isfamily":0,"safe":0,"ownername":"french_lolita","latitude":48.85215,"longitude":2.347565,"accuracy":"16","context":0,"place_id":"EsIQUYZXU79_kEA","woeid":"615702","geo_is_family":0,"geo_is_friend":0,"geo_is_contact":0,"geo_is_public":1,"media":"photo","media_status":"ready"},{"id":"14073530626","owner":"24061413@N04","secret":"6413c8b54d","server":"7417","farm":8,"title":"Shooting by Nico","ispublic":1,"isfriend":0,"isfamily":0,"safe":0,"ownername":"french_lolita","latitude":48.852093,"longitude":2.347415,"accuracy":"16","context":0,"place_id":"EsIQUYZXU79_kEA","woeid":"615702","geo_is_family":0,"geo_is_friend":0,"geo_is_contact":0,"geo_is_public":1,"media":"photo","media_status":"ready"},{"id":"14073528126","owner":"24061413@N04","secret":"d0ca54b8e1","server":"7302","farm":8,"title":"Shooting by Nico","ispublic":1,"isfriend":0,"isfamily":0,"safe":0,"ownername":"french_lolita","latitude":48.852136,"longitude":2.347587,"accuracy":"16","context":0,"place_id":"EsIQUYZXU79_kEA","woeid":"615702","geo_is_family":0,"geo_is_friend":0,"geo_is_contact":0,"geo_is_public":1,"media":"photo","media_status":"ready"},{"id":"14116439933","owner":"32208339@N04","secret":"e579357a60","server":"7455","farm":8,"title":"I call this bird   \"Robin\"","ispublic":1,"isfriend":0,"isfamily":0,"safe":0,"ownername":"Feathers (Allan)","latitude":50.992474,"longitude":0.478248,"accuracy":"12","context":0,"place_id":"Q3LtBvxSUbJKsA","woeid":"33878","geo_is_family":0,"geo_is_friend":0,"geo_is_contact":0,"geo_is_public":1,"media":"photo","media_status":"ready"},{"id":"14095099205","owner":"89218664@N00","secret":"05a9f654db","server":"7444","farm":8,"title":"Colored alley","ispublic":1,"isfriend":0,"isfamily":0,"safe":0,"ownername":"Tati@","latitude":46.143829,"longitude":8.72735,"accuracy":"11","context":0,"place_id":"KVpdhRtWWrkD3H0","woeid":"783915","geo_is_family":0,"geo_is_friend":0,"geo_is_contact":0,"geo_is_public":1,"media":"photo","media_status":"ready"},{"id":"13905942058","owner":"44296911@N03","secret":"869a152604","server":"7374","farm":8,"title":"First Avenue","ispublic":1,"isfriend":0,"isfamily":0,"safe":0,"ownername":"Rafakoy","latitude":40.751971,"longitude":-73.967562,"accuracy":"16","context":0,"place_id":"dMuutN1TWr3pNjNH_w","woeid":"28751168","geo_is_family":0,"geo_is_friend":0,"geo_is_contact":0,"geo_is_public":1,"media":"photo","media_status":"ready"},{"id":"13903546217","owner":"35742910@N05","secret":"32a6356750","server":"7189","farm":8,"title":"Reeser Rheinbr\u00fccke ...","ispublic":1,"isfriend":0,"isfamily":0,"safe":0,"ownername":"Maarten Takens","latitude":51.755834,"longitude":6.378936,"accuracy":"14","context":0,"place_id":"Guc9rflXWr2I7c8","woeid":"687300","geo_is_family":0,"geo_is_friend":0,"geo_is_contact":0,"geo_is_public":1,"media":"photo","media_status":"ready"},{"id":"13901869220","owner":"7156765@N05","secret":"927d89c8ac","server":"5532","farm":6,"title":"Port Hope ~ Ontario ~ Canada ~ Ganaraska River ~  Historical Downtown","ispublic":1,"isfriend":0,"isfamily":0,"safe":0,"ownername":"Onasill ~","latitude":43.950822,"longitude":-78.292101,"accuracy":"14","context":0,"place_id":"7DmMVH1VUbzK","woeid":"4366","geo_is_family":0,"geo_is_friend":0,"geo_is_contact":0,"geo_is_public":1,"media":"photo","media_status":"ready"},{"id":"14108068833","owner":"57269929@N00","secret":"d841f15af1","server":"7188","farm":8,"title":"Something you don't see everyday!","ispublic":1,"isfriend":0,"isfamily":0,"safe":0,"ownername":"applemanc","latitude":27.761297,"longitude":-15.574559,"accuracy":"16","context":0,"place_id":"t5ahw1xTUrhb0Ca.nA","woeid":"20225307","geo_is_family":0,"geo_is_friend":0,"geo_is_contact":0,"geo_is_public":1,"media":"photo","media_status":"ready"},{"id":"14087483935","owner":"62816064@N04","secret":"d91875c4e2","server":"5345","farm":6,"title":"A flower for my love. EXPLORED 2 May 2014. (Highest #74)","ispublic":1,"isfriend":0,"isfamily":0,"safe":0,"ownername":"D@nnyR Photogr@phics(no time for group invites)","latitude":36.507991,"longitude":-4.883299,"accuracy":"11","context":0,"place_id":"b6ANCk5WVLwQivI","woeid":"766537","geo_is_family":0,"geo_is_friend":0,"geo_is_contact":0,"geo_is_public":1,"media":"photo","media_status":"ready"},{"id":"14103261063","owner":"100738664@N05","secret":"3e4cde22a2","server":"2918","farm":3,"title":"P.....?","ispublic":1,"isfriend":0,"isfamily":0,"safe":0,"ownername":"IVAN 63","latitude":43.722901,"longitude":10.396263,"accuracy":"16","context":0,"place_id":"x8RcoNFWULpV8AY","woeid":"720627","geo_is_family":0,"geo_is_friend":0,"geo_is_contact":0,"geo_is_public":1,"media":"photo","media_status":"ready"},{"id":"14079828361","owner":"62816064@N04","secret":"c90df1a42e","server":"7429","farm":8,"title":"Yellow\/red Hibiscus. EXPLORED 1 May 2014. (Highest #127)","ispublic":1,"isfriend":0,"isfamily":0,"safe":0,"ownername":"D@nnyR Photogr@phics(no time for group invites)","latitude":36.507991,"longitude":-4.883299,"accuracy":"11","context":0,"place_id":"b6ANCk5WVLwQivI","woeid":"766537","geo_is_family":0,"geo_is_friend":0,"geo_is_contact":0,"geo_is_public":1,"media":"photo","media_status":"ready"},{"id":"13895323608","owner":"91491056@N04","secret":"3c2c779067","server":"7377","farm":8,"title":"\"'O mare sta facenno 'o mare\" - \"Il mare sta facendo il mare\"","ispublic":1,"isfriend":0,"isfamily":0,"safe":0,"ownername":"eying2012","latitude":40.78627,"longitude":14.08489,"accuracy":"11","context":0,"place_id":"dCsrRAlWU7JLqf8","woeid":"718408","geo_is_family":0,"geo_is_friend":0,"geo_is_contact":0,"geo_is_public":1,"media":"photo","media_status":"ready"},{"id":"14078707452","owner":"92036053@N06","secret":"dbb966ab5d","server":"7362","farm":8,"title":"Area de paz e pesca. - Area of peace and fishing.","ispublic":1,"isfriend":0,"isfamily":0,"safe":0,"ownername":"IVOLINES","latitude":-22.934681,"longitude":-50.446298,"accuracy":"13","context":0,"place_id":"7haoBD1VV7qAqsY","woeid":"450365","geo_is_family":0,"geo_is_friend":0,"geo_is_contact":0,"geo_is_public":1,"media":"photo","media_status":"ready"}]},"stat":"ok"}