{"photos":{"page":17,"pages":26128,"perpage":60,"total":"1567671","photo":[{"id":"13985397782","owner":"60527064@N00","secret":"1f32268c42","server":"2938","farm":3,"title":"\"Je me souviens\"","ispublic":1,"isfriend":0,"isfamily":0,"safe":0,"ownername":"Eric Flexyourhead","latitude":45.505309,"longitude":-73.557329,"accuracy":"16","context":0,"place_id":"xwkKkThTVLnn_qYMRA","woeid":"26332783","geo_is_family":0,"geo_is_friend":0,"geo_is_contact":0,"geo_is_public":1,"media":"photo","media_status":"ready"},{"id":"13987683705","owner":"80516886@N00","secret":"8cdc6a8b87","server":"2919","farm":3,"title":"Surf na Praia de Itacoatiara - Niteroi - Rio de Janeiro","ispublic":1,"isfriend":0,"isfamily":0,"safe":0,"ownername":".**rickipanema**.","latitude":-22.97495,"longitude":-43.036906,"accuracy":"16","context":0,"place_id":"v17jQPJVUb_P9Ks","woeid":"435903","geo_is_family":0,"geo_is_friend":0,"geo_is_contact":0,"geo_is_public":1,"media":"photo","media_status":"ready"},{"id":"13984087932","owner":"72013717@N05","secret":"cd558725d0","server":"2935","farm":3,"title":"Ellins Tower.","ispublic":1,"isfriend":0,"isfamily":0,"safe":0,"ownername":"AllanOwen2011","latitude":53.306518,"longitude":-4.69614,"accuracy":"14","context":0,"place_id":"DYrQ4DFSV7kSuw","woeid":"35320","geo_is_family":0,"geo_is_friend":0,"geo_is_contact":0,"geo_is_public":1,"media":"photo","media_status":"ready"},{"id":"14007094723","owner":"66552293@N00","secret":"49f00181ce","server":"7390","farm":8,"title":"Songster in the blossom (explored 23th April 2014 #6)","ispublic":1,"isfriend":0,"isfamily":0,"safe":0,"ownername":"Andrewsteeleuk","latitude":51.791231,"longitude":-0.320534,"accuracy":"14","context":0,"place_id":"aoOOcL1SVrpF5g","woeid":"34012","geo_is_family":0,"geo_is_friend":0,"geo_is_contact":0,"geo_is_public":1,"media":"photo","media_status":"ready"},{"id":"13963977276","owner":"25122972@N04","secret":"f9e103c796","server":"7164","farm":8,"title":"Glorious Misty Morning","ispublic":1,"isfriend":0,"isfamily":0,"safe":0,"ownername":"jactoll","latitude":52.214643,"longitude":-1.899349,"accuracy":"15","context":0,"place_id":"kIVrCOZQUr9zCA","woeid":"10527","geo_is_family":0,"geo_is_friend":0,"geo_is_contact":0,"geo_is_public":1,"media":"photo","media_status":"ready"},{"id":"13986997035","owner":"26261314@N06","secret":"b201c1204e","server":"7313","farm":8,"title":"Pirineo Oscense .3484","ispublic":1,"isfriend":0,"isfamily":0,"safe":0,"ownername":"RAFATZ","latitude":42.375539,"longitude":0.18402,"accuracy":"11","context":0,"place_id":"mYnmjRpTUrj0CWfxTw","woeid":"20223166","geo_is_family":0,"geo_is_friend":0,"geo_is_contact":0,"geo_is_public":1,"media":"photo","media_status":"ready"},{"id":"13983690842","owner":"99574551@N04","secret":"a6f066c052","server":"2918","farm":3,"title":"Field of Canola","ispublic":1,"isfriend":0,"isfamily":0,"safe":0,"ownername":"Massmo Relsig","latitude":54.529424,"longitude":9.696807,"accuracy":"14","context":0,"place_id":"bLiDbTJTW7kO.hVkNQ","woeid":"29351194","geo_is_family":0,"geo_is_friend":0,"geo_is_contact":0,"geo_is_public":1,"media":"photo","media_status":"ready"},{"id":"13963663646","owner":"47532811@N03","secret":"ef9a288910","server":"5525","farm":6,"title":"beautiful stamp Helvetia 50 Rappen\/cent. Cityscape of Zurich Zurigo Z\u00fcri (St. Peter Church \/ largest church clock face in Europe) Swiss Schweiz Switzerland stamp timbre Helvetia timbre-poste Suisse francobolli bollo Svizzera selo Su\u00ed\u00e7a sellos Suiza \u745e\u58eb\u90ae\u7968","ispublic":1,"isfriend":0,"isfamily":0,"safe":0,"ownername":"stampolina - thanks to all for sending stamps!! :)","latitude":47.377059,"longitude":8.539549,"accuracy":"11","context":0,"place_id":"ui1_E8pWWr43A18","woeid":"784794","geo_is_family":0,"geo_is_friend":0,"geo_is_contact":0,"geo_is_public":1,"media":"photo","media_status":"ready"},{"id":"13983545022","owner":"48018151@N05","secret":"3090e0085d","server":"2928","farm":3,"title":"Night shot","ispublic":1,"isfriend":0,"isfamily":0,"safe":0,"ownername":"Frank Schmidt","latitude":47.49201,"longitude":19.045869,"accuracy":"16","context":0,"place_id":"TwNrdU5ZU7ykoWA","woeid":"816147","geo_is_family":0,"geo_is_friend":0,"geo_is_contact":0,"geo_is_public":1,"media":"photo","media_status":"ready"},{"id":"13983077272","owner":"58195583@N06","secret":"197ea011bc","server":"7445","farm":8,"title":"Orange-striped Triggerfish, (Explored) Balistapus undulatus, Shark Observatory, Ras Muhammad, Red Sea","ispublic":1,"isfriend":0,"isfamily":0,"safe":0,"ownername":"Jeremy Smith Photography","latitude":27.926474,"longitude":34.387207,"accuracy":"7","context":0,"place_id":"tGOD3NdTUb4.aiUg","woeid":"2345247","geo_is_family":0,"geo_is_friend":0,"geo_is_contact":0,"geo_is_public":1,"media":"photo","media_status":"ready"},{"id":"13983053841","owner":"46059838@N04","secret":"62734cb8df","server":"7265","farm":8,"title":"Namibia, Botswana, Zimbabwe","ispublic":1,"isfriend":0,"isfamily":0,"safe":0,"ownername":"Marie.L.Manzor","latitude":-17.824612,"longitude":31.047192,"accuracy":"15","context":0,"place_id":"xN3UWLtQVrzKxsgQ","woeid":"1467052","geo_is_family":0,"geo_is_friend":0,"geo_is_contact":0,"geo_is_public":1,"media":"photo","media_status":"ready"},{"id":"13962653636","owner":"81035653@N00","secret":"cc20ec0e42","server":"7354","farm":8,"title":"A little peek on the habor of Pertisau","ispublic":1,"isfriend":0,"isfamily":0,"safe":0,"ownername":"B\u212en","latitude":47.422859,"longitude":11.688679,"accuracy":"14","context":0,"place_id":"yvC8vbVUV7vjryA","woeid":"551055","geo_is_family":0,"geo_is_friend":0,"geo_is_contact":0,"geo_is_public":1,"media":"photo","media_status":"ready"},{"id":"13985541755","owner":"40723481@N04","secret":"86cff7367c","server":"7241","farm":8,"title":"francesco dal barbiere","ispublic":1,"isfriend":0,"isfamily":0,"safe":0,"ownername":"Franco Marconi","latitude":42.987289,"longitude":13.868758,"accuracy":"16","context":0,"place_id":"JBAYLDlWU7wxC8g","woeid":"716436","geo_is_family":0,"geo_is_friend":0,"geo_is_contact":0,"geo_is_public":1,"media":"photo","media_status":"ready"},{"id":"13982004021","owner":"62815410@N04","secret":"062ba534cc","server":"7116","farm":8,"title":"pasta all'uovo (brescia, italy)","ispublic":1,"isfriend":0,"isfamily":0,"safe":0,"ownername":"bloodybee","latitude":45.535761,"longitude":10.233936,"accuracy":"16","context":0,"place_id":"WO1uGLRWU7u69ps","woeid":"711410","geo_is_family":0,"geo_is_friend":0,"geo_is_contact":0,"geo_is_public":1,"media":"photo","media_status":"ready"},{"id":"13981545542","owner":"59269150@N08","secret":"7f5050b696","server":"2937","farm":3,"title":"Natural Spectacle","ispublic":1,"isfriend":0,"isfamily":0,"safe":0,"ownername":"TablinumCarlson","latitude":-26.10287,"longitude":-53.751541,"accuracy":"11","context":0,"place_id":"3FK7C0pSUbvPxgg","woeid":"331845","geo_is_family":0,"geo_is_friend":0,"geo_is_contact":0,"geo_is_public":1,"media":"photo","media_status":"ready"},{"id":"14004619953","owner":"35110249@N05","secret":"90fcb7693f","server":"7188","farm":8,"title":"Caring white lions parents","ispublic":1,"isfriend":0,"isfamily":0,"safe":0,"ownername":"Foto Martien","latitude":51.957204,"longitude":5.590686,"accuracy":"15","context":0,"place_id":"SqR1nmRWUbjOxPs","woeid":"732923","geo_is_family":0,"geo_is_friend":0,"geo_is_contact":0,"geo_is_public":1,"media":"photo","media_status":"ready"},{"id":"13984774994","owner":"68176223@N07","secret":"1e34282529","server":"5060","farm":6,"title":"Eye in the sky","ispublic":1,"isfriend":0,"isfamily":0,"safe":0,"ownername":"Franco Beccari","latitude":43.325439,"longitude":11.33076,"accuracy":"11","context":0,"place_id":"ETlqzr1WUL6FcKo","woeid":"724196","geo_is_family":0,"geo_is_friend":0,"geo_is_contact":0,"geo_is_public":1,"media":"photo","media_status":"ready"},{"id":"13984188064","owner":"91248320@N04","secret":"2e06214a7f","server":"2919","farm":3,"title":"Malec\u00f3n","ispublic":1,"isfriend":0,"isfamily":0,"safe":0,"ownername":"Jekurantodistaja","latitude":23.14543,"longitude":-82.395958,"accuracy":"15","context":0,"place_id":"Bu8t0mJXWr5Ruw","woeid":"68496","geo_is_family":0,"geo_is_friend":0,"geo_is_contact":0,"geo_is_public":1,"media":"photo","media_status":"ready"},{"id":"13984104064","owner":"43155663@N07","secret":"6ef708b86d","server":"5508","farm":6,"title":"","ispublic":1,"isfriend":0,"isfamily":0,"safe":0,"ownername":"city\/human\/life","latitude":51.243085,"longitude":6.766762,"accuracy":"16","context":0,"place_id":"MA8Ke4hXVrwlyVI","woeid":"646099","geo_is_family":0,"geo_is_friend":0,"geo_is_contact":0,"geo_is_public":1,"media":"photo","media_status":"ready"},{"id":"13980104561","owner":"15200836@N02","secret":"461ed4fa91","server":"5142","farm":6,"title":"BINIB\u00c9QUER VELL ( MENORCA ) EXPLORE","ispublic":1,"isfriend":0,"isfamily":0,"safe":0,"ownername":"marthinotf","latitude":39.826335,"longitude":4.233341,"accuracy":"13","context":0,"place_id":"wCjmAMRTUrjLH8CVyg","woeid":"20220938","geo_is_family":0,"geo_is_friend":0,"geo_is_contact":0,"geo_is_public":1,"media":"photo","media_status":"ready"},{"id":"13982959335","owner":"89765119@N06","secret":"6ca56927f2","server":"2901","farm":3,"title":"Toys at the beach (Explore)","ispublic":1,"isfriend":0,"isfamily":0,"safe":0,"ownername":"Vidar Ringstad, Norway","latitude":59.894835,"longitude":10.674945,"accuracy":"16","context":0,"place_id":"ht3te0RZV73WBu0","woeid":"857713","geo_is_family":0,"geo_is_friend":0,"geo_is_contact":0,"geo_is_public":1,"media":"photo","media_status":"ready"},{"id":"14002570053","owner":"100063725@N06","secret":"9bd571e736","server":"2898","farm":3,"title":"Dia de primavera","ispublic":1,"isfriend":0,"isfamily":0,"safe":0,"ownername":"Antonio Chac","latitude":36.502728,"longitude":-4.917325,"accuracy":"16","context":0,"place_id":"b6ANCk5WVLwQivI","woeid":"766537","geo_is_family":0,"geo_is_friend":0,"geo_is_contact":0,"geo_is_public":1,"media":"photo","media_status":"ready"},{"id":"13979359601","owner":"65797005@N05","secret":"2a7e9f6aff","server":"2901","farm":3,"title":"Upper Torc waterfall-2","ispublic":1,"isfriend":0,"isfamily":0,"safe":0,"ownername":"Ger O'Brien","latitude":52.058718,"longitude":-9.50798,"accuracy":"12","context":0,"place_id":"732ovmpUVLuMwok","woeid":"561280","geo_is_family":0,"geo_is_friend":0,"geo_is_contact":0,"geo_is_public":1,"media":"photo","media_status":"ready"},{"id":"13979189781","owner":"92474414@N04","secret":"66b009cf47","server":"7159","farm":8,"title":"Gangway \/\/ Explore \/\/ Apr 23 '14","ispublic":1,"isfriend":0,"isfamily":0,"safe":0,"ownername":"donlunzo16","latitude":45.770875,"longitude":10.813293,"accuracy":"11","context":0,"place_id":"Dhi0uOpWU71TWC0","woeid":"717707","geo_is_family":0,"geo_is_friend":0,"geo_is_contact":0,"geo_is_public":1,"media":"photo","media_status":"ready"},{"id":"13978981712","owner":"31804708@N02","secret":"e246c917a4","server":"2911","farm":3,"title":"La bater\u00eda - The battery","ispublic":1,"isfriend":0,"isfamily":0,"safe":0,"ownername":"celta4","latitude":36.612944,"longitude":-4.506186,"accuracy":"16","context":0,"place_id":"8.ZrgEBWVb8MDfw","woeid":"775818","geo_is_family":0,"geo_is_friend":0,"geo_is_contact":0,"geo_is_public":1,"media":"photo","media_status":"ready"},{"id":"13982009375","owner":"60913863@N08","secret":"d4024b5b04","server":"2932","farm":3,"title":"Scardovari","ispublic":1,"isfriend":0,"isfamily":0,"safe":0,"ownername":"Goethe58","latitude":44.882185,"longitude":12.439913,"accuracy":"16","context":0,"place_id":"43JSZIRWULmQYnk","woeid":"723862","geo_is_family":0,"geo_is_friend":0,"geo_is_contact":0,"geo_is_public":1,"media":"photo","media_status":"ready"},{"id":"14001643753","owner":"98265926@N00","secret":"0bc22a436b","server":"7215","farm":8,"title":"little bear","ispublic":1,"isfriend":0,"isfamily":0,"safe":0,"ownername":"barbera*","latitude":43.313758,"longitude":5.400048,"accuracy":"16","context":0,"place_id":"McLkVNVXU7pI4ks","woeid":"610264","geo_is_family":0,"geo_is_friend":0,"geo_is_contact":0,"geo_is_public":1,"media":"photo","media_status":"ready"},{"id":"13958471236","owner":"48988488@N04","secret":"035c014e6f","server":"7456","farm":8,"title":"ai confini del blu","ispublic":1,"isfriend":0,"isfamily":0,"safe":0,"ownername":"claudius1954","latitude":46.216604,"longitude":9.705948,"accuracy":"15","context":0,"place_id":"RxGn_1VTUL0mB1REKA","woeid":"22745697","geo_is_family":0,"geo_is_friend":0,"geo_is_contact":0,"geo_is_public":1,"media":"photo","media_status":"ready"},{"id":"13978313442","owner":"31798876@N02","secret":"55be1e6c3c","server":"2928","farm":3,"title":"gang","ispublic":1,"isfriend":0,"isfamily":0,"safe":0,"ownername":"alant79","latitude":52.635858,"longitude":-1.134723,"accuracy":"16","context":0,"place_id":"0bs9mAtQULxX0NuJFw","woeid":"12696154","geo_is_family":0,"geo_is_friend":0,"geo_is_contact":0,"geo_is_public":1,"media":"photo","media_status":"ready"},{"id":"13958318816","owner":"96927438@N03","secret":"ddb514624c","server":"2915","farm":3,"title":"","ispublic":1,"isfriend":0,"isfamily":0,"safe":0,"ownername":"Mr. Hakuna Matata","latitude":43.478833,"longitude":-1.544952,"accuracy":"10","context":0,"place_id":"ZW97xOVUVbOgeDA","woeid":"579833","geo_is_family":0,"geo_is_friend":0,"geo_is_contact":0,"geo_is_public":1,"media":"photo","media_status":"ready"},{"id":"13981162685","owner":"46267286@N07","secret":"e756ff2c70","server":"7106","farm":8,"title":"If You Like It What Does It Matter How I Did It - London City Architecture (On Explore 23rd Apr 2014)","ispublic":1,"isfriend":0,"isfamily":0,"safe":0,"ownername":"Simon & His Camera","latitude":51.492947,"longitude":-0.099724,"accuracy":"16","context":0,"place_id":"kgEzJutTWrIALi44.w","woeid":"28835385","geo_is_family":0,"geo_is_friend":0,"geo_is_contact":0,"geo_is_public":1,"media":"photo","media_status":"ready"},{"id":"13977839372","owner":"8645675@N02","secret":"1ce3a5367f","server":"7100","farm":8,"title":"Hysteria blooming hard","ispublic":1,"isfriend":0,"isfamily":0,"safe":0,"ownername":"Drachenfanger","latitude":36.846861,"longitude":-76.104681,"accuracy":"16","context":0,"place_id":"GNLKBZtTVr550_Tz","woeid":"2444457","geo_is_family":0,"geo_is_friend":0,"geo_is_contact":0,"geo_is_public":1,"media":"photo","media_status":"ready"},{"id":"13981370644","owner":"76806538@N03","secret":"bf549490ba","server":"7455","farm":8,"title":"Porto","ispublic":1,"isfriend":0,"isfamily":0,"safe":0,"ownername":"Matty\u00b4s - Fotoseite","latitude":41.138047,"longitude":-8.609595,"accuracy":"16","context":0,"place_id":"ui1PahRWVrk7or8","woeid":"743001","geo_is_family":0,"geo_is_friend":0,"geo_is_contact":0,"geo_is_public":1,"media":"photo","media_status":"ready"},{"id":"14000881483","owner":"23414563@N04","secret":"dbc1955d30","server":"2936","farm":3,"title":"Splash (Flickr Explore 23 April 2014)","ispublic":1,"isfriend":0,"isfamily":0,"safe":0,"ownername":"Belinda Fewings (thank you for 700,000 + views)","latitude":50.761436,"longitude":-1.536069,"accuracy":"12","context":0,"place_id":"P60P5QVTWroXkQ","woeid":"28043","geo_is_family":0,"geo_is_friend":0,"geo_is_contact":0,"geo_is_public":1,"media":"photo","media_status":"ready"},{"id":"13980560895","owner":"50762671@N03","secret":"e21360707f","server":"7363","farm":8,"title":"Kubuswoning (Cube Houses), Rotterdam","ispublic":1,"isfriend":0,"isfamily":0,"safe":0,"ownername":"Julien Fromentin - Photographe","latitude":51.920628,"longitude":4.490092,"accuracy":"16","context":0,"place_id":"pa9mXtVTUrp8KLlDvw","woeid":"20063961","geo_is_family":0,"geo_is_friend":0,"geo_is_contact":0,"geo_is_public":1,"media":"photo","media_status":"ready"},{"id":"13957373956","owner":"95549570@N00","secret":"22823d8166","server":"7306","farm":8,"title":"An eye like a knife","ispublic":1,"isfriend":0,"isfamily":0,"safe":0,"ownername":"Giulio Magnifico","latitude":46.07402,"longitude":13.229622,"accuracy":"16","context":0,"place_id":"VnV_nEJWUL_PH4Y","woeid":"725383","geo_is_family":0,"geo_is_friend":0,"geo_is_contact":0,"geo_is_public":1,"media":"photo","media_status":"ready"},{"id":"13976821552","owner":"69008291@N02","secret":"1d2d189e5c","server":"2905","farm":3,"title":"Adonis Ladybird Love! [Explored!]","ispublic":1,"isfriend":0,"isfamily":0,"safe":0,"ownername":"RiverCrouchWalker","latitude":51.506987,"longitude":0.016346,"accuracy":"15","context":0,"place_id":"n8qiyptTUroiWGVSSQ","woeid":"20089360","geo_is_family":0,"geo_is_friend":0,"geo_is_contact":0,"geo_is_public":1,"media":"photo","media_status":"ready"},{"id":"13976807752","owner":"42345335@N08","secret":"9020062f65","server":"2935","farm":3,"title":"Send in the Drones to...","ispublic":1,"isfriend":0,"isfamily":0,"safe":0,"ownername":"EvilEyeGoshawk","latitude":56.107457,"longitude":-3.977941,"accuracy":"16","context":0,"place_id":"OTggGT5SVLvPyA","woeid":"36135","geo_is_family":0,"geo_is_friend":0,"geo_is_contact":0,"geo_is_public":1,"media":"photo","media_status":"ready"},{"id":"13976811571","owner":"42345335@N08","secret":"2025d4d501","server":"5445","farm":6,"title":"Send in the Drones to...","ispublic":1,"isfriend":0,"isfamily":0,"safe":0,"ownername":"EvilEyeGoshawk","latitude":56.107457,"longitude":-3.977941,"accuracy":"16","context":0,"place_id":"OTggGT5SVLvPyA","woeid":"36135","geo_is_family":0,"geo_is_friend":0,"geo_is_contact":0,"geo_is_public":1,"media":"photo","media_status":"ready"},{"id":"13976806361","owner":"50027776@N05","secret":"92d23d3e9f","server":"7255","farm":8,"title":"lonely","ispublic":1,"isfriend":0,"isfamily":0,"safe":0,"ownername":"Luigi Alesi","latitude":43.296761,"longitude":13.209514,"accuracy":"12","context":0,"place_id":"yzAdBb5QULzeE8r_0g","woeid":"12678199","geo_is_family":0,"geo_is_friend":0,"geo_is_contact":0,"geo_is_public":1,"media":"photo","media_status":"ready"},{"id":"13980128124","owner":"112711738@N06","secret":"2cb2e82ee7","server":"7195","farm":8,"title":"Another Worlds.","ispublic":1,"isfriend":0,"isfamily":0,"safe":0,"ownername":"dasanes77","latitude":36.803558,"longitude":-2.06339,"accuracy":"11","context":0,"place_id":"poxx0jxWVL9Ary0","woeid":"765734","geo_is_family":0,"geo_is_friend":0,"geo_is_contact":0,"geo_is_public":1,"media":"photo","media_status":"ready"},{"id":"13979475365","owner":"41558538@N02","secret":"c0c29aec2b","server":"7106","farm":8,"title":"Glocken - Bells","ispublic":1,"isfriend":0,"isfamily":0,"safe":0,"ownername":"vampire-carmen","latitude":49.019331,"longitude":12.375926,"accuracy":"15","context":0,"place_id":"wI.1yMlWUrlQW24","woeid":"703161","geo_is_family":0,"geo_is_friend":0,"geo_is_contact":0,"geo_is_public":1,"media":"photo","media_status":"ready"},{"id":"13979893624","owner":"69008291@N02","secret":"5a6697567b","server":"7334","farm":8,"title":"Hairy Shieldbug (Dolycoris baccarum) [Explored!]","ispublic":1,"isfriend":0,"isfamily":0,"safe":0,"ownername":"RiverCrouchWalker","latitude":51.506987,"longitude":0.016346,"accuracy":"15","context":0,"place_id":"n8qiyptTUroiWGVSSQ","woeid":"20089360","geo_is_family":0,"geo_is_friend":0,"geo_is_contact":0,"geo_is_public":1,"media":"photo","media_status":"ready"},{"id":"13956088936","owner":"37486507@N06","secret":"804c5c305b","server":"7354","farm":8,"title":"Punte \/ Spikes (Explore!!!)","ispublic":1,"isfriend":0,"isfamily":0,"safe":0,"ownername":"AndreaPucci","latitude":51.508849,"longitude":-0.117244,"accuracy":"14","context":0,"place_id":"jy4nJpJTUrqO2uKrkQ","woeid":"20094354","geo_is_family":0,"geo_is_friend":0,"geo_is_contact":0,"geo_is_public":1,"media":"photo","media_status":"ready"},{"id":"13979547994","owner":"46059838@N04","secret":"0442ec6bbe","server":"7389","farm":8,"title":"Namibia, Botswana, Zimbabwe","ispublic":1,"isfriend":0,"isfamily":0,"safe":0,"ownername":"Marie.L.Manzor","latitude":-22.347782,"longitude":23.796472,"accuracy":"9","context":0,"place_id":"aBw1MmxTUb4gvSeKwg","woeid":"23424755","geo_is_family":0,"geo_is_friend":0,"geo_is_contact":0,"geo_is_public":1,"media":"photo","media_status":"ready"},{"id":"13998990503","owner":"66644631@N05","secret":"1f44d90421","server":"2901","farm":3,"title":"macaroon","ispublic":1,"isfriend":0,"isfamily":0,"safe":0,"ownername":"jmlpyt","latitude":48.856918,"longitude":2.341209,"accuracy":"11","context":0,"place_id":"EsIQUYZXU79_kEA","woeid":"615702","geo_is_family":0,"geo_is_friend":0,"geo_is_contact":0,"geo_is_public":1,"media":"photo","media_status":"ready"},{"id":"13978851425","owner":"58013555@N07","secret":"28e76926d4","server":"2927","farm":3,"title":"Flappers Explored 22nd April 2014 Thank you :-)","ispublic":1,"isfriend":0,"isfamily":0,"safe":0,"ownername":"Vide Cor Meum Images","latitude":52.346984,"longitude":-0.575388,"accuracy":"12","context":0,"place_id":"0GOOnChTVLkikQ","woeid":"26369","geo_is_family":0,"geo_is_friend":0,"geo_is_contact":0,"geo_is_public":1,"media":"photo","media_status":"ready"},{"id":"13975577532","owner":"25959337@N00","secret":"cf4ceea32e","server":"7349","farm":8,"title":"Straumen, verdens korteste lakseelv","ispublic":1,"isfriend":0,"isfamily":0,"safe":0,"ownername":"Martin Ystenes - celebrating 5 million views","latitude":62.333512,"longitude":6.592826,"accuracy":"12","context":0,"place_id":"r0tScGNQV7pA2lKJOQ","woeid":"15000785","geo_is_family":0,"geo_is_friend":0,"geo_is_contact":0,"geo_is_public":1,"media":"photo","media_status":"ready"},{"id":"13978580095","owner":"16854222@N05","secret":"a90a2d1a45","server":"7057","farm":8,"title":"A Dotted Line","ispublic":1,"isfriend":0,"isfamily":0,"safe":0,"ownername":"AnyMotion","latitude":50.123271,"longitude":8.6804,"accuracy":"16","context":0,"place_id":"Z0FRRfRXV7oIeew","woeid":"650272","geo_is_family":0,"geo_is_friend":0,"geo_is_contact":0,"geo_is_public":1,"media":"photo","media_status":"ready"},{"id":"13955455036","owner":"53223794@N00","secret":"312ec69ac0","server":"2903","farm":3,"title":"Under V\u00e4sterbron in Stockholm","ispublic":1,"isfriend":0,"isfamily":0,"safe":0,"ownername":"joeriksson","latitude":59.319758,"longitude":18.031589,"accuracy":"15","context":0,"place_id":"VqVeMfVZW7yVth8","woeid":"896628","geo_is_family":0,"geo_is_friend":0,"geo_is_contact":0,"geo_is_public":1,"media":"photo","media_status":"ready"},{"id":"13975279271","owner":"22461382@N00","secret":"b9a5340c43","server":"7414","farm":8,"title":"s h \u00f8 r | fredvang, norway","ispublic":1,"isfriend":0,"isfamily":0,"safe":0,"ownername":"elmofoto","latitude":68.074552,"longitude":13.201552,"accuracy":"16","context":0,"place_id":"YhLe4NVZV7LfxXg","woeid":"858718","geo_is_family":0,"geo_is_friend":0,"geo_is_contact":0,"geo_is_public":1,"media":"photo","media_status":"ready"},{"id":"13975183271","owner":"30420396@N03","secret":"a2fbb931bd","server":"7157","farm":8,"title":"Isaac II","ispublic":1,"isfriend":0,"isfamily":0,"safe":0,"ownername":"'Ajnagraphy'","latitude":56.834947,"longitude":13.956756,"accuracy":"15","context":0,"place_id":"AtzXFHtZW70vzR8","woeid":"897466","geo_is_family":0,"geo_is_friend":0,"geo_is_contact":0,"geo_is_public":1,"media":"photo","media_status":"ready"},{"id":"13998073453","owner":"36030103@N07","secret":"e5de98a754","server":"7204","farm":8,"title":"Cayo Jutias 2","ispublic":1,"isfriend":0,"isfamily":0,"safe":0,"ownername":"gsamie","latitude":22.699138,"longitude":-84.053521,"accuracy":"15","context":0,"place_id":"BSFykPhTUb4xx4Z6","woeid":"2345106","geo_is_family":0,"geo_is_friend":0,"geo_is_contact":0,"geo_is_public":1,"media":"photo","media_status":"ready"},{"id":"13953218566","owner":"44855005@N04","secret":"9116eb5f52","server":"7069","farm":8,"title":"Last light 130822 F2244","ispublic":1,"isfriend":0,"isfamily":0,"safe":0,"ownername":"PeteHuu","latitude":60.19207,"longitude":25.177263,"accuracy":"16","context":0,"place_id":"S47LSRtTV7NRXcaEAQ","woeid":"25945244","geo_is_family":0,"geo_is_friend":0,"geo_is_contact":0,"geo_is_public":1,"media":"photo","media_status":"ready"},{"id":"13976612784","owner":"93250327@N05","secret":"50d0a71ace","server":"7206","farm":8,"title":"The magical tree [ Explored 22nd April 2014 ]","ispublic":1,"isfriend":0,"isfamily":0,"safe":0,"ownername":"Patrizia Ilaria Sechi","latitude":51.503026,"longitude":-0.133123,"accuracy":"14","context":0,"place_id":"_8cuSp1TVrKmbg67ew","woeid":"24875645","geo_is_family":0,"geo_is_friend":0,"geo_is_contact":0,"geo_is_public":1,"media":"photo","media_status":"ready"},{"id":"13994052103","owner":"38134034@N04","secret":"f8bae789f9","server":"7356","farm":8,"title":"Night covers the beach","ispublic":1,"isfriend":0,"isfamily":0,"safe":0,"ownername":"blavandmaster","latitude":55.54399,"longitude":8.130741,"accuracy":"13","context":0,"place_id":"HjovhuRUV7gwujw","woeid":"552390","geo_is_family":0,"geo_is_friend":0,"geo_is_contact":0,"geo_is_public":1,"media":"photo","media_status":"ready"},{"id":"13974496974","owner":"38134034@N04","secret":"5a6603f9e1","server":"7017","farm":8,"title":"Spring evening light","ispublic":1,"isfriend":0,"isfamily":0,"safe":0,"ownername":"blavandmaster","latitude":55.54399,"longitude":8.130741,"accuracy":"13","context":0,"place_id":"HjovhuRUV7gwujw","woeid":"552390","geo_is_family":0,"geo_is_friend":0,"geo_is_contact":0,"geo_is_public":1,"media":"photo","media_status":"ready"},{"id":"13970869841","owner":"38134034@N04","secret":"49c5c4fb68","server":"7443","farm":8,"title":"Afternoon sunlight","ispublic":1,"isfriend":0,"isfamily":0,"safe":0,"ownername":"blavandmaster","latitude":55.54399,"longitude":8.130741,"accuracy":"13","context":0,"place_id":"HjovhuRUV7gwujw","woeid":"552390","geo_is_family":0,"geo_is_friend":0,"geo_is_contact":0,"geo_is_public":1,"media":"photo","media_status":"ready"},{"id":"13970864031","owner":"38134034@N04","secret":"a4971e107e","server":"5070","farm":6,"title":"To the sea (Explore)","ispublic":1,"isfriend":0,"isfamily":0,"safe":0,"ownername":"blavandmaster","latitude":55.54399,"longitude":8.130741,"accuracy":"13","context":0,"place_id":"HjovhuRUV7gwujw","woeid":"552390","geo_is_family":0,"geo_is_friend":0,"geo_is_contact":0,"geo_is_public":1,"media":"photo","media_status":"ready"},{"id":"13993987993","owner":"30420396@N03","secret":"a728e56cab","server":"5160","farm":6,"title":"Isaac","ispublic":1,"isfriend":0,"isfamily":0,"safe":0,"ownername":"'Ajnagraphy'","latitude":56.834947,"longitude":13.956756,"accuracy":"15","context":0,"place_id":"AtzXFHtZW70vzR8","woeid":"897466","geo_is_family":0,"geo_is_friend":0,"geo_is_contact":0,"geo_is_public":1,"media":"photo","media_status":"ready"}]},"stat":"ok"}