{"photos":{"page":19,"pages":26129,"perpage":60,"total":"1567737","photo":[{"id":"13047170414","owner":"26849514@N06","secret":"291e167567","server":"2481","farm":3,"title":"Sharjah, Al Noor mosque \/ ABM (Another Blue Monday)","ispublic":1,"isfriend":0,"isfamily":0,"safe":0,"ownername":"Frans.Sellies","latitude":25.334833,"longitude":55.387154,"accuracy":"16","context":0,"place_id":"c7gsO1lQW77LfdLC","woeid":"1940119","geo_is_family":0,"geo_is_friend":0,"geo_is_contact":0,"geo_is_public":1,"media":"photo","media_status":"ready"},{"id":"13021268603","owner":"32208367@N04","secret":"90b55196cd","server":"2207","farm":3,"title":"Here comes the Sun","ispublic":1,"isfriend":0,"isfamily":0,"safe":1,"ownername":"mentalPICTURE","latitude":51.86886,"longitude":-2.258377,"accuracy":"10","context":0,"place_id":"j2iJZ8ZTU7hZwA","woeid":"21248","geo_is_family":0,"geo_is_friend":0,"geo_is_contact":0,"geo_is_public":1,"media":"photo","media_status":"ready"},{"id":"12949911043","owner":"100063725@N06","secret":"725d93bca6","server":"3674","farm":4,"title":"Nube sobre el puerto","ispublic":1,"isfriend":0,"isfamily":0,"safe":0,"ownername":"Antonio Chac","latitude":36.507005,"longitude":-4.872651,"accuracy":"16","context":0,"place_id":"b6ANCk5WVLwQivI","woeid":"766537","geo_is_family":0,"geo_is_friend":0,"geo_is_contact":0,"geo_is_public":1,"media":"photo","media_status":"ready"},{"id":"12946457763","owner":"61674778@N07","secret":"ff55446d7d","server":"7399","farm":8,"title":"Hanneke, Amsterdam 2014: Going with the grain","ispublic":1,"isfriend":0,"isfamily":0,"safe":0,"ownername":"mdiepraam","latitude":52.369153,"longitude":4.878916,"accuracy":"14","context":0,"place_id":"xfcEFYhWULKtjYI","woeid":"728410","geo_is_family":0,"geo_is_friend":0,"geo_is_contact":0,"geo_is_public":1,"media":"photo","media_status":"ready"},{"id":"12881818935","owner":"42903611@N00","secret":"2d5811bb37","server":"7362","farm":8,"title":"Sospesi...","ispublic":1,"isfriend":0,"isfamily":0,"safe":1,"ownername":"rogilde - roberto la forgia","latitude":45.816118,"longitude":8.740653,"accuracy":"11","context":0,"place_id":"307mjFpWU7_pJ_8S","woeid":"7153341","geo_is_family":0,"geo_is_friend":0,"geo_is_contact":0,"geo_is_public":1,"media":"photo","media_status":"ready"},{"id":"12816766824","owner":"61674778@N07","secret":"9002f5f1a4","server":"5510","farm":6,"title":"Hanneke, Amsterdam 2014: Head support","ispublic":1,"isfriend":0,"isfamily":0,"safe":0,"ownername":"mdiepraam","latitude":52.369153,"longitude":4.878916,"accuracy":"14","context":0,"place_id":"xfcEFYhWULKtjYI","woeid":"728410","geo_is_family":0,"geo_is_friend":0,"geo_is_contact":0,"geo_is_public":1,"media":"photo","media_status":"ready"},{"id":"12728280365","owner":"26849514@N06","secret":"7e10dc18ea","server":"5490","farm":6,"title":"Dubai, Madinat Jumeirah with Burj al Arab","ispublic":1,"isfriend":0,"isfamily":0,"safe":1,"ownername":"Frans.Sellies","latitude":25.132599,"longitude":55.183864,"accuracy":"16","context":0,"place_id":"eQtoeghQW77HLrTB","woeid":"1940345","geo_is_family":0,"geo_is_friend":0,"geo_is_contact":0,"geo_is_public":1,"media":"photo","media_status":"ready"},{"id":"12630044844","owner":"14473732@N00","secret":"a3b8500dab","server":"7351","farm":8,"title":"squaring the circle \u2502la cuadratura del c\u00edrculo","ispublic":1,"isfriend":0,"isfamily":0,"safe":1,"ownername":"jesuscm","latitude":37.176842,"longitude":-3.589975,"accuracy":"16","context":0,"place_id":"M7UUFWNTUriFlWiRAA","woeid":"20219977","geo_is_family":0,"geo_is_friend":0,"geo_is_contact":0,"geo_is_public":1,"media":"photo","media_status":"ready"},{"id":"12485332163","owner":"73522929@N05","secret":"3c91c16254","server":"7451","farm":8,"title":"Replaced Industrieterrein Boschveld \u00b4s-Hertogenbosch","ispublic":1,"isfriend":0,"isfamily":0,"safe":1,"ownername":"Edwin van Tilburg, I will FB but read profile thx!","latitude":51.695251,"longitude":5.292009,"accuracy":"16","context":0,"place_id":"5lemVVdWULz.buc","woeid":"726928","geo_is_family":0,"geo_is_friend":0,"geo_is_contact":0,"geo_is_public":1,"media":"photo","media_status":"ready"},{"id":"12467330833","owner":"49384482@N08","secret":"36513e8edd","server":"7397","farm":8,"title":"Baking in the Alps","ispublic":1,"isfriend":0,"isfamily":0,"safe":0,"ownername":"bluerockpile","latitude":45.2723,"longitude":6.88805,"accuracy":"11","context":0,"place_id":"dxc4lftTUrieEOYayA","woeid":"20210376","geo_is_family":0,"geo_is_friend":0,"geo_is_contact":0,"geo_is_public":1,"media":"photo","media_status":"ready"},{"id":"12360124904","owner":"30120194@N02","secret":"1ffe5be7e8","server":"2892","farm":3,"title":"Street, Gokarna","ispublic":1,"isfriend":0,"isfamily":0,"safe":0,"ownername":"Marji Lang","latitude":14.543874,"longitude":74.317531,"accuracy":"14","context":0,"place_id":"oNV4GjNTULPc8Ke_","woeid":"2293944","geo_is_family":0,"geo_is_friend":0,"geo_is_contact":0,"geo_is_public":1,"media":"photo","media_status":"ready"},{"id":"12306334326","owner":"26176146@N07","secret":"a67fd6ba96","server":"3796","farm":4,"title":"People go there separate ways","ispublic":1,"isfriend":0,"isfamily":0,"safe":1,"ownername":"Amit Kapadia","latitude":51.506969,"longitude":-0.091231,"accuracy":"16","context":0,"place_id":"AggqPb1TUrohNNCS.A","woeid":"20094296","geo_is_family":0,"geo_is_friend":0,"geo_is_contact":0,"geo_is_public":1,"media":"photo","media_status":"ready"},{"id":"12223297174","owner":"88402723@N03","secret":"a4f8752b74","server":"2877","farm":3,"title":"Espa\u00f1a. puente","ispublic":1,"isfriend":0,"isfamily":0,"safe":1,"ownername":"_flucio6","latitude":42.67139,"longitude":-1.81294,"accuracy":"11","context":0,"place_id":"cLpKLAtWVbqbBXs","woeid":"770914","geo_is_family":0,"geo_is_friend":0,"geo_is_contact":0,"geo_is_public":1,"media":"photo","media_status":"ready"},{"id":"12176070825","owner":"100063725@N06","secret":"04c1f3ffda","server":"7427","farm":8,"title":"Lineas horizontales","ispublic":1,"isfriend":0,"isfamily":0,"safe":1,"ownername":"Antonio Chac","latitude":36.516891,"longitude":-4.891499,"accuracy":"14","context":0,"place_id":"b6ANCk5WVLwQivI","woeid":"766537","geo_is_family":0,"geo_is_friend":0,"geo_is_contact":0,"geo_is_public":1,"media":"photo","media_status":"ready"},{"id":"12050452703","owner":"93269402@N08","secret":"54a307de9c","server":"2868","farm":3,"title":"The second attempt to colonize Mars will cost way more than the first one...","ispublic":1,"isfriend":0,"isfamily":0,"safe":0,"ownername":"Bhalalhaika","latitude":59.89533,"longitude":10.632233,"accuracy":"14","context":0,"place_id":"QAkFKjxZVLgK0Y0","woeid":"862592","geo_is_family":0,"geo_is_friend":0,"geo_is_contact":0,"geo_is_public":1,"media":"photo","media_status":"ready"},{"id":"11987698695","owner":"26849514@N06","secret":"13f42a9284","server":"7455","farm":8,"title":"Char minar (four minarets) in Bukhara, Uzbekistan","ispublic":1,"isfriend":0,"isfamily":0,"safe":1,"ownername":"Frans.Sellies","latitude":39.782157,"longitude":64.435672,"accuracy":"16","context":0,"place_id":"JoHiONxTUL18fCkf","woeid":"2272540","geo_is_family":0,"geo_is_friend":0,"geo_is_contact":0,"geo_is_public":1,"media":"photo","media_status":"ready"},{"id":"11986220714","owner":"53247049@N07","secret":"1a8801211a","server":"2820","farm":3,"title":"SQUIRREL CUCKOO Piaya cayana at the R\u00edo Silanche Bird Sanctuary in Northwestern ECUADOR. Photo by Peter Wendelken.","ispublic":1,"isfriend":0,"isfamily":0,"safe":0,"ownername":"Neotropical Pete","latitude":0.138358,"longitude":-79.085426,"accuracy":"16","context":0,"place_id":"qW1NW1BSVb5TsvQ","woeid":"374020","geo_is_family":0,"geo_is_friend":0,"geo_is_contact":0,"geo_is_public":1,"media":"photo","media_status":"ready"},{"id":"11984404756","owner":"56398981@N03","secret":"d545e97eba","server":"5536","farm":6,"title":"temporale","ispublic":1,"isfriend":0,"isfamily":0,"safe":0,"ownername":"Tobia Scandolara Photographer","latitude":44.337341,"longitude":9.265119,"accuracy":"11","context":0,"place_id":"ra8KIcNWULwGD64","woeid":"726422","geo_is_family":0,"geo_is_friend":0,"geo_is_contact":0,"geo_is_public":1,"media":"photo","media_status":"ready"},{"id":"11924314853","owner":"26849514@N06","secret":"721b114ac0","server":"3751","farm":4,"title":"Castle de Haar in Haarzuilens","ispublic":1,"isfriend":0,"isfamily":0,"safe":1,"ownername":"Frans.Sellies","latitude":52.12125,"longitude":4.986151,"accuracy":"16","context":0,"place_id":"2QO2vJZWULMyIpU","woeid":"729656","geo_is_family":0,"geo_is_friend":0,"geo_is_contact":0,"geo_is_public":1,"media":"photo","media_status":"ready"},{"id":"11916696034","owner":"26849514@N06","secret":"3cfeca9f5a","server":"3789","farm":4,"title":"The Rietveld Schr\u00f6der House in Utrecht (Unesco world heritage)","ispublic":1,"isfriend":0,"isfamily":0,"safe":1,"ownername":"Frans.Sellies","latitude":52.085321,"longitude":5.147641,"accuracy":"16","context":0,"place_id":"vnnEA85WUb4001o","woeid":"734047","geo_is_family":0,"geo_is_friend":0,"geo_is_contact":0,"geo_is_public":1,"media":"photo","media_status":"ready"},{"id":"11778929886","owner":"25959337@N00","secret":"77799f4f5d","server":"7320","farm":8,"title":"Interessant himmel over Storfjorden","ispublic":1,"isfriend":0,"isfamily":0,"safe":1,"ownername":"Martin Ystenes - celebrating 5 million views","latitude":62.409615,"longitude":6.557807,"accuracy":"12","context":0,"place_id":"QNHb8wVZVL7wGOo","woeid":"864838","geo_is_family":0,"geo_is_friend":0,"geo_is_contact":0,"geo_is_public":1,"media":"photo","media_status":"ready"},{"id":"11739253955","owner":"76550850@N04","secret":"76d1b01097","server":"3821","farm":4,"title":"Sevilla tiene un puente","ispublic":1,"isfriend":0,"isfamily":0,"safe":1,"ownername":"mesana62","latitude":37.39089,"longitude":-5.997848,"accuracy":"11","context":0,"place_id":"94aKf3ZWVb4cYUQ","woeid":"774508","geo_is_family":0,"geo_is_friend":0,"geo_is_contact":0,"geo_is_public":1,"media":"photo","media_status":"ready"},{"id":"11698194093","owner":"52431791@N08","secret":"82f4fd2e53","server":"5515","farm":6,"title":"\"SERENITY\" [explored]","ispublic":1,"isfriend":0,"isfamily":0,"safe":0,"ownername":"ipon1","latitude":43.527891,"longitude":3.929328,"accuracy":"11","context":0,"place_id":"y.vs49NXU79LAyM","woeid":"615535","geo_is_family":0,"geo_is_friend":0,"geo_is_contact":0,"geo_is_public":1,"media":"photo","media_status":"ready"},{"id":"11550110223","owner":"53247049@N07","secret":"b0008dd6c6","server":"7363","farm":8,"title":"PLATE-BILLED MOUNTAIN-TOUCAN Andigena laminirostris Perching on a Limb in the Tandayapa Valley, Ecuador. Toucan Photo by Peter Wendelken.","ispublic":1,"isfriend":0,"isfamily":0,"safe":1,"ownername":"Neotropical Pete","latitude":-0.013089,"longitude":-78.683094,"accuracy":"16","context":0,"place_id":"H.9PID5TUb5dvk.P","woeid":"2345219","geo_is_family":0,"geo_is_friend":0,"geo_is_contact":0,"geo_is_public":1,"media":"photo","media_status":"ready"},{"id":"11467559424","owner":"93269402@N08","secret":"791020f6a6","server":"5543","farm":6,"title":"Holmenkollen Olympic Ski Arena (Las Vegas Edit)","ispublic":1,"isfriend":0,"isfamily":0,"safe":1,"ownername":"Bhalalhaika","latitude":59.96413,"longitude":10.667884,"accuracy":"16","context":0,"place_id":"cr5WCcRZV7OxEyo","woeid":"859936","geo_is_family":0,"geo_is_friend":0,"geo_is_contact":0,"geo_is_public":1,"media":"photo","media_status":"ready"},{"id":"11360201803","owner":"73978317@N02","secret":"b3604511bf","server":"2873","farm":3,"title":"F-16 Fighting Falcon (sunset)","ispublic":1,"isfriend":0,"isfamily":0,"safe":1,"ownername":"Enilton Kirchhof","latitude":-5.9092,"longitude":-35.243097,"accuracy":"16","context":0,"place_id":"l0ycYmpVVriacd0","woeid":"442895","geo_is_family":0,"geo_is_friend":0,"geo_is_contact":0,"geo_is_public":1,"media":"photo","media_status":"ready"},{"id":"11082014896","owner":"56936646@N07","secret":"2dfbea758d","server":"5541","farm":6,"title":"Waiting","ispublic":1,"isfriend":0,"isfamily":0,"safe":1,"ownername":"Fr@nk = recovering","latitude":49.378796,"longitude":-0.845947,"accuracy":"7","context":0,"place_id":"YBKM83dQUL9SKQlmBQ","woeid":"12597127","geo_is_family":0,"geo_is_friend":0,"geo_is_contact":0,"geo_is_public":1,"media":"photo","media_status":"ready"},{"id":"11076571393","owner":"108430125@N04","secret":"fe6ff10201","server":"7410","farm":8,"title":"Retrato","ispublic":1,"isfriend":0,"isfamily":0,"safe":0,"ownername":"dacbild","latitude":40.420299,"longitude":-3.70577,"accuracy":"11","context":0,"place_id":"uTYMKONWVLwFNrE","woeid":"766273","geo_is_family":0,"geo_is_friend":0,"geo_is_contact":0,"geo_is_public":1,"media":"photo","media_status":"ready"},{"id":"11008202473","owner":"35110249@N05","secret":"ecc9726710","server":"5505","farm":6,"title":"Green-veined White (Pieris napi)","ispublic":1,"isfriend":0,"isfamily":0,"safe":1,"ownername":"Foto Martien","latitude":52.139652,"longitude":5.728266,"accuracy":"16","context":0,"place_id":"x1Acf2JWULNVi.0","woeid":"729748","geo_is_family":0,"geo_is_friend":0,"geo_is_contact":0,"geo_is_public":1,"media":"photo","media_status":"ready"},{"id":"10930761855","owner":"32208367@N04","secret":"2c6e4fac06","server":"2876","farm":3,"title":"Striped Jazz Hands","ispublic":1,"isfriend":0,"isfamily":0,"safe":0,"ownername":"mentalPICTURE","latitude":51.86568,"longitude":-2.251167,"accuracy":"11","context":0,"place_id":"j2iJZ8ZTU7hZwA","woeid":"21248","geo_is_family":0,"geo_is_friend":0,"geo_is_contact":0,"geo_is_public":1,"media":"photo","media_status":"ready"},{"id":"10867862405","owner":"52515510@N04","secret":"d8af9872e7","server":"3731","farm":4,"title":"F-2000 Mirage, da For\u00e7a A\u00e9rea Brasileira, na CRUZEX 2013 (Silhueta)","ispublic":1,"isfriend":0,"isfamily":0,"safe":1,"ownername":"For\u00e7a A\u00e9rea Brasileira - P\u00e1gina Oficial","latitude":-5.905503,"longitude":-35.245707,"accuracy":"16","context":0,"place_id":"l0ycYmpVVriacd0","woeid":"442895","geo_is_family":0,"geo_is_friend":0,"geo_is_contact":0,"geo_is_public":1,"media":"photo","media_status":"ready"},{"id":"10840431384","owner":"13249895@N08","secret":"98baf61cc7","server":"3707","farm":4,"title":"Pensamento","ispublic":1,"isfriend":0,"isfamily":0,"safe":1,"ownername":"Tony Borrach","latitude":-23.032179,"longitude":-43.480839,"accuracy":"16","context":0,"place_id":"mAqmHW5VV78OT5o","woeid":"455825","geo_is_family":0,"geo_is_friend":0,"geo_is_contact":0,"geo_is_public":1,"media":"photo","media_status":"ready"},{"id":"10786809456","owner":"26849514@N06","secret":"fa28afcc13","server":"2858","farm":3,"title":"In the harbor of Marsaxlokk, Malta","ispublic":1,"isfriend":0,"isfamily":0,"safe":1,"ownername":"Frans.Sellies","latitude":35.840533,"longitude":14.545619,"accuracy":"15","context":0,"place_id":"XwMStT1VWrnFvtQ","woeid":"483430","geo_is_family":0,"geo_is_friend":0,"geo_is_contact":0,"geo_is_public":1,"media":"photo","media_status":"ready"},{"id":"10738118506","owner":"30120194@N02","secret":"08b0da8ced","server":"2805","farm":3,"title":"Barley fields, Baltistan","ispublic":1,"isfriend":0,"isfamily":0,"safe":1,"ownername":"Marji Lang","latitude":34.843119,"longitude":76.833821,"accuracy":"14","context":0,"place_id":"QbgZtrZTULKzcsK6","woeid":"2287691","geo_is_family":0,"geo_is_friend":0,"geo_is_contact":0,"geo_is_public":1,"media":"photo","media_status":"ready"},{"id":"10692901335","owner":"25959337@N00","secret":"698535fc4e","server":"7446","farm":8,"title":"J\u00f6kuls\u00e1 bridge and J\u00f6kuls\u00e1rlon ice","ispublic":1,"isfriend":0,"isfamily":0,"safe":1,"ownername":"Martin Ystenes - celebrating 5 million views","latitude":64.051476,"longitude":-16.178054,"accuracy":"10","context":0,"place_id":"L30o2XlTUb6ZXW0u","woeid":"2345690","geo_is_family":0,"geo_is_friend":0,"geo_is_contact":0,"geo_is_public":1,"media":"photo","media_status":"ready"},{"id":"10633938403","owner":"38181284@N06","secret":"fdd070d1c3","server":"5493","farm":6,"title":"is there anybody out there","ispublic":1,"isfriend":0,"isfamily":0,"safe":0,"ownername":"vulture labs","latitude":50.828208,"longitude":-0.134489,"accuracy":"11","context":0,"place_id":"cv1TwRlQUbMd6A","woeid":"13911","geo_is_family":0,"geo_is_friend":0,"geo_is_contact":0,"geo_is_public":1,"media":"photo","media_status":"ready"},{"id":"10580338246","owner":"25959337@N00","secret":"bf972c7038","server":"2827","farm":3,"title":"Bl\u00e5 is og gul haug","ispublic":1,"isfriend":0,"isfamily":0,"safe":1,"ownername":"Martin Ystenes - celebrating 5 million views","latitude":64.048396,"longitude":-16.191101,"accuracy":"11","context":0,"place_id":"L30o2XlTUb6ZXW0u","woeid":"2345690","geo_is_family":0,"geo_is_friend":0,"geo_is_contact":0,"geo_is_public":1,"media":"photo","media_status":"ready"},{"id":"10569799266","owner":"25959337@N00","secret":"86e1ce0945","server":"5512","farm":6,"title":"Strange iceberg on J\u00f6kulsarlon","ispublic":1,"isfriend":0,"isfamily":0,"safe":1,"ownername":"Martin Ystenes - celebrating 5 million views","latitude":64.067095,"longitude":-16.198654,"accuracy":"10","context":0,"place_id":"L30o2XlTUb6ZXW0u","woeid":"2345690","geo_is_family":0,"geo_is_friend":0,"geo_is_contact":0,"geo_is_public":1,"media":"photo","media_status":"ready"},{"id":"10552692005","owner":"29394931@N06","secret":"c33108c5e8","server":"3777","farm":4,"title":"Up!","ispublic":1,"isfriend":0,"isfamily":0,"safe":1,"ownername":"\u2203Scape","latitude":48.858263,"longitude":2.294533,"accuracy":"16","context":0,"place_id":"Gh_droFUV7JfPjFofw","woeid":"55843775","geo_is_family":0,"geo_is_friend":0,"geo_is_contact":0,"geo_is_public":1,"media":"photo","media_status":"ready"},{"id":"10530142806","owner":"54612410@N05","secret":"55a0cb109e","server":"3770","farm":4,"title":"Lofoten - Reine - Norwegen - Norway - 4000+ views","ispublic":1,"isfriend":0,"isfamily":0,"safe":1,"ownername":"gurou45","latitude":67.92743,"longitude":13.075447,"accuracy":"13","context":0,"place_id":".Rko95lZVLj.cwQ","woeid":"862886","geo_is_family":0,"geo_is_friend":0,"geo_is_contact":0,"geo_is_public":1,"media":"photo","media_status":"ready"},{"id":"10419605043","owner":"38181284@N06","secret":"7d76e58a3c","server":"5540","farm":6,"title":"Generation X","ispublic":1,"isfriend":0,"isfamily":0,"safe":0,"ownername":"vulture labs","latitude":51.6091,"longitude":-1.242249,"accuracy":"11","context":0,"place_id":"2ZzxVmJQWrvQJQ","woeid":"18162","geo_is_family":0,"geo_is_friend":0,"geo_is_contact":0,"geo_is_public":1,"media":"photo","media_status":"ready"},{"id":"10417758744","owner":"42761333@N07","secret":"5141db597f","server":"2870","farm":3,"title":"Dreamscape","ispublic":1,"isfriend":0,"isfamily":0,"safe":1,"ownername":"Ricardodaforce","latitude":38.368578,"longitude":-0.40987,"accuracy":"13","context":0,"place_id":"9pGmhYJWVbqHVsU","woeid":"770345","geo_is_family":0,"geo_is_friend":0,"geo_is_contact":0,"geo_is_public":1,"media":"photo","media_status":"ready"},{"id":"10361457313","owner":"36416879@N02","secret":"cee12cefd0","server":"3732","farm":4,"title":"Luz de luna","ispublic":1,"isfriend":0,"isfamily":0,"safe":1,"ownername":"Di Gutti","latitude":37.399346,"longitude":-6.227016,"accuracy":"13","context":0,"place_id":"kvjqmcZWVbmitz4","woeid":"773546","geo_is_family":0,"geo_is_friend":0,"geo_is_contact":0,"geo_is_public":1,"media":"photo","media_status":"ready"},{"id":"10334419984","owner":"56398981@N03","secret":"33113867af","server":"3706","farm":4,"title":"curve","ispublic":1,"isfriend":0,"isfamily":0,"safe":1,"ownername":"Tobia Scandolara Photographer","latitude":46.038207,"longitude":9.349021,"accuracy":"16","context":0,"place_id":"wrGL32pTUrtkQ_4EGw","woeid":"20133583","geo_is_family":0,"geo_is_friend":0,"geo_is_contact":0,"geo_is_public":1,"media":"photo","media_status":"ready"},{"id":"10286108073","owner":"25959337@N00","secret":"0fcece9546","server":"5330","farm":6,"title":"Nature playing with it's light - Fetvatnet","ispublic":1,"isfriend":0,"isfamily":0,"safe":1,"ownername":"Martin Ystenes - celebrating 5 million views","latitude":62.318005,"longitude":6.612482,"accuracy":"13","context":0,"place_id":"r0tScGNQV7pA2lKJOQ","woeid":"15000785","geo_is_family":0,"geo_is_friend":0,"geo_is_contact":0,"geo_is_public":1,"media":"photo","media_status":"ready"},{"id":"10278863715","owner":"25959337@N00","secret":"31beebc3a1","server":"3788","farm":4,"title":"Fetvatnet, mot Straumgjerde","ispublic":1,"isfriend":0,"isfamily":0,"safe":1,"ownername":"Martin Ystenes - celebrating 5 million views","latitude":62.33144,"longitude":6.596603,"accuracy":"12","context":0,"place_id":"r0tScGNQV7pA2lKJOQ","woeid":"15000785","geo_is_family":0,"geo_is_friend":0,"geo_is_contact":0,"geo_is_public":1,"media":"photo","media_status":"ready"},{"id":"10161556733","owner":"26849514@N06","secret":"e959a94f30","server":"5463","farm":6,"title":"Gl\u00fccksburg Castle, Germany","ispublic":1,"isfriend":0,"isfamily":0,"safe":1,"ownername":"Frans.Sellies","latitude":54.831817,"longitude":9.543364,"accuracy":"15","context":0,"place_id":"jovFhehXV7gy2fQ","woeid":"652901","geo_is_family":0,"geo_is_friend":0,"geo_is_contact":0,"geo_is_public":1,"media":"photo","media_status":"ready"},{"id":"9988575536","owner":"26849514@N06","secret":"ee5742a4df","server":"5503","farm":6,"title":"Mont Saint-Michel (France) (Unesco world heritage)","ispublic":1,"isfriend":0,"isfamily":0,"safe":1,"ownername":"Frans.Sellies","latitude":48.635574,"longitude":-1.51122,"accuracy":"14","context":0,"place_id":"9jg6l1lXUrkXjao","woeid":"603714","geo_is_family":0,"geo_is_friend":0,"geo_is_contact":0,"geo_is_public":1,"media":"photo","media_status":"ready"},{"id":"9736630570","owner":"25959337@N00","secret":"e512d13603","server":"7296","farm":8,"title":"Clean, green glass of \"l\u00f3n\"","ispublic":1,"isfriend":0,"isfamily":0,"safe":1,"ownername":"Martin Ystenes - celebrating 5 million views","latitude":64.042461,"longitude":-16.202774,"accuracy":"10","context":0,"place_id":"L30o2XlTUb6ZXW0u","woeid":"2345690","geo_is_family":0,"geo_is_friend":0,"geo_is_contact":0,"geo_is_public":1,"media":"photo","media_status":"ready"},{"id":"9736628374","owner":"25959337@N00","secret":"f781616e71","server":"7283","farm":8,"title":"J\u00f6kulsarlon with light and colors","ispublic":1,"isfriend":0,"isfamily":0,"safe":0,"ownername":"Martin Ystenes - celebrating 5 million views","latitude":64.048396,"longitude":-16.191101,"accuracy":"11","context":0,"place_id":"L30o2XlTUb6ZXW0u","woeid":"2345690","geo_is_family":0,"geo_is_friend":0,"geo_is_contact":0,"geo_is_public":1,"media":"photo","media_status":"ready"},{"id":"9733385495","owner":"25959337@N00","secret":"7003450520","server":"7428","farm":8,"title":"Blue iceberg with a peculiar surface","ispublic":1,"isfriend":0,"isfamily":0,"safe":1,"ownername":"Martin Ystenes - celebrating 5 million views","latitude":64.042461,"longitude":-16.198654,"accuracy":"10","context":0,"place_id":"L30o2XlTUb6ZXW0u","woeid":"2345690","geo_is_family":0,"geo_is_friend":0,"geo_is_contact":0,"geo_is_public":1,"media":"photo","media_status":"ready"},{"id":"9689083849","owner":"32208367@N04","secret":"a08ce1783c","server":"7335","farm":8,"title":"What goes up...","ispublic":1,"isfriend":0,"isfamily":0,"safe":1,"ownername":"mentalPICTURE","latitude":51.866662,"longitude":-2.2458,"accuracy":"11","context":0,"place_id":"j2iJZ8ZTU7hZwA","woeid":"21248","geo_is_family":0,"geo_is_friend":0,"geo_is_contact":0,"geo_is_public":1,"media":"photo","media_status":"ready"},{"id":"9686101110","owner":"11925274@N02","secret":"1eb7337b66","server":"7322","farm":8,"title":"TEDDY BEAR 0445","ispublic":1,"isfriend":0,"isfamily":0,"safe":0,"ownername":"liontas-Andreas Droussiotis","latitude":34.824513,"longitude":32.406234,"accuracy":"11","context":0,"place_id":"v701X3NZVrvMk5E","woeid":"841388","geo_is_family":0,"geo_is_friend":0,"geo_is_contact":0,"geo_is_public":1,"media":"photo","media_status":"ready"},{"id":"9647258388","owner":"82020541@N08","secret":"dab6982226","server":"5540","farm":6,"title":"Emerald lust","ispublic":1,"isfriend":0,"isfamily":0,"safe":1,"ownername":"megorgar","latitude":-4.10203,"longitude":-63.097229,"accuracy":"14","context":0,"place_id":"iJ1ThptTUb6dhLdH","woeid":"2344847","geo_is_family":0,"geo_is_friend":0,"geo_is_contact":0,"geo_is_public":1,"media":"photo","media_status":"ready"},{"id":"9546404499","owner":"100063725@N06","secret":"ef0c277579","server":"7348","farm":8,"title":"Geirangerfjorden","ispublic":1,"isfriend":0,"isfamily":0,"safe":1,"ownername":"Antonio Chac","latitude":62.09119,"longitude":7.222824,"accuracy":"11","context":0,"place_id":"IKy8qqNZV7Lrqi4","woeid":"858869","geo_is_family":0,"geo_is_friend":0,"geo_is_contact":0,"geo_is_public":1,"media":"photo","media_status":"ready"},{"id":"9539346170","owner":"82579721@N08","secret":"6a04ca151c","server":"7381","farm":8,"title":"Bee on single flowering dahlia","ispublic":1,"isfriend":0,"isfamily":0,"safe":0,"ownername":"12bluros","latitude":42.01802,"longitude":-73.591339,"accuracy":"11","context":0,"place_id":"SkR3N5JTUb9KBvc3","woeid":"2354525","geo_is_family":0,"geo_is_friend":0,"geo_is_contact":0,"geo_is_public":1,"media":"photo","media_status":"ready"},{"id":"9502480350","owner":"53247049@N07","secret":"b80003594d","server":"3795","farm":4,"title":"GREAT SAPPHIREWING (hummingbird) MALE Pterophanes cyanoptera Hovering at Yanacocha in Northwestern ECUADOR. Hummingbird Photo by Peter Wendelken.","ispublic":1,"isfriend":0,"isfamily":0,"safe":0,"ownername":"Neotropical Pete","latitude":-0.092353,"longitude":-78.605804,"accuracy":"16","context":0,"place_id":"H.9PID5TUb5dvk.P","woeid":"2345219","geo_is_family":0,"geo_is_friend":0,"geo_is_contact":0,"geo_is_public":1,"media":"photo","media_status":"ready"},{"id":"9502168744","owner":"25959337@N00","secret":"d97f9c504f","server":"3675","farm":4,"title":"South-west of Bl\u00e1hnjukur","ispublic":1,"isfriend":0,"isfamily":0,"safe":1,"ownername":"Martin Ystenes - celebrating 5 million views","latitude":64.000653,"longitude":-18.952789,"accuracy":"9","context":0,"place_id":"7m1CyztTUb7Ng2Ot","woeid":"2345687","geo_is_family":0,"geo_is_friend":0,"geo_is_contact":0,"geo_is_public":1,"media":"photo","media_status":"ready"},{"id":"9499336961","owner":"25959337@N00","secret":"c1cf0b811a","server":"2854","farm":3,"title":"Landmannalaugar detail VII","ispublic":1,"isfriend":0,"isfamily":0,"safe":1,"ownername":"Martin Ystenes - celebrating 5 million views","latitude":64.000653,"longitude":-18.952789,"accuracy":"9","context":0,"place_id":"7m1CyztTUb7Ng2Ot","woeid":"2345687","geo_is_family":0,"geo_is_friend":0,"geo_is_contact":0,"geo_is_public":1,"media":"photo","media_status":"ready"},{"id":"9491966401","owner":"26849514@N06","secret":"17fb0b6f53","server":"3741","farm":4,"title":"Willemstad, Cura\u00e7ao","ispublic":1,"isfriend":0,"isfamily":0,"safe":1,"ownername":"Frans.Sellies","latitude":12.106844,"longitude":-68.935789,"accuracy":"16","context":0,"place_id":"FTQv01hQV7iPFqM","woeid":"152045","geo_is_family":0,"geo_is_friend":0,"geo_is_contact":0,"geo_is_public":1,"media":"photo","media_status":"ready"}]},"stat":"ok"}