{"photos":{"page":13,"pages":26124,"perpage":60,"total":"1567398","photo":[{"id":"14061600644","owner":"44602415@N03","secret":"425c808bdd","server":"5038","farm":6,"title":"Nase","ispublic":1,"isfriend":0,"isfamily":0,"safe":0,"ownername":"StellaMarisHH","latitude":53.237122,"longitude":10.043649,"accuracy":"15","context":0,"place_id":"VvudoepTUrvi1Vu6dQ","woeid":"20166659","geo_is_family":0,"geo_is_friend":0,"geo_is_contact":0,"geo_is_public":1,"media":"photo","media_status":"ready"},{"id":"14037809856","owner":"68176223@N07","secret":"9e5415c2cf","server":"2897","farm":3,"title":"I've seen the light","ispublic":1,"isfriend":0,"isfamily":0,"safe":0,"ownername":"Franco Beccari","latitude":45.536609,"longitude":10.23202,"accuracy":"11","context":0,"place_id":"WO1uGLRWU7u69ps","woeid":"711410","geo_is_family":0,"geo_is_friend":0,"geo_is_contact":0,"geo_is_public":1,"media":"photo","media_status":"ready"},{"id":"14061058464","owner":"57866871@N03","secret":"2b9f1e78a2","server":"2914","farm":3,"title":"Golden shower","ispublic":1,"isfriend":0,"isfamily":0,"safe":0,"ownername":"snowyturner","latitude":50.338205,"longitude":-4.096441,"accuracy":"13","context":0,"place_id":"efHbV4NSV72J0g","woeid":"35795","geo_is_family":0,"geo_is_friend":0,"geo_is_contact":0,"geo_is_public":1,"media":"photo","media_status":"ready"},{"id":"14079786623","owner":"55299332@N05","secret":"1e04c27a10","server":"2902","farm":3,"title":"Jenn - Bass #TheScrapyards \u2022 On Explore \u2022","ispublic":1,"isfriend":0,"isfamily":0,"safe":0,"ownername":"DeGust","latitude":46.520668,"longitude":6.63064,"accuracy":"16","context":0,"place_id":"xI6KTO9TUrsoxc.cVw","woeid":"20103143","geo_is_family":0,"geo_is_friend":0,"geo_is_contact":0,"geo_is_public":1,"media":"photo","media_status":"ready"},{"id":"14036163926","owner":"85150392@N05","secret":"32d5572885","server":"5578","farm":6,"title":"Rainy evening in Biel","ispublic":1,"isfriend":0,"isfamily":0,"safe":0,"ownername":"Manuel.Martin_72","latitude":47.124687,"longitude":7.229308,"accuracy":"16","context":0,"place_id":".JrRqNdQULwg2wqgvw","woeid":"12684075","geo_is_family":0,"geo_is_friend":0,"geo_is_contact":0,"geo_is_public":1,"media":"photo","media_status":"ready"},{"id":"14059233705","owner":"16854222@N05","secret":"bdc6e3e50b","server":"7234","farm":8,"title":"Charming Spring","ispublic":1,"isfriend":0,"isfamily":0,"safe":0,"ownername":"AnyMotion","latitude":50.123271,"longitude":8.6804,"accuracy":"16","context":0,"place_id":"Z0FRRfRXV7oIeew","woeid":"650272","geo_is_family":0,"geo_is_friend":0,"geo_is_contact":0,"geo_is_public":1,"media":"photo","media_status":"ready"},{"id":"14056876245","owner":"93461361@N05","secret":"0499aa76ba","server":"7195","farm":8,"title":"spring stars","ispublic":1,"isfriend":0,"isfamily":0,"safe":0,"ownername":"Van Luvender","latitude":40.031179,"longitude":-75.04441,"accuracy":"15","context":0,"place_id":"xRzDG1BTVr4.Pt_L","woeid":"2447185","geo_is_family":0,"geo_is_friend":0,"geo_is_contact":0,"geo_is_public":1,"media":"photo","media_status":"ready"},{"id":"14075412273","owner":"8645675@N02","secret":"40086afb69","server":"2932","farm":3,"title":"Concentrated BW","ispublic":1,"isfriend":0,"isfamily":0,"safe":0,"ownername":"Drachenfanger","latitude":36.846933,"longitude":-76.104928,"accuracy":"16","context":0,"place_id":"GNLKBZtTVr550_Tz","woeid":"2444457","geo_is_family":0,"geo_is_friend":0,"geo_is_contact":0,"geo_is_public":1,"media":"photo","media_status":"ready"},{"id":"14055539224","owner":"66552293@N00","secret":"2cc9a4dd24","server":"7208","farm":8,"title":"On the Lichen (explored 28th April 2014 #14)","ispublic":1,"isfriend":0,"isfamily":0,"safe":0,"ownername":"Andrewsteeleuk","latitude":51.811639,"longitude":-1.180858,"accuracy":"14","context":0,"place_id":"o3A0yu5TULKDig","woeid":"22814","geo_is_family":0,"geo_is_friend":0,"geo_is_contact":0,"geo_is_public":1,"media":"photo","media_status":"ready"},{"id":"14054167885","owner":"81035653@N00","secret":"6c6303fd7b","server":"7093","farm":8,"title":"Kingsday at the foot of the beautiful Wester","ispublic":1,"isfriend":0,"isfamily":0,"safe":0,"ownername":"B\u212en","latitude":52.376659,"longitude":4.884689,"accuracy":"16","context":0,"place_id":"xQ4tawtWUL1NrOY","woeid":"727232","geo_is_family":0,"geo_is_friend":0,"geo_is_contact":0,"geo_is_public":1,"media":"photo","media_status":"ready"},{"id":"14053959604","owner":"95575326@N03","secret":"38ae580ece","server":"5179","farm":6,"title":"Low Light","ispublic":1,"isfriend":0,"isfamily":0,"safe":0,"ownername":"Robgreen13","latitude":51.238479,"longitude":-2.993669,"accuracy":"11","context":0,"place_id":"8gVE62VQVr.WLQ","woeid":"14592","geo_is_family":0,"geo_is_friend":0,"geo_is_contact":0,"geo_is_public":1,"media":"photo","media_status":"ready"},{"id":"14053947794","owner":"45283106@N08","secret":"ec036d390d","server":"5461","farm":6,"title":"724 - Apr\u00e8s la pluie... \/ After rain...","ispublic":1,"isfriend":0,"isfamily":0,"safe":0,"ownername":"Huey_Chris","latitude":48.10397,"longitude":11.566425,"accuracy":"16","context":0,"place_id":"AT2jpnhXV72.wOw","woeid":"657327","geo_is_family":0,"geo_is_friend":0,"geo_is_contact":0,"geo_is_public":1,"media":"photo","media_status":"ready"},{"id":"14053460365","owner":"27396057@N03","secret":"c5d6710e08","server":"2935","farm":3,"title":"Bow wave","ispublic":1,"isfriend":0,"isfamily":0,"safe":0,"ownername":"michael_hamburg69","latitude":53.596732,"longitude":9.938765,"accuracy":"15","context":0,"place_id":"cksTdXBXV7yTmdw","woeid":"656958","geo_is_family":0,"geo_is_friend":0,"geo_is_contact":0,"geo_is_public":1,"media":"photo","media_status":"ready"},{"id":"14073055723","owner":"58013555@N07","secret":"ca93ce76cf","server":"7344","farm":8,"title":"Blowing in the Wind Explored 28th April 2014. Well i'll be .......Thank you one and all. Mark x","ispublic":1,"isfriend":0,"isfamily":0,"safe":0,"ownername":"Vide Cor Meum Images","latitude":52.4501,"longitude":-0.678309,"accuracy":"13","context":0,"place_id":"kv38l4BQVLIbxg","woeid":"16847","geo_is_family":0,"geo_is_friend":0,"geo_is_contact":0,"geo_is_public":1,"media":"photo","media_status":"ready"},{"id":"14052963555","owner":"46870239@N06","secret":"5acfb47190","server":"2929","farm":3,"title":"Stillness (Explore 28-4-2014)","ispublic":1,"isfriend":0,"isfamily":0,"safe":0,"ownername":"Sunset Snapper","latitude":50.834247,"longitude":-0.978641,"accuracy":"15","context":0,"place_id":"QI5ZlhhTV70BQA","woeid":"25798","geo_is_family":0,"geo_is_friend":0,"geo_is_contact":0,"geo_is_public":1,"media":"photo","media_status":"ready"},{"id":"14052851555","owner":"92445274@N05","secret":"143643612d","server":"5031","farm":6,"title":"Old Quarry Buildings, Foggintor, Dartmoor.","ispublic":1,"isfriend":0,"isfamily":0,"safe":0,"ownername":"DJMayne","latitude":50.546035,"longitude":-4.025902,"accuracy":"14","context":0,"place_id":"TGy4jOJTWr26tg","woeid":"28744","geo_is_family":0,"geo_is_friend":0,"geo_is_contact":0,"geo_is_public":1,"media":"photo","media_status":"ready"},{"id":"14029694326","owner":"81035653@N00","secret":"068f2ac7a4","server":"7190","farm":8,"title":"A back-rolled cannabis joint referred as a Dutchie","ispublic":1,"isfriend":0,"isfamily":0,"safe":0,"ownername":"B\u212en","latitude":52.373803,"longitude":4.876707,"accuracy":"16","context":0,"place_id":"xfcEFYhWULKtjYI","woeid":"728410","geo_is_family":0,"geo_is_friend":0,"geo_is_contact":0,"geo_is_public":1,"media":"photo","media_status":"ready"},{"id":"14072845503","owner":"59852454@N03","secret":"afbe21519a","server":"7296","farm":8,"title":"In The Grainfields","ispublic":1,"isfriend":0,"isfamily":0,"safe":0,"ownername":"Pavel P.","latitude":49.647203,"longitude":18.375517,"accuracy":"15","context":0,"place_id":"haNLWY1WWr8c8tI","woeid":"785957","geo_is_family":0,"geo_is_friend":0,"geo_is_contact":0,"geo_is_public":1,"media":"photo","media_status":"ready"},{"id":"14053124084","owner":"76806538@N03","secret":"2cef8c8d82","server":"5515","farm":6,"title":"Porto","ispublic":1,"isfriend":0,"isfamily":0,"safe":0,"ownername":"Matty\u00b4s - Fotoseite","latitude":41.146603,"longitude":-8.612594,"accuracy":"11","context":0,"place_id":"3EijFUpWVrywgoo","woeid":"746203","geo_is_family":0,"geo_is_friend":0,"geo_is_contact":0,"geo_is_public":1,"media":"photo","media_status":"ready"},{"id":"14053017284","owner":"59269150@N08","secret":"74f0079cbd","server":"2929","farm":3,"title":"Last Bushstrokes...","ispublic":1,"isfriend":0,"isfamily":0,"safe":0,"ownername":"TablinumCarlson","latitude":-22.909384,"longitude":-43.178329,"accuracy":"13","context":0,"place_id":"XT_HZwhTVLIsJn4Jow","woeid":"26804349","geo_is_family":0,"geo_is_friend":0,"geo_is_contact":0,"geo_is_public":1,"media":"photo","media_status":"ready"},{"id":"14052610534","owner":"81752684@N05","secret":"67f9d2c33d","server":"5444","farm":6,"title":"Reflecting Midtown [Explore]","ispublic":1,"isfriend":0,"isfamily":0,"safe":0,"ownername":"NYRBlue94","latitude":40.74446,"longitude":-73.958909,"accuracy":"16","context":0,"place_id":"sTXjQKNTUb9enZi8dg","woeid":"23511858","geo_is_family":0,"geo_is_friend":0,"geo_is_contact":0,"geo_is_public":1,"media":"photo","media_status":"ready"},{"id":"14072094413","owner":"62815410@N04","secret":"df43a7c72d","server":"2915","farm":3,"title":"untitled (brescia, italy)","ispublic":1,"isfriend":0,"isfamily":0,"safe":0,"ownername":"bloodybee","latitude":45.535731,"longitude":10.234816,"accuracy":"16","context":0,"place_id":"WO1uGLRWU7u69ps","woeid":"711410","geo_is_family":0,"geo_is_friend":0,"geo_is_contact":0,"geo_is_public":1,"media":"photo","media_status":"ready"},{"id":"14048545862","owner":"36217762@N00","secret":"b7bd88c4bb","server":"7221","farm":8,"title":"Women in the Wind \/ Street Photography","ispublic":1,"isfriend":0,"isfamily":0,"safe":0,"ownername":"Pixelm\u00e4dchen6","latitude":52.519628,"longitude":13.40877,"accuracy":"15","context":0,"place_id":"zot2ouJXUbKOJRM","woeid":"638242","geo_is_family":0,"geo_is_friend":0,"geo_is_contact":0,"geo_is_public":1,"media":"photo","media_status":"ready"},{"id":"14048356041","owner":"42574877@N06","secret":"aa3029b2d7","server":"5283","farm":6,"title":"Sunset over the Thames","ispublic":1,"isfriend":0,"isfamily":0,"safe":0,"ownername":"Olympe B.","latitude":51.510558,"longitude":-0.098479,"accuracy":"16","context":0,"place_id":"87OE4Q1TUrpz8Ex55Q","woeid":"20094307","geo_is_family":0,"geo_is_friend":0,"geo_is_contact":0,"geo_is_public":1,"media":"photo","media_status":"ready"},{"id":"14047526062","owner":"43155663@N07","secret":"859203d317","server":"7243","farm":8,"title":"the turn around","ispublic":1,"isfriend":0,"isfamily":0,"safe":0,"ownername":"city\/human\/life","latitude":51.523364,"longitude":7.032043,"accuracy":"16","context":0,"place_id":"es8R3pBXV7hSfpo","woeid":"652038","geo_is_family":0,"geo_is_friend":0,"geo_is_contact":0,"geo_is_public":1,"media":"photo","media_status":"ready"},{"id":"14047210911","owner":"91564885@N00","secret":"8caffa441d","server":"7201","farm":8,"title":"Matojo","ispublic":1,"isfriend":0,"isfamily":0,"safe":0,"ownername":"*k59","latitude":43.054464,"longitude":-6.105619,"accuracy":"16","context":0,"place_id":"bBk0bq5WVbjfB1Q","woeid":"772479","geo_is_family":0,"geo_is_friend":0,"geo_is_contact":0,"geo_is_public":1,"media":"photo","media_status":"ready"},{"id":"14069963133","owner":"73414467@N02","secret":"5ee1128c6b","server":"2898","farm":3,"title":"Palacio de Cristal","ispublic":1,"isfriend":0,"isfamily":0,"safe":0,"ownername":"Jos\u00e9 Luis Vega","latitude":40.413636,"longitude":-3.681803,"accuracy":"16","context":0,"place_id":"Z2U_zedTUri7YVepxQ","woeid":"20219886","geo_is_family":0,"geo_is_friend":0,"geo_is_contact":0,"geo_is_public":1,"media":"photo","media_status":"ready"},{"id":"14068755333","owner":"13297363@N08","secret":"6d6bcd42b2","server":"7241","farm":8,"title":"Havana, Capitolio","ispublic":1,"isfriend":0,"isfamily":0,"safe":0,"ownername":"duque\u0131ros","latitude":23.1168,"longitude":-82.388587,"accuracy":"11","context":0,"place_id":"mfX4siRXUbJJTg","woeid":"63817","geo_is_family":0,"geo_is_friend":0,"geo_is_contact":0,"geo_is_public":1,"media":"photo","media_status":"ready"},{"id":"14048666975","owner":"24781107@N05","secret":"ae18014daf","server":"2915","farm":3,"title":"Palazzo Vecchio - Florence - Italy","ispublic":1,"isfriend":0,"isfamily":0,"safe":0,"ownername":"~ Floydian ~ \uf8ff","latitude":43.762988,"longitude":11.264638,"accuracy":"16","context":0,"place_id":"ZPDshblWU7_DgSs","woeid":"715496","geo_is_family":0,"geo_is_friend":0,"geo_is_contact":0,"geo_is_public":1,"media":"photo","media_status":"ready"},{"id":"14049107834","owner":"24781107@N05","secret":"5fe752407b","server":"5267","farm":6,"title":"Windmill De Helper - Haren - Netherlands","ispublic":1,"isfriend":0,"isfamily":0,"safe":0,"ownername":"~ Floydian ~ \uf8ff","latitude":53.176739,"longitude":6.574952,"accuracy":"16","context":0,"place_id":"_2JUBNlWULPOB8o","woeid":"729727","geo_is_family":0,"geo_is_friend":0,"geo_is_contact":0,"geo_is_public":1,"media":"photo","media_status":"ready"},{"id":"14045332112","owner":"67833313@N08","secret":"47603a765b","server":"2909","farm":3,"title":"teardrops.....","ispublic":1,"isfriend":0,"isfamily":0,"safe":0,"ownername":"Dimitra Kirgiannaki \u266a\u00b8.\u2022*\u00b4spring-lover \u00a8\u00b4","latitude":37.928582,"longitude":23.702693,"accuracy":"11","context":0,"place_id":"hXFuKQ5YV7JgOUY","woeid":"958836","geo_is_family":0,"geo_is_friend":0,"geo_is_contact":0,"geo_is_public":1,"media":"photo","media_status":"ready"},{"id":"14045019971","owner":"31804708@N02","secret":"61ce22649e","server":"2926","farm":3,"title":"Tarde de Enero - Afternoon January","ispublic":1,"isfriend":0,"isfamily":0,"safe":0,"ownername":"celta4","latitude":36.612944,"longitude":-4.506186,"accuracy":"16","context":0,"place_id":"8.ZrgEBWVb8MDfw","woeid":"775818","geo_is_family":0,"geo_is_friend":0,"geo_is_contact":0,"geo_is_public":1,"media":"photo","media_status":"ready"},{"id":"14044388501","owner":"47035764@N03","secret":"aa673bd796","server":"7327","farm":8,"title":"Secreet, Bourtange, Groningen, Netherlands - 1750","ispublic":1,"isfriend":0,"isfamily":0,"safe":0,"ownername":"HereIsTom","latitude":53.006282,"longitude":7.191007,"accuracy":"16","context":0,"place_id":"ewwUmXlWUL0Nh5o","woeid":"727918","geo_is_family":0,"geo_is_friend":0,"geo_is_contact":0,"geo_is_public":1,"media":"photo","media_status":"ready"},{"id":"14023947366","owner":"76534285@N04","secret":"de51dc0306","server":"5184","farm":6,"title":"Le Corridor","ispublic":1,"isfriend":0,"isfamily":0,"safe":0,"ownername":"Sylvain Courant photographies","latitude":49.129835,"longitude":2.360858,"accuracy":"16","context":0,"place_id":"tcXnU0xWU7_DQtMC","woeid":"7153322","geo_is_family":0,"geo_is_friend":0,"geo_is_contact":0,"geo_is_public":1,"media":"photo","media_status":"ready"},{"id":"14066856243","owner":"42345335@N08","secret":"78b29fce4e","server":"7089","farm":8,"title":"Hawthorn Shieldbug","ispublic":1,"isfriend":0,"isfamily":0,"safe":0,"ownername":"EvilEyeGoshawk","latitude":56.107176,"longitude":-3.978788,"accuracy":"16","context":0,"place_id":"OTggGT5SVLvPyA","woeid":"36135","geo_is_family":0,"geo_is_friend":0,"geo_is_contact":0,"geo_is_public":1,"media":"photo","media_status":"ready"},{"id":"14046684424","owner":"73414467@N02","secret":"8ef193ee9f","server":"2931","farm":3,"title":"Parque del Retiro","ispublic":1,"isfriend":0,"isfamily":0,"safe":0,"ownername":"Jos\u00e9 Luis Vega","latitude":40.413636,"longitude":-3.681803,"accuracy":"16","context":0,"place_id":"Z2U_zedTUri7YVepxQ","woeid":"20219886","geo_is_family":0,"geo_is_friend":0,"geo_is_contact":0,"geo_is_public":1,"media":"photo","media_status":"ready"},{"id":"14042888602","owner":"46267286@N07","secret":"75c71f8702","server":"7061","farm":8,"title":"Retro Southbank London 60's 70's","ispublic":1,"isfriend":0,"isfamily":0,"safe":0,"ownername":"Simon & His Camera","latitude":51.508007,"longitude":-0.112985,"accuracy":"16","context":0,"place_id":"up5njGVTUrqg4WUNsw","woeid":"20094347","geo_is_family":0,"geo_is_friend":0,"geo_is_contact":0,"geo_is_public":1,"media":"photo","media_status":"ready"},{"id":"14063539463","owner":"56318602@N06","secret":"4400be64a7","server":"2937","farm":3,"title":"Twisted clouds","ispublic":1,"isfriend":0,"isfamily":0,"safe":0,"ownername":"- MAGA -","latitude":-35.470218,"longitude":-58.808393,"accuracy":"14","context":0,"place_id":"dOoz1CtSUbgXt6A","woeid":"332667","geo_is_family":0,"geo_is_friend":0,"geo_is_contact":0,"geo_is_public":1,"media":"photo","media_status":"ready"},{"id":"14039326421","owner":"93250327@N05","secret":"7da831ea04","server":"5345","farm":6,"title":"Poetic London...[Explored 27th April 2014]","ispublic":1,"isfriend":0,"isfamily":0,"safe":0,"ownername":"Patrizia Ilaria Sechi","latitude":51.50014,"longitude":-0.125913,"accuracy":"13","context":0,"place_id":"_8cuSp1TVrKmbg67ew","woeid":"24875645","geo_is_family":0,"geo_is_friend":0,"geo_is_contact":0,"geo_is_public":1,"media":"photo","media_status":"ready"},{"id":"14038352561","owner":"62618532@N05","secret":"dd294fb148","server":"7205","farm":8,"title":"peek-a-boo","ispublic":1,"isfriend":0,"isfamily":0,"safe":0,"ownername":"Peter Szabo(PeSaboterz)","latitude":46.947097,"longitude":7.446197,"accuracy":"16","context":0,"place_id":"X7bxbwhWWrtKmg8","woeid":"781788","geo_is_family":0,"geo_is_friend":0,"geo_is_contact":0,"geo_is_public":1,"media":"photo","media_status":"ready"},{"id":"14060735553","owner":"17306541@N06","secret":"dd9014f41c","server":"2933","farm":3,"title":"The Path [Explored]","ispublic":1,"isfriend":0,"isfamily":0,"safe":0,"ownername":"jellyfire","latitude":52.284542,"longitude":1.043186,"accuracy":"12","context":0,"place_id":"x4cDPelVUr5.0w","woeid":"40416","geo_is_family":0,"geo_is_friend":0,"geo_is_contact":0,"geo_is_public":1,"media":"photo","media_status":"ready"},{"id":"14060191513","owner":"9292942@N08","secret":"e5b02cce2b","server":"5242","farm":6,"title":"Another Place Sculpture looking towards the Welsh Mountains from Crosby Beach","ispublic":1,"isfriend":0,"isfamily":0,"safe":0,"ownername":"Gidzy","latitude":53.486375,"longitude":-3.052831,"accuracy":"16","context":0,"place_id":"gk8UiGhQUbo5BQ","woeid":"13084","geo_is_family":0,"geo_is_friend":0,"geo_is_contact":0,"geo_is_public":1,"media":"photo","media_status":"ready"},{"id":"14035782372","owner":"42985099@N03","secret":"cbd1065de6","server":"7193","farm":8,"title":"~Waiting For The Sun~","ispublic":1,"isfriend":0,"isfamily":0,"safe":0,"ownername":"Eddie The Bugman","latitude":52.914802,"longitude":-1.152298,"accuracy":"16","context":0,"place_id":"n10fnYdVUr8n3g","woeid":"40524","geo_is_family":0,"geo_is_friend":0,"geo_is_contact":0,"geo_is_public":1,"media":"photo","media_status":"ready"},{"id":"14037257595","owner":"81035653@N00","secret":"f22f45abfd","server":"7380","farm":8,"title":"Amsterdam's largest flea market in the world at Kingsday","ispublic":1,"isfriend":0,"isfamily":0,"safe":0,"ownername":"B\u212en","latitude":52.377858,"longitude":4.881437,"accuracy":"16","context":0,"place_id":"xQ4tawtWUL1NrOY","woeid":"727232","geo_is_family":0,"geo_is_friend":0,"geo_is_contact":0,"geo_is_public":1,"media":"photo","media_status":"ready"},{"id":"14037577554","owner":"75632900@N04","secret":"9fa0ceab4c","server":"2898","farm":3,"title":"SANTA MARIA AL BAGNO NARDO'","ispublic":1,"isfriend":0,"isfamily":0,"safe":0,"ownername":"Aristide Mazzarella","latitude":40.13899,"longitude":17.981872,"accuracy":"11","context":0,"place_id":"t.._GV1WULkJxUY","woeid":"723474","geo_is_family":0,"geo_is_friend":0,"geo_is_contact":0,"geo_is_public":1,"media":"photo","media_status":"ready"},{"id":"14033819362","owner":"46378751@N02","secret":"b696723f78","server":"2909","farm":3,"title":"This is Tuscany! [EXPLORE]","ispublic":1,"isfriend":0,"isfamily":0,"safe":0,"ownername":"Antonio Cinotti \uf8ff","latitude":43.177141,"longitude":11.583709,"accuracy":"11","context":0,"place_id":"KbhWgSNWU74gmHc","woeid":"714043","geo_is_family":0,"geo_is_friend":0,"geo_is_contact":0,"geo_is_public":1,"media":"photo","media_status":"ready"},{"id":"14036824965","owner":"25304221@N07","secret":"5fcb371a72","server":"2931","farm":3,"title":"Vexations or \"Phi and Pi\"","ispublic":1,"isfriend":0,"isfamily":0,"safe":0,"ownername":"\u2591S\u2591i\u2591l\u2591a\u2591n\u2591d\u2591i\u2591","latitude":49.248311,"longitude":9.308638,"accuracy":"16","context":0,"place_id":"CCgJlvFXVL1.Eak","woeid":"667695","geo_is_family":0,"geo_is_friend":0,"geo_is_contact":0,"geo_is_public":1,"media":"photo","media_status":"ready"},{"id":"14013460316","owner":"91248320@N04","secret":"89f6011302","server":"5350","farm":6,"title":"My car when I grow up","ispublic":1,"isfriend":0,"isfamily":0,"safe":0,"ownername":"Jekurantodistaja","latitude":23.140616,"longitude":-82.355468,"accuracy":"15","context":0,"place_id":"S.m5DQhXUbLn4Q","woeid":"63820","geo_is_family":0,"geo_is_friend":0,"geo_is_contact":0,"geo_is_public":1,"media":"photo","media_status":"ready"},{"id":"14033239222","owner":"20905078@N04","secret":"787110c2d2","server":"5541","farm":6,"title":"","ispublic":1,"isfriend":0,"isfamily":0,"safe":0,"ownername":"patrickjoust","latitude":39.288476,"longitude":-76.65585,"accuracy":"16","context":0,"place_id":"Cb8._AdTW7jhzJTlvg","woeid":"29229404","geo_is_family":0,"geo_is_friend":0,"geo_is_contact":0,"geo_is_public":1,"media":"photo","media_status":"ready"},{"id":"14032487011","owner":"97664410@N02","secret":"830d2e9d55","server":"7369","farm":8,"title":"En medio de la nada","ispublic":1,"isfriend":0,"isfamily":0,"safe":0,"ownername":"Julieta Portel","latitude":39.677069,"longitude":-0.21492,"accuracy":"11","context":0,"place_id":"frGysnZQUL.0mVn21A","woeid":"12578038","geo_is_family":0,"geo_is_friend":0,"geo_is_contact":0,"geo_is_public":1,"media":"photo","media_status":"ready"},{"id":"14036115104","owner":"42574877@N06","secret":"380d89aa08","server":"7135","farm":8,"title":"There are things happening in the chapel","ispublic":1,"isfriend":0,"isfamily":0,"safe":0,"ownername":"Olympe B.","latitude":51.482932,"longitude":-0.004495,"accuracy":"16","context":0,"place_id":"9l0yiMFTVrI4L8XwTw","woeid":"24875641","geo_is_family":0,"geo_is_friend":0,"geo_is_contact":0,"geo_is_public":1,"media":"photo","media_status":"ready"},{"id":"14035888374","owner":"67995615@N03","secret":"5ee6f44b66","server":"5138","farm":6,"title":"Dubai - Marina Fisheye View,","ispublic":1,"isfriend":0,"isfamily":0,"safe":0,"ownername":"claudecastor","latitude":25.087678,"longitude":55.145959,"accuracy":"15","context":0,"place_id":"252NWxFUV7Ku9UKXpw","woeid":"55872697","geo_is_family":0,"geo_is_friend":0,"geo_is_contact":0,"geo_is_public":1,"media":"photo","media_status":"ready"},{"id":"14031742462","owner":"69008291@N02","secret":"499337722a","server":"7207","farm":8,"title":"Nest of Spiderlings! [Explored!]","ispublic":1,"isfriend":0,"isfamily":0,"safe":0,"ownername":"RiverCrouchWalker","latitude":51.640596,"longitude":0.612264,"accuracy":"14","context":0,"place_id":"vTyzjGVTVrtvPA","woeid":"24104","geo_is_family":0,"geo_is_friend":0,"geo_is_contact":0,"geo_is_public":1,"media":"photo","media_status":"ready"},{"id":"14054672793","owner":"50027776@N05","secret":"5700b8ce0e","server":"2900","farm":3,"title":"in giro per la campagna","ispublic":1,"isfriend":0,"isfamily":0,"safe":0,"ownername":"Luigi Alesi","latitude":43.256268,"longitude":13.302812,"accuracy":"14","context":0,"place_id":"Q7vj.CVTUrsAs0a0bw","woeid":"20111729","geo_is_family":0,"geo_is_friend":0,"geo_is_contact":0,"geo_is_public":1,"media":"photo","media_status":"ready"},{"id":"14035004644","owner":"68801618@N03","secret":"24dc97c610","server":"2907","farm":3,"title":"Dog","ispublic":1,"isfriend":0,"isfamily":0,"safe":0,"ownername":"L'agriculteur Illumin\u00e9","latitude":46.987628,"longitude":6.88982,"accuracy":"11","context":0,"place_id":"rutG6VJWWrll7YQ","woeid":"783706","geo_is_family":0,"geo_is_friend":0,"geo_is_contact":0,"geo_is_public":1,"media":"photo","media_status":"ready"},{"id":"14054202403","owner":"11473706@N03","secret":"592d55f295","server":"7222","farm":8,"title":"Colors of Spring","ispublic":1,"isfriend":0,"isfamily":0,"safe":0,"ownername":"Cost3l","latitude":47.187974,"longitude":27.555144,"accuracy":"16","context":0,"place_id":"DaqK9LZZVbmQF8Q","woeid":"873915","geo_is_family":0,"geo_is_friend":0,"geo_is_contact":0,"geo_is_public":1,"media":"photo","media_status":"ready"},{"id":"14053597163","owner":"12039065@N00","secret":"2e75eed4d1","server":"7297","farm":8,"title":"Laguna Huinfiuca","ispublic":1,"isfriend":0,"isfamily":0,"safe":0,"ownername":"Mono Andes","latitude":-39.582688,"longitude":-71.53725,"accuracy":"16","context":0,"place_id":"7GKvwPdTUrrmSk.s2A","woeid":"20071043","geo_is_family":0,"geo_is_friend":0,"geo_is_contact":0,"geo_is_public":1,"media":"photo","media_status":"ready"},{"id":"14052806893","owner":"7992704@N05","secret":"c2222df64c","server":"7400","farm":8,"title":"Surfing Sunset","ispublic":1,"isfriend":0,"isfamily":0,"safe":0,"ownername":"_Hadock_","latitude":43.32586,"longitude":-1.974009,"accuracy":"16","context":0,"place_id":"q.vWIQJWVbkVysY","woeid":"773418","geo_is_family":0,"geo_is_friend":0,"geo_is_contact":0,"geo_is_public":1,"media":"photo","media_status":"ready"},{"id":"14029554391","owner":"58013555@N07","secret":"e6eb6a7340","server":"7452","farm":8,"title":"Dusk at Denford Explored 27th April 2014. Well I am on a run :-) Thankyou one and all x","ispublic":1,"isfriend":0,"isfamily":0,"safe":0,"ownername":"Vide Cor Meum Images","latitude":52.381264,"longitude":-0.545843,"accuracy":"11","context":0,"place_id":"HFWN32lQWrptuA","woeid":"18069","geo_is_family":0,"geo_is_friend":0,"geo_is_contact":0,"geo_is_public":1,"media":"photo","media_status":"ready"},{"id":"14029525442","owner":"42903611@N00","secret":"a9cc7feb61","server":"7252","farm":8,"title":"Open...","ispublic":1,"isfriend":0,"isfamily":0,"safe":0,"ownername":"rogilde - roberto la forgia","latitude":45.599236,"longitude":9.534416,"accuracy":"14","context":0,"place_id":"EmgnbyVTW7lar2DwWw","woeid":"29334379","geo_is_family":0,"geo_is_friend":0,"geo_is_contact":0,"geo_is_public":1,"media":"photo","media_status":"ready"}]},"stat":"ok"}