{"photos":{"page":22,"pages":26131,"perpage":60,"total":"1567811","photo":[{"id":"4791450744","owner":"25959337@N00","secret":"9228dd80d7","server":"4114","farm":5,"title":"Two pinkies at Skogarfoss","ispublic":1,"isfriend":0,"isfamily":0,"safe":0,"ownername":"Martin Ystenes - celebrating 5 million views","latitude":63.541554,"longitude":-19.550514,"accuracy":"12","context":0,"place_id":"LQtxGLZTUb61KmtE","woeid":"2345700","geo_is_family":0,"geo_is_friend":0,"geo_is_contact":0,"geo_is_public":1,"media":"photo","media_status":"ready"},{"id":"4773033676","owner":"25959337@N00","secret":"39166d6b3c","server":"4100","farm":5,"title":"Hole, not empty","ispublic":1,"isfriend":0,"isfamily":0,"safe":0,"ownername":"Martin Ystenes - celebrating 5 million views","latitude":64.048922,"longitude":-16.184234,"accuracy":"10","context":0,"place_id":"L30o2XlTUb6ZXW0u","woeid":"2345690","geo_is_family":0,"geo_is_friend":0,"geo_is_contact":0,"geo_is_public":1,"media":"photo","media_status":"ready"},{"id":"4494816420","owner":"25959337@N00","secret":"c3dcaf78b9","server":"4030","farm":5,"title":"Luften i Vestnes forsures av gressbrann","ispublic":1,"isfriend":0,"isfamily":0,"safe":0,"ownername":"Martin Ystenes - celebrating 5 million views","latitude":62.63156,"longitude":7.095108,"accuracy":"13","context":0,"place_id":"R.bQ3GNZVL_88Aw","woeid":"865700","geo_is_family":0,"geo_is_friend":0,"geo_is_contact":0,"geo_is_public":1,"media":"photo","media_status":"ready"},{"id":"4357619866","owner":"25959337@N00","secret":"a8e76116a8","server":"4049","farm":5,"title":"Red house in Namsos","ispublic":1,"isfriend":0,"isfamily":0,"safe":0,"ownername":"Martin Ystenes - celebrating 5 million views","latitude":64.46558,"longitude":11.491441,"accuracy":"13","context":0,"place_id":"DFXYk1JZVLhehaI","woeid":"862064","geo_is_family":0,"geo_is_friend":0,"geo_is_contact":0,"geo_is_public":1,"media":"photo","media_status":"ready"},{"id":"4352485835","owner":"34726560@N00","secret":"7e64df8978","server":"4040","farm":5,"title":"Spanish fence-keh","ispublic":1,"isfriend":0,"isfamily":0,"safe":0,"ownername":"Steve-h","latitude":36.507557,"longitude":-4.892027,"accuracy":"15","context":0,"place_id":"b6ANCk5WVLwQivI","woeid":"766537","geo_is_family":0,"geo_is_friend":0,"geo_is_contact":0,"geo_is_public":1,"media":"photo","media_status":"ready"},{"id":"4121928910","owner":"27112342@N03","secret":"ae5a66442f","server":"2694","farm":3,"title":"Kappelbrucke - Lucerne, Switzerland (Please view large size)","ispublic":1,"isfriend":0,"isfamily":0,"safe":1,"ownername":"Sunciti _ Sundaram's Images + Messages","latitude":47.052955,"longitude":8.308527,"accuracy":"13","context":0,"place_id":"b8MITN1TUrttsP2_eQ","woeid":"20102030","geo_is_family":0,"geo_is_friend":0,"geo_is_contact":0,"geo_is_public":1,"media":"photo","media_status":"ready"},{"id":"4094588295","owner":"97042891@N00","secret":"b968863fc3","server":"2451","farm":3,"title":"Tucano - Jardim Bot\u00e2nico do Rio de Janeiro","ispublic":1,"isfriend":0,"isfamily":0,"safe":0,"ownername":"\u00a8 \u266a Claudio Lara \u2714","latitude":-22.949422,"longitude":-43.137645,"accuracy":"13","context":0,"place_id":"mAqmHW5VV78OT5o","woeid":"455825","geo_is_family":0,"geo_is_friend":0,"geo_is_contact":0,"geo_is_public":1,"media":"photo","media_status":"ready"},{"id":"4093026291","owner":"35699605@N00","secret":"7ab38fc94d","server":"2530","farm":3,"title":"Playcenter Wave Swinger @ Planeta Terra Festival 2009 S\u00e3o Paulo Brazil Brasil","ispublic":1,"isfriend":0,"isfamily":0,"safe":0,"ownername":"seLusaVa","latitude":-23.518097,"longitude":-46.663001,"accuracy":"16","context":0,"place_id":"Q2OPdIhTVLJ47q4LKg","woeid":"26804340","geo_is_family":0,"geo_is_friend":0,"geo_is_contact":0,"geo_is_public":1,"media":"photo","media_status":"ready"},{"id":"3941271949","owner":"7247833@N04","secret":"3969e9c84d","server":"2504","farm":3,"title":"Nash Point","ispublic":1,"isfriend":0,"isfamily":0,"safe":0,"ownername":"wentloog","latitude":51.40132,"longitude":-3.556984,"accuracy":"16","context":0,"place_id":"RHujSNpTW7jbdg","woeid":"29210","geo_is_family":0,"geo_is_friend":0,"geo_is_contact":0,"geo_is_public":1,"media":"photo","media_status":"ready"},{"id":"3653972514","owner":"25959337@N00","secret":"ec947d7c6e","server":"3368","farm":4,"title":"Vistdal, summer evening","ispublic":1,"isfriend":0,"isfamily":0,"safe":0,"ownername":"Martin Ystenes - celebrating 5 million views","latitude":62.769791,"longitude":7.888612,"accuracy":"13","context":0,"place_id":"SyESXFVZVL5GI1w","woeid":"864965","geo_is_family":0,"geo_is_friend":0,"geo_is_contact":0,"geo_is_public":1,"media":"photo","media_status":"ready"},{"id":"3652832501","owner":"25959337@N00","secret":"d8f13a4629","server":"3299","farm":4,"title":"Mountain road in Norway","ispublic":1,"isfriend":0,"isfamily":0,"safe":0,"ownername":"Martin Ystenes - celebrating 5 million views","latitude":61.570785,"longitude":8.025169,"accuracy":"12","context":0,"place_id":"LtvT5ZVQUL_Ni53IZg","woeid":"12592835","geo_is_family":0,"geo_is_friend":0,"geo_is_contact":0,"geo_is_public":1,"media":"photo","media_status":"ready"},{"id":"3652828669","owner":"25959337@N00","secret":"1f3e1bfd8f","server":"3602","farm":4,"title":"Sognefjellet","ispublic":1,"isfriend":0,"isfamily":0,"safe":0,"ownername":"Martin Ystenes - celebrating 5 million views","latitude":61.565881,"longitude":8.004741,"accuracy":"12","context":0,"place_id":"LtvT5ZVQUL_Ni53IZg","woeid":"12592835","geo_is_family":0,"geo_is_friend":0,"geo_is_contact":0,"geo_is_public":1,"media":"photo","media_status":"ready"},{"id":"3588068591","owner":"27420180@N08","secret":"9a86002ddb","server":"3345","farm":4,"title":"Biblioth\u00e8que Nationale de France","ispublic":1,"isfriend":0,"isfamily":0,"safe":1,"ownername":"A.G. Photographe","latitude":48.832464,"longitude":2.376308,"accuracy":"15","context":0,"place_id":"UproB21UV7Jwzo9e3w","woeid":"55843810","geo_is_family":0,"geo_is_friend":0,"geo_is_contact":0,"geo_is_public":1,"media":"photo","media_status":"ready"},{"id":"3555779435","owner":"62202285@N00","secret":"8031dde411","server":"2422","farm":3,"title":"Ensemble...!!!","ispublic":1,"isfriend":0,"isfamily":0,"safe":0,"ownername":"Denis Collette...!!!","latitude":46.754762,"longitude":-71.647392,"accuracy":"16","context":0,"place_id":"PqMuKFNSVr6x","woeid":"3445","geo_is_family":0,"geo_is_friend":0,"geo_is_contact":0,"geo_is_public":1,"media":"photo","media_status":"ready"},{"id":"3542374736","owner":"62202285@N00","secret":"f25874ba9b","server":"2176","farm":3,"title":"Mon chemin...!!! :)","ispublic":1,"isfriend":0,"isfamily":0,"safe":0,"ownername":"Denis Collette...!!!","latitude":46.755081,"longitude":-71.648025,"accuracy":"15","context":0,"place_id":"PqMuKFNSVr6x","woeid":"3445","geo_is_family":0,"geo_is_friend":0,"geo_is_contact":0,"geo_is_public":1,"media":"photo","media_status":"ready"},{"id":"3535866418","owner":"62202285@N00","secret":"4ebbc90703","server":"2403","farm":3,"title":"...avec tendresse...!!!","ispublic":1,"isfriend":0,"isfamily":0,"safe":0,"ownername":"Denis Collette...!!!","latitude":46.756108,"longitude":-71.647263,"accuracy":"16","context":0,"place_id":"PqMuKFNSVr6x","woeid":"3445","geo_is_family":0,"geo_is_friend":0,"geo_is_contact":0,"geo_is_public":1,"media":"photo","media_status":"ready"},{"id":"3530929678","owner":"62202285@N00","secret":"1bee697eac","server":"2373","farm":3,"title":"Premi\u00e8res tulipes...!!!","ispublic":1,"isfriend":0,"isfamily":0,"safe":1,"ownername":"Denis Collette...!!!","latitude":46.754762,"longitude":-71.647392,"accuracy":"16","context":0,"place_id":"PqMuKFNSVr6x","woeid":"3445","geo_is_family":0,"geo_is_friend":0,"geo_is_contact":0,"geo_is_public":1,"media":"photo","media_status":"ready"},{"id":"3504304652","owner":"62202285@N00","secret":"d1c655754f","server":"3313","farm":4,"title":"\u00c9tat de gr\u00e2ce...!!!","ispublic":1,"isfriend":0,"isfamily":0,"safe":1,"ownername":"Denis Collette...!!!","latitude":46.75474,"longitude":-71.648969,"accuracy":"16","context":0,"place_id":"PqMuKFNSVr6x","woeid":"3445","geo_is_family":0,"geo_is_friend":0,"geo_is_contact":0,"geo_is_public":1,"media":"photo","media_status":"ready"},{"id":"3490263891","owner":"88482099@N00","secret":"8d5abd9f34","server":"3146","farm":4,"title":"Not everybody asleep in Paris","ispublic":1,"isfriend":0,"isfamily":0,"safe":0,"ownername":"jmvnoos in Paris","latitude":48.858997,"longitude":2.359389,"accuracy":"15","context":0,"place_id":".G3A8VlUV7K1lCDbGA","woeid":"55843757","geo_is_family":0,"geo_is_friend":0,"geo_is_contact":0,"geo_is_public":1,"media":"photo","media_status":"ready"},{"id":"3463838579","owner":"62202285@N00","secret":"a16d9ef38c","server":"3637","farm":4,"title":"Reflet fran\u00e7ais...!!!","ispublic":1,"isfriend":0,"isfamily":0,"safe":0,"ownername":"Denis Collette...!!!","latitude":46.75474,"longitude":-71.648969,"accuracy":"16","context":0,"place_id":"PqMuKFNSVr6x","woeid":"3445","geo_is_family":0,"geo_is_friend":0,"geo_is_contact":0,"geo_is_public":1,"media":"photo","media_status":"ready"},{"id":"3450742139","owner":"25134615@N03","secret":"77757eb830","server":"3310","farm":4,"title":"Israel - Yellow River","ispublic":1,"isfriend":0,"isfamily":0,"safe":1,"ownername":"lovemyblackcat","latitude":32.618339,"longitude":35.099258,"accuracy":"12","context":0,"place_id":"uDtYgO1QW7xyRYzw","woeid":"1967873","geo_is_family":0,"geo_is_friend":0,"geo_is_contact":0,"geo_is_public":1,"media":"photo","media_status":"ready"},{"id":"3407135532","owner":"62202285@N00","secret":"b7dd7be4c1","server":"3570","farm":4,"title":"Rain of thorns on the wild roses...!!!","ispublic":1,"isfriend":0,"isfamily":0,"safe":0,"ownername":"Denis Collette...!!!","latitude":46.754785,"longitude":-71.647424,"accuracy":"16","context":0,"place_id":"PqMuKFNSVr6x","woeid":"3445","geo_is_family":0,"geo_is_friend":0,"geo_is_contact":0,"geo_is_public":1,"media":"photo","media_status":"ready"},{"id":"3310268048","owner":"35699605@N00","secret":"51b06dc6f5","server":"3340","farm":4,"title":"Carnaval Rio de Janeiro Carnival G.R.E.S Unidos de Vila Isabel 2009 Carioca Brazil Brasil samba","ispublic":1,"isfriend":0,"isfamily":0,"safe":0,"ownername":"seLusaVa","latitude":-22.9093,"longitude":-43.19734,"accuracy":"16","context":0,"place_id":"mJ5jq9FTVLKU2FUZKg","woeid":"26804391","geo_is_family":0,"geo_is_friend":0,"geo_is_contact":0,"geo_is_public":1,"media":"photo","media_status":"ready"},{"id":"3278544314","owner":"44493439@N00","secret":"1673cb93ec","server":"3398","farm":4,"title":"Very Happy Mother's Day !!!","ispublic":1,"isfriend":0,"isfamily":0,"safe":0,"ownername":"janusz l","latitude":51.704011,"longitude":-8.520745,"accuracy":"15","context":0,"place_id":"7PsULdxUVLtdU1c","woeid":"561422","geo_is_family":0,"geo_is_friend":0,"geo_is_contact":0,"geo_is_public":1,"media":"photo","media_status":"ready"},{"id":"3264739313","owner":"85128884@N00","secret":"07978e3526","server":"1320","farm":2,"title":"Winter Walk","ispublic":1,"isfriend":0,"isfamily":0,"safe":0,"ownername":"hbp_pix","latitude":42.3711,"longitude":-71.131324,"accuracy":"12","context":0,"place_id":"T5gQMo1TWrjHHLtSoQ","woeid":"28297719","geo_is_family":0,"geo_is_friend":0,"geo_is_contact":0,"geo_is_public":1,"media":"photo","media_status":"ready"},{"id":"3247370380","owner":"46442093@N00","secret":"161984c548","server":"3444","farm":4,"title":"[black and white]","ispublic":1,"isfriend":0,"isfamily":0,"safe":0,"ownername":"lia costa carvalho\u00a9","latitude":37.4138,"longitude":-9.777832,"accuracy":"5","context":0,"place_id":"CtXbe4BTUb5BgTOv","woeid":"2346573","geo_is_family":0,"geo_is_friend":0,"geo_is_contact":0,"geo_is_public":1,"media":"photo","media_status":"ready"},{"id":"3233097083","owner":"46442093@N00","secret":"2d4d0f6f73","server":"3259","farm":4,"title":"[Sara de Castro] Actriz Portuguesa","ispublic":1,"isfriend":0,"isfamily":0,"safe":0,"ownername":"lia costa carvalho\u00a9","latitude":38.754083,"longitude":-9.162597,"accuracy":"5","context":0,"place_id":"CtXbe4BTUb5BgTOv","woeid":"2346573","geo_is_family":0,"geo_is_friend":0,"geo_is_contact":0,"geo_is_public":1,"media":"photo","media_status":"ready"},{"id":"3220634943","owner":"62202285@N00","secret":"9e7cae10ba","server":"3431","farm":4,"title":"Boules-de-neige...!!!","ispublic":1,"isfriend":0,"isfamily":0,"safe":0,"ownername":"Denis Collette...!!!","latitude":46.754762,"longitude":-71.647392,"accuracy":"16","context":0,"place_id":"PqMuKFNSVr6x","woeid":"3445","geo_is_family":0,"geo_is_friend":0,"geo_is_contact":0,"geo_is_public":1,"media":"photo","media_status":"ready"},{"id":"3103052369","owner":"62202285@N00","secret":"f2ddb5451c","server":"3120","farm":4,"title":"Le vieil hiver...!!!","ispublic":1,"isfriend":0,"isfamily":0,"safe":0,"ownername":"Denis Collette...!!!","latitude":46.75474,"longitude":-71.648969,"accuracy":"16","context":0,"place_id":"PqMuKFNSVr6x","woeid":"3445","geo_is_family":0,"geo_is_friend":0,"geo_is_contact":0,"geo_is_public":1,"media":"photo","media_status":"ready"},{"id":"3099642828","owner":"62202285@N00","secret":"6c5fde282f","server":"3185","farm":4,"title":"Harpe foresti\u00e8re...!!!","ispublic":1,"isfriend":0,"isfamily":0,"safe":0,"ownername":"Denis Collette...!!!","latitude":46.754762,"longitude":-71.647392,"accuracy":"16","context":0,"place_id":"PqMuKFNSVr6x","woeid":"3445","geo_is_family":0,"geo_is_friend":0,"geo_is_contact":0,"geo_is_public":1,"media":"photo","media_status":"ready"},{"id":"3087996550","owner":"62202285@N00","secret":"cf0f7b2c3c","server":"3169","farm":4,"title":"L'hiver sur le versant de la colline...!!!","ispublic":1,"isfriend":0,"isfamily":0,"safe":0,"ownername":"Denis Collette...!!!","latitude":46.755154,"longitude":-71.648787,"accuracy":"15","context":0,"place_id":"PqMuKFNSVr6x","woeid":"3445","geo_is_family":0,"geo_is_friend":0,"geo_is_contact":0,"geo_is_public":1,"media":"photo","media_status":"ready"},{"id":"3086788767","owner":"62202285@N00","secret":"a5bfca4ae1","server":"3031","farm":4,"title":"Neige de Chine...!!!","ispublic":1,"isfriend":0,"isfamily":0,"safe":0,"ownername":"Denis Collette...!!!","latitude":46.75474,"longitude":-71.648969,"accuracy":"16","context":0,"place_id":"PqMuKFNSVr6x","woeid":"3445","geo_is_family":0,"geo_is_friend":0,"geo_is_contact":0,"geo_is_public":1,"media":"photo","media_status":"ready"},{"id":"2982965755","owner":"25959337@N00","secret":"39985a7246","server":"3213","farm":4,"title":"Selfoss waterfall, Iceland","ispublic":1,"isfriend":0,"isfamily":0,"safe":0,"ownername":"Martin Ystenes - celebrating 5 million views","latitude":65.814945,"longitude":-16.384563,"accuracy":"12","context":0,"place_id":"P1uyNcdTUb5Wobjz","woeid":"2345699","geo_is_family":0,"geo_is_friend":0,"geo_is_contact":0,"geo_is_public":1,"media":"photo","media_status":"ready"},{"id":"2605910250","owner":"27964309@N06","secret":"c0d8fe2f77","server":"3269","farm":4,"title":"Ants on the Aletsch","ispublic":1,"isfriend":0,"isfamily":0,"safe":1,"ownername":"vittorio vida","latitude":46.024139,"longitude":7.7484,"accuracy":"11","context":0,"place_id":"UHDc6flWWr7ubCU","woeid":"784766","geo_is_family":0,"geo_is_friend":0,"geo_is_contact":0,"geo_is_public":1,"media":"photo","media_status":"ready"},{"id":"2561665034","owner":"9019841@N08","secret":"b6be1af2b9","server":"3117","farm":4,"title":"one flew over the cuckoo's nest","ispublic":1,"isfriend":0,"isfamily":0,"safe":0,"ownername":"fusion-of-horizons","latitude":44.434829,"longitude":26.09387,"accuracy":"16","context":0,"place_id":"fOBZgK9ZVbg8nAo","woeid":"872478","geo_is_family":0,"geo_is_friend":0,"geo_is_contact":0,"geo_is_public":1,"media":"photo","media_status":"ready"},{"id":"2349695353","owner":"24822386@N02","secret":"d0e4aa8797","server":"2033","farm":3,"title":"Paseando bajo la lluvia. \/ Walking in the rain.","ispublic":1,"isfriend":0,"isfamily":0,"safe":1,"ownername":"berpala","latitude":42.598476,"longitude":-5.570926,"accuracy":"14","context":0,"place_id":"kfFzcjVWVL98rn4","woeid":"765099","geo_is_family":0,"geo_is_friend":0,"geo_is_contact":0,"geo_is_public":1,"media":"photo","media_status":"ready"},{"id":"2349683357","owner":"24822386@N02","secret":"4079fe4135","server":"2124","farm":3,"title":"...y se fundi\u00f3 el brazo de la farola.","ispublic":1,"isfriend":0,"isfamily":0,"safe":1,"ownername":"berpala","latitude":42.599487,"longitude":-5.566527,"accuracy":"15","context":0,"place_id":"kfFzcjVWVL98rn4","woeid":"765099","geo_is_family":0,"geo_is_friend":0,"geo_is_contact":0,"geo_is_public":1,"media":"photo","media_status":"ready"},{"id":"2237485528","owner":"88482099@N00","secret":"fde09a62f5","server":"2310","farm":3,"title":"Stairing at Paris","ispublic":1,"isfriend":0,"isfamily":0,"safe":0,"ownername":"jmvnoos in Paris","latitude":48.88855,"longitude":2.248796,"accuracy":"15","context":0,"place_id":"f9PqH1NQULwd6DTTzg","woeid":"12646194","geo_is_family":0,"geo_is_friend":0,"geo_is_contact":0,"geo_is_public":1,"media":"photo","media_status":"ready"},{"id":"2195416709","owner":"68898571@N00","secret":"a909cf86a4","server":"2307","farm":3,"title":"Football talent - Aden, Yemen","ispublic":1,"isfriend":0,"isfamily":0,"safe":0,"ownername":"Maciej Dakowicz","latitude":12.798912,"longitude":45.035018,"accuracy":"12","context":0,"place_id":"v9Wr._NQW7.OYY7x","woeid":"1958930","geo_is_family":0,"geo_is_friend":0,"geo_is_contact":0,"geo_is_public":1,"media":"photo","media_status":"ready"},{"id":"2078092841","owner":"46442093@N00","secret":"2a839993d2","server":"2289","farm":3,"title":"[a minha gente]","ispublic":1,"isfriend":0,"isfamily":0,"safe":0,"ownername":"lia costa carvalho\u00a9","latitude":38.719104,"longitude":-9.155621,"accuracy":"15","context":0,"place_id":"D08qJBRWVrjs0Ek","woeid":"742676","geo_is_family":0,"geo_is_friend":0,"geo_is_contact":0,"geo_is_public":1,"media":"photo","media_status":"ready"},{"id":"1439861542","owner":"11925274@N02","secret":"c2b5e349ae","server":"1356","farm":2,"title":"STACY 711.6","ispublic":1,"isfriend":0,"isfamily":0,"safe":0,"ownername":"liontas-Andreas Droussiotis","latitude":48.562408,"longitude":39.333972,"accuracy":"12","context":0,"place_id":"sO8h4W9YUL9hqk0","woeid":"925669","geo_is_family":0,"geo_is_friend":0,"geo_is_contact":0,"geo_is_public":1,"media":"photo","media_status":"ready"},{"id":"1391339486","owner":"11925274@N02","secret":"ad68b9fee1","server":"1001","farm":2,"title":"VALENTINA 286.1","ispublic":1,"isfriend":0,"isfamily":0,"safe":0,"ownername":"liontas-Andreas Droussiotis","latitude":34.767078,"longitude":32.410662,"accuracy":"15","context":0,"place_id":"w0I5krtZVrv2Kes","woeid":"841589","geo_is_family":0,"geo_is_friend":0,"geo_is_contact":0,"geo_is_public":1,"media":"photo","media_status":"ready"},{"id":"503335325","owner":"97235695@N00","secret":"422daa29d5","server":"206","farm":1,"title":"Roma. Ponte Cestio","ispublic":1,"isfriend":0,"isfamily":0,"safe":1,"ownername":"Scatti di memoria","latitude":41.888349,"longitude":12.47652,"accuracy":"16","context":0,"place_id":"sDkhUEZWULtnVhc","woeid":"721707","geo_is_family":0,"geo_is_friend":0,"geo_is_contact":0,"geo_is_public":1,"media":"photo","media_status":"ready"},{"id":"428401602","owner":"32323502@N00","secret":"d2a85e41a5","server":"163","farm":1,"title":"Hospital corridor, in gray","ispublic":1,"isfriend":0,"isfamily":0,"safe":0,"ownername":"Julie70","latitude":48.941783,"longitude":2.245759,"accuracy":"12","context":0,"place_id":"4fp_RT1UVbwvdh8","woeid":"576553","geo_is_family":0,"geo_is_friend":0,"geo_is_contact":0,"geo_is_public":1,"media":"photo","media_status":"ready"},{"id":"398756084","owner":"35699605@N00","secret":"dcdebe801a","server":"143","farm":1,"title":"Tarsila do Amaral homenageada no Carnaval Rio de Janeiro Carnival Abaporu Mangueira 2007 Carioca Brazil Brasil samba Esta\u00e7\u00e3o Primeira de Mangueira","ispublic":1,"isfriend":0,"isfamily":0,"safe":1,"ownername":"seLusaVa","latitude":-22.911993,"longitude":-43.196568,"accuracy":"14","context":0,"place_id":"mAqmHW5VV78OT5o","woeid":"455825","geo_is_family":0,"geo_is_friend":0,"geo_is_contact":0,"geo_is_public":1,"media":"photo","media_status":"ready"},{"id":"161419311","owner":"32323502@N00","secret":"ac8eca3725","server":"55","farm":1,"title":"A cup of caf\u00e9","ispublic":1,"isfriend":0,"isfamily":0,"safe":0,"ownername":"Julie70","latitude":48.875088,"longitude":2.32334,"accuracy":"15","context":0,"place_id":"FVYSsqFUV7K1ZXYGXQ","woeid":"55843781","geo_is_family":0,"geo_is_friend":0,"geo_is_contact":0,"geo_is_public":1,"media":"photo","media_status":"ready"},{"id":"42360724","owner":"32323502@N00","secret":"516b11a131","server":"33","farm":1,"title":"Place Mairie 18e Paris- caf\u00e9 Nord Sud","ispublic":1,"isfriend":0,"isfamily":0,"safe":0,"ownername":"Julie70","latitude":48.892514,"longitude":2.344064,"accuracy":"13","context":0,"place_id":"GPOE4U9UV7IAn_3yAA","woeid":"55843848","geo_is_family":0,"geo_is_friend":0,"geo_is_contact":0,"geo_is_public":1,"media":"photo","media_status":"ready"},{"id":"14043721649","owner":"21692577@N02","secret":"6dd9dd0170","server":"2936","farm":3,"title":"Sunrise at Cap d'Espoir. Gasp\u00e9sie, Qu\u00e9bec. #55","ispublic":1,"isfriend":0,"isfamily":0,"safe":0,"ownername":"Danny VB","latitude":48.423277,"longitude":-64.318771,"accuracy":"11","context":0,"place_id":"SJniIHpTUblouyLngw","woeid":"23396384","geo_is_family":0,"geo_is_friend":0,"geo_is_contact":0,"geo_is_public":1,"media":"photo","media_status":"ready"},{"id":"14227297194","owner":"38134034@N04","secret":"ac750c2ebc","server":"5543","farm":6,"title":"Reduced Motion","ispublic":1,"isfriend":0,"isfamily":0,"safe":0,"ownername":"blavandmaster","latitude":55.535344,"longitude":8.159075,"accuracy":"16","context":0,"place_id":"wpVefC9UV79QKHE","woeid":"555565","geo_is_family":0,"geo_is_friend":0,"geo_is_contact":0,"geo_is_public":1,"media":"photo","media_status":"ready"},{"id":"14220332411","owner":"57761648@N02","secret":"bf0a8a6a3c","server":"2920","farm":3,"title":"bridge add-on ...","ispublic":1,"isfriend":0,"isfamily":0,"safe":0,"ownername":"David Kracht","latitude":48.85145,"longitude":2.351588,"accuracy":"16","context":0,"place_id":"l6ezWo1UV7J685f0sQ","woeid":"55843761","geo_is_family":0,"geo_is_friend":0,"geo_is_contact":0,"geo_is_public":1,"media":"photo","media_status":"ready"},{"id":"14213011571","owner":"64110713@N05","secret":"5f47fe9644","server":"5231","farm":6,"title":"The Beauty in The Hat","ispublic":1,"isfriend":0,"isfamily":0,"safe":0,"ownername":"Just Ard","latitude":51.481937,"longitude":-3.175789,"accuracy":"16","context":0,"place_id":"SJJTd3tVUb2lRw","woeid":"43724","geo_is_family":0,"geo_is_friend":0,"geo_is_contact":0,"geo_is_public":1,"media":"photo","media_status":"ready"},{"id":"14213097862","owner":"44962378@N08","secret":"8836214cc6","server":"2917","farm":3,"title":"Laguna.","ispublic":1,"isfriend":0,"isfamily":0,"safe":0,"ownername":"FilippoMarchi\uf8ff\uf8ff\uf8ff","latitude":42.440225,"longitude":11.210777,"accuracy":"16","context":0,"place_id":"E54Ej_1WU7Oz2h0","woeid":"719557","geo_is_family":0,"geo_is_friend":0,"geo_is_contact":0,"geo_is_public":1,"media":"photo","media_status":"ready"},{"id":"14212448115","owner":"100063725@N06","secret":"10edaacd51","server":"2912","farm":3,"title":"Reflejos en el puerto","ispublic":1,"isfriend":0,"isfamily":0,"safe":0,"ownername":"Antonio Chac","latitude":36.507316,"longitude":-4.874668,"accuracy":"16","context":0,"place_id":"b6ANCk5WVLwQivI","woeid":"766537","geo_is_family":0,"geo_is_friend":0,"geo_is_contact":0,"geo_is_public":1,"media":"photo","media_status":"ready"},{"id":"14181860046","owner":"100063725@N06","secret":"6323403d63","server":"2922","farm":3,"title":"Haz de luz al atardecer","ispublic":1,"isfriend":0,"isfamily":0,"safe":0,"ownername":"Antonio Chac","latitude":36.507747,"longitude":-4.87765,"accuracy":"16","context":0,"place_id":"b6ANCk5WVLwQivI","woeid":"766537","geo_is_family":0,"geo_is_friend":0,"geo_is_contact":0,"geo_is_public":1,"media":"photo","media_status":"ready"},{"id":"14203692945","owner":"57761648@N02","secret":"0f5913cb11","server":"5509","farm":6,"title":"ordinary or special ...","ispublic":1,"isfriend":0,"isfamily":0,"safe":0,"ownername":"David Kracht","latitude":48.85075,"longitude":2.333941,"accuracy":"16","context":0,"place_id":"EaBJTYhUV7JqTb2zxA","woeid":"55843770","geo_is_family":0,"geo_is_friend":0,"geo_is_contact":0,"geo_is_public":1,"media":"photo","media_status":"ready"},{"id":"14012284239","owner":"54086289@N03","secret":"b06d779935","server":"7423","farm":8,"title":"Blue Wonder","ispublic":1,"isfriend":0,"isfamily":0,"safe":0,"ownername":"Ania.Photography","latitude":-37.090698,"longitude":-63.584808,"accuracy":"2","context":0,"place_id":"lvIrTvtTUb6d8j.uQQ","woeid":"23424747","geo_is_family":0,"geo_is_friend":0,"geo_is_contact":0,"geo_is_public":1,"media":"photo","media_status":"ready"},{"id":"14010674859","owner":"48988488@N04","secret":"c4b4a9c80d","server":"7344","farm":8,"title":"preziosi","ispublic":1,"isfriend":0,"isfamily":0,"safe":0,"ownername":"claudius1954","latitude":46.074525,"longitude":9.395198,"accuracy":"16","context":0,"place_id":"II0QtBNWU7Mf5uU","woeid":"719787","geo_is_family":0,"geo_is_friend":0,"geo_is_contact":0,"geo_is_public":1,"media":"photo","media_status":"ready"},{"id":"14210635613","owner":"48988488@N04","secret":"07eb7d20b7","server":"7434","farm":8,"title":"predator","ispublic":1,"isfriend":0,"isfamily":0,"safe":0,"ownername":"claudius1954","latitude":45.966961,"longitude":9.365329,"accuracy":"14","context":0,"place_id":"QDsZa5pTW7nBUpjMKg","woeid":"29336395","geo_is_family":0,"geo_is_friend":0,"geo_is_contact":0,"geo_is_public":1,"media":"photo","media_status":"ready"},{"id":"14002478340","owner":"17528760@N00","secret":"ae126d9b83","server":"2900","farm":3,"title":"Leopard resting on termite mound","ispublic":1,"isfriend":0,"isfamily":0,"safe":0,"ownername":"David Schenfeld","latitude":-18.901973,"longitude":22.763883,"accuracy":"16","context":0,"place_id":"qmPGMeFUV7NT_r3nnw","woeid":"55949048","geo_is_family":0,"geo_is_friend":0,"geo_is_contact":0,"geo_is_public":1,"media":"photo","media_status":"ready"},{"id":"14001569557","owner":"45722248@N07","secret":"6ca1807e91","server":"7450","farm":8,"title":"Dots & Boxes","ispublic":1,"isfriend":0,"isfamily":0,"safe":0,"ownername":"ffela","latitude":52.520194,"longitude":13.3771,"accuracy":"16","context":0,"place_id":"VULyzjBXVb89VXc","woeid":"675695","geo_is_family":0,"geo_is_friend":0,"geo_is_contact":0,"geo_is_public":1,"media":"photo","media_status":"ready"}]},"stat":"ok"}