{"photos":{"page":47,"pages":26696,"perpage":60,"total":"1601738","photo":[{"id":"14059971715","owner":"44161305@N02","secret":"2a6b0aac37","server":"2898","farm":3,"title":"Venice, Italy,  March 30, 2014 337","ispublic":1,"isfriend":0,"isfamily":0,"safe":0,"ownername":"tango-","latitude":45.436384,"longitude":12.317237,"accuracy":"12","context":0,"place_id":"1N.fFnxTUruM4fC_Dw","woeid":"20150615","geo_is_family":0,"geo_is_friend":0,"geo_is_contact":0,"geo_is_public":1,"media":"photo","media_status":"ready"},{"id":"14056269812","owner":"98220269@N07","secret":"99711bbe5c","server":"2921","farm":3,"title":"Clear and Clean","ispublic":1,"isfriend":0,"isfamily":0,"safe":0,"ownername":"Fins from Budapest","latitude":45.433537,"longitude":12.35581,"accuracy":"16","context":0,"place_id":"AvFeNkBTULwVHOYOMg","woeid":"22656587","geo_is_family":0,"geo_is_friend":0,"geo_is_contact":0,"geo_is_public":1,"media":"photo","media_status":"ready"},{"id":"14051104381","owner":"68035120@N03","secret":"f7cd42b0db","server":"7197","farm":8,"title":"warsaw (3)","ispublic":1,"isfriend":0,"isfamily":0,"safe":0,"ownername":"Ianne Boydzv","latitude":52.24546,"longitude":20.982513,"accuracy":"9","context":0,"place_id":"7VcHRkJUULmTDVQ","woeid":"523920","geo_is_family":0,"geo_is_friend":0,"geo_is_contact":0,"geo_is_public":1,"media":"photo","media_status":"ready"},{"id":"14048392742","owner":"8868875@N03","secret":"2d57d31d8c","server":"5561","farm":6,"title":"bald and angry","ispublic":1,"isfriend":0,"isfamily":0,"safe":0,"ownername":"gato-gato-gato","latitude":47.378413,"longitude":8.510425,"accuracy":"16","context":0,"place_id":"N6mvrZ5WWrsOeBo","woeid":"781693","geo_is_family":0,"geo_is_friend":0,"geo_is_contact":0,"geo_is_public":1,"media":"photo","media_status":"ready"},{"id":"14027961866","owner":"47574723@N03","secret":"d3bca5074b","server":"7386","farm":8,"title":"Going Home","ispublic":1,"isfriend":0,"isfamily":0,"safe":0,"ownername":"The Spirit of the World ( On&Off for 2 Days)","latitude":22.230806,"longitude":80.976555,"accuracy":"2","context":0,"place_id":"kZ2lUVFTUb7CK_DAfA","woeid":"23424848","geo_is_family":0,"geo_is_friend":0,"geo_is_contact":0,"geo_is_public":1,"media":"photo","media_status":"ready"},{"id":"14050991715","owner":"38922255@N08","secret":"35c83394b5","server":"5577","farm":6,"title":"Flowers, flowers, flowers","ispublic":1,"isfriend":0,"isfamily":0,"safe":0,"ownername":"Foto Pau","latitude":38.789733,"longitude":-0.32504,"accuracy":"15","context":0,"place_id":"jrQ4YGVWVbqgeRo","woeid":"770321","geo_is_family":0,"geo_is_friend":0,"geo_is_contact":0,"geo_is_public":1,"media":"photo","media_status":"ready"},{"id":"14069232143","owner":"67833313@N08","secret":"da8a7818ff","server":"5495","farm":6,"title":"everything is coming up roses...","ispublic":1,"isfriend":0,"isfamily":0,"safe":0,"ownername":"Dimitra Kirgiannaki \u266a\u00b8.\u2022*\u00b4spring-lover \u00a8\u00b4","latitude":37.929124,"longitude":23.700634,"accuracy":"11","context":0,"place_id":"0PhejEpYVL9ZXy4","woeid":"965854","geo_is_family":0,"geo_is_friend":0,"geo_is_contact":0,"geo_is_public":1,"media":"photo","media_status":"ready"},{"id":"14068723713","owner":"67833313@N08","secret":"3ef55a9e2d","server":"7202","farm":8,"title":"Cry Just A Little Bit ...","ispublic":1,"isfriend":0,"isfamily":0,"safe":0,"ownername":"Dimitra Kirgiannaki \u266a\u00b8.\u2022*\u00b4spring-lover \u00a8\u00b4","latitude":37.930749,"longitude":23.702693,"accuracy":"11","context":0,"place_id":"0PhejEpYVL9ZXy4","woeid":"965854","geo_is_family":0,"geo_is_friend":0,"geo_is_contact":0,"geo_is_public":1,"media":"photo","media_status":"ready"},{"id":"14023618356","owner":"44175404@N03","secret":"988e92b700","server":"2935","farm":3,"title":"Dawn Reflections","ispublic":1,"isfriend":0,"isfamily":0,"safe":0,"ownername":"bryangarnett1 (trying to catch-up)","latitude":51.666513,"longitude":-0.216937,"accuracy":"14","context":0,"place_id":"z_.HLr5SUL40tg","woeid":"32485","geo_is_family":0,"geo_is_friend":0,"geo_is_contact":0,"geo_is_public":1,"media":"photo","media_status":"ready"},{"id":"14058560533","owner":"87167646@N08","secret":"a55e08d909","server":"5166","farm":6,"title":"Last train to London (Electric Light Orchestra)","ispublic":1,"isfriend":0,"isfamily":0,"safe":0,"ownername":"marcelo.guerra.fotos","latitude":-23.320818,"longitude":-51.167449,"accuracy":"11","context":0,"place_id":"cXBoBV5VV78oE6c","woeid":"455832","geo_is_family":0,"geo_is_friend":0,"geo_is_contact":0,"geo_is_public":1,"media":"photo","media_status":"ready"},{"id":"14035127951","owner":"75133058@N00","secret":"5970e6f286","server":"7130","farm":8,"title":"Un sue\u00f1o blanco...","ispublic":1,"isfriend":0,"isfamily":0,"safe":0,"ownername":"Eduardo Amorim","latitude":-34.241111,"longitude":-59.473714,"accuracy":"13","context":0,"place_id":"K.q5MK9SUbg4DZE","woeid":"332504","geo_is_family":0,"geo_is_friend":0,"geo_is_contact":0,"geo_is_public":1,"media":"photo","media_status":"ready"},{"id":"14037149334","owner":"91553093@N02","secret":"d253c3dcd9","server":"7278","farm":8,"title":"balanced reflections","ispublic":1,"isfriend":0,"isfamily":0,"safe":0,"ownername":"Sebastian Waszak Photography","latitude":51.217636,"longitude":6.778028,"accuracy":"16","context":0,"place_id":"MA8Ke4hXVrwlyVI","woeid":"646099","geo_is_family":0,"geo_is_friend":0,"geo_is_contact":0,"geo_is_public":1,"media":"photo","media_status":"ready"},{"id":"14013107036","owner":"75945494@N03","secret":"4216f20270","server":"5036","farm":6,"title":"The Twin Churches","ispublic":1,"isfriend":0,"isfamily":0,"safe":0,"ownername":"Fantasia63 ON","latitude":41.910613,"longitude":12.476177,"accuracy":"15","context":0,"place_id":"uijRnjBWULsQTwc","woeid":"721943","geo_is_family":0,"geo_is_friend":0,"geo_is_contact":0,"geo_is_public":1,"media":"photo","media_status":"ready"},{"id":"14011335506","owner":"66403925@N03","secret":"3fd8b628bb","server":"5267","farm":6,"title":"Borboleta Cauda-de-andorinha, Old World Swallowtail (Papilio machaon) - em Liberdade [in Wild]","ispublic":1,"isfriend":0,"isfamily":0,"safe":0,"ownername":"ana & xavier (1.100.000 views - Obg \/ thanks)","latitude":39.648658,"longitude":-7.674636,"accuracy":"16","context":0,"place_id":"8FvAT_pWV7r88Ac","woeid":"750853","geo_is_family":0,"geo_is_friend":0,"geo_is_contact":0,"geo_is_public":1,"media":"photo","media_status":"ready"},{"id":"14027665031","owner":"58195583@N06","secret":"d4d12c9770","server":"5070","farm":6,"title":"European Bee-eater, Merops apiaster, Hwange National Park, Zimbabwe","ispublic":1,"isfriend":0,"isfamily":0,"safe":0,"ownername":"Jeremy Smith Photography","latitude":-18.737521,"longitude":26.720123,"accuracy":"9","context":0,"place_id":"jlLi9xZTUb4Dx0h8","woeid":"2347815","geo_is_family":0,"geo_is_friend":0,"geo_is_contact":0,"geo_is_public":1,"media":"photo","media_status":"ready"},{"id":"14026350191","owner":"34096574@N06","secret":"d05cf6d1e6","server":"7316","farm":8,"title":"Venice : Rio de San Polo \/ Torre Basilica dei Frari","ispublic":1,"isfriend":0,"isfamily":0,"safe":0,"ownername":"Pantchoa","latitude":45.438669,"longitude":12.32945,"accuracy":"16","context":0,"place_id":"qyV161RTUruqVTuLuQ","woeid":"20150614","geo_is_family":0,"geo_is_friend":0,"geo_is_contact":0,"geo_is_public":1,"media":"photo","media_status":"ready"},{"id":"14003647496","owner":"75133058@N00","secret":"505eb6ef8c","server":"2899","farm":3,"title":"De overos varios...","ispublic":1,"isfriend":0,"isfamily":0,"safe":0,"ownername":"Eduardo Amorim","latitude":-34.233802,"longitude":-59.499206,"accuracy":"11","context":0,"place_id":"K.q5MK9SUbg4DZE","woeid":"332504","geo_is_family":0,"geo_is_friend":0,"geo_is_contact":0,"geo_is_public":1,"media":"photo","media_status":"ready"},{"id":"14019392861","owner":"19312459@N00","secret":"3d10a3c2d3","server":"7371","farm":8,"title":"Sunset at the SallyGap (Redux!)","ispublic":1,"isfriend":0,"isfamily":0,"safe":0,"ownername":"fearghal breathnach","latitude":53.150364,"longitude":-6.311286,"accuracy":"13","context":0,"place_id":"hQqSnr5TW7l1fX.6EA","woeid":"29387469","geo_is_family":0,"geo_is_friend":0,"geo_is_contact":0,"geo_is_public":1,"media":"photo","media_status":"ready"},{"id":"14022410575","owner":"63219576@N08","secret":"8bb7fdbc3e","server":"7368","farm":8,"title":"Fennec fox - \u00d8rkenrev","ispublic":1,"isfriend":0,"isfamily":0,"safe":0,"ownername":"Gjesdal","latitude":58.182211,"longitude":8.146505,"accuracy":"16","context":0,"place_id":"hXCTtEZTVLnrN1ljKA","woeid":"26343251","geo_is_family":0,"geo_is_friend":0,"geo_is_contact":0,"geo_is_public":1,"media":"photo","media_status":"ready"},{"id":"14018429202","owner":"19685823@N00","secret":"a2bc6d710e","server":"2901","farm":3,"title":"Cafe Rathaus & the Hafenkran","ispublic":1,"isfriend":0,"isfamily":0,"safe":0,"ownername":"Toni_V","latitude":47.372467,"longitude":8.542567,"accuracy":"16","context":0,"place_id":"Fwr4QC5WWrh4E64","woeid":"782466","geo_is_family":0,"geo_is_friend":0,"geo_is_contact":0,"geo_is_public":1,"media":"photo","media_status":"ready"},{"id":"13997624676","owner":"72647602@N04","secret":"5255ee8d7f","server":"2902","farm":3,"title":"CON LE SPALLE AL MURO  .","ispublic":1,"isfriend":0,"isfamily":0,"safe":0,"ownername":"Skiappa staminale","latitude":45.67139,"longitude":11.92844,"accuracy":"16","context":0,"place_id":"cMkpDHpWU7mRoxg","woeid":"713307","geo_is_family":0,"geo_is_friend":0,"geo_is_contact":0,"geo_is_public":1,"media":"photo","media_status":"ready"},{"id":"14016894161","owner":"66403925@N03","secret":"be85a88a04","server":"5074","farm":6,"title":"\"Borboleta\", Small Heath (Coenonympha pamphilus) - em Liberdade [in Wild]","ispublic":1,"isfriend":0,"isfamily":0,"safe":0,"ownername":"ana & xavier (1.100.000 views - Obg \/ thanks)","latitude":40.312257,"longitude":-7.088928,"accuracy":"11","context":0,"place_id":"CnvfCClWVrk6.NU","woeid":"743402","geo_is_family":0,"geo_is_friend":0,"geo_is_contact":0,"geo_is_public":1,"media":"photo","media_status":"ready"},{"id":"14015643312","owner":"50115085@N08","secret":"a1f32a5d9a","server":"2924","farm":3,"title":"Soft..","ispublic":1,"isfriend":0,"isfamily":0,"safe":0,"ownername":"Varvara_R","latitude":55.842348,"longitude":37.588564,"accuracy":"16","context":0,"place_id":"h43KIPJTU7oFhJ2T","woeid":"2107156","geo_is_family":0,"geo_is_friend":0,"geo_is_contact":0,"geo_is_public":1,"media":"photo","media_status":"ready"},{"id":"14037272273","owner":"68035120@N03","secret":"81e6332383","server":"5236","farm":6,"title":"warsaw (2)","ispublic":1,"isfriend":0,"isfamily":0,"safe":0,"ownername":"Ianne Boydzv","latitude":52.253027,"longitude":21.001052,"accuracy":"10","context":0,"place_id":"7VcHRkJUULmTDVQ","woeid":"523920","geo_is_family":0,"geo_is_friend":0,"geo_is_contact":0,"geo_is_public":1,"media":"photo","media_status":"ready"},{"id":"14007556731","owner":"75810420@N06","secret":"ba3c956d16","server":"7441","farm":8,"title":"Colors...Colores...","ispublic":1,"isfriend":0,"isfamily":0,"safe":0,"ownername":"Esteve Roca","latitude":39.796798,"longitude":2.699375,"accuracy":"13","context":0,"place_id":"8UwR.IBTUrifEZdhuw","woeid":"20225357","geo_is_family":0,"geo_is_friend":0,"geo_is_contact":0,"geo_is_public":1,"media":"photo","media_status":"ready"},{"id":"14009492364","owner":"44161305@N02","secret":"d03d34fcae","server":"7038","farm":8,"title":"Sciacca, Sicily","ispublic":1,"isfriend":0,"isfamily":0,"safe":0,"ownername":"tango-","latitude":37.508057,"longitude":13.077421,"accuracy":"14","context":0,"place_id":"RXkhnPhWULlZY5k","woeid":"723897","geo_is_family":0,"geo_is_friend":0,"geo_is_contact":0,"geo_is_public":1,"media":"photo","media_status":"ready"},{"id":"14028079653","owner":"75462591@N02","secret":"249d9c6f63","server":"7148","farm":8,"title":"Runner","ispublic":1,"isfriend":0,"isfamily":0,"safe":0,"ownername":"Michel Couprie","latitude":44.980342,"longitude":6.4894,"accuracy":"14","context":0,"place_id":"gtdiRxhXUrldGRI","woeid":"603681","geo_is_family":0,"geo_is_friend":0,"geo_is_contact":0,"geo_is_public":1,"media":"photo","media_status":"ready"},{"id":"14004253831","owner":"22855351@N07","secret":"c6630bc851","server":"2912","farm":3,"title":"A picture of Monsall Head (Explored!)","ispublic":1,"isfriend":0,"isfamily":0,"safe":0,"ownername":"Genuine dabber","latitude":53.240466,"longitude":-1.724603,"accuracy":"16","context":0,"place_id":"ZM7gcXRTW7gZGg","woeid":"29245","geo_is_family":0,"geo_is_friend":0,"geo_is_contact":0,"geo_is_public":1,"media":"photo","media_status":"ready"},{"id":"14025338743","owner":"47044499@N03","secret":"c89173ac8e","server":"2938","farm":3,"title":"Tide's out!","ispublic":1,"isfriend":0,"isfamily":0,"safe":0,"ownername":"XPAT-Polska","latitude":48.647654,"longitude":-2.025032,"accuracy":"10","context":0,"place_id":"etJASYhXUL.sLu8","woeid":"625391","geo_is_family":0,"geo_is_friend":0,"geo_is_contact":0,"geo_is_public":1,"media":"photo","media_status":"ready"},{"id":"13977749386","owner":"53508728@N07","secret":"850af1f25f","server":"7115","farm":8,"title":"Silver glass","ispublic":1,"isfriend":0,"isfamily":0,"safe":0,"ownername":"Mandlenkhosi","latitude":55.880857,"longitude":-4.615806,"accuracy":"14","context":0,"place_id":"fDrp.TxTVrMXeg","woeid":"24991","geo_is_family":0,"geo_is_friend":0,"geo_is_contact":0,"geo_is_public":1,"media":"photo","media_status":"ready"},{"id":"14000034155","owner":"24710541@N08","secret":"1e15fc8609","server":"7399","farm":8,"title":"'Sunlit Stacks' - South Stack, Anglesey","ispublic":1,"isfriend":0,"isfamily":0,"safe":0,"ownername":"Kristofer Williams","latitude":53.304558,"longitude":-4.693448,"accuracy":"16","context":0,"place_id":"DYrQ4DFSV7kSuw","woeid":"35320","geo_is_family":0,"geo_is_friend":0,"geo_is_contact":0,"geo_is_public":1,"media":"photo","media_status":"ready"},{"id":"13975871656","owner":"66403925@N03","secret":"1c105e183a","server":"5527","farm":6,"title":"Borboleta-zebra, Southern Swallowtail(Iphiclides feisthamelii) - em Liberdade [in Wild]","ispublic":1,"isfriend":0,"isfamily":0,"safe":0,"ownername":"ana & xavier (1.100.000 views - Obg \/ thanks)","latitude":40.331268,"longitude":-7.21113,"accuracy":"11","context":0,"place_id":"5H6jYDtWVrMoqYM","woeid":"749021","geo_is_family":0,"geo_is_friend":0,"geo_is_contact":0,"geo_is_public":1,"media":"photo","media_status":"ready"},{"id":"13998956045","owner":"14279081@N08","secret":"5da9de5805","server":"7447","farm":8,"title":"cloudscape","ispublic":1,"isfriend":0,"isfamily":0,"safe":0,"ownername":"\u039eSS\u039e\u00ae\u00ae\u039e","latitude":41.949508,"longitude":12.846922,"accuracy":"16","context":0,"place_id":"4wIrb3xTUrso1yq7YQ","woeid":"20109990","geo_is_family":0,"geo_is_friend":0,"geo_is_contact":0,"geo_is_public":1,"media":"photo","media_status":"ready"},{"id":"13975248896","owner":"94404120@N08","secret":"eeb6031612","server":"2895","farm":3,"title":"Puente del Tercer Milenio Panorama","ispublic":1,"isfriend":0,"isfamily":0,"safe":0,"ownername":"mixtli1965","latitude":41.666937,"longitude":-0.909043,"accuracy":"16","context":0,"place_id":"c54w6SpTUrh_BBB_kQ","woeid":"20219692","geo_is_family":0,"geo_is_friend":0,"geo_is_contact":0,"geo_is_public":1,"media":"photo","media_status":"ready"},{"id":"13994685562","owner":"29250863@N02","secret":"f09a5d52d6","server":"2940","farm":3,"title":"Nouvelle g\u00e9n\u00e9ration - on Explore #257-2014-04-24","ispublic":1,"isfriend":0,"isfamily":0,"safe":0,"ownername":"Jogabi-Mich\u00e8le","latitude":46.506943,"longitude":6.631922,"accuracy":"16","context":0,"place_id":"yARzqf5WWrnF_f8","woeid":"783756","geo_is_family":0,"geo_is_friend":0,"geo_is_contact":0,"geo_is_public":1,"media":"photo","media_status":"ready"},{"id":"13996769484","owner":"71193951@N07","secret":"e4e0a54a04","server":"7412","farm":8,"title":"Sunset Cruise","ispublic":1,"isfriend":0,"isfamily":0,"safe":0,"ownername":"galvanol (offline)","latitude":16.346002,"longitude":-61.777238,"accuracy":"14","context":0,"place_id":"gJNbtuhTVr88cBPshw","woeid":"24549706","geo_is_family":0,"geo_is_friend":0,"geo_is_contact":0,"geo_is_public":1,"media":"photo","media_status":"ready"},{"id":"14016154053","owner":"48988488@N04","secret":"feda75a1b4","server":"5070","farm":6,"title":"taleggio fresco","ispublic":1,"isfriend":0,"isfamily":0,"safe":0,"ownername":"claudius1954","latitude":45.926886,"longitude":9.567761,"accuracy":"15","context":0,"place_id":"sFLr.z9TUrtsz0UoSg","woeid":"20136932","geo_is_family":0,"geo_is_friend":0,"geo_is_contact":0,"geo_is_public":1,"media":"photo","media_status":"ready"},{"id":"14013943063","owner":"44161305@N02","secret":"83ec2e9480","server":"7374","farm":8,"title":"(Explored) Tsavo East National park,  Kenya","ispublic":1,"isfriend":0,"isfamily":0,"safe":0,"ownername":"tango-","latitude":-2.992413,"longitude":38.268127,"accuracy":"8","context":0,"place_id":"9YampqlTUb4Vw2d6","woeid":"2345938","geo_is_family":0,"geo_is_friend":0,"geo_is_contact":0,"geo_is_public":1,"media":"photo","media_status":"ready"},{"id":"13989369901","owner":"17306541@N06","secret":"cb2fe36f62","server":"2930","farm":3,"title":"Stately [Explored]","ispublic":1,"isfriend":0,"isfamily":0,"safe":0,"ownername":"jellyfire","latitude":52.220964,"longitude":0.657119,"accuracy":"14","context":0,"place_id":"3COlWFBTVrj9FQ","woeid":"24294","geo_is_family":0,"geo_is_friend":0,"geo_is_contact":0,"geo_is_public":1,"media":"photo","media_status":"ready"},{"id":"14008078113","owner":"19312459@N00","secret":"0b4cfb5443","server":"5075","farm":6,"title":"Beneath the boughs","ispublic":1,"isfriend":0,"isfamily":0,"safe":0,"ownername":"fearghal breathnach","latitude":53.064113,"longitude":-6.207561,"accuracy":"16","context":0,"place_id":"lWuD50dTUrqwVN2ULQ","woeid":"20074552","geo_is_family":0,"geo_is_friend":0,"geo_is_contact":0,"geo_is_public":1,"media":"photo","media_status":"ready"},{"id":"13988243984","owner":"26261314@N06","secret":"3f61d535eb","server":"7223","farm":8,"title":"TL-x-3-Laura-2434","ispublic":1,"isfriend":0,"isfamily":0,"safe":0,"ownername":"RAFATZ","latitude":41.218371,"longitude":1.005077,"accuracy":"13","context":0,"place_id":"arQxM9ZWV7gpeDg","woeid":"752049","geo_is_family":0,"geo_is_friend":0,"geo_is_contact":0,"geo_is_public":1,"media":"photo","media_status":"ready"},{"id":"13984069442","owner":"51103751@N00","secret":"88e0fde903","server":"7141","farm":8,"title":"2014-04-23, 08-58-40","ispublic":1,"isfriend":0,"isfamily":0,"safe":0,"ownername":"tributory","latitude":51.546841,"longitude":-0.043112,"accuracy":"16","context":0,"place_id":"k4CBKttTUrqH4Fk84A","woeid":"20089379","geo_is_family":0,"geo_is_friend":0,"geo_is_contact":0,"geo_is_public":1,"media":"photo","media_status":"ready"},{"id":"13982390081","owner":"87402959@N02","secret":"6d67540896","server":"2930","farm":3,"title":"Triangle Show","ispublic":1,"isfriend":0,"isfamily":0,"safe":0,"ownername":"Blende1.8","latitude":38.725669,"longitude":-9.150369,"accuracy":"11","context":0,"place_id":"D08qJBRWVrjs0Ek","woeid":"742676","geo_is_family":0,"geo_is_friend":0,"geo_is_contact":0,"geo_is_public":1,"media":"photo","media_status":"ready"},{"id":"13979612192","owner":"66799829@N05","secret":"80c5c0d7ab","server":"7021","farm":8,"title":"A Pixie's Eye View","ispublic":1,"isfriend":0,"isfamily":0,"safe":0,"ownername":"Robots are Stupid","latitude":50.98599,"longitude":-0.77224,"accuracy":"15","context":0,"place_id":"t4eHRxZTWrOoew","woeid":"28931","geo_is_family":0,"geo_is_friend":0,"geo_is_contact":0,"geo_is_public":1,"media":"photo","media_status":"ready"},{"id":"13978706611","owner":"47044499@N03","secret":"fc8c987816","server":"5315","farm":6,"title":"Time to retreat","ispublic":1,"isfriend":0,"isfamily":0,"safe":0,"ownername":"XPAT-Polska","latitude":48.647654,"longitude":-2.025032,"accuracy":"10","context":0,"place_id":"etJASYhXUL.sLu8","woeid":"625391","geo_is_family":0,"geo_is_friend":0,"geo_is_contact":0,"geo_is_public":1,"media":"photo","media_status":"ready"},{"id":"13956750516","owner":"76805638@N07","secret":"f09fa7664d","server":"2896","farm":3,"title":"icy night","ispublic":1,"isfriend":0,"isfamily":0,"safe":0,"ownername":"Sergey S Ponomarev","latitude":58.610747,"longitude":49.693222,"accuracy":"14","context":0,"place_id":"PZgtlqNTU7hbSaR3","woeid":"2121384","geo_is_family":0,"geo_is_friend":0,"geo_is_contact":0,"geo_is_public":1,"media":"photo","media_status":"ready"},{"id":"13979247344","owner":"44161305@N02","secret":"0a6db71ac5","server":"7218","farm":8,"title":"Venice, Italy, March 30, 2014 109","ispublic":1,"isfriend":0,"isfamily":0,"safe":0,"ownername":"tango-","latitude":45.442023,"longitude":12.3291,"accuracy":"11","context":0,"place_id":"1kXEps9WUL8o6ro","woeid":"725746","geo_is_family":0,"geo_is_friend":0,"geo_is_contact":0,"geo_is_public":1,"media":"photo","media_status":"ready"},{"id":"13994636023","owner":"66403925@N03","secret":"49e3c1a99f","server":"2918","farm":3,"title":"Borboleta-carnaval, Spanish Festoon(Zerynthia rumina) - em Liberdade [in Wild]","ispublic":1,"isfriend":0,"isfamily":0,"safe":0,"ownername":"ana & xavier (1.100.000 views - Obg \/ thanks)","latitude":40.321681,"longitude":-6.996231,"accuracy":"11","context":0,"place_id":"hrGr.U9WVrzDFTg","woeid":"746531","geo_is_family":0,"geo_is_friend":0,"geo_is_contact":0,"geo_is_public":1,"media":"photo","media_status":"ready"},{"id":"13950875826","owner":"50115085@N08","secret":"c2ed756c3b","server":"7174","farm":8,"title":"Also Patriarshy pond, later time","ispublic":1,"isfriend":0,"isfamily":0,"safe":0,"ownername":"Varvara_R","latitude":55.763679,"longitude":37.593028,"accuracy":"15","context":0,"place_id":"Gyn7fcFTU7gkY7d5","woeid":"2122265","geo_is_family":0,"geo_is_friend":0,"geo_is_contact":0,"geo_is_public":1,"media":"photo","media_status":"ready"},{"id":"13973510204","owner":"47044499@N03","secret":"b2529b0892","server":"7307","farm":8,"title":"Moody Moments","ispublic":1,"isfriend":0,"isfamily":0,"safe":0,"ownername":"XPAT-Polska","latitude":48.647654,"longitude":-2.025032,"accuracy":"10","context":0,"place_id":"etJASYhXUL.sLu8","woeid":"625391","geo_is_family":0,"geo_is_friend":0,"geo_is_contact":0,"geo_is_public":1,"media":"photo","media_status":"ready"},{"id":"13968594052","owner":"31612046@N04","secret":"77664d7302","server":"5334","farm":6,"title":"Luzern - M\u00fchlenplatz","ispublic":1,"isfriend":0,"isfamily":0,"safe":0,"ownername":"Alessia Cross","latitude":47.052018,"longitude":8.302971,"accuracy":"16","context":0,"place_id":"b8MITN1TUrttsP2_eQ","woeid":"20102030","geo_is_family":0,"geo_is_friend":0,"geo_is_contact":0,"geo_is_public":1,"media":"photo","media_status":"ready"},{"id":"13991369053","owner":"80046198@N00","secret":"d91b6e1399","server":"7384","farm":8,"title":"The way you walk away..","ispublic":1,"isfriend":0,"isfamily":0,"safe":0,"ownername":"areyarey","latitude":44.407251,"longitude":8.934116,"accuracy":"15","context":0,"place_id":"U9uHhb9TUruHgV.MKA","woeid":"20150290","geo_is_family":0,"geo_is_friend":0,"geo_is_contact":0,"geo_is_public":1,"media":"photo","media_status":"ready"},{"id":"13990086363","owner":"17306541@N06","secret":"b048ff8ea2","server":"7213","farm":8,"title":"In Deep [Explored]","ispublic":1,"isfriend":0,"isfamily":0,"safe":0,"ownername":"jellyfire","latitude":52.561638,"longitude":0.840711,"accuracy":"14","context":0,"place_id":"UMA.v6BSW7nuqA","woeid":"39338","geo_is_family":0,"geo_is_friend":0,"geo_is_contact":0,"geo_is_public":1,"media":"photo","media_status":"ready"},{"id":"13945891096","owner":"34096574@N06","secret":"21d81f80ef","server":"7425","farm":8,"title":"Venice : Rio Sant'Alvise  - 2\/2","ispublic":1,"isfriend":0,"isfamily":0,"safe":0,"ownername":"Pantchoa","latitude":45.446952,"longitude":12.329202,"accuracy":"16","context":0,"place_id":"EzRUzuJTUrtWx_W.dw","woeid":"20150612","geo_is_family":0,"geo_is_friend":0,"geo_is_contact":0,"geo_is_public":1,"media":"photo","media_status":"ready"},{"id":"13965792332","owner":"48447300@N02","secret":"2548d93bd2","server":"2908","farm":3,"title":"Caithlin exploring the garden","ispublic":1,"isfriend":0,"isfamily":0,"safe":0,"ownername":"Finn Frode (DK)","latitude":55.653258,"longitude":12.26984,"accuracy":"15","context":0,"place_id":"A_kOnhxUV731Hzs","woeid":"557938","geo_is_family":0,"geo_is_friend":0,"geo_is_contact":0,"geo_is_public":1,"media":"photo","media_status":"ready"},{"id":"13964618002","owner":"90451570@N07","secret":"5999550951","server":"7108","farm":8,"title":"Piazza dei Miracoli at night.","ispublic":1,"isfriend":0,"isfamily":0,"safe":0,"ownername":"CarolynEaton","latitude":43.722831,"longitude":10.3943,"accuracy":"16","context":0,"place_id":"x8RcoNFWULpV8AY","woeid":"720627","geo_is_family":0,"geo_is_friend":0,"geo_is_contact":0,"geo_is_public":1,"media":"photo","media_status":"ready"},{"id":"13943213826","owner":"16854222@N05","secret":"7f8352024c","server":"5278","farm":6,"title":"Robert's Return","ispublic":1,"isfriend":0,"isfamily":0,"safe":0,"ownername":"AnyMotion","latitude":50.123271,"longitude":8.6804,"accuracy":"16","context":0,"place_id":"Z0FRRfRXV7oIeew","woeid":"650272","geo_is_family":0,"geo_is_friend":0,"geo_is_contact":0,"geo_is_public":1,"media":"photo","media_status":"ready"},{"id":"13957315641","owner":"80516886@N00","secret":"8462bd9985","server":"5047","farm":6,"title":"Dia da Terra - Earth Day - Praia de Itacoatiara - Niteroi - Rio de Janeiro","ispublic":1,"isfriend":0,"isfamily":0,"safe":0,"ownername":".**rickipanema**.","latitude":-22.973873,"longitude":-43.043417,"accuracy":"16","context":0,"place_id":"v17jQPJVUb_P9Ks","woeid":"435903","geo_is_family":0,"geo_is_friend":0,"geo_is_contact":0,"geo_is_public":1,"media":"photo","media_status":"ready"},{"id":"13933846946","owner":"22511069@N03","secret":"f2aaeb528b","server":"7171","farm":8,"title":"Astanti..... quasi","ispublic":1,"isfriend":0,"isfamily":0,"safe":0,"ownername":"albi_tai","latitude":46.517399,"longitude":11.358822,"accuracy":"16","context":0,"place_id":"S1bfsElWU7sVQX4","woeid":"711089","geo_is_family":0,"geo_is_friend":0,"geo_is_contact":0,"geo_is_public":1,"media":"photo","media_status":"ready"},{"id":"13826074163","owner":"67084790@N03","secret":"9bee4bef78","server":"3722","farm":4,"title":"***","ispublic":1,"isfriend":0,"isfamily":0,"safe":0,"ownername":"DmitryRyzhkov","latitude":55.749605,"longitude":37.591947,"accuracy":"16","context":0,"place_id":"Gyn7fcFTU7gkY7d5","woeid":"2122265","geo_is_family":0,"geo_is_friend":0,"geo_is_contact":0,"geo_is_public":1,"media":"photo","media_status":"ready"}]},"stat":"ok"}