{"photos":{"page":7, "pages":24254, "perpage":60, "total":"1455192", "photo":[{"id":"13085253013", "owner":"21692577@N02", "secret":"57ae6ab1ae", "server":"3765", "farm":4, "title":"Sunrise on the ocean. Gasp\u00e9sie, Canada.", "ispublic":1, "isfriend":0, "isfamily":0, "safe":1, "ownername":"Danny VB", "latitude":48.407781, "longitude":-64.421424, "accuracy":"11", "context":0, "place_id":"sSFrnxZTUbkmonSnOA", "woeid":"23394550", "geo_is_family":0, "geo_is_friend":0, "geo_is_contact":0, "geo_is_public":1, "media":"photo", "media_status":"ready"}, {"id":"13085118493", "owner":"22543235@N05", "secret":"5327a379b6", "server":"2637", "farm":3, "title":"The Gortin Field", "ispublic":1, "isfriend":0, "isfamily":0, "safe":1, "ownername":"Gareth Wray Photography (Thanks = 1 Million Hits)", "latitude":54.686583, "longitude":-7.25235, "accuracy":"15", "context":0, "place_id":"WrJRxL5VVrKwvA", "woeid":"44846", "geo_is_family":0, "geo_is_friend":0, "geo_is_contact":0, "geo_is_public":1, "media":"photo", "media_status":"ready"}, {"id":"13084935013", "owner":"55014745@N06", "secret":"51151d2ee2", "server":"3766", "farm":4, "title":"Puente de madera sobre el mar", "ispublic":1, "isfriend":0, "isfamily":0, "safe":0, "ownername":"Joan Pujol", "latitude":39.791127, "longitude":3.124923, "accuracy":"11", "context":0, "place_id":"4RA_ZE1TW7kc8cA9ug", "woeid":"29370374", "geo_is_family":0, "geo_is_friend":0, "geo_is_contact":0, "geo_is_public":1, "media":"photo", "media_status":"ready"}, {"id":"13083552693", "owner":"76238381@N08", "secret":"28e15a91b4", "server":"3052", "farm":4, "title":"Carefree joy", "ispublic":1, "isfriend":0, "isfamily":0, "safe":1, "ownername":"Sandra's Weeds", "latitude":40.468367, "longitude":-73.996353, "accuracy":"11", "context":0, "place_id":"lQw6S7RTVrj1n7.s", "woeid":"2421624", "geo_is_family":0, "geo_is_friend":0, "geo_is_contact":0, "geo_is_public":1, "media":"photo", "media_status":"ready"}, {"id":"13081608674", "owner":"55299332@N05", "secret":"5b933c37d4", "server":"7434", "farm":8, "title":"Les petits talib\u00e9s (version noir & blanc) - The little talibes  \u2022 On Explore \u2022", "ispublic":1, "isfriend":0, "isfamily":0, "safe":0, "ownername":"DeGust", "latitude":13.484028, "longitude":2.107851, "accuracy":"16", "context":0, "place_id":"QZmR4K1QUb3h2c.8", "woeid":"1379711", "geo_is_family":0, "geo_is_friend":0, "geo_is_contact":0, "geo_is_public":1, "media":"photo", "media_status":"ready"}, {"id":"13081198204", "owner":"64892508@N06", "secret":"cbd8e95b35", "server":"3426", "farm":4, "title":"Koltrast \/ Common Blackbird (Turdus merula) hane", "ispublic":1, "isfriend":0, "isfamily":0, "safe":1, "ownername":"Martin1446", "latitude":57.688483, "longitude":11.940314, "accuracy":"16", "context":0, "place_id":"0EdW0yJTUrsL5GnFWw", "woeid":"20151653", "geo_is_family":0, "geo_is_friend":0, "geo_is_contact":0, "geo_is_public":1, "media":"photo", "media_status":"ready"}, {"id":"13081003613", "owner":"30595068@N06", "secret":"3cba6050e8", "server":"7437", "farm":8, "title":"Pettah Market Madness", "ispublic":1, "isfriend":0, "isfamily":0, "safe":1, "ownername":"Photosightfaces", "latitude":6.93344, "longitude":79.844329, "accuracy":"13", "context":0, "place_id":"orr0jwlTU7L4KMap", "woeid":"2185432", "geo_is_family":0, "geo_is_friend":0, "geo_is_contact":0, "geo_is_public":1, "media":"photo", "media_status":"ready"}, {"id":"13081088264", "owner":"48872775@N05", "secret":"7069143f69", "server":"7432", "farm":8, "title":"Bounce - Explore 11.03.14", "ispublic":1, "isfriend":0, "isfamily":0, "safe":1, "ownername":"Peaf79", "latitude":50.857208, "longitude":-3.39414, "accuracy":"11", "context":0, "place_id":"G8v0VXFQVbwYSA", "woeid":"17625", "geo_is_family":0, "geo_is_friend":0, "geo_is_contact":0, "geo_is_public":1, "media":"photo", "media_status":"ready"}, {"id":"13080710383", "owner":"27420180@N08", "secret":"c13c4cf6f1", "server":"7424", "farm":8, "title":"Lambo", "ispublic":1, "isfriend":0, "isfamily":0, "safe":0, "ownername":"A.G. Photographe", "latitude":48.868667, "longitude":2.300831, "accuracy":"16", "context":0, "place_id":"WU8qo85UV7J7dLZuCw", "woeid":"55843784", "geo_is_family":0, "geo_is_friend":0, "geo_is_contact":0, "geo_is_public":1, "media":"photo", "media_status":"ready"}, {"id":"13079729614", "owner":"12039065@N00", "secret":"8cffc18e7e", "server":"3025", "farm":4, "title":"Araucarias en Meseta Alul", "ispublic":1, "isfriend":0, "isfamily":0, "safe":0, "ownername":"Mono Andes", "latitude":-37.631056, "longitude":-71.479046, "accuracy":"15", "context":0, "place_id":"F_qiuc9TVL1AibMYDg", "woeid":"26793978", "geo_is_family":0, "geo_is_friend":0, "geo_is_contact":0, "geo_is_public":1, "media":"photo", "media_status":"ready"}, {"id":"13079312725", "owner":"21488930@N04", "secret":"a09a58205e", "server":"7352", "farm":8, "title":"\u2600....il sole vince ancora - the sun still wins....1103", "ispublic":1, "isfriend":0, "isfamily":0, "safe":1, "ownername":"\u01bfier ...dried up", "latitude":44.862209, "longitude":10.0614, "accuracy":"11", "context":0, "place_id":"3C3bAv1WU7.WIf4", "woeid":"715438", "geo_is_family":0, "geo_is_friend":0, "geo_is_contact":0, "geo_is_public":1, "media":"photo", "media_status":"ready"}, {"id":"13078972405", "owner":"36449002@N08", "secret":"7772f98288", "server":"2113", "farm":3, "title":"Windy colos II", "ispublic":1, "isfriend":0, "isfamily":0, "safe":0, "ownername":"Antonio Carrillo (Ancalop)", "latitude":37.407528, "longitude":-1.582975, "accuracy":"14", "context":0, "place_id":"hHThVwBWV7sNu5I", "woeid":"751538", "geo_is_family":0, "geo_is_friend":0, "geo_is_contact":0, "geo_is_public":1, "media":"photo", "media_status":"ready"}, {"id":"13078751925", "owner":"60423624@N05", "secret":"f377a4f51d", "server":"3458", "farm":4, "title":"Carnaval de Chipiona 2", "ispublic":1, "isfriend":0, "isfamily":0, "safe":0, "ownername":"dubdream", "latitude":36.74246, "longitude":-6.433954, "accuracy":"14", "context":0, "place_id":"hykHVvZWV707Psw", "woeid":"757533", "geo_is_family":0, "geo_is_friend":0, "geo_is_contact":0, "geo_is_public":1, "media":"photo", "media_status":"ready"}, {"id":"13077356155", "owner":"11269250@N07", "secret":"7d7b647c3e", "server":"3040", "farm":4, "title":"~ on the run ~ l'\u00e9vasion ~", "ispublic":1, "isfriend":0, "isfamily":0, "safe":0, "ownername":"Janey Kay", "latitude":48.862694, "longitude":2.287633, "accuracy":"16", "context":0, "place_id":"hytGYNFUV7LeiExhTQ", "woeid":"55843834", "geo_is_family":0, "geo_is_friend":0, "geo_is_contact":0, "geo_is_public":1, "media":"photo", "media_status":"ready"}, {"id":"13069938694", "owner":"37756131@N02", "secret":"2c7dfdb83c", "server":"7413", "farm":8, "title":"Twilight Arch", "ispublic":1, "isfriend":0, "isfamily":0, "safe":0, "ownername":"Jos\u00e9 Garrido", "latitude":36.546111, "longitude":-4.614445, "accuracy":"16", "context":0, "place_id":"FcZ9E15WVbhkXnk", "woeid":"772863", "geo_is_family":0, "geo_is_friend":0, "geo_is_contact":0, "geo_is_public":1, "media":"photo", "media_status":"ready"}, {"id":"13069935734", "owner":"37756131@N02", "secret":"a6d7c3f51b", "server":"7438", "farm":8, "title":"The Green Light", "ispublic":1, "isfriend":0, "isfamily":0, "safe":1, "ownername":"Jos\u00e9 Garrido", "latitude":36.545555, "longitude":-4.614723, "accuracy":"16", "context":0, "place_id":"FcZ9E15WVbhkXnk", "woeid":"772863", "geo_is_family":0, "geo_is_friend":0, "geo_is_contact":0, "geo_is_public":1, "media":"photo", "media_status":"ready"}, {"id":"13068744365", "owner":"81035653@N00", "secret":"a1c1f68d77", "server":"3552", "farm":4, "title":"From the Tuxerjochhaus we hike through a lovely alpine meadow", "ispublic":1, "isfriend":0, "isfamily":0, "safe":1, "ownername":"B\u212en", "latitude":47.148151, "longitude":11.692672, "accuracy":"16", "context":0, "place_id":"t5B7qptUV7rA21I", "woeid":"550710", "geo_is_family":0, "geo_is_friend":0, "geo_is_contact":0, "geo_is_public":1, "media":"photo", "media_status":"ready"}, {"id":"13068406375", "owner":"87127402@N02", "secret":"8a0127592d", "server":"3056", "farm":4, "title":"Morning in the archipelago", "ispublic":1, "isfriend":0, "isfamily":0, "safe":1, "ownername":"Mwap38", "latitude":58.745406, "longitude":17.277374, "accuracy":"11", "context":0, "place_id":"m24xh5tUV7JfqvQBWg", "woeid":"55873342", "geo_is_family":0, "geo_is_friend":0, "geo_is_contact":0, "geo_is_public":1, "media":"photo", "media_status":"ready"}, {"id":"13067499465", "owner":"64109888@N02", "secret":"31105dfe80", "server":"7359", "farm":8, "title":"Playing in the waves.", "ispublic":1, "isfriend":0, "isfamily":0, "safe":1, "ownername":"stokeyouth1", "latitude":53.140335, "longitude":-4.382343, "accuracy":"13", "context":0, "place_id":"Bg8uyE5SUrqSWg", "woeid":"30033", "geo_is_family":0, "geo_is_friend":0, "geo_is_contact":0, "geo_is_public":1, "media":"photo", "media_status":"ready"}, {"id":"13067266635", "owner":"64110713@N05", "secret":"afa4ccde76", "server":"3046", "farm":4, "title":"Good girl, you looked up!", "ispublic":1, "isfriend":0, "isfamily":0, "safe":0, "ownername":"Just Ard", "latitude":51.48163, "longitude":-3.178782, "accuracy":"16", "context":0, "place_id":"SJJTd3tVUb2lRw", "woeid":"43724", "geo_is_family":0, "geo_is_friend":0, "geo_is_contact":0, "geo_is_public":1, "media":"photo", "media_status":"ready"}, {"id":"13066816443", "owner":"62529443@N07", "secret":"77b1400432", "server":"7410", "farm":8, "title":"Of light, shadows and suspicious behavior", "ispublic":1, "isfriend":0, "isfamily":0, "safe":0, "ownername":"MarDiet", "latitude":50.106542, "longitude":8.663835, "accuracy":"16", "context":0, "place_id":"Z0FRRfRXV7oIeew", "woeid":"650272", "geo_is_family":0, "geo_is_friend":0, "geo_is_contact":0, "geo_is_public":1, "media":"photo", "media_status":"ready"}, {"id":"13066594373", "owner":"9619863@N05", "secret":"42dcae59c7", "server":"7355", "farm":8, "title":"The River Dane", "ispublic":1, "isfriend":0, "isfamily":0, "safe":1, "ownername":"Kev Palmer", "latitude":53.213613, "longitude":-1.987281, "accuracy":"16", "context":0, "place_id":"_wLL1F1TUrjcaA", "woeid":"20280", "geo_is_family":0, "geo_is_friend":0, "geo_is_contact":0, "geo_is_public":1, "media":"photo", "media_status":"ready"}, {"id":"13066426153", "owner":"43194508@N07", "secret":"8f6a8811a4", "server":"2543", "farm":3, "title":"FFF... explore...", "ispublic":1, "isfriend":0, "isfamily":0, "safe":1, "ownername":"jimmy297.", "latitude":42.472349, "longitude":-2.428879, "accuracy":"15", "context":0, "place_id":"nrTL4n5QUL8nLAu3Mw", "woeid":"12578023", "geo_is_family":0, "geo_is_friend":0, "geo_is_contact":0, "geo_is_public":1, "media":"photo", "media_status":"ready"}, {"id":"13065708235", "owner":"20687176@N04", "secret":"3ee91cedd5", "server":"7350", "farm":8, "title":"Agra, India - Taj Mahal @Sunrise", "ispublic":1, "isfriend":0, "isfamily":0, "safe":1, "ownername":"GlobeTrotter 2000", "latitude":27.179042, "longitude":78.041319, "accuracy":"10", "context":0, "place_id":"S4OOvxtTULO18fQG", "woeid":"2295399", "geo_is_family":0, "geo_is_friend":0, "geo_is_contact":0, "geo_is_public":1, "media":"photo", "media_status":"ready"}, {"id":"13065524834", "owner":"42890356@N02", "secret":"456fb9c708", "server":"3562", "farm":4, "title":"Lone Spring Bloom - Explored", "ispublic":1, "isfriend":0, "isfamily":0, "safe":1, "ownername":"faranorclarke", "latitude":51.070547, "longitude":-0.090326, "accuracy":"16", "context":0, "place_id":"JTAEk9VQUrO.TA", "woeid":"10945", "geo_is_family":0, "geo_is_friend":0, "geo_is_contact":0, "geo_is_public":1, "media":"photo", "media_status":"ready"}, {"id":"13064560794", "owner":"90174112@N04", "secret":"7fb83f74f7", "server":"3549", "farm":4, "title":"Barque au Cr\u00e9puscule!!", "ispublic":1, "isfriend":0, "isfamily":0, "safe":1, "ownername":"RV1902", "latitude":47.155696, "longitude":-1.74159, "accuracy":"13", "context":0, "place_id":"CE2P0pBTUruFKPS7vA", "woeid":"20179846", "geo_is_family":0, "geo_is_friend":0, "geo_is_contact":0, "geo_is_public":1, "media":"photo", "media_status":"ready"}, {"id":"13064220513", "owner":"55416316@N07", "secret":"e42a35ea98", "server":"3509", "farm":4, "title":"All you need is love and a bottle of wine", "ispublic":1, "isfriend":0, "isfamily":0, "safe":1, "ownername":"PeterJ\u00a9", "latitude":52.460073, "longitude":5.13743, "accuracy":"15", "context":0, "place_id":"LdGEKZVQV7oJbE8X.A", "woeid":"15021018", "geo_is_family":0, "geo_is_friend":0, "geo_is_contact":0, "geo_is_public":1, "media":"photo", "media_status":"ready"}, {"id":"13064312664", "owner":"62815410@N04", "secret":"609b2cd68b", "server":"3071", "farm":4, "title":"cockfight (brescia, italy)", "ispublic":1, "isfriend":0, "isfamily":0, "safe":1, "ownername":"bloodybee", "latitude":45.536189, "longitude":10.232906, "accuracy":"15", "context":0, "place_id":"WO1uGLRWU7u69ps", "woeid":"711410", "geo_is_family":0, "geo_is_friend":0, "geo_is_contact":0, "geo_is_public":1, "media":"photo", "media_status":"ready"}, {"id":"13063731485", "owner":"62597931@N02", "secret":"85d7885691", "server":"2477", "farm":3, "title":"NR Yellow Ronnie Heads Back South 2", "ispublic":1, "isfriend":0, "isfamily":0, "safe":0, "ownername":"Jim the Joker", "latitude":53.283176, "longitude":-2.628307, "accuracy":"13", "context":0, "place_id":"hDRFyFlQU7mvig", "woeid":"11303", "geo_is_family":0, "geo_is_friend":0, "geo_is_contact":0, "geo_is_public":1, "media":"photo", "media_status":"ready"}, {"id":"13061615174", "owner":"90370136@N06", "secret":"1628a275c0", "server":"3480", "farm":4, "title":"Mis gaviotas", "ispublic":1, "isfriend":0, "isfamily":0, "safe":0, "ownername":"juancarts", "latitude":37.632586, "longitude":-0.690422, "accuracy":"14", "context":0, "place_id":"sNFZrAtTUb4tWq8l9g", "woeid":"23414793", "geo_is_family":0, "geo_is_friend":0, "geo_is_contact":0, "geo_is_public":1, "media":"photo", "media_status":"ready"}, {"id":"13058645163", "owner":"22876654@N00", "secret":"ed8bb6b025", "server":"3257", "farm":4, "title":"Morning expedition", "ispublic":1, "isfriend":0, "isfamily":0, "safe":1, "ownername":"halifaxlight", "latitude":35.167739, "longitude":-5.26951, "accuracy":"16", "context":0, "place_id":"KEjBGm5QV7l4UTkL", "woeid":"1532799", "geo_is_family":0, "geo_is_friend":0, "geo_is_contact":0, "geo_is_public":1, "media":"photo", "media_status":"ready"}, {"id":"13057416994", "owner":"68801618@N03", "secret":"3d5e7b05c6", "server":"3448", "farm":4, "title":"Lumi\u00e8re", "ispublic":1, "isfriend":0, "isfamily":0, "safe":1, "ownername":"L'agriculteur Illumin\u00e9", "latitude":46.988684, "longitude":7.062149, "accuracy":"11", "context":0, "place_id":"sB2NWGdWWr5Baao", "woeid":"784731", "geo_is_family":0, "geo_is_friend":0, "geo_is_contact":0, "geo_is_public":1, "media":"photo", "media_status":"ready"}, {"id":"13056172834", "owner":"16854222@N05", "secret":"07f54578d3", "server":"3255", "farm":4, "title":"Happy Spring Monday !", "ispublic":1, "isfriend":0, "isfamily":0, "safe":1, "ownername":"AnyMotion", "latitude":50.123271, "longitude":8.6804, "accuracy":"16", "context":0, "place_id":"Z0FRRfRXV7oIeew", "woeid":"650272", "geo_is_family":0, "geo_is_friend":0, "geo_is_contact":0, "geo_is_public":1, "media":"photo", "media_status":"ready"}, {"id":"13056122134", "owner":"24781107@N05", "secret":"3444672a13", "server":"2733", "farm":3, "title":"The Basilica di Santa Maria del Fiore - Florence", "ispublic":1, "isfriend":0, "isfamily":0, "safe":0, "ownername":"~ Floydian ~ \uf8ff", "latitude":43.762988, "longitude":11.264638, "accuracy":"16", "context":0, "place_id":"ZPDshblWU7_DgSs", "woeid":"715496", "geo_is_family":0, "geo_is_friend":0, "geo_is_contact":0, "geo_is_public":1, "media":"photo", "media_status":"ready"}, {"id":"13055509575", "owner":"48988488@N04", "secret":"a26390fe7f", "server":"3534", "farm":4, "title":"sintesi", "ispublic":1, "isfriend":0, "isfamily":0, "safe":0, "ownername":"claudius1954", "latitude":45.570793, "longitude":7.32994, "accuracy":"11", "context":0, "place_id":"oaiXL2NTUruvFf2HCg", "woeid":"20147452", "geo_is_family":0, "geo_is_friend":0, "geo_is_contact":0, "geo_is_public":1, "media":"photo", "media_status":"ready"}, {"id":"13055436245", "owner":"46870239@N06", "secret":"21a652f106", "server":"7354", "farm":8, "title":"Hatchet Reflections (Explore 10-3-2014)", "ispublic":1, "isfriend":0, "isfamily":0, "safe":0, "ownername":"Sunset Snapper", "latitude":50.814165, "longitude":-1.478884, "accuracy":"15", "context":0, "place_id":"EwHVxnxSUrkzYw", "woeid":"30370", "geo_is_family":0, "geo_is_friend":0, "geo_is_contact":0, "geo_is_public":1, "media":"photo", "media_status":"ready"}, {"id":"13055113855", "owner":"62084353@N08", "secret":"a6c599e970", "server":"3269", "farm":4, "title":"The pleasure of traveling (Explore 2014-03-10)", "ispublic":1, "isfriend":0, "isfamily":0, "safe":1, "ownername":"diez.david", "latitude":50.840202, "longitude":4.360198, "accuracy":"10", "context":0, "place_id":"b_4P.TNYVLL65Ls", "woeid":"968019", "geo_is_family":0, "geo_is_friend":0, "geo_is_contact":0, "geo_is_public":1, "media":"photo", "media_status":"ready"}, {"id":"13055186754", "owner":"30420396@N03", "secret":"a60183d74b", "server":"2592", "farm":3, "title":"Snowdrops", "ispublic":1, "isfriend":0, "isfamily":0, "safe":0, "ownername":"'Ajnagraphy'", "latitude":56.832141, "longitude":13.95755, "accuracy":"15", "context":0, "place_id":"AtzXFHtZW70vzR8", "woeid":"897466", "geo_is_family":0, "geo_is_friend":0, "geo_is_contact":0, "geo_is_public":1, "media":"photo", "media_status":"ready"}, {"id":"13054770794", "owner":"90378082@N07", "secret":"7656891b89", "server":"7317", "farm":8, "title":"Distracted", "ispublic":1, "isfriend":0, "isfamily":0, "safe":0, "ownername":"Baz 120", "latitude":41.9088, "longitude":12.477067, "accuracy":"16", "context":0, "place_id":"FphPyURWU7ux6h4", "woeid":"711883", "geo_is_family":0, "geo_is_friend":0, "geo_is_contact":0, "geo_is_public":1, "media":"photo", "media_status":"ready"}, {"id":"13053718503", "owner":"25381758@N05", "secret":"d5cda6389f", "server":"7340", "farm":8, "title":"The Dragon Spine Roof Architecture of Casa Batll\u00f3 by Antoni Gaudi, Barcelona, Spain :: HDR", "ispublic":1, "isfriend":0, "isfamily":0, "safe":1, "ownername":":: Artie | Photography ::", "latitude":41.391555, "longitude":2.16481, "accuracy":"16", "context":0, "place_id":"gz1EC3hTUriN7mm2QA", "woeid":"20220089", "geo_is_family":0, "geo_is_friend":0, "geo_is_contact":0, "geo_is_public":1, "media":"photo", "media_status":"ready"}, {"id":"13047170414", "owner":"26849514@N06", "secret":"291e167567", "server":"2481", "farm":3, "title":"Sharjah, Al Noor mosque \/ ABM (Another Blue  Monday)", "ispublic":1, "isfriend":0, "isfamily":0, "safe":0, "ownername":"Frans.Sellies", "latitude":25.334833, "longitude":55.387154, "accuracy":"16", "context":0, "place_id":"c7gsO1lQW77LfdLC", "woeid":"1940119", "geo_is_family":0, "geo_is_friend":0, "geo_is_contact":0, "geo_is_public":1, "media":"photo", "media_status":"ready"}, {"id":"13045106074", "owner":"27955898@N07", "secret":"6f3c8c54d7", "server":"2063", "farm":3, "title":"Spring sunshine on the moors", "ispublic":1, "isfriend":0, "isfamily":0, "safe":1, "ownername":"Keartona", "latitude":53.388754, "longitude":-1.772854, "accuracy":"15", "context":0, "place_id":"2eIY2QFTVr_DwWZNLg", "woeid":"24554868", "geo_is_family":0, "geo_is_friend":0, "geo_is_contact":0, "geo_is_public":1, "media":"photo", "media_status":"ready"}, {"id":"13044806973", "owner":"24833137@N08", "secret":"9f917d93fb", "server":"7416", "farm":8, "title":"~~Le Doubs entre la France et la Suisse", "ispublic":1, "isfriend":0, "isfamily":0, "safe":1, "ownername":"Jo\u00e9lisa", "latitude":47.16653, "longitude":6.859869, "accuracy":"11", "context":0, "place_id":"p7Lt0ldWWr8fuKI", "woeid":"785035", "geo_is_family":0, "geo_is_friend":0, "geo_is_contact":0, "geo_is_public":1, "media":"photo", "media_status":"ready"}, {"id":"13043452473", "owner":"28101813@N04", "secret":"35095df5f7", "server":"7454", "farm":8, "title":"Amanecer negro como el azabache [Explore 09.03.2014]", "ispublic":1, "isfriend":0, "isfamily":0, "safe":0, "ownername":"Herminio.", "latitude":41.366631, "longitude":2.189755, "accuracy":"16", "context":0, "place_id":"vpexBv5WVLnRs2g", "woeid":"763049", "geo_is_family":0, "geo_is_friend":0, "geo_is_contact":0, "geo_is_public":1, "media":"photo", "media_status":"ready"}, {"id":"13043313223", "owner":"81035653@N00", "secret":"9131f5c85d", "server":"7356", "farm":8, "title":"We ramp with the gondola to Sommerbergalm at 2100 m", "ispublic":1, "isfriend":0, "isfamily":0, "safe":1, "ownername":"B\u212en", "latitude":47.110215, "longitude":11.656833, "accuracy":"13", "context":0, "place_id":"t5B7qptUV7rA21I", "woeid":"550710", "geo_is_family":0, "geo_is_friend":0, "geo_is_contact":0, "geo_is_public":1, "media":"photo", "media_status":"ready"}, {"id":"13043157283", "owner":"12624535@N08", "secret":"e798584679", "server":"7426", "farm":8, "title":"Reflecting on the Floods", "ispublic":1, "isfriend":0, "isfamily":0, "safe":1, "ownername":"Rupert Brun", "latitude":51.426181, "longitude":0.132475, "accuracy":"15", "context":0, "place_id":"8Fuwl8VTUrohjEKdEw", "woeid":"20093204", "geo_is_family":0, "geo_is_friend":0, "geo_is_contact":0, "geo_is_public":1, "media":"photo", "media_status":"ready"}, {"id":"13041608145", "owner":"78772251@N07", "secret":"245926c0bc", "server":"3562", "farm":4, "title":"intricate", "ispublic":1, "isfriend":0, "isfamily":0, "safe":0, "ownername":"neals pics", "latitude":52.225906, "longitude":0.730934, "accuracy":"14", "context":0, "place_id":"GfumPzNQVr0RLg", "woeid":"14714", "geo_is_family":0, "geo_is_friend":0, "geo_is_contact":0, "geo_is_public":1, "media":"photo", "media_status":"ready"}, {"id":"13041365904", "owner":"74835915@N07", "secret":"ca1d4d9047", "server":"3699", "farm":4, "title":"Flowers In The Window (Explored)", "ispublic":1, "isfriend":0, "isfamily":0, "safe":0, "ownername":"Danny Birrell", "latitude":54.842592, "longitude":-1.485514, "accuracy":"14", "context":0, "place_id":"C_zn_cJTVrooww", "woeid":"24009", "geo_is_family":0, "geo_is_friend":0, "geo_is_contact":0, "geo_is_public":1, "media":"photo", "media_status":"ready"}, {"id":"13040779725", "owner":"72947739@N07", "secret":"834cfe2b10", "server":"7347", "farm":8, "title":"holding on tight..", "ispublic":1, "isfriend":0, "isfamily":0, "safe":1, "ownername":"camelot98", "latitude":24.855911, "longitude":67.020034, "accuracy":"11", "context":0, "place_id":"zpVY2SRTULtE05Ow", "woeid":"2211096", "geo_is_family":0, "geo_is_friend":0, "geo_is_contact":0, "geo_is_public":1, "media":"photo", "media_status":"ready"}, {"id":"13040313983", "owner":"16941881@N00", "secret":"ac95268989", "server":"3267", "farm":4, "title":"the old Chapel (Explored)", "ispublic":1, "isfriend":0, "isfamily":0, "safe":0, "ownername":"franmol (was away in Febuary but catching up)", "latitude":52.150844, "longitude":-8.095507, "accuracy":"14", "context":0, "place_id":"pa6ZRs9UV7MaCxk", "woeid":"559693", "geo_is_family":0, "geo_is_friend":0, "geo_is_contact":0, "geo_is_public":1, "media":"photo", "media_status":"ready"}, {"id":"13039196975", "owner":"24448805@N07", "secret":"4b9b184d8f", "server":"3517", "farm":4, "title":"New York Midtown", "ispublic":1, "isfriend":0, "isfamily":0, "safe":1, "ownername":"Tony Shi.", "latitude":40.709173, "longitude":-74.013536, "accuracy":"16", "context":0, "place_id":"kOBmim5TUb_CeES9hw", "woeid":"23511903", "geo_is_family":0, "geo_is_friend":0, "geo_is_contact":0, "geo_is_public":1, "media":"photo", "media_status":"ready"}, {"id":"13039244693", "owner":"95575326@N03", "secret":"97d0a87afa", "server":"3109", "farm":4, "title":"Windy Post", "ispublic":1, "isfriend":0, "isfamily":0, "safe":1, "ownername":"Robgreen13", "latitude":50.551943, "longitude":-4.05464, "accuracy":"13", "context":0, "place_id":"TGy4jOJTWr26tg", "woeid":"28744", "geo_is_family":0, "geo_is_friend":0, "geo_is_contact":0, "geo_is_public":1, "media":"photo", "media_status":"ready"}, {"id":"13037646795", "owner":"11269250@N07", "secret":"710546fc1e", "server":"2887", "farm":3, "title":"~ in the shadow of madame ~", "ispublic":1, "isfriend":0, "isfamily":0, "safe":0, "ownername":"Janey Kay", "latitude":48.862609, "longitude":2.28759, "accuracy":"16", "context":0, "place_id":"hytGYNFUV7LeiExhTQ", "woeid":"55843834", "geo_is_family":0, "geo_is_friend":0, "geo_is_contact":0, "geo_is_public":1, "media":"photo", "media_status":"ready"}, {"id":"13037819134", "owner":"60509750@N08", "secret":"5fe2e2d959", "server":"2707", "farm":3, "title":"Spring emotions and motions, Hammarby sj\u00f6stad", "ispublic":1, "isfriend":0, "isfamily":0, "safe":0, "ownername":"Maria_Globetrotter", "latitude":59.30821, "longitude":18.102797, "accuracy":"16", "context":0, "place_id":"AWkyxCxYUr.TWQs", "woeid":"905103", "geo_is_family":0, "geo_is_friend":0, "geo_is_contact":0, "geo_is_public":1, "media":"photo", "media_status":"ready"}, {"id":"13037629674", "owner":"34905382@N08", "secret":"4ee20653eb", "server":"2227", "farm":3, "title":"_3097510 Pisardi", "ispublic":1, "isfriend":0, "isfamily":0, "safe":1, "ownername":"penalopezp", "latitude":40.481408, "longitude":-3.372137, "accuracy":"11", "context":0, "place_id":"SIiRGKdWV7uXOrQ", "woeid":"751768", "geo_is_family":0, "geo_is_friend":0, "geo_is_contact":0, "geo_is_public":1, "media":"photo", "media_status":"ready"}, {"id":"13037008593", "owner":"38214975@N05", "secret":"37e355151b", "server":"7399", "farm":8, "title":"Big brother is watching me (Explored)", "ispublic":1, "isfriend":0, "isfamily":0, "safe":1, "ownername":"louise peters", "latitude":51.944264, "longitude":4.53186, "accuracy":"8", "context":0, "place_id":"B0okv3lQUL8MvXfLPg", "woeid":"12592374", "geo_is_family":0, "geo_is_friend":0, "geo_is_contact":0, "geo_is_public":1, "media":"photo", "media_status":"ready"}, {"id":"13036521094", "owner":"43155663@N07", "secret":"fbf2495cf5", "server":"3404", "farm":4, "title":"the light rider", "ispublic":1, "isfriend":0, "isfamily":0, "safe":0, "ownername":"city\/human\/life", "latitude":51.256288, "longitude":6.747643, "accuracy":"16", "context":0, "place_id":"MA8Ke4hXVrwlyVI", "woeid":"646099", "geo_is_family":0, "geo_is_friend":0, "geo_is_contact":0, "geo_is_public":1, "media":"photo", "media_status":"ready"}, {"id":"13033957213", "owner":"100063725@N06", "secret":"e963fd9b47", "server":"7411", "farm":8, "title":"Mirando al cielo", "ispublic":1, "isfriend":0, "isfamily":0, "safe":0, "ownername":"Antonio Chac", "latitude":36.504246, "longitude":-4.915952, "accuracy":"16", "context":0, "place_id":"b6ANCk5WVLwQivI", "woeid":"766537", "geo_is_family":0, "geo_is_friend":0, "geo_is_contact":0, "geo_is_public":1, "media":"photo", "media_status":"ready"}, {"id":"13033125195", "owner":"62815410@N04", "secret":"601e7f4922", "server":"3137", "farm":4, "title":"the importance of a healthy diet (brescia, italy)", "ispublic":1, "isfriend":0, "isfamily":0, "safe":1, "ownername":"bloodybee", "latitude":45.535738, "longitude":10.234451, "accuracy":"15", "context":0, "place_id":"WO1uGLRWU7u69ps", "woeid":"711410", "geo_is_family":0, "geo_is_friend":0, "geo_is_contact":0, "geo_is_public":1, "media":"photo", "media_status":"ready"}, {"id":"13031439585", "owner":"21692577@N02", "secret":"73c671b268", "server":"7333", "farm":8, "title":"Winter sunset at the Lighthouse. Gaspesie, Canada.", "ispublic":1, "isfriend":0, "isfamily":0, "safe":1, "ownername":"Danny VB", "latitude":48.399576, "longitude":-64.479103, "accuracy":"11", "context":0, "place_id":"2Tr2iDlSVbny", "woeid":"3732", "geo_is_family":0, "geo_is_friend":0, "geo_is_contact":0, "geo_is_public":1, "media":"photo", "media_status":"ready"}]}, "stat":"ok"}