{"photos":{"page":6, "pages":24253, "perpage":60, "total":"1455180", "photo":[{"id":"13144474173", "owner":"21513809@N05", "secret":"69e5f0beef", "server":"3700", "farm":4, "title":"SHROUDED IN THE MISTS OF TIME", "ispublic":1, "isfriend":0, "isfamily":0, "safe":0, "ownername":"craftedfromtheheart", "latitude":55.209928, "longitude":-6.583385, "accuracy":"13", "context":0, "place_id":"99NMT_xVV7poTA", "woeid":"45086", "geo_is_family":0, "geo_is_friend":0, "geo_is_contact":0, "geo_is_public":1, "media":"photo", "media_status":"ready"}, {"id":"13143552233", "owner":"21488930@N04", "secret":"8648ba7ebc", "server":"7347", "farm":8, "title":"\u2600............Hi Guys, I'm more busy now. bertuccia...............1403", "ispublic":1, "isfriend":0, "isfamily":0, "safe":0, "ownername":"\u01bfier ...dried up", "latitude":45.472869, "longitude":10.851369, "accuracy":"11", "context":0, "place_id":"UTKd431WU7s7rbw", "woeid":"711572", "geo_is_family":0, "geo_is_friend":0, "geo_is_contact":0, "geo_is_public":1, "media":"photo", "media_status":"ready"}, {"id":"13143371033", "owner":"48988488@N04", "secret":"ab9748a396", "server":"7306", "farm":8, "title":"alta fedelt\u00e0", "ispublic":1, "isfriend":0, "isfamily":0, "safe":1, "ownername":"claudius1954", "latitude":46.085971, "longitude":9.089298, "accuracy":"15", "context":0, "place_id":"7OXwCg5TUruVuqwAzg", "woeid":"20113214", "geo_is_family":0, "geo_is_friend":0, "geo_is_contact":0, "geo_is_public":1, "media":"photo", "media_status":"ready"}, {"id":"13136764733", "owner":"15609463@N03", "secret":"b3eedbd295", "server":"3799", "farm":4, "title":"Snowy Owl", "ispublic":1, "isfriend":0, "isfamily":0, "safe":0, "ownername":"Jamie In Bytown", "latitude":45.373131, "longitude":-75.803518, "accuracy":"14", "context":0, "place_id":"5.ME.aNTUbkqKqJB_w", "woeid":"23399467", "geo_is_family":0, "geo_is_friend":0, "geo_is_contact":0, "geo_is_public":1, "media":"photo", "media_status":"ready"}, {"id":"13133701693", "owner":"27955898@N07", "secret":"b8f4049ddf", "server":"2545", "farm":3, "title":"Beaming brightly", "ispublic":1, "isfriend":0, "isfamily":0, "safe":0, "ownername":"Keartona", "latitude":53.378855, "longitude":-1.707011, "accuracy":"16", "context":0, "place_id":"qWh.RctTUrqMzHHFOQ", "woeid":"20092822", "geo_is_family":0, "geo_is_friend":0, "geo_is_contact":0, "geo_is_public":1, "media":"photo", "media_status":"ready"}, {"id":"13133469875", "owner":"43499552@N03", "secret":"177c31148a", "server":"3822", "farm":4, "title":"Tree Line..(explored no147)", "ispublic":1, "isfriend":0, "isfamily":0, "safe":0, "ownername":"Adam Swaine", "latitude":51.457102, "longitude":-0.062541, "accuracy":"14", "context":0, "place_id":"wHWhDWpQWrPCkg", "woeid":"18954", "geo_is_family":0, "geo_is_friend":0, "geo_is_contact":0, "geo_is_public":1, "media":"photo", "media_status":"ready"}, {"id":"13133521184", "owner":"38181284@N06", "secret":"dfd1a6c526", "server":"3750", "farm":4, "title":"into the abyss", "ispublic":1, "isfriend":0, "isfamily":0, "safe":0, "ownername":"vulture labs", "latitude":51.508769, "longitude":-0.08686, "accuracy":"15", "context":0, "place_id":"AggqPb1TUrohNNCS.A", "woeid":"20094296", "geo_is_family":0, "geo_is_friend":0, "geo_is_contact":0, "geo_is_public":1, "media":"photo", "media_status":"ready"}, {"id":"13131784235", "owner":"20905078@N04", "secret":"851f44d923", "server":"2056", "farm":3, "title":"Robert", "ispublic":1, "isfriend":0, "isfamily":0, "safe":0, "ownername":"patrickjoust", "latitude":26.617824, "longitude":-80.054808, "accuracy":"16", "context":0, "place_id":"DVl92eZTVrnrHgWe", "woeid":"2435273", "geo_is_family":0, "geo_is_friend":0, "geo_is_contact":0, "geo_is_public":1, "media":"photo", "media_status":"ready"}, {"id":"13131943284", "owner":"24448805@N07", "secret":"08205885ee", "server":"2007", "farm":3, "title":"Among Giants", "ispublic":1, "isfriend":0, "isfamily":0, "safe":0, "ownername":"Tony Shi.", "latitude":40.754571, "longitude":-73.970518, "accuracy":"16", "context":0, "place_id":"yAjPtXJTV7oEUUi6", "woeid":"2508889", "geo_is_family":0, "geo_is_friend":0, "geo_is_contact":0, "geo_is_public":1, "media":"photo", "media_status":"ready"}, {"id":"13131736423", "owner":"20905078@N04", "secret":"6012394700", "server":"7332", "farm":8, "title":"", "ispublic":1, "isfriend":0, "isfamily":0, "safe":1, "ownername":"patrickjoust", "latitude":26.61767, "longitude":-80.054326, "accuracy":"16", "context":0, "place_id":"DVl92eZTVrnrHgWe", "woeid":"2435273", "geo_is_family":0, "geo_is_friend":0, "geo_is_contact":0, "geo_is_public":1, "media":"photo", "media_status":"ready"}, {"id":"13131259545", "owner":"97023816@N00", "secret":"1ce811eb31", "server":"2248", "farm":3, "title":"city of snow, St. John's, Newfoundland", "ispublic":1, "isfriend":0, "isfamily":0, "safe":0, "ownername":"tuanland", "latitude":47.56865, "longitude":-52.686052, "accuracy":"14", "context":0, "place_id":"dPlc9SlSW7OA", "woeid":"3996", "geo_is_family":0, "geo_is_friend":0, "geo_is_contact":0, "geo_is_public":1, "media":"photo", "media_status":"ready"}, {"id":"13130628014", "owner":"55574675@N06", "secret":"e6ca8f2467", "server":"7416", "farm":8, "title":"The Mandrill", "ispublic":1, "isfriend":0, "isfamily":0, "safe":1, "ownername":"DirkVandeVelde back and catching up", "latitude":51.217863, "longitude":4.423241, "accuracy":"16", "context":0, "place_id":"QmWKG6VYVL2oM5M", "woeid":"967616", "geo_is_family":0, "geo_is_friend":0, "geo_is_contact":0, "geo_is_public":1, "media":"photo", "media_status":"ready"}, {"id":"13129907415", "owner":"68801618@N03", "secret":"208fd4e1af", "server":"3681", "farm":4, "title":"An\u00e9mone Des Bois", "ispublic":1, "isfriend":0, "isfamily":0, "safe":0, "ownername":"L'agriculteur Illumin\u00e9", "latitude":47.023801, "longitude":7.024383, "accuracy":"11", "context":0, "place_id":"XHNCuC5WWr8qC2k", "woeid":"785031", "geo_is_family":0, "geo_is_friend":0, "geo_is_contact":0, "geo_is_public":1, "media":"photo", "media_status":"ready"}, {"id":"13127992434", "owner":"21692577@N02", "secret":"8765c84ba9", "server":"2177", "farm":3, "title":"Sunset on the Ocean. Gaspesie, Canada.", "ispublic":1, "isfriend":0, "isfamily":0, "safe":0, "ownername":"Danny VB", "latitude":48.395017, "longitude":-64.509315, "accuracy":"11", "context":0, "place_id":"tSxRNMhTUbkSiE0Muw", "woeid":"23395535", "geo_is_family":0, "geo_is_friend":0, "geo_is_contact":0, "geo_is_public":1, "media":"photo", "media_status":"ready"}, {"id":"13126352815", "owner":"76099985@N00", "secret":"d39f30f39f", "server":"7318", "farm":8, "title":"girl in restaurant", "ispublic":1, "isfriend":0, "isfamily":0, "safe":0, "ownername":"gorbot.", "latitude":55.873162, "longitude":-4.301952, "accuracy":"16", "context":0, "place_id":"15Q7lQxVUb9crQ", "woeid":"43560", "geo_is_family":0, "geo_is_friend":0, "geo_is_contact":0, "geo_is_public":1, "media":"photo", "media_status":"ready"}, {"id":"13125472463", "owner":"20905078@N04", "secret":"6923723107", "server":"3794", "farm":4, "title":"", "ispublic":1, "isfriend":0, "isfamily":0, "safe":1, "ownername":"patrickjoust", "latitude":25.803899, "longitude":-80.196461, "accuracy":"16", "context":0, "place_id":"LoK8FhdUVLpkwhpjQw", "woeid":"56019959", "geo_is_family":0, "geo_is_friend":0, "geo_is_contact":0, "geo_is_public":1, "media":"photo", "media_status":"ready"}, {"id":"13125040883", "owner":"48988488@N04", "secret":"d264974e35", "server":"2610", "farm":3, "title":"mai visto cosi\u0300", "ispublic":1, "isfriend":0, "isfamily":0, "safe":1, "ownername":"claudius1954", "latitude":45.896698, "longitude":9.393997, "accuracy":"11", "context":0, "place_id":"Lnwg79lTUrvHkw5Ttg", "woeid":"20136161", "geo_is_family":0, "geo_is_friend":0, "geo_is_contact":0, "geo_is_public":1, "media":"photo", "media_status":"ready"}, {"id":"13124021063", "owner":"31804708@N02", "secret":"cfb03b1cce", "server":"7308", "farm":8, "title":"Febrero relampagueante III - February lightning III", "ispublic":1, "isfriend":0, "isfamily":0, "safe":1, "ownername":"celta4", "latitude":-34.589525, "longitude":-58.423125, "accuracy":"15", "context":0, "place_id":"BkPyiYpSUbtortc", "woeid":"331580", "geo_is_family":0, "geo_is_friend":0, "geo_is_contact":0, "geo_is_public":1, "media":"photo", "media_status":"ready"}, {"id":"13123078654", "owner":"98388605@N00", "secret":"da1a9b1b50", "server":"3735", "farm":4, "title":"Playa do Vao", "ispublic":1, "isfriend":0, "isfamily":0, "safe":1, "ownername":"Ramy.", "latitude":42.198766, "longitude":-8.797967, "accuracy":"15", "context":0, "place_id":"qiKBKmNWVb2JMqY", "woeid":"777401", "geo_is_family":0, "geo_is_friend":0, "geo_is_contact":0, "geo_is_public":1, "media":"photo", "media_status":"ready"}, {"id":"13122618583", "owner":"22461382@N00", "secret":"3b05f81e94", "server":"3738", "farm":4, "title":"preamble | ramberg, norway", "ispublic":1, "isfriend":0, "isfamily":0, "safe":1, "ownername":"elmofoto", "latitude":68.078027, "longitude":13.238463, "accuracy":"16", "context":0, "place_id":"TyHVv2VZVLjj2_8", "woeid":"862798", "geo_is_family":0, "geo_is_friend":0, "geo_is_contact":0, "geo_is_public":1, "media":"photo", "media_status":"ready"}, {"id":"13122281314", "owner":"97423535@N00", "secret":"922b338a1d", "server":"2819", "farm":3, "title":"'Behind You'", "ispublic":1, "isfriend":0, "isfamily":0, "safe":0, "ownername":"Paul J Rose", "latitude":54.576383, "longitude":-1.235359, "accuracy":"16", "context":0, "place_id":"OXqK5vRSUr.KMg", "woeid":"30527", "geo_is_family":0, "geo_is_friend":0, "geo_is_contact":0, "geo_is_public":1, "media":"photo", "media_status":"ready"}, {"id":"13121873653", "owner":"13048208@N02", "secret":"1bf956ac4e", "server":"2111", "farm":3, "title":"St. Batholemew's Reflections", "ispublic":1, "isfriend":0, "isfamily":0, "safe":0, "ownername":"Damian_Ward", "latitude":51.613559, "longitude":-0.879206, "accuracy":"16", "context":0, "place_id":"AlX6SXNTUrs26Q", "woeid":"20193", "geo_is_family":0, "geo_is_friend":0, "geo_is_contact":0, "geo_is_public":1, "media":"photo", "media_status":"ready"}, {"id":"13120907085", "owner":"57314912@N03", "secret":"be4df755c0", "server":"3807", "farm":4, "title":"Sans titre", "ispublic":1, "isfriend":0, "isfamily":0, "safe":1, "ownername":"Dom Lortha", "latitude":45.734302, "longitude":4.815428, "accuracy":"16", "context":0, "place_id":"gUrZ2NhXUrPDYlI", "woeid":"609125", "geo_is_family":0, "geo_is_friend":0, "geo_is_contact":0, "geo_is_public":1, "media":"photo", "media_status":"ready"}, {"id":"13120341824", "owner":"16854222@N05", "secret":"31c3d1066b", "server":"2814", "farm":3, "title":"PineStract", "ispublic":1, "isfriend":0, "isfamily":0, "safe":0, "ownername":"AnyMotion", "latitude":50.123271, "longitude":8.6804, "accuracy":"16", "context":0, "place_id":"Z0FRRfRXV7oIeew", "woeid":"650272", "geo_is_family":0, "geo_is_friend":0, "geo_is_contact":0, "geo_is_public":1, "media":"photo", "media_status":"ready"}, {"id":"13118638663", "owner":"80516886@N00", "secret":"54db6d6c3b", "server":"3694", "farm":4, "title":"Rio de Janeiro - Praia de Grumari", "ispublic":1, "isfriend":0, "isfamily":0, "safe":1, "ownername":".**rickipanema**.", "latitude":-23.051239, "longitude":-43.535737, "accuracy":"16", "context":0, "place_id":"5G4YYcBUV7O1bna6PQ", "woeid":"55944198", "geo_is_family":0, "geo_is_friend":0, "geo_is_contact":0, "geo_is_public":1, "media":"photo", "media_status":"ready"}, {"id":"13114144334", "owner":"60955829@N08", "secret":"ee103ce43f", "server":"7418", "farm":8, "title":"The communications centre at the end of the earth", "ispublic":1, "isfriend":0, "isfamily":0, "safe":0, "ownername":"Gareth L Evans", "latitude":52.203146, "longitude":-3.751968, "accuracy":"13", "context":0, "place_id":"rz2baDpQUL9yHWKSJw", "woeid":"12578049", "geo_is_family":0, "geo_is_friend":0, "geo_is_contact":0, "geo_is_public":1, "media":"photo", "media_status":"ready"}, {"id":"13112101403", "owner":"47515486@N05", "secret":"b89e94b669", "server":"7410", "farm":8, "title":"Sunrise on Padarn lake.", "ispublic":1, "isfriend":0, "isfamily":0, "safe":0, "ownername":"ohefin", "latitude":53.119581, "longitude":-4.125709, "accuracy":"11", "context":0, "place_id":"KeBtn6dTVL2kEA", "woeid":"26776", "geo_is_family":0, "geo_is_friend":0, "geo_is_contact":0, "geo_is_public":1, "media":"photo", "media_status":"ready"}, {"id":"13112275334", "owner":"78772251@N07", "secret":"b92a164258", "server":"2685", "farm":3, "title":"dew", "ispublic":1, "isfriend":0, "isfamily":0, "safe":0, "ownername":"neals pics", "latitude":52.225906, "longitude":0.730934, "accuracy":"14", "context":0, "place_id":"GfumPzNQVr0RLg", "woeid":"14714", "geo_is_family":0, "geo_is_friend":0, "geo_is_contact":0, "geo_is_public":1, "media":"photo", "media_status":"ready"}, {"id":"13110856693", "owner":"81035653@N00", "secret":"a376c6445c", "server":"3679", "farm":4, "title":"Hiking in the heart of the Tux Alps at 2660m", "ispublic":1, "isfriend":0, "isfamily":0, "safe":0, "ownername":"B\u212en", "latitude":47.137304, "longitude":11.635977, "accuracy":"14", "context":0, "place_id":"t5B7qptUV7rA21I", "woeid":"550710", "geo_is_family":0, "geo_is_friend":0, "geo_is_contact":0, "geo_is_public":1, "media":"photo", "media_status":"ready"}, {"id":"13106969794", "owner":"43188378@N08", "secret":"10a0c7debe", "server":"7298", "farm":8, "title":"V\u00f8ringsfossen", "ispublic":1, "isfriend":0, "isfamily":0, "safe":0, "ownername":"Tommy Gildseth", "latitude":60.427516, "longitude":7.25353, "accuracy":"15", "context":0, "place_id":"g6Byzr1QV7qjYsRR2Q", "woeid":"15000911", "geo_is_family":0, "geo_is_friend":0, "geo_is_contact":0, "geo_is_public":1, "media":"photo", "media_status":"ready"}, {"id":"13106665095", "owner":"72947739@N07", "secret":"a2824c6a3c", "server":"3762", "farm":4, "title":"folding fabric..", "ispublic":1, "isfriend":0, "isfamily":0, "safe":0, "ownername":"camelot98", "latitude":24.88083, "longitude":66.982269, "accuracy":"11", "context":0, "place_id":"zpVY2SRTULtE05Ow", "woeid":"2211096", "geo_is_family":0, "geo_is_friend":0, "geo_is_contact":0, "geo_is_public":1, "media":"photo", "media_status":"ready"}, {"id":"13106309045", "owner":"51647010@N07", "secret":"f7dcd859bb", "server":"7421", "farm":8, "title":"Citroenvlinder  .....  Gonepteryx rhamni ! !  EXPLORE.", "ispublic":1, "isfriend":0, "isfamily":0, "safe":0, "ownername":"jac hendrix", "latitude":51.315143, "longitude":6.160433, "accuracy":"16", "context":0, "place_id":"RoiqFqRTUb6tlYAO", "woeid":"2345487", "geo_is_family":0, "geo_is_friend":0, "geo_is_contact":0, "geo_is_public":1, "media":"photo", "media_status":"ready"}, {"id":"13106057953", "owner":"21692577@N02", "secret":"8f6a02cf57", "server":"7393", "farm":8, "title":"Standing strong in the winter storm. 1", "ispublic":1, "isfriend":0, "isfamily":0, "safe":0, "ownername":"Danny VB", "latitude":48.417353, "longitude":-64.328041, "accuracy":"11", "context":0, "place_id":"SJniIHpTUblouyLngw", "woeid":"23396384", "geo_is_family":0, "geo_is_friend":0, "geo_is_contact":0, "geo_is_public":1, "media":"photo", "media_status":"ready"}, {"id":"13105078703", "owner":"30595068@N06", "secret":"50e92eb76a", "server":"3751", "farm":4, "title":"Bus spotting", "ispublic":1, "isfriend":0, "isfamily":0, "safe":1, "ownername":"Photosightfaces", "latitude":7.87395, "longitude":80.78971, "accuracy":"2", "context":0, "place_id":"Gdm6XV1TUb52hMbKtA", "woeid":"23424778", "geo_is_family":0, "geo_is_friend":0, "geo_is_contact":0, "geo_is_public":1, "media":"photo", "media_status":"ready"}, {"id":"13103544173", "owner":"35110249@N05", "secret":"507954ae3f", "server":"7318", "farm":8, "title":"Colorfull Lemon Butterfly [Explored]", "ispublic":1, "isfriend":0, "isfamily":0, "safe":1, "ownername":"Foto Martien", "latitude":52.139425, "longitude":5.727961, "accuracy":"16", "context":0, "place_id":"x1Acf2JWULNVi.0", "woeid":"729748", "geo_is_family":0, "geo_is_friend":0, "geo_is_contact":0, "geo_is_public":1, "media":"photo", "media_status":"ready"}, {"id":"13103226744", "owner":"31804708@N02", "secret":"d85ffbb85c", "server":"3673", "farm":4, "title":"Barrancas del Paran\u00e1 - Ravines of Paran\u00e1", "ispublic":1, "isfriend":0, "isfamily":0, "safe":0, "ownername":"celta4", "latitude":-31.702361, "longitude":-60.480165, "accuracy":"16", "context":0, "place_id":"3txA5plVVLzR8yk", "woeid":"466869", "geo_is_family":0, "geo_is_friend":0, "geo_is_contact":0, "geo_is_public":1, "media":"photo", "media_status":"ready"}, {"id":"13102431434", "owner":"43016292@N07", "secret":"267c355e00", "server":"7373", "farm":8, "title":"Europe \/\/ Portugal \/\/ Algarve \/\/ Bengil \/\/ Praia da Marinha", "ispublic":1, "isfriend":0, "isfamily":0, "safe":0, "ownername":"msc-photodesign", "latitude":37.090038, "longitude":-8.412789, "accuracy":"16", "context":0, "place_id":"6o9fZ8lWUb0L7NU", "woeid":"737188", "geo_is_family":0, "geo_is_friend":0, "geo_is_contact":0, "geo_is_public":1, "media":"photo", "media_status":"ready"}, {"id":"13100974575", "owner":"76099985@N00", "secret":"a95371d372", "server":"2682", "farm":3, "title":"man in cafe", "ispublic":1, "isfriend":0, "isfamily":0, "safe":0, "ownername":"gorbot.", "latitude":55.863584, "longitude":-4.252867, "accuracy":"14", "context":0, "place_id":"ec7HT9FTU7snhw", "woeid":"21125", "geo_is_family":0, "geo_is_friend":0, "geo_is_contact":0, "geo_is_public":1, "media":"photo", "media_status":"ready"}, {"id":"13100940525", "owner":"48988488@N04", "secret":"efbbd7469a", "server":"3744", "farm":4, "title":"cornici", "ispublic":1, "isfriend":0, "isfamily":0, "safe":0, "ownername":"claudius1954", "latitude":45.867989, "longitude":10.090169, "accuracy":"15", "context":0, "place_id":"83qzLPNTW7lCHJLsdA", "woeid":"29336375", "geo_is_family":0, "geo_is_friend":0, "geo_is_contact":0, "geo_is_public":1, "media":"photo", "media_status":"ready"}, {"id":"13100130783", "owner":"90378082@N07", "secret":"f0191f95ba", "server":"3778", "farm":4, "title":"Give us a smile sweet lips", "ispublic":1, "isfriend":0, "isfamily":0, "safe":0, "ownername":"Baz 120", "latitude":41.910796, "longitude":12.476595, "accuracy":"16", "context":0, "place_id":"62ufGyBUUb26u2g", "woeid":"537842", "geo_is_family":0, "geo_is_friend":0, "geo_is_contact":0, "geo_is_public":1, "media":"photo", "media_status":"ready"}, {"id":"13094204885", "owner":"33726922@N05", "secret":"39698ae58d", "server":"7303", "farm":8, "title":"Groundhog", "ispublic":1, "isfriend":0, "isfamily":0, "safe":1, "ownername":"Brian E Kushner", "latitude":40.003269, "longitude":-75.045656, "accuracy":"16", "context":0, "place_id":"T4Oq.WdTVryNIvdc", "woeid":"2467848", "geo_is_family":0, "geo_is_friend":0, "geo_is_contact":0, "geo_is_public":1, "media":"photo", "media_status":"ready"}, {"id":"13093822933", "owner":"40940417@N04", "secret":"1b44260ea7", "server":"3186", "farm":4, "title":"Painted Bunting - male - This photo was taken in small town of Glenola in Randolph County, North Carolina", "ispublic":1, "isfriend":0, "isfamily":0, "safe":0, "ownername":"fazer53", "latitude":35.872668, "longitude":-79.916727, "accuracy":"15", "context":0, "place_id":"aE0l2_pTVrveg2KO", "woeid":"2411279", "geo_is_family":0, "geo_is_friend":0, "geo_is_contact":0, "geo_is_public":1, "media":"photo", "media_status":"ready"}, {"id":"13093419755", "owner":"11389625@N07", "secret":"e02b4635da", "server":"3331", "farm":4, "title":"Punta Umbr\u00eda . La primavera se acerca. Spring is coming. (Explore 11\/03\/2014)", "ispublic":1, "isfriend":0, "isfamily":0, "safe":0, "ownername":"juanito1948.", "latitude":37.181108, "longitude":-6.972885, "accuracy":"11", "context":0, "place_id":"3KjDEo9WVbvnAfs", "woeid":"771059", "geo_is_family":0, "geo_is_friend":0, "geo_is_contact":0, "geo_is_public":1, "media":"photo", "media_status":"ready"}, {"id":"13092053173", "owner":"78772251@N07", "secret":"5d43ce0140", "server":"3797", "farm":4, "title":"caught", "ispublic":1, "isfriend":0, "isfamily":0, "safe":0, "ownername":"neals pics", "latitude":52.221332, "longitude":0.721879, "accuracy":"15", "context":0, "place_id":"GfumPzNQVr0RLg", "woeid":"14714", "geo_is_family":0, "geo_is_friend":0, "geo_is_contact":0, "geo_is_public":1, "media":"photo", "media_status":"ready"}, {"id":"13090960803", "owner":"56467344@N07", "secret":"3a2093e9b4", "server":"7326", "farm":8, "title":"Peaceful", "ispublic":1, "isfriend":0, "isfamily":0, "safe":0, "ownername":"JD Photographie.", "latitude":43.562229, "longitude":3.950779, "accuracy":"11", "context":0, "place_id":"gxAXCl9XU7xrTNM", "woeid":"616095", "geo_is_family":0, "geo_is_friend":0, "geo_is_contact":0, "geo_is_public":1, "media":"photo", "media_status":"ready"}, {"id":"13090337063", "owner":"57796198@N03", "secret":"59ac018f4d", "server":"3100", "farm":4, "title":"Little Arm", "ispublic":1, "isfriend":0, "isfamily":0, "safe":0, "ownername":"majestiele", "latitude":51.216554, "longitude":-0.780426, "accuracy":"16", "context":0, "place_id":"sLqwpl1TULtz3w", "woeid":"22151", "geo_is_family":0, "geo_is_friend":0, "geo_is_contact":0, "geo_is_public":1, "media":"photo", "media_status":"ready"}, {"id":"13090174515", "owner":"55574675@N06", "secret":"6e06cea063", "server":"3302", "farm":4, "title":"I love ....water", "ispublic":1, "isfriend":0, "isfamily":0, "safe":1, "ownername":"DirkVandeVelde back and catching up", "latitude":51.215191, "longitude":4.422527, "accuracy":"16", "context":0, "place_id":"QmWKG6VYVL2oM5M", "woeid":"967616", "geo_is_family":0, "geo_is_friend":0, "geo_is_contact":0, "geo_is_public":1, "media":"photo", "media_status":"ready"}, {"id":"13090261914", "owner":"8677054@N03", "secret":"11a6dce4f2", "server":"7365", "farm":8, "title":"Crowning glory  .  .  .  Explored!", "ispublic":1, "isfriend":0, "isfamily":0, "safe":1, "ownername":"ericrstoner", "latitude":-15.829622, "longitude":-47.917705, "accuracy":"16", "context":0, "place_id":"idVApH9VV7_Um_s", "woeid":"455819", "geo_is_family":0, "geo_is_friend":0, "geo_is_contact":0, "geo_is_public":1, "media":"photo", "media_status":"ready"}, {"id":"13089749315", "owner":"38358706@N05", "secret":"cd55a98924", "server":"3037", "farm":4, "title":"Sunset at The Watch", "ispublic":1, "isfriend":0, "isfamily":0, "safe":0, "ownername":"Caledonia Alan", "latitude":55.800509, "longitude":-2.537828, "accuracy":"10", "context":0, "place_id":"8_KD4ytTVb5Dnw", "woeid":"27408", "geo_is_family":0, "geo_is_friend":0, "geo_is_contact":0, "geo_is_public":1, "media":"photo", "media_status":"ready"}, {"id":"13089516913", "owner":"36119280@N04", "secret":"5fc0e1d41d", "server":"2883", "farm":3, "title":"Falaises d'Etretat", "ispublic":1, "isfriend":0, "isfamily":0, "safe":0, "ownername":"blichb", "latitude":49.711219, "longitude":0.204816, "accuracy":"16", "context":0, "place_id":"agZvH55UW7rnH2o", "woeid":"590324", "geo_is_family":0, "geo_is_friend":0, "geo_is_contact":0, "geo_is_public":1, "media":"photo", "media_status":"ready"}, {"id":"13089336064", "owner":"79577059@N05", "secret":"fb87bf80a2", "server":"3626", "farm":4, "title":"Contrabbasso 1", "ispublic":1, "isfriend":0, "isfamily":0, "safe":0, "ownername":"luzam 68", "latitude":45.532649, "longitude":9.039079, "accuracy":"11", "context":0, "place_id":"AHvk5b1WULsbJOY", "woeid":"721623", "geo_is_family":0, "geo_is_friend":0, "geo_is_contact":0, "geo_is_public":1, "media":"photo", "media_status":"ready"}, {"id":"13089098243", "owner":"62815410@N04", "secret":"f5c03a0d17", "server":"2681", "farm":3, "title":"the housing problem (brescia, italy)", "ispublic":1, "isfriend":0, "isfamily":0, "safe":0, "ownername":"bloodybee", "latitude":45.535408, "longitude":10.234193, "accuracy":"15", "context":0, "place_id":"WO1uGLRWU7u69ps", "woeid":"711410", "geo_is_family":0, "geo_is_friend":0, "geo_is_contact":0, "geo_is_public":1, "media":"photo", "media_status":"ready"}, {"id":"13088621063", "owner":"56205589@N00", "secret":"0b8f2e62a5", "server":"7359", "farm":8, "title":"[Explore #152] quer zum Fr\u00fchling liegt ein Stock", "ispublic":1, "isfriend":0, "isfamily":0, "safe":0, "ownername":"Froschk\u00f6nig Photos", "latitude":51.303685, "longitude":12.219833, "accuracy":"16", "context":0, "place_id":"JNr7.IhXVb4.gpY", "woeid":"674009", "geo_is_family":0, "geo_is_friend":0, "geo_is_contact":0, "geo_is_public":1, "media":"photo", "media_status":"ready"}, {"id":"13088585693", "owner":"62597931@N02", "secret":"ba304a6893", "server":"2134", "farm":3, "title":"Winston", "ispublic":1, "isfriend":0, "isfamily":0, "safe":1, "ownername":"Jim the Joker", "latitude":52.963374, "longitude":-3.065528, "accuracy":"14", "context":0, "place_id":"PyGSVnRSUrqPrg", "woeid":"30040", "geo_is_family":0, "geo_is_friend":0, "geo_is_contact":0, "geo_is_public":1, "media":"photo", "media_status":"ready"}, {"id":"13086930183", "owner":"21608855@N03", "secret":"291bf661fe", "server":"3138", "farm":4, "title":"Whip crack-away!, Whip crack-away!, Whip crack-away!", "ispublic":1, "isfriend":0, "isfamily":0, "safe":0, "ownername":"Julie Bracken", "latitude":51.241527, "longitude":-0.729212, "accuracy":"16", "context":0, "place_id":"TTnsU.1QUr_h3g", "woeid":"10559", "geo_is_family":0, "geo_is_friend":0, "geo_is_contact":0, "geo_is_public":1, "media":"photo", "media_status":"ready"}, {"id":"13086977004", "owner":"22624502@N02", "secret":"71ae42bf0e", "server":"3402", "farm":4, "title":"Santorini", "ispublic":1, "isfriend":0, "isfamily":0, "safe":0, "ownername":"songallery", "latitude":36.460248, "longitude":25.373038, "accuracy":"16", "context":0, "place_id":"5ph2HvVTVr9z0omeqA", "woeid":"24543624", "geo_is_family":0, "geo_is_friend":0, "geo_is_contact":0, "geo_is_public":1, "media":"photo", "media_status":"ready"}, {"id":"13086917574", "owner":"46723181@N02", "secret":"0e9443b7b7", "server":"2235", "farm":3, "title":"Faulpelz", "ispublic":1, "isfriend":0, "isfamily":0, "safe":1, "ownername":"Josef T\u00fcrk Reit im Winkl Chiemgau", "latitude":47.282058, "longitude":11.39813, "accuracy":"15", "context":0, "place_id":"76nK2l9UV7qXAhM", "woeid":"550744", "geo_is_family":0, "geo_is_friend":0, "geo_is_contact":0, "geo_is_public":1, "media":"photo", "media_status":"ready"}, {"id":"13086495514", "owner":"37517453@N08", "secret":"c2ab8349f0", "server":"3790", "farm":4, "title":"sunset landing \/ Explore", "ispublic":1, "isfriend":0, "isfamily":0, "safe":0, "ownername":"MK|PHOTOGRAPHY", "latitude":53.637949, "longitude":10.009349, "accuracy":"16", "context":0, "place_id":"cksTdXBXV7yTmdw", "woeid":"656958", "geo_is_family":0, "geo_is_friend":0, "geo_is_contact":0, "geo_is_public":1, "media":"photo", "media_status":"ready"}, {"id":"13086384394", "owner":"43155663@N07", "secret":"0c617756a2", "server":"7323", "farm":8, "title":"take off for spring", "ispublic":1, "isfriend":0, "isfamily":0, "safe":0, "ownername":"city\/human\/life", "latitude":51.258061, "longitude":6.752707, "accuracy":"16", "context":0, "place_id":"MA8Ke4hXVrwlyVI", "woeid":"646099", "geo_is_family":0, "geo_is_friend":0, "geo_is_contact":0, "geo_is_public":1, "media":"photo", "media_status":"ready"}, {"id":"13085253013", "owner":"21692577@N02", "secret":"57ae6ab1ae", "server":"3765", "farm":4, "title":"Sunrise on the ocean. Gasp\u00e9sie, Canada.", "ispublic":1, "isfriend":0, "isfamily":0, "safe":1, "ownername":"Danny VB", "latitude":48.407781, "longitude":-64.421424, "accuracy":"11", "context":0, "place_id":"sSFrnxZTUbkmonSnOA", "woeid":"23394550", "geo_is_family":0, "geo_is_friend":0, "geo_is_contact":0, "geo_is_public":1, "media":"photo", "media_status":"ready"}]}, "stat":"ok"}