{"photos":{"page":26,"pages":26136,"perpage":60,"total":"1568158","photo":[{"id":"14116951545","owner":"78102624@N03","secret":"b480b83bd4","server":"5567","farm":6,"title":"Zenvo [On Explore !]","ispublic":1,"isfriend":0,"isfamily":0,"safe":0,"ownername":"11MrAxel","latitude":43.763481,"longitude":7.449862,"accuracy":"15","context":0,"place_id":"SQc2zodXU7Oa1do","woeid":"619947","geo_is_family":0,"geo_is_friend":0,"geo_is_contact":0,"geo_is_public":1,"media":"photo","media_status":"ready"},{"id":"13928445967","owner":"63270671@N03","secret":"0a1769c573","server":"7199","farm":8,"title":"The Marble Church, Copenhagen - FlickR explore 05.05.2014","ispublic":1,"isfriend":0,"isfamily":0,"safe":0,"ownername":"S.R.Murphy","latitude":55.685024,"longitude":12.589495,"accuracy":"16","context":0,"place_id":"d9LEVXNTUrijnAXriw","woeid":"20229234","geo_is_family":0,"geo_is_friend":0,"geo_is_contact":0,"geo_is_public":1,"media":"photo","media_status":"ready"},{"id":"14112022832","owner":"58990969@N02","secret":"7914deb6bf","server":"2930","farm":3,"title":"Tel-Aviv's beach!","ispublic":1,"isfriend":0,"isfamily":0,"safe":0,"ownername":"Hemo Kerem","latitude":32.056736,"longitude":34.756397,"accuracy":"16","context":0,"place_id":"zlnL7tFTUL15B6F4OQ","woeid":"22725132","geo_is_family":0,"geo_is_friend":0,"geo_is_contact":0,"geo_is_public":1,"media":"photo","media_status":"ready"},{"id":"13928320329","owner":"100063725@N06","secret":"9f569b05a8","server":"7187","farm":8,"title":"Atardecer de Mayo","ispublic":1,"isfriend":0,"isfamily":0,"safe":0,"ownername":"Antonio Chac","latitude":36.501158,"longitude":-4.831902,"accuracy":"16","context":0,"place_id":"b6ANCk5WVLwQivI","woeid":"766537","geo_is_family":0,"geo_is_friend":0,"geo_is_contact":0,"geo_is_public":1,"media":"photo","media_status":"ready"},{"id":"14114882755","owner":"79792862@N05","secret":"a6d03086e7","server":"5325","farm":6,"title":"poppies - Explore! Thank you :-)","ispublic":1,"isfriend":0,"isfamily":0,"safe":0,"ownername":"sun sand & sea","latitude":45.925139,"longitude":8.564186,"accuracy":"15","context":0,"place_id":"LhZR_FFWUL8Ru8E","woeid":"725759","geo_is_family":0,"geo_is_friend":0,"geo_is_contact":0,"geo_is_public":1,"media":"photo","media_status":"ready"},{"id":"13927583979","owner":"68176223@N07","secret":"d1a924a179","server":"7038","farm":8,"title":"Surrounded by Wonder","ispublic":1,"isfriend":0,"isfamily":0,"safe":0,"ownername":"Franco Beccari","latitude":43.782371,"longitude":11.254989,"accuracy":"11","context":0,"place_id":"ZPDshblWU7_DgSs","woeid":"715496","geo_is_family":0,"geo_is_friend":0,"geo_is_contact":0,"geo_is_public":1,"media":"photo","media_status":"ready"},{"id":"14090990796","owner":"48106631@N02","secret":"6e33793b48","server":"7394","farm":8,"title":"Mers-les-Bains, Somme, Picardie, France: Front de mer compos\u00e9 de superbes villas de la\"Belle Epoque\" et de style\"Art Nouveau\", Sea front composite of magnificent villas of the \"Belle Epoque\" and of style \"Art nouveau\"","ispublic":1,"isfriend":0,"isfamily":0,"safe":0,"ownername":"Histgeo","latitude":50.066211,"longitude":1.38608,"accuracy":"11","context":0,"place_id":"JUWSZG5XU7uRMwY","woeid":"611171","geo_is_family":0,"geo_is_friend":0,"geo_is_contact":0,"geo_is_public":1,"media":"photo","media_status":"ready"},{"id":"13927247879","owner":"94855723@N03","secret":"859c90c126","server":"7298","farm":8,"title":"The old bridge","ispublic":1,"isfriend":0,"isfamily":0,"safe":0,"ownername":"ArveBerntzen","latitude":63.324399,"longitude":10.827026,"accuracy":"10","context":0,"place_id":"CL_ThApQUL.Iz5eEhA","woeid":"12592995","geo_is_family":0,"geo_is_friend":0,"geo_is_contact":0,"geo_is_public":1,"media":"photo","media_status":"ready"},{"id":"14133824783","owner":"38634749@N02","secret":"d5566fdc0e","server":"7325","farm":8,"title":"IMG_6839 Landscape(Castilla la Mancha-Dam Buendia) - Seen On Explore - 2014-05-05 # 206","ispublic":1,"isfriend":0,"isfamily":0,"safe":0,"ownername":"jaro-es","latitude":40.371658,"longitude":-2.714996,"accuracy":"9","context":0,"place_id":"vBItQlhWV74ZjYc","woeid":"754994","geo_is_family":0,"geo_is_friend":0,"geo_is_contact":0,"geo_is_public":1,"media":"photo","media_status":"ready"},{"id":"14113670575","owner":"51647010@N07","secret":"2066a86493","server":"7193","farm":8,"title":"Groentje op braambloesem ..... callophrys rubi !! EXPLORE.","ispublic":1,"isfriend":0,"isfamily":0,"safe":0,"ownername":"jac hendrix","latitude":51.443509,"longitude":6.190667,"accuracy":"15","context":0,"place_id":"zV9IItdWUbsOqiA","woeid":"731378","geo_is_family":0,"geo_is_friend":0,"geo_is_contact":0,"geo_is_public":1,"media":"photo","media_status":"ready"},{"id":"14113606044","owner":"36929237@N00","secret":"13c13b42ce","server":"7307","farm":8,"title":"WWII Memorial, Washington DC","ispublic":1,"isfriend":0,"isfamily":0,"safe":0,"ownername":"D. Scott McLeod","latitude":38.889312,"longitude":-77.04051,"accuracy":"16","context":0,"place_id":"yGjKdflTVrwevHjs","woeid":"2462087","geo_is_family":0,"geo_is_friend":0,"geo_is_contact":0,"geo_is_public":1,"media":"photo","media_status":"ready"},{"id":"14109623082","owner":"63412147@N05","secret":"9b45ccabbe","server":"7437","farm":8,"title":"LIRIO -EXPLORE- (5\/MAYO\/2014)","ispublic":1,"isfriend":0,"isfamily":0,"safe":0,"ownername":"Susana M.L.","latitude":40.959516,"longitude":-5.665254,"accuracy":"16","context":0,"place_id":"S1ti_DhWVbjLtSw","woeid":"772416","geo_is_family":0,"geo_is_friend":0,"geo_is_contact":0,"geo_is_public":1,"media":"photo","media_status":"ready"},{"id":"14132628663","owner":"65788104@N08","secret":"0471d79f88","server":"2936","farm":3,"title":"Woken The Sleeping Dragon.(EXPLORED 05-05-2014)","ispublic":1,"isfriend":0,"isfamily":0,"safe":0,"ownername":"Natures Art Photography.Updated Profile, Read.","latitude":50.72805,"longitude":-3.719249,"accuracy":"5","context":0,"place_id":"2eIY2QFTVr_DwWZNLg","woeid":"24554868","geo_is_family":0,"geo_is_friend":0,"geo_is_contact":0,"geo_is_public":1,"media":"photo","media_status":"ready"},{"id":"14132514713","owner":"32126965@N07","secret":"3771106350","server":"7318","farm":8,"title":"Beautiful Pink Blossom ..","ispublic":1,"isfriend":0,"isfamily":0,"safe":0,"ownername":"* Janets Photos*","latitude":53.780115,"longitude":-0.304441,"accuracy":"13","context":0,"place_id":"PHxyVHBSVLy5NA","woeid":"36697","geo_is_family":0,"geo_is_friend":0,"geo_is_contact":0,"geo_is_public":1,"media":"photo","media_status":"ready"},{"id":"14131977683","owner":"36074435@N00","secret":"104bb27ac2","server":"7372","farm":8,"title":"Nen\u00fafar groc ( EXPLORE 05-05-2014 )","ispublic":1,"isfriend":0,"isfamily":0,"safe":0,"ownername":"bertanuri","latitude":41.5976,"longitude":2.542819,"accuracy":"13","context":0,"place_id":"R0U9KlJWV7hDm.E","woeid":"752826","geo_is_family":0,"geo_is_friend":0,"geo_is_contact":0,"geo_is_public":1,"media":"photo","media_status":"ready"},{"id":"13921524229","owner":"93552639@N07","secret":"b840622a22","server":"5235","farm":6,"title":"A vista de Faro!! EXPLORE","ispublic":1,"isfriend":0,"isfamily":0,"safe":0,"ownername":"LA COPPIA NOTTE","latitude":43.305693,"longitude":-8.858413,"accuracy":"11","context":0,"place_id":"ImOAwDFWV7IViKo","woeid":"758020","geo_is_family":0,"geo_is_friend":0,"geo_is_contact":0,"geo_is_public":1,"media":"photo","media_status":"ready"},{"id":"13919533199","owner":"73414467@N02","secret":"293c621e44","server":"7066","farm":8,"title":"Flor.-","ispublic":1,"isfriend":0,"isfamily":0,"safe":0,"ownername":"Jos\u00e9 Luis Vega","latitude":40.411127,"longitude":-3.691151,"accuracy":"16","context":0,"place_id":"XrSazRhTUrh4j1shyQ","woeid":"20219885","geo_is_family":0,"geo_is_friend":0,"geo_is_contact":0,"geo_is_public":1,"media":"photo","media_status":"ready"},{"id":"13918788540","owner":"67353277@N02","secret":"29ebdbb112","server":"5221","farm":6,"title":"Tuss - Explore 06.05.2014 - Thank you!","ispublic":1,"isfriend":0,"isfamily":0,"safe":0,"ownername":"Carolin de Verdier","latitude":56.033019,"longitude":13.886933,"accuracy":"14","context":0,"place_id":"NDMbL0dZW7MteKM","woeid":"899243","geo_is_family":0,"geo_is_friend":0,"geo_is_contact":0,"geo_is_public":1,"media":"photo","media_status":"ready"},{"id":"14102145232","owner":"62815410@N04","secret":"41ebd0b5b9","server":"2921","farm":3,"title":"poppy (brescia, italy)","ispublic":1,"isfriend":0,"isfamily":0,"safe":0,"ownername":"bloodybee","latitude":45.535566,"longitude":10.23473,"accuracy":"16","context":0,"place_id":"WO1uGLRWU7u69ps","woeid":"711410","geo_is_family":0,"geo_is_friend":0,"geo_is_contact":0,"geo_is_public":1,"media":"photo","media_status":"ready"},{"id":"14104004204","owner":"36426732@N05","secret":"8b5eed8006","server":"5590","farm":6,"title":"Swoon: Submerged Motherlands @ Brooklyn Museum","ispublic":1,"isfriend":0,"isfamily":0,"safe":0,"ownername":"ZUCCONY","latitude":40.673797,"longitude":-73.968828,"accuracy":"16","context":0,"place_id":"uUNC_q9TWr1vROR4wA","woeid":"28751452","geo_is_family":0,"geo_is_friend":0,"geo_is_contact":0,"geo_is_public":1,"media":"photo","media_status":"ready"},{"id":"13916528118","owner":"65949682@N00","secret":"2557579d81","server":"2905","farm":3,"title":"Moonbase Alpha","ispublic":1,"isfriend":0,"isfamily":0,"safe":0,"ownername":"OR_U","latitude":39.455633,"longitude":-0.353345,"accuracy":"16","context":0,"place_id":"vSl0.s1TUrhu33kroQ","woeid":"20220217","geo_is_family":0,"geo_is_friend":0,"geo_is_contact":0,"geo_is_public":1,"media":"photo","media_status":"ready"},{"id":"13915500488","owner":"90171217@N06","secret":"c7c7f7f1de","server":"7370","farm":8,"title":"Silver Sea","ispublic":1,"isfriend":0,"isfamily":0,"safe":0,"ownername":"lars1387","latitude":59.048113,"longitude":10.269255,"accuracy":"16","context":0,"place_id":"4F7PLxlZVLs7Z40","woeid":"861093","geo_is_family":0,"geo_is_friend":0,"geo_is_contact":0,"geo_is_public":1,"media":"photo","media_status":"ready"},{"id":"13912181759","owner":"51058542@N02","secret":"17ca5cd2d5","server":"2932","farm":3,"title":"Intrigue","ispublic":1,"isfriend":0,"isfamily":0,"safe":0,"ownername":"Digital Dick Photography","latitude":45.50473,"longitude":-73.550504,"accuracy":"16","context":0,"place_id":"ewedFCtTVLmNfbik7g","woeid":"26332792","geo_is_family":0,"geo_is_friend":0,"geo_is_contact":0,"geo_is_public":1,"media":"photo","media_status":"ready"},{"id":"14098044765","owner":"44736926@N04","secret":"8afb279736","server":"5571","farm":6,"title":"Welcome to my Grove!","ispublic":1,"isfriend":0,"isfamily":0,"safe":0,"ownername":"peggyjdb","latitude":55.788542,"longitude":-3.801269,"accuracy":"10","context":0,"place_id":"qGH5j7dSVr0Ycw","woeid":"34745","geo_is_family":0,"geo_is_friend":0,"geo_is_contact":0,"geo_is_public":1,"media":"photo","media_status":"ready"},{"id":"13910377030","owner":"100063725@N06","secret":"a3026981e8","server":"7386","farm":8,"title":"Parapente al atardecer","ispublic":1,"isfriend":0,"isfamily":0,"safe":0,"ownername":"Antonio Chac","latitude":36.501262,"longitude":-4.832546,"accuracy":"16","context":0,"place_id":"b6ANCk5WVLwQivI","woeid":"766537","geo_is_family":0,"geo_is_friend":0,"geo_is_contact":0,"geo_is_public":1,"media":"photo","media_status":"ready"},{"id":"14096250855","owner":"44235200@N08","secret":"23dc7efcd7","server":"7378","farm":8,"title":"The Estuary (Explored 04\/05\/14)","ispublic":1,"isfriend":0,"isfamily":0,"safe":0,"ownername":"Dave Lockwood DA12","latitude":51.45636,"longitude":0.719432,"accuracy":"12","context":0,"place_id":"jyL.425TU76vMg","woeid":"21467","geo_is_family":0,"geo_is_friend":0,"geo_is_contact":0,"geo_is_public":1,"media":"photo","media_status":"ready"},{"id":"13908820017","owner":"63412147@N05","secret":"da0eb40b19","server":"7381","farm":8,"title":"CONTIGO HASTA EL FINAL","ispublic":1,"isfriend":0,"isfamily":0,"safe":0,"ownername":"Susana M.L.","latitude":40.78808,"longitude":0.760116,"accuracy":"11","context":0,"place_id":"DZSPo9xTUrgueEipjw","woeid":"20221278","geo_is_family":0,"geo_is_friend":0,"geo_is_contact":0,"geo_is_public":1,"media":"photo","media_status":"ready"},{"id":"14092227455","owner":"65949682@N00","secret":"8f3832894b","server":"5193","farm":6,"title":"Could someone please explain to me your ever present lack of speed?","ispublic":1,"isfriend":0,"isfamily":0,"safe":0,"ownername":"OR_U","latitude":39.457161,"longitude":-0.329845,"accuracy":"16","context":0,"place_id":"vIyLPqlTUrjdN6QxyA","woeid":"20220212","geo_is_family":0,"geo_is_friend":0,"geo_is_contact":0,"geo_is_public":1,"media":"photo","media_status":"ready"},{"id":"14068907866","owner":"92686475@N00","secret":"33df1dc512","server":"5193","farm":6,"title":"Fence Gallery","ispublic":1,"isfriend":0,"isfamily":0,"safe":1,"ownername":"Timothy Valentine","latitude":25.78687,"longitude":-80.133828,"accuracy":"16","context":0,"place_id":"9VrFk_hTUb.EdtPJSg","woeid":"23512178","geo_is_family":0,"geo_is_friend":0,"geo_is_contact":0,"geo_is_public":1,"media":"photo","media_status":"ready"},{"id":"14111288883","owner":"22897666@N00","secret":"431444b862","server":"7326","farm":8,"title":"Elvis Sells Furniture *Explore*","ispublic":1,"isfriend":0,"isfamily":0,"safe":0,"ownername":"Catskills Photography","latitude":41.652905,"longitude":-74.663772,"accuracy":"10","context":0,"place_id":"hzYzWUdTVr8Dc249","woeid":"2453452","geo_is_family":0,"geo_is_friend":0,"geo_is_contact":0,"geo_is_public":1,"media":"photo","media_status":"ready"},{"id":"13903797708","owner":"62815410@N04","secret":"e5b19c5028","server":"7193","farm":8,"title":"life (brescia, italy)","ispublic":1,"isfriend":0,"isfamily":0,"safe":0,"ownername":"bloodybee","latitude":45.535806,"longitude":10.234515,"accuracy":"16","context":0,"place_id":"WO1uGLRWU7u69ps","woeid":"711410","geo_is_family":0,"geo_is_friend":0,"geo_is_contact":0,"geo_is_public":1,"media":"photo","media_status":"ready"},{"id":"13903620230","owner":"30625665@N00","secret":"c3e719292b","server":"7303","farm":8,"title":"Feral Friday*","ispublic":1,"isfriend":0,"isfamily":0,"safe":0,"ownername":"Kyre Wood","latitude":25.403584,"longitude":46.801757,"accuracy":"4","context":0,"place_id":"4rwZy6tTUb5CS2j3","woeid":"2346951","geo_is_family":0,"geo_is_friend":0,"geo_is_contact":0,"geo_is_public":1,"media":"photo","media_status":"ready"},{"id":"13902760967","owner":"68404761@N05","secret":"fe4fb3daa4","server":"7344","farm":8,"title":"The rider. (Explore)","ispublic":1,"isfriend":0,"isfamily":0,"safe":0,"ownername":"Juan J Martinez","latitude":36.095233,"longitude":-5.443468,"accuracy":"14","context":0,"place_id":"Xhct.L1TUrgTpBBU2Q","woeid":"20223173","geo_is_family":0,"geo_is_friend":0,"geo_is_contact":0,"geo_is_public":1,"media":"photo","media_status":"ready"},{"id":"13900234857","owner":"87204605@N02","secret":"6cf81ebce3","server":"7422","farm":8,"title":"Morgennebel","ispublic":1,"isfriend":0,"isfamily":0,"safe":0,"ownername":"Mariandl48","latitude":47.449306,"longitude":15.78186,"accuracy":"14","context":0,"place_id":"ZqaXj25UVrPcYN0","woeid":"549950","geo_is_family":0,"geo_is_friend":0,"geo_is_contact":0,"geo_is_public":1,"media":"photo","media_status":"ready"},{"id":"14084015835","owner":"41960398@N08","secret":"59d1b6c985","server":"7320","farm":8,"title":"Le Vers Explore 05\/01\/14 # 11","ispublic":1,"isfriend":0,"isfamily":0,"safe":0,"ownername":"TeF46","latitude":44.549698,"longitude":1.565642,"accuracy":"16","context":0,"place_id":"ZYacqAVXUL9vNdQ","woeid":"625655","geo_is_family":0,"geo_is_friend":0,"geo_is_contact":0,"geo_is_public":1,"media":"photo","media_status":"ready"},{"id":"14082655764","owner":"48988488@N04","secret":"7eb3a84a83","server":"5508","farm":6,"title":"elettrogrigna","ispublic":1,"isfriend":0,"isfamily":0,"safe":0,"ownername":"claudius1954","latitude":45.930229,"longitude":9.564671,"accuracy":"15","context":0,"place_id":"EZaxEO9WUL8lEmI","woeid":"725711","geo_is_family":0,"geo_is_friend":0,"geo_is_contact":0,"geo_is_public":1,"media":"photo","media_status":"ready"},{"id":"13894980199","owner":"21488930@N04","secret":"53c4f5f3a3","server":"7434","farm":8,"title":"\u2600...confusion....0105","ispublic":1,"isfriend":0,"isfamily":0,"safe":0,"ownername":"\u01bfier","latitude":43.774578,"longitude":7.504439,"accuracy":"11","context":0,"place_id":"itzRpAdXU7sCQMI","woeid":"611033","geo_is_family":0,"geo_is_friend":0,"geo_is_contact":0,"geo_is_public":1,"media":"photo","media_status":"ready"},{"id":"13893418807","owner":"8288986@N06","secret":"8c127e914b","server":"7368","farm":8,"title":"Ma\u00e7ka","ispublic":1,"isfriend":0,"isfamily":0,"safe":0,"ownername":"aycasan","latitude":40.809651,"longitude":39.616699,"accuracy":"9","context":0,"place_id":"Z5g4aUVTUb4BMukK","woeid":"2347312","geo_is_family":0,"geo_is_friend":0,"geo_is_contact":0,"geo_is_public":1,"media":"photo","media_status":"ready"},{"id":"14054242056","owner":"36426732@N05","secret":"802047a0d2","server":"5454","farm":6,"title":"The Dinner Party by Judy Chicago","ispublic":1,"isfriend":0,"isfamily":0,"safe":0,"ownername":"ZUCCONY","latitude":40.673797,"longitude":-73.968828,"accuracy":"16","context":0,"place_id":"uUNC_q9TWr1vROR4wA","woeid":"28751452","geo_is_family":0,"geo_is_friend":0,"geo_is_contact":0,"geo_is_public":1,"media":"photo","media_status":"ready"},{"id":"14071153941","owner":"35084357@N06","secret":"0fd4924044","server":"2938","farm":3,"title":"Pont Aven","ispublic":1,"isfriend":0,"isfamily":0,"safe":0,"ownername":"flo 59","latitude":47.854868,"longitude":-3.748655,"accuracy":"14","context":0,"place_id":"nL5YgPNXU73sG_4","woeid":"617326","geo_is_family":0,"geo_is_friend":0,"geo_is_contact":0,"geo_is_public":1,"media":"photo","media_status":"ready"},{"id":"13886377178","owner":"60913863@N08","secret":"170e616f08","server":"7449","farm":8,"title":"Sunset","ispublic":1,"isfriend":0,"isfamily":0,"safe":0,"ownername":"Goethe58","latitude":44.879866,"longitude":12.440385,"accuracy":"14","context":0,"place_id":"43JSZIRWULmQYnk","woeid":"723862","geo_is_family":0,"geo_is_friend":0,"geo_is_contact":0,"geo_is_public":1,"media":"photo","media_status":"ready"},{"id":"14092650763","owner":"46944516@N00","secret":"51b5979de3","server":"7378","farm":8,"title":"Fruit shopping","ispublic":1,"isfriend":0,"isfamily":0,"safe":0,"ownername":"pedrosimoes7","latitude":38.749263,"longitude":-9.202938,"accuracy":"16","context":0,"place_id":"_3e4tglWUb2ktRo","woeid":"737200","geo_is_family":0,"geo_is_friend":0,"geo_is_contact":0,"geo_is_public":1,"media":"photo","media_status":"ready"},{"id":"14068284282","owner":"66644631@N05","secret":"67b9b954b1","server":"7205","farm":8,"title":"Orange flower","ispublic":1,"isfriend":0,"isfamily":0,"safe":0,"ownername":"jmlpyt","latitude":48.837661,"longitude":2.445359,"accuracy":"14","context":0,"place_id":"C9kmhglQULxJDv0pvg","woeid":"12654592","geo_is_family":0,"geo_is_friend":0,"geo_is_contact":0,"geo_is_public":1,"media":"photo","media_status":"ready"},{"id":"14088098193","owner":"26849514@N06","secret":"d3bc17262c","server":"5468","farm":6,"title":"Landscape In the polder","ispublic":1,"isfriend":0,"isfamily":0,"safe":0,"ownername":"Frans.Sellies","latitude":52.344149,"longitude":5.310516,"accuracy":"11","context":0,"place_id":"I8jfc_5TUrqjIjg5Ww","woeid":"20064106","geo_is_family":0,"geo_is_friend":0,"geo_is_contact":0,"geo_is_public":1,"media":"photo","media_status":"ready"},{"id":"14064620662","owner":"16176711@N02","secret":"3df57a5907","server":"5196","farm":6,"title":"7 spot on my finger! {explored}","ispublic":1,"isfriend":0,"isfamily":0,"safe":0,"ownername":"conall..","latitude":54.373806,"longitude":-5.771683,"accuracy":"14","context":0,"place_id":"j.kTtIdVVr601g","woeid":"44437","geo_is_family":0,"geo_is_friend":0,"geo_is_contact":0,"geo_is_public":1,"media":"photo","media_status":"ready"},{"id":"14064543001","owner":"53196512@N07","secret":"a5a56918e9","server":"2935","farm":3,"title":"Afraid Of The Dark (All In Camera Light Painting), Logarska Dolina Slovenia","ispublic":1,"isfriend":0,"isfamily":0,"safe":0,"ownername":"flatworldsedge","latitude":46.369526,"longitude":14.584393,"accuracy":"15","context":0,"place_id":"zeGYFNlUUbuHgDE","woeid":"531066","geo_is_family":0,"geo_is_friend":0,"geo_is_contact":0,"geo_is_public":1,"media":"photo","media_status":"ready"},{"id":"14043671276","owner":"81035653@N00","secret":"95511b7774","server":"7176","farm":8,"title":"A festive boat parade on Kingsday","ispublic":1,"isfriend":0,"isfamily":0,"safe":0,"ownername":"B\u212en","latitude":52.370608,"longitude":4.8828,"accuracy":"16","context":0,"place_id":"xfcEFYhWULKtjYI","woeid":"728410","geo_is_family":0,"geo_is_friend":0,"geo_is_contact":0,"geo_is_public":1,"media":"photo","media_status":"ready"},{"id":"14063289421","owner":"63118615@N02","secret":"cfc364c946","server":"7382","farm":8,"title":"Lugnano in Teverina - 2014","ispublic":1,"isfriend":0,"isfamily":0,"safe":0,"ownername":"Enzo D.","latitude":42.574463,"longitude":12.33033,"accuracy":"16","context":0,"place_id":"oOTf2T5WU72lNuY","woeid":"717487","geo_is_family":0,"geo_is_friend":0,"geo_is_contact":0,"geo_is_public":1,"media":"photo","media_status":"ready"},{"id":"14059196192","owner":"31804708@N02","secret":"8661875121","server":"7347","farm":8,"title":"Edificios - Buildings","ispublic":1,"isfriend":0,"isfamily":0,"safe":0,"ownername":"celta4","latitude":-34.609493,"longitude":-58.374567,"accuracy":"16","context":0,"place_id":"RgCaT.9TUL9QKn3R3A","woeid":"22530019","geo_is_family":0,"geo_is_friend":0,"geo_is_contact":0,"geo_is_public":1,"media":"photo","media_status":"ready"},{"id":"14058783321","owner":"90451570@N07","secret":"6fc5874ec8","server":"7313","farm":8,"title":"In the Orchard at Dyrham","ispublic":1,"isfriend":0,"isfamily":0,"safe":0,"ownername":"CarolynEaton","latitude":51.479739,"longitude":-2.375493,"accuracy":"15","context":0,"place_id":"QDXgWVlQWrIuZw","woeid":"18810","geo_is_family":0,"geo_is_friend":0,"geo_is_contact":0,"geo_is_public":1,"media":"photo","media_status":"ready"},{"id":"14055851291","owner":"30929954@N03","secret":"69d8cc3c7e","server":"5460","farm":6,"title":"3x2sei","ispublic":1,"isfriend":0,"isfamily":0,"safe":0,"ownername":"carlo tardani","latitude":43.467029,"longitude":11.04034,"accuracy":"11","context":0,"place_id":"jVOrQ1hWULiNUcY","woeid":"722569","geo_is_family":0,"geo_is_friend":0,"geo_is_contact":0,"geo_is_public":1,"media":"photo","media_status":"ready"},{"id":"14051399602","owner":"67055100@N00","secret":"2582106faa","server":"7073","farm":8,"title":"Jay in flight","ispublic":1,"isfriend":0,"isfamily":0,"safe":0,"ownername":"Rivertay07 - thanks for over 2 million views","latitude":51.712419,"longitude":-0.009284,"accuracy":"16","context":0,"place_id":"JDwdYcBSWrnXdg","woeid":"38357","geo_is_family":0,"geo_is_friend":0,"geo_is_contact":0,"geo_is_public":1,"media":"photo","media_status":"ready"},{"id":"14049663931","owner":"44827272@N03","secret":"47496e664e","server":"7207","farm":8,"title":"Quit and peace Explore","ispublic":1,"isfriend":0,"isfamily":0,"safe":0,"ownername":"Snoek2009","latitude":53.355326,"longitude":6.600873,"accuracy":"16","context":0,"place_id":"6Cz3_51WUbm12.U","woeid":"733672","geo_is_family":0,"geo_is_friend":0,"geo_is_contact":0,"geo_is_public":1,"media":"photo","media_status":"ready"},{"id":"14049485522","owner":"93704958@N03","secret":"c93f8529f8","server":"5027","farm":6,"title":"Tower Bridge","ispublic":1,"isfriend":0,"isfamily":0,"safe":0,"ownername":"Jazzteffe","latitude":51.505216,"longitude":-0.07656,"accuracy":"12","context":0,"place_id":"v70Y8qlTUrrLiiTZAg","woeid":"20094363","geo_is_family":0,"geo_is_friend":0,"geo_is_contact":0,"geo_is_public":1,"media":"photo","media_status":"ready"},{"id":"14028177706","owner":"59255758@N02","secret":"3a0be35457","server":"2923","farm":3,"title":"Ombre e colori nei campi","ispublic":1,"isfriend":0,"isfamily":0,"safe":0,"ownername":"Emybux","latitude":42.828979,"longitude":13.205619,"accuracy":"11","context":0,"place_id":"IcB85V1WU7lCiZ8","woeid":"713407","geo_is_family":0,"geo_is_friend":0,"geo_is_contact":0,"geo_is_public":1,"media":"photo","media_status":"ready"},{"id":"14047635252","owner":"89558472@N00","secret":"62d45e1bdc","server":"2939","farm":3,"title":"Hepworth style!","ispublic":1,"isfriend":0,"isfamily":0,"safe":0,"ownername":"Jawad Q","latitude":53.675713,"longitude":-1.491436,"accuracy":"16","context":0,"place_id":"3I5pWWJQUr5qXw","woeid":"10450","geo_is_family":0,"geo_is_friend":0,"geo_is_contact":0,"geo_is_public":1,"media":"photo","media_status":"ready"},{"id":"14047569231","owner":"29225114@N08","secret":"d07f68543d","server":"5038","farm":6,"title":"Wide-eye? No - thick-knee!","ispublic":1,"isfriend":0,"isfamily":0,"safe":0,"ownername":"Sergei Golyshev","latitude":-2.791482,"longitude":34.979782,"accuracy":"11","context":0,"place_id":"0r2bQrZTUb7SUIZ0","woeid":"2347359","geo_is_family":0,"geo_is_friend":0,"geo_is_contact":0,"geo_is_public":1,"media":"photo","media_status":"ready"},{"id":"14050625784","owner":"93552639@N07","secret":"68f66fa09c","server":"5081","farm":6,"title":"Nariga, Dreams in Lighthouse !! EXPLORE","ispublic":1,"isfriend":0,"isfamily":0,"safe":0,"ownername":"LA COPPIA NOTTE","latitude":43.31069,"longitude":-8.813095,"accuracy":"11","context":0,"place_id":"P2IVWaNWVLyAB4M","woeid":"766403","geo_is_family":0,"geo_is_friend":0,"geo_is_contact":0,"geo_is_public":1,"media":"photo","media_status":"ready"},{"id":"14068389523","owner":"38181284@N06","secret":"983e6ae787","server":"5156","farm":6,"title":"Take Flight","ispublic":1,"isfriend":0,"isfamily":0,"safe":0,"ownername":"vulture labs","latitude":51.506926,"longitude":-0.074501,"accuracy":"13","context":0,"place_id":"v70Y8qlTUrrLiiTZAg","woeid":"20094363","geo_is_family":0,"geo_is_friend":0,"geo_is_contact":0,"geo_is_public":1,"media":"photo","media_status":"ready"},{"id":"14048070275","owner":"39669415@N05","secret":"2ae420947d","server":"5023","farm":6,"title":"Last daylight and threatening skies","ispublic":1,"isfriend":0,"isfamily":0,"safe":0,"ownername":"BraCom (Bram)","latitude":51.755519,"longitude":4.105116,"accuracy":"16","context":0,"place_id":"Z_00AWBWULIbWTM","woeid":"728741","geo_is_family":0,"geo_is_friend":0,"geo_is_contact":0,"geo_is_public":1,"media":"photo","media_status":"ready"}]},"stat":"ok"}