{"photos":{"page":53,"pages":26696,"perpage":60,"total":"1601718","photo":[{"id":"9166389344","owner":"90282975@N06","secret":"ddf52566b8","server":"7368","farm":8,"title":"Adidas","ispublic":1,"isfriend":0,"isfamily":0,"safe":1,"ownername":"LevisWagnonPhoto","latitude":49.894729,"longitude":2.293159,"accuracy":"11","context":0,"place_id":"ymOQFY1UVb.ktQY","woeid":"575961","geo_is_family":0,"geo_is_friend":0,"geo_is_contact":0,"geo_is_public":1,"media":"photo","media_status":"ready"},{"id":"8745691478","owner":"32208367@N04","secret":"5ac6d5aa36","server":"7290","farm":8,"title":"My sisters keeper","ispublic":1,"isfriend":0,"isfamily":0,"safe":1,"ownername":"mentalPICTURE","latitude":52.478588,"longitude":-1.908599,"accuracy":"11","context":0,"place_id":"KbEnpbtQUL32Yw","woeid":"12723","geo_is_family":0,"geo_is_friend":0,"geo_is_contact":0,"geo_is_public":1,"media":"photo","media_status":"ready"},{"id":"8722590517","owner":"32208367@N04","secret":"ea10726aa5","server":"7365","farm":8,"title":"Shoot from a relaxed point of view","ispublic":1,"isfriend":0,"isfamily":0,"safe":1,"ownername":"mentalPICTURE","latitude":51.85419,"longitude":-2.226819,"accuracy":"11","context":0,"place_id":"j2iJZ8ZTU7hZwA","woeid":"21248","geo_is_family":0,"geo_is_friend":0,"geo_is_contact":0,"geo_is_public":1,"media":"photo","media_status":"ready"},{"id":"8606765571","owner":"61674778@N07","secret":"ac183663ac","server":"8121","farm":9,"title":"Hanneke, Amsterdam 2013: Lit up by the sun","ispublic":1,"isfriend":0,"isfamily":0,"safe":0,"ownername":"mdiepraam","latitude":52.369153,"longitude":4.878916,"accuracy":"14","context":0,"place_id":"xfcEFYhWULKtjYI","woeid":"728410","geo_is_family":0,"geo_is_friend":0,"geo_is_contact":0,"geo_is_public":1,"media":"photo","media_status":"ready"},{"id":"8314190224","owner":"54612410@N05","secret":"4509ee7bce","server":"8495","farm":9,"title":"Jotunheimen - Norwegen - Norge - Norway","ispublic":1,"isfriend":0,"isfamily":0,"safe":1,"ownername":"gurou45","latitude":61.549273,"longitude":7.902356,"accuracy":"16","context":0,"place_id":"i0dCiSdTUb5U2Nix","woeid":"2346391","geo_is_family":0,"geo_is_friend":0,"geo_is_contact":0,"geo_is_public":1,"media":"photo","media_status":"ready"},{"id":"8270456714","owner":"28448205@N04","secret":"242e2a0638","server":"8351","farm":9,"title":"Passo di Danza - Book in esterna con Laura","ispublic":1,"isfriend":0,"isfamily":0,"safe":1,"ownername":"Luca Querzoli Fotografo alias LQ Photographer","latitude":45.092383,"longitude":7.659015,"accuracy":"15","context":0,"place_id":"307mjFpWU7_pJ_8S","woeid":"7153341","geo_is_family":0,"geo_is_friend":0,"geo_is_contact":0,"geo_is_public":1,"media":"photo","media_status":"ready"},{"id":"8101081389","owner":"56398981@N03","secret":"dd444a8f1f","server":"8475","farm":9,"title":"scale","ispublic":1,"isfriend":0,"isfamily":0,"safe":0,"ownername":"Tobia Scandolara Photographer","latitude":38.725669,"longitude":-9.150369,"accuracy":"11","context":0,"place_id":"D08qJBRWVrjs0Ek","woeid":"742676","geo_is_family":0,"geo_is_friend":0,"geo_is_contact":0,"geo_is_public":1,"media":"photo","media_status":"ready"},{"id":"7809926820","owner":"73522929@N05","secret":"459c44ffd7","server":"8431","farm":9,"title":"Delft NL A penny for his thoughts (replaced)","ispublic":1,"isfriend":0,"isfamily":0,"safe":1,"ownername":"Edwin van Tilburg, I will FB but read profile thx!","latitude":52.013288,"longitude":4.359759,"accuracy":"15","context":0,"place_id":"FOSyF_BWUbk_ZYY","woeid":"733386","geo_is_family":0,"geo_is_friend":0,"geo_is_contact":0,"geo_is_public":1,"media":"photo","media_status":"ready"},{"id":"7536863382","owner":"9019841@N08","secret":"c11cf6c78d","server":"8007","farm":9,"title":"Potlogi","ispublic":1,"isfriend":0,"isfamily":0,"safe":0,"ownername":"fusion-of-horizons","latitude":44.564208,"longitude":25.588102,"accuracy":"14","context":0,"place_id":"3oaMv7NZVbIzCn8","woeid":"878452","geo_is_family":0,"geo_is_friend":0,"geo_is_contact":0,"geo_is_public":1,"media":"photo","media_status":"ready"},{"id":"7300158692","owner":"29394931@N06","secret":"0c41efd68a","server":"8008","farm":9,"title":"U-Bahn","ispublic":1,"isfriend":0,"isfamily":0,"safe":1,"ownername":"\u2203Scape","latitude":48.137067,"longitude":11.575046,"accuracy":"16","context":0,"place_id":"VoG2Y_lXVby7TOA","woeid":"676757","geo_is_family":0,"geo_is_friend":0,"geo_is_contact":0,"geo_is_public":1,"media":"photo","media_status":"ready"},{"id":"6936011764","owner":"71208464@N08","secret":"f0bace6317","server":"5192","farm":6,"title":"darkness, light & vapor","ispublic":1,"isfriend":0,"isfamily":0,"safe":1,"ownername":"Jake Blues Photography","latitude":50.114345,"longitude":8.682267,"accuracy":"14","context":0,"place_id":"Z0FRRfRXV7oIeew","woeid":"650272","geo_is_family":0,"geo_is_friend":0,"geo_is_contact":0,"geo_is_public":1,"media":"photo","media_status":"ready"},{"id":"6892057418","owner":"29394931@N06","secret":"42eff2c7cb","server":"7039","farm":8,"title":"Chapelle Palatiale","ispublic":1,"isfriend":0,"isfamily":0,"safe":1,"ownername":"\u2203Scape","latitude":48.805019,"longitude":2.122126,"accuracy":"16","context":0,"place_id":"5iR9_FBWU79PKpR_","woeid":"7153314","geo_is_family":0,"geo_is_friend":0,"geo_is_contact":0,"geo_is_public":1,"media":"photo","media_status":"ready"},{"id":"6112220055","owner":"24822386@N02","secret":"7a1051faab","server":"6185","farm":7,"title":"Petunias. Buena cosecha. \/ Good harvest.","ispublic":1,"isfriend":0,"isfamily":0,"safe":1,"ownername":"berpala","latitude":42.596344,"longitude":-5.57878,"accuracy":"14","context":0,"place_id":"kfFzcjVWVL98rn4","woeid":"765099","geo_is_family":0,"geo_is_friend":0,"geo_is_contact":0,"geo_is_public":1,"media":"photo","media_status":"ready"},{"id":"5813279181","owner":"25959337@N00","secret":"3c73220316","server":"2015","farm":3,"title":"Ytre Siem, reflections","ispublic":1,"isfriend":0,"isfamily":0,"safe":0,"ownername":"Martin Ystenes - celebrating 5 million views","latitude":62.585813,"longitude":7.539689,"accuracy":"15","context":0,"place_id":"uWNOAutUV7LooxesIA","woeid":"55871595","geo_is_family":0,"geo_is_friend":0,"geo_is_contact":0,"geo_is_public":1,"media":"photo","media_status":"ready"},{"id":"5577626270","owner":"42761333@N07","secret":"d8ba851e37","server":"5306","farm":6,"title":"Happy St George's Day. Feli\u00e7 diada de Sant Jordi, Feliz d\u00eda de San Jorge!","ispublic":1,"isfriend":0,"isfamily":0,"safe":0,"ownername":"Ricardodaforce","latitude":38.378123,"longitude":-0.422955,"accuracy":"14","context":0,"place_id":"YsKXKRJWVbi22ps","woeid":"772926","geo_is_family":0,"geo_is_friend":0,"geo_is_contact":0,"geo_is_public":1,"media":"photo","media_status":"ready"},{"id":"5039486284","owner":"11925274@N02","secret":"3112a1dc21","server":"4092","farm":5,"title":"CALYPSO 23.1","ispublic":1,"isfriend":0,"isfamily":0,"safe":1,"ownername":"liontas-Andreas Droussiotis","latitude":34.859735,"longitude":32.556781,"accuracy":"11","context":0,"place_id":"wH89OcVZVrtHwz8","woeid":"841449","geo_is_family":0,"geo_is_friend":0,"geo_is_contact":0,"geo_is_public":1,"media":"photo","media_status":"ready"},{"id":"3998181516","owner":"24822386@N02","secret":"9f6279f518","server":"2488","farm":3,"title":"\u00bfPescando? \/ Fishing?","ispublic":1,"isfriend":0,"isfamily":0,"safe":1,"ownername":"berpala","latitude":53.07629,"longitude":8.804855,"accuracy":"10","context":0,"place_id":"I6UaAyNXVrvbBLU","woeid":"641142","geo_is_family":0,"geo_is_friend":0,"geo_is_contact":0,"geo_is_public":1,"media":"photo","media_status":"ready"},{"id":"3245331841","owner":"96037254@N00","secret":"8aacb55aca","server":"3318","farm":4,"title":"Ceilings at DCA","ispublic":1,"isfriend":0,"isfamily":0,"safe":1,"ownername":"ep_jhu","latitude":38.857438,"longitude":-77.042784,"accuracy":"15","context":0,"place_id":"LOgyPnZQUL8DoCtOqA","woeid":"12522343","geo_is_family":0,"geo_is_friend":0,"geo_is_contact":0,"geo_is_public":1,"media":"photo","media_status":"ready"},{"id":"14240741535","owner":"50607556@N04","secret":"07a522b95e","server":"2927","farm":3,"title":"Dat Pose","ispublic":1,"isfriend":0,"isfamily":0,"safe":0,"ownername":"Zara_K19","latitude":51.495002,"longitude":-0.098689,"accuracy":"16","context":0,"place_id":"kgEzJutTWrIALi44.w","woeid":"28835385","geo_is_family":0,"geo_is_friend":0,"geo_is_contact":0,"geo_is_public":1,"media":"photo","media_status":"ready"},{"id":"14237172975","owner":"77206281@N07","secret":"cc3e628a9c","server":"2910","farm":3,"title":"Calais Train Station.","ispublic":1,"isfriend":0,"isfamily":0,"safe":0,"ownername":"kitchou1 Thanx 4 UR Visits Coms+Faves.","latitude":50.953079,"longitude":1.853049,"accuracy":"11","context":0,"place_id":"ugC6D7NUWrh2seY","woeid":"582681","geo_is_family":0,"geo_is_friend":0,"geo_is_contact":0,"geo_is_public":1,"media":"photo","media_status":"ready"},{"id":"14256264703","owner":"13922644@N05","secret":"e42f71957c","server":"2899","farm":3,"title":"Outstanding","ispublic":1,"isfriend":0,"isfamily":0,"safe":0,"ownername":"bingleyman2","latitude":57.535685,"longitude":-5.701067,"accuracy":"15","context":0,"place_id":"YDrfUfJQUrMA8g","woeid":"10942","geo_is_family":0,"geo_is_friend":0,"geo_is_contact":0,"geo_is_public":1,"media":"photo","media_status":"ready"},{"id":"14232194421","owner":"56788082@N07","secret":"9a129f0db1","server":"2904","farm":3,"title":"4L8A1596","ispublic":1,"isfriend":0,"isfamily":0,"safe":0,"ownername":"Ricardo Gomez A","latitude":47.197177,"longitude":8.624267,"accuracy":"11","context":0,"place_id":"UQXP2bFTUb60UhOc","woeid":"2347107","geo_is_family":0,"geo_is_friend":0,"geo_is_contact":0,"geo_is_public":1,"media":"photo","media_status":"ready"},{"id":"14045457667","owner":"81287358@N05","secret":"11f13124db","server":"5482","farm":6,"title":"Liebe = Zwei Herzen auf einer Welle (Explore)","ispublic":1,"isfriend":0,"isfamily":0,"safe":0,"ownername":"Martin Fischhaber","latitude":47.767483,"longitude":11.56723,"accuracy":"11","context":0,"place_id":"ELIJ5hhXUby5E6o","woeid":"636522","geo_is_family":0,"geo_is_friend":0,"geo_is_contact":0,"geo_is_public":1,"media":"photo","media_status":"ready"},{"id":"14045373129","owner":"63572733@N03","secret":"53c8f1b076","server":"2916","farm":3,"title":"Common blue (Polyommatus icarus)","ispublic":1,"isfriend":0,"isfamily":0,"safe":0,"ownername":"Marion CW","latitude":50.184922,"longitude":-5.436172,"accuracy":"13","context":0,"place_id":"g7gtkD1SWr_UMA","woeid":"38568","geo_is_family":0,"geo_is_friend":0,"geo_is_contact":0,"geo_is_public":1,"media":"photo","media_status":"ready"},{"id":"14231036515","owner":"51010207@N04","secret":"782b2ef6f9","server":"2895","farm":3,"title":"D8B_6928bw","ispublic":1,"isfriend":0,"isfamily":0,"safe":0,"ownername":"Viggo Johansen","latitude":50.220467,"longitude":-3.782386,"accuracy":"14","context":0,"place_id":"HxKRsotSUbIWcA","woeid":"33872","geo_is_family":0,"geo_is_friend":0,"geo_is_contact":0,"geo_is_public":1,"media":"photo","media_status":"ready"},{"id":"14228221932","owner":"51647010@N07","secret":"caed44eea4","server":"5155","farm":6,"title":"Veldparelmoervlinder  .....  melitaea cinxia  Explore","ispublic":1,"isfriend":0,"isfamily":0,"safe":0,"ownername":"jac hendrix","latitude":50.849408,"longitude":5.766942,"accuracy":"16","context":0,"place_id":"pgX8NbVWUL3wfPQ","woeid":"727569","geo_is_family":0,"geo_is_friend":0,"geo_is_contact":0,"geo_is_public":1,"media":"photo","media_status":"ready"},{"id":"14227251042","owner":"49679809@N07","secret":"6b35ee3ea8","server":"2909","farm":3,"title":"The Princess Is In This Castle","ispublic":1,"isfriend":0,"isfamily":0,"safe":0,"ownername":"TheTimeTheSpace","latitude":28.419787,"longitude":-81.581897,"accuracy":"12","context":0,"place_id":"dsNCj7NUV7PURs93Gg","woeid":"55984788","geo_is_family":0,"geo_is_friend":0,"geo_is_contact":0,"geo_is_public":1,"media":"photo","media_status":"ready"},{"id":"14229041595","owner":"13922644@N05","secret":"1ee1800f64","server":"5549","farm":6,"title":"Scots Pines","ispublic":1,"isfriend":0,"isfamily":0,"safe":0,"ownername":"bingleyman2","latitude":57.655665,"longitude":-5.412225,"accuracy":"15","context":0,"place_id":".8DcMSlTVLtqPQ","woeid":"26156","geo_is_family":0,"geo_is_friend":0,"geo_is_contact":0,"geo_is_public":1,"media":"photo","media_status":"ready"},{"id":"14038567438","owner":"13922644@N05","secret":"4c02e8646a","server":"2899","farm":3,"title":"Morning Glory at that castle","ispublic":1,"isfriend":0,"isfamily":0,"safe":0,"ownername":"bingleyman2","latitude":57.274727,"longitude":-5.515651,"accuracy":"13","context":0,"place_id":"cIqu7CBQWrkndQ","woeid":"18345","geo_is_family":0,"geo_is_friend":0,"geo_is_contact":0,"geo_is_public":1,"media":"photo","media_status":"ready"},{"id":"14245103893","owner":"82493256@N03","secret":"e399dc5b0a","server":"5544","farm":6,"title":"Narcisses (On Explore)","ispublic":1,"isfriend":0,"isfamily":0,"safe":0,"ownername":"francey71","latitude":46.43169,"longitude":6.9105,"accuracy":"11","context":0,"place_id":"vmCJiClWWrnGI.k","woeid":"783393","geo_is_family":0,"geo_is_friend":0,"geo_is_contact":0,"geo_is_public":1,"media":"photo","media_status":"ready"},{"id":"14224753125","owner":"69467450@N05","secret":"c8abca8665","server":"5595","farm":6,"title":"Bell\u00edsimo prerrom\u00e1nico misterioso (I) \/ Mysterious beautiful Romanesque #1","ispublic":1,"isfriend":0,"isfamily":0,"safe":0,"ownername":"MiquelGP54","latitude":41.609715,"longitude":1.809718,"accuracy":"16","context":0,"place_id":"Vzs8m2ZWVbNuzgk","woeid":"779353","geo_is_family":0,"geo_is_friend":0,"geo_is_contact":0,"geo_is_public":1,"media":"photo","media_status":"ready"},{"id":"14243428433","owner":"10065600@N02","secret":"a62857a703","server":"2932","farm":3,"title":"Valle de Nuria (Gerona) 03.2014_16","ispublic":1,"isfriend":0,"isfamily":0,"safe":0,"ownername":"ferlomu","latitude":42.392466,"longitude":2.159627,"accuracy":"16","context":0,"place_id":"ctuXldRQULyf_ZGEgA","woeid":"12693818","geo_is_family":0,"geo_is_friend":0,"geo_is_contact":0,"geo_is_public":1,"media":"photo","media_status":"ready"},{"id":"14219365341","owner":"81287358@N05","secret":"74229d1689","server":"5528","farm":6,"title":"Fr\u00fchling im Isarwinkel (Explore)","ispublic":1,"isfriend":0,"isfamily":0,"safe":1,"ownername":"Martin Fischhaber","latitude":47.766099,"longitude":11.572036,"accuracy":"11","context":0,"place_id":"ELIJ5hhXUby5E6o","woeid":"636522","geo_is_family":0,"geo_is_friend":0,"geo_is_contact":0,"geo_is_public":1,"media":"photo","media_status":"ready"},{"id":"14240602333","owner":"26952669@N00","secret":"f8e4d2f023","server":"2924","farm":3,"title":"002_Bucheggberg_SO","ispublic":1,"isfriend":0,"isfamily":0,"safe":0,"ownername":"paul menz arlesheim_ch","latitude":47.140694,"longitude":7.490615,"accuracy":"13","context":0,"place_id":"Qg_AuCJTUrsy7lm3rA","woeid":"20101064","geo_is_family":0,"geo_is_friend":0,"geo_is_contact":0,"geo_is_public":1,"media":"photo","media_status":"ready"},{"id":"14216780611","owner":"28247596@N02","secret":"a3e8e3529d","server":"5477","farm":6,"title":"Popping out for some sunshine","ispublic":1,"isfriend":0,"isfamily":0,"safe":0,"ownername":"pete1074","latitude":53.728226,"longitude":-1.263674,"accuracy":"16","context":0,"place_id":"n06ax1xQVrgj.Q","woeid":"14205","geo_is_family":0,"geo_is_friend":0,"geo_is_contact":0,"geo_is_public":1,"media":"photo","media_status":"ready"},{"id":"14033087530","owner":"44161305@N02","secret":"efdbbd965b","server":"5471","farm":6,"title":"San Martino in Pedriolo, Casalfiumanese, Italy maggio 2014 014","ispublic":1,"isfriend":0,"isfamily":0,"safe":0,"ownername":"tango-","latitude":44.355021,"longitude":11.571874,"accuracy":"13","context":0,"place_id":"W1JU5c5WULiYm2A","woeid":"722859","geo_is_family":0,"geo_is_friend":0,"geo_is_contact":0,"geo_is_public":1,"media":"photo","media_status":"ready"},{"id":"14239805833","owner":"86867805@N08","secret":"607628c202","server":"5542","farm":6,"title":"Frogmen","ispublic":1,"isfriend":0,"isfamily":0,"safe":0,"ownername":"-KOOPS-","latitude":51.056191,"longitude":2.425746,"accuracy":"16","context":0,"place_id":".kyRtI1XUr_cGPQ","woeid":"605077","geo_is_family":0,"geo_is_friend":0,"geo_is_contact":0,"geo_is_public":1,"media":"photo","media_status":"ready"},{"id":"14239717983","owner":"88036501@N07","secret":"42ae442b4d","server":"5474","farm":6,"title":"Energ\u00eda desbordada #EXPLORE (2014.05.18)","ispublic":1,"isfriend":0,"isfamily":0,"safe":0,"ownername":"JARCOR2012","latitude":38.949063,"longitude":-2.85636,"accuracy":"15","context":0,"place_id":"55YYebhWVbgmQrg","woeid":"772306","geo_is_family":0,"geo_is_friend":0,"geo_is_contact":0,"geo_is_public":1,"media":"photo","media_status":"ready"},{"id":"14239634803","owner":"38134034@N04","secret":"82198ee0e6","server":"5320","farm":6,"title":"The Shore of Light","ispublic":1,"isfriend":0,"isfamily":0,"safe":0,"ownername":"blavandmaster","latitude":55.543281,"longitude":8.128641,"accuracy":"16","context":0,"place_id":"HjovhuRUV7gwujw","woeid":"552390","geo_is_family":0,"geo_is_friend":0,"geo_is_contact":0,"geo_is_public":1,"media":"photo","media_status":"ready"},{"id":"14030021530","owner":"94015342@N04","secret":"7da58d109b","server":"5526","farm":6,"title":"'My Little Stone' - Bardsey Island, Wales","ispublic":1,"isfriend":0,"isfamily":0,"safe":0,"ownername":"Adrian Kingsley-Hughes","latitude":52.763125,"longitude":-4.7883,"accuracy":"16","context":0,"place_id":"5RMTjEVQU7JrHg","woeid":"11827","geo_is_family":0,"geo_is_friend":0,"geo_is_contact":0,"geo_is_public":1,"media":"photo","media_status":"ready"},{"id":"14216346564","owner":"11266609@N00","secret":"5004fb1780","server":"5072","farm":6,"title":"presence of structural balance","ispublic":1,"isfriend":0,"isfamily":0,"safe":0,"ownername":"yushimoto_02 [christian]","latitude":39.456126,"longitude":-0.351991,"accuracy":"15","context":0,"place_id":"vSl0.s1TUrhu33kroQ","woeid":"20220217","geo_is_family":0,"geo_is_friend":0,"geo_is_contact":0,"geo_is_public":1,"media":"photo","media_status":"ready"},{"id":"14029412047","owner":"54252594@N06","secret":"fdf4147074","server":"2896","farm":3,"title":"Construction site","ispublic":1,"isfriend":0,"isfamily":0,"safe":0,"ownername":"inFocusDCPhoto \u2013 Young Spanish photographer","latitude":43.270206,"longitude":-2.970428,"accuracy":"9","context":0,"place_id":"v0b7ga9WV745BHU","woeid":"754542","geo_is_family":0,"geo_is_friend":0,"geo_is_contact":0,"geo_is_public":1,"media":"photo","media_status":"ready"},{"id":"14213302972","owner":"54252594@N06","secret":"7f61a910df","server":"5537","farm":6,"title":"Floor","ispublic":1,"isfriend":0,"isfamily":0,"safe":0,"ownername":"inFocusDCPhoto \u2013 Young Spanish photographer","latitude":43.267206,"longitude":-2.937126,"accuracy":"11","context":0,"place_id":"v0b7ga9WV745BHU","woeid":"754542","geo_is_family":0,"geo_is_friend":0,"geo_is_contact":0,"geo_is_public":1,"media":"photo","media_status":"ready"},{"id":"14235159043","owner":"42985099@N03","secret":"87147fdcf1","server":"5473","farm":6,"title":"~Calopteryx splendens (\u2642)~","ispublic":1,"isfriend":0,"isfamily":0,"safe":0,"ownername":"Eddie The Bugman","latitude":52.942935,"longitude":-1.125884,"accuracy":"16","context":0,"place_id":"M39d_gJSW7_vvw","woeid":"39576","geo_is_family":0,"geo_is_friend":0,"geo_is_contact":0,"geo_is_public":1,"media":"photo","media_status":"ready"},{"id":"14191532816","owner":"52866177@N02","secret":"dbf03d6771","server":"5119","farm":6,"title":"Buren Colums, Palais Royal Paris. Seen in Explore* May 18.2014","ispublic":1,"isfriend":0,"isfamily":0,"safe":0,"ownername":"Dan in Mars","latitude":48.862914,"longitude":2.337073,"accuracy":"16","context":0,"place_id":"R13rUF1UV7LQLoV4Ig","woeid":"55843751","geo_is_family":0,"geo_is_friend":0,"geo_is_contact":0,"geo_is_public":1,"media":"photo","media_status":"ready"},{"id":"14214277414","owner":"13922644@N05","secret":"9cf9604483","server":"5034","farm":6,"title":"Loch Shieldaig","ispublic":1,"isfriend":0,"isfamily":0,"safe":0,"ownername":"bingleyman2","latitude":57.535685,"longitude":-5.701067,"accuracy":"15","context":0,"place_id":"YDrfUfJQUrMA8g","woeid":"10942","geo_is_family":0,"geo_is_friend":0,"geo_is_contact":0,"geo_is_public":1,"media":"photo","media_status":"ready"},{"id":"14024178397","owner":"92981517@N03","secret":"c71b55c2b2","server":"2925","farm":3,"title":"Le petit ours dans la prairie","ispublic":1,"isfriend":0,"isfamily":0,"safe":0,"ownername":"dono heneman","latitude":47.133689,"longitude":-1.74861,"accuracy":"11","context":0,"place_id":"YSswJ5hXU716AxM","woeid":"617565","geo_is_family":0,"geo_is_friend":0,"geo_is_contact":0,"geo_is_public":1,"media":"photo","media_status":"ready"},{"id":"14019299030","owner":"77206281@N07","secret":"c34d461ae0","server":"2928","farm":3,"title":"Curiosity.","ispublic":1,"isfriend":0,"isfamily":0,"safe":0,"ownername":"kitchou1 Thanx 4 UR Visits Coms+Faves.","latitude":50.739139,"longitude":2.733839,"accuracy":"11","context":0,"place_id":"7crFoKlUVb3rtj4","woeid":"577858","geo_is_family":0,"geo_is_friend":0,"geo_is_contact":0,"geo_is_public":1,"media":"photo","media_status":"ready"},{"id":"14018307877","owner":"81287358@N05","secret":"160e2ee6a4","server":"5541","farm":6,"title":"Meister Adebar (Explore)","ispublic":1,"isfriend":0,"isfamily":0,"safe":0,"ownername":"Martin Fischhaber","latitude":47.708209,"longitude":11.411959,"accuracy":"11","context":0,"place_id":"omu9cCZXUb0059U","woeid":"637690","geo_is_family":0,"geo_is_friend":0,"geo_is_contact":0,"geo_is_public":1,"media":"photo","media_status":"ready"},{"id":"14200815571","owner":"13922644@N05","secret":"c040cd888f","server":"5518","farm":6,"title":"Applecross beach","ispublic":1,"isfriend":0,"isfamily":0,"safe":0,"ownername":"bingleyman2","latitude":57.470366,"longitude":-5.86569,"accuracy":"15","context":0,"place_id":"eqK.nvFTVbk7Mg","woeid":"27305","geo_is_family":0,"geo_is_friend":0,"geo_is_contact":0,"geo_is_public":1,"media":"photo","media_status":"ready"},{"id":"14016577688","owner":"90378082@N07","secret":"8ae0c10a97","server":"2919","farm":3,"title":"Walking Tall.","ispublic":1,"isfriend":0,"isfamily":0,"safe":0,"ownername":"Baz 120","latitude":41.906892,"longitude":12.482936,"accuracy":"15","context":0,"place_id":"FphPyURWU7ux6h4","woeid":"711883","geo_is_family":0,"geo_is_friend":0,"geo_is_contact":0,"geo_is_public":1,"media":"photo","media_status":"ready"},{"id":"14014784007","owner":"66927739@N05","secret":"1c31c2c1fd","server":"5587","farm":6,"title":"Am not I  a fly like thee?","ispublic":1,"isfriend":0,"isfamily":0,"safe":0,"ownername":"SINDO MOSTEIRO","latitude":42.528258,"longitude":-8.791337,"accuracy":"16","context":0,"place_id":"_n.klYRWV7.agG8","woeid":"755602","geo_is_family":0,"geo_is_friend":0,"geo_is_contact":0,"geo_is_public":1,"media":"photo","media_status":"ready"},{"id":"14177792236","owner":"7132158@N07","secret":"4458f94ebd","server":"5591","farm":6,"title":"Paradise was made for tender hearts; hell, for loveless hearts","ispublic":1,"isfriend":0,"isfamily":0,"safe":0,"ownername":"Rui Almeida.","latitude":39.323608,"longitude":-9.362009,"accuracy":"16","context":0,"place_id":"T84_BaFWUbwL7Rk","woeid":"736623","geo_is_family":0,"geo_is_friend":0,"geo_is_contact":0,"geo_is_public":1,"media":"photo","media_status":"ready"},{"id":"14177237536","owner":"13922644@N05","secret":"1ceeaffe44","server":"5191","farm":6,"title":"Wild Garlic","ispublic":1,"isfriend":0,"isfamily":0,"safe":0,"ownername":"bingleyman2","latitude":53.967163,"longitude":-2.014253,"accuracy":"16","context":0,"place_id":"qwmcKRpSVrOvMQ","woeid":"34936","geo_is_family":0,"geo_is_friend":0,"geo_is_contact":0,"geo_is_public":1,"media":"photo","media_status":"ready"},{"id":"14220255923","owner":"53035251@N03","secret":"b34b52c091","server":"7430","farm":8,"title":"Skutulsfj\u00f6r\u00f0ur","ispublic":1,"isfriend":0,"isfamily":0,"safe":0,"ownername":"mummibjarni","latitude":66.083628,"longitude":-23.096008,"accuracy":"9","context":0,"place_id":"QX9.D1RYWrryoTA","woeid":"980266","geo_is_family":0,"geo_is_friend":0,"geo_is_contact":0,"geo_is_public":1,"media":"photo","media_status":"ready"},{"id":"14012290797","owner":"24176944@N02","secret":"b7d1ebd9d5","server":"7450","farm":8,"title":"Rousserolle turdo\u00efde | Acrocephalus arundinaceus |","ispublic":1,"isfriend":0,"isfamily":0,"safe":0,"ownername":"raz1940 et Charlotte","latitude":46.393453,"longitude":6.899276,"accuracy":"11","context":0,"place_id":".54Prk1WWr8QNsU","woeid":"785270","geo_is_family":0,"geo_is_friend":0,"geo_is_contact":0,"geo_is_public":1,"media":"photo","media_status":"ready"},{"id":"14011683028","owner":"76916503@N04","secret":"32b84b40a8","server":"2934","farm":3,"title":"","ispublic":1,"isfriend":0,"isfamily":0,"safe":0,"ownername":"Isina Fri","latitude":43.466126,"longitude":-5.063838,"accuracy":"14","context":0,"place_id":"UI8nEJZWVbvYERQ","woeid":"771760","geo_is_family":0,"geo_is_friend":0,"geo_is_contact":0,"geo_is_public":1,"media":"photo","media_status":"ready"},{"id":"14197729084","owner":"58149020@N06","secret":"29d5d2cf4b","server":"7407","farm":8,"title":"PEARL BORDERED FRITILLARY","ispublic":1,"isfriend":0,"isfamily":0,"safe":0,"ownername":"tony.cox27","latitude":51.063838,"longitude":-1.671295,"accuracy":"10","context":0,"place_id":"ztCEAXpSW7JS5g","woeid":"39832","geo_is_family":0,"geo_is_friend":0,"geo_is_contact":0,"geo_is_public":1,"media":"photo","media_status":"ready"},{"id":"14192299112","owner":"26261314@N06","secret":"0a93136496","server":"2911","farm":3,"title":"RTM-X-4-TL-X-2-J.S.9886","ispublic":1,"isfriend":0,"isfamily":0,"safe":0,"ownername":"RAFATZ","latitude":41.218617,"longitude":1.004799,"accuracy":"16","context":0,"place_id":"arQxM9ZWV7gpeDg","woeid":"752049","geo_is_family":0,"geo_is_friend":0,"geo_is_contact":0,"geo_is_public":1,"media":"photo","media_status":"ready"},{"id":"9374373865","owner":"25959337@N00","secret":"01d7975054","server":"7453","farm":8,"title":"Barmur from south","ispublic":1,"isfriend":0,"isfamily":0,"safe":0,"ownername":"Martin Ystenes - celebrating 5 million views","latitude":64.000653,"longitude":-18.952789,"accuracy":"9","context":0,"place_id":"7m1CyztTUb7Ng2Ot","woeid":"2345687","geo_is_family":0,"geo_is_friend":0,"geo_is_contact":0,"geo_is_public":1,"media":"photo","media_status":"ready"}]},"stat":"ok"}