{"photos":{"page":30,"pages":26138,"perpage":60,"total":"1568255","photo":[{"id":"14062326135","owner":"50965130@N08","secret":"48de7fa65d","server":"7064","farm":8,"title":"Work!!!","ispublic":1,"isfriend":0,"isfamily":0,"safe":0,"ownername":"Dr. Imran Sohail.","latitude":32.65871,"longitude":74.502754,"accuracy":"13","context":0,"place_id":"37caX1FTULpJMdYo","woeid":"2203074","geo_is_family":0,"geo_is_friend":0,"geo_is_contact":0,"geo_is_public":1,"media":"photo","media_status":"ready"},{"id":"14061886354","owner":"93461361@N05","secret":"fa462f41c8","server":"7181","farm":8,"title":"illuminate","ispublic":1,"isfriend":0,"isfamily":0,"safe":0,"ownername":"Van Luvender","latitude":38.932056,"longitude":-74.920406,"accuracy":"15","context":0,"place_id":"HVEmvnNTUb279Zrr","woeid":"2374656","geo_is_family":0,"geo_is_friend":0,"geo_is_contact":0,"geo_is_public":1,"media":"photo","media_status":"ready"},{"id":"14052657751","owner":"13233381@N00","secret":"ca27f3be7d","server":"2917","farm":3,"title":"Toledo Cathedral","ispublic":1,"isfriend":0,"isfamily":0,"safe":0,"ownername":"Mo Tabesh","latitude":39.857145,"longitude":-4.02386,"accuracy":"16","context":0,"place_id":"3936VUBWVb8qSI8","woeid":"775524","geo_is_family":0,"geo_is_friend":0,"geo_is_contact":0,"geo_is_public":1,"media":"photo","media_status":"ready"},{"id":"14030537106","owner":"26963648@N05","secret":"a1dc22616c","server":"7371","farm":8,"title":"Stripes on the Floor","ispublic":1,"isfriend":0,"isfamily":0,"safe":0,"ownername":"MrBlackSun","latitude":-26.71004,"longitude":15.225977,"accuracy":"14","context":0,"place_id":"4PuO.rVQVrwgShIH","woeid":"1465229","geo_is_family":0,"geo_is_friend":0,"geo_is_contact":0,"geo_is_public":1,"media":"photo","media_status":"ready"},{"id":"14052473385","owner":"33408514@N07","secret":"cddf7887f0","server":"7358","farm":8,"title":"Ruinas del Cortijo del Charc\u00f3n II. \/ \"Cortijo del Charc\u00f3n\" ruins II (Hell\u00edn, Albacete, Spain).","ispublic":1,"isfriend":0,"isfamily":0,"safe":0,"ownername":"Recesvintus","latitude":38.443892,"longitude":-1.866302,"accuracy":"16","context":0,"place_id":"9kcmRF5WV73tldQ","woeid":"757728","geo_is_family":0,"geo_is_friend":0,"geo_is_contact":0,"geo_is_public":1,"media":"photo","media_status":"ready"},{"id":"14049269534","owner":"46378751@N02","secret":"ea286bb205","server":"5287","farm":6,"title":"Monte Amiata from the Crete Senesi [EXPLORE]","ispublic":1,"isfriend":0,"isfamily":0,"safe":0,"ownername":"Antonio Cinotti \uf8ff","latitude":43.275924,"longitude":11.492643,"accuracy":"15","context":0,"place_id":"1A_8rI5WUL_Y8Vo","woeid":"725815","geo_is_family":0,"geo_is_friend":0,"geo_is_contact":0,"geo_is_public":1,"media":"photo","media_status":"ready"},{"id":"14045452365","owner":"66644631@N05","secret":"e470beffe4","server":"7244","farm":8,"title":"bicycle on street of Paris","ispublic":1,"isfriend":0,"isfamily":0,"safe":0,"ownername":"jmlpyt","latitude":48.86589,"longitude":2.357602,"accuracy":"15","context":0,"place_id":"zcv1Qn1UV7LFRCEsfQ","woeid":"55843758","geo_is_family":0,"geo_is_friend":0,"geo_is_contact":0,"geo_is_public":1,"media":"photo","media_status":"ready"},{"id":"14036735572","owner":"29367844@N03","secret":"3b5e41d260","server":"7217","farm":8,"title":"Northern Black Racer Eating Northern Water Snake - 4","ispublic":1,"isfriend":0,"isfamily":0,"safe":0,"ownername":"Odonata457","latitude":39.059394,"longitude":-76.737945,"accuracy":"16","context":0,"place_id":"y4qSBoNTVrxs9heQ","woeid":"2469272","geo_is_family":0,"geo_is_friend":0,"geo_is_contact":0,"geo_is_public":1,"media":"photo","media_status":"ready"},{"id":"14039043735","owner":"20905078@N04","secret":"320870897c","server":"2940","farm":3,"title":"","ispublic":1,"isfriend":0,"isfamily":0,"safe":0,"ownername":"patrickjoust","latitude":39.286459,"longitude":-76.656086,"accuracy":"16","context":0,"place_id":"Cb8._AdTW7jhzJTlvg","woeid":"29229404","geo_is_family":0,"geo_is_friend":0,"geo_is_contact":0,"geo_is_public":1,"media":"photo","media_status":"ready"},{"id":"14038599225","owner":"27450769@N06","secret":"f75b8ffc3d","server":"7207","farm":8,"title":"~ Alone at sea ~","ispublic":1,"isfriend":0,"isfamily":0,"safe":0,"ownername":"~Ranveig Marie~","latitude":59.757108,"longitude":5.172543,"accuracy":"14","context":0,"place_id":"1fo0RNlZVLs_ImQ","woeid":"861725","geo_is_family":0,"geo_is_friend":0,"geo_is_contact":0,"geo_is_public":1,"media":"photo","media_status":"ready"},{"id":"14032972455","owner":"60527135@N02","secret":"3255b545cf","server":"7087","farm":8,"title":"Un giorno senza sorriso \u00e8 un giorno perso-A day without laughter is a day wasted","ispublic":1,"isfriend":0,"isfamily":0,"safe":0,"ownername":"giuseppe1957","latitude":7.578149,"longitude":-1.379882,"accuracy":"7","context":0,"place_id":"Uh.cIOJTUb5rF93U","woeid":"2345463","geo_is_family":0,"geo_is_friend":0,"geo_is_contact":0,"geo_is_public":1,"media":"photo","media_status":"ready"},{"id":"14032318815","owner":"16618681@N00","secret":"352497eff9","server":"5055","farm":6,"title":"Cloudy sunrise","ispublic":1,"isfriend":0,"isfamily":0,"safe":0,"ownername":"marypink","latitude":27.759519,"longitude":-15.575619,"accuracy":"11","context":0,"place_id":"t5ahw1xTUrhb0Ca.nA","woeid":"20225307","geo_is_family":0,"geo_is_friend":0,"geo_is_contact":0,"geo_is_public":1,"media":"photo","media_status":"ready"},{"id":"14030816795","owner":"34305619@N06","secret":"51354d2c37","server":"7324","farm":8,"title":"Bluebell wood~Explored#120","ispublic":1,"isfriend":0,"isfamily":0,"safe":0,"ownername":"Wendy:","latitude":53.239973,"longitude":-7.007668,"accuracy":"16","context":0,"place_id":"EiNI3mtUVLhujC0","woeid":"562010","geo_is_family":0,"geo_is_friend":0,"geo_is_contact":0,"geo_is_public":1,"media":"photo","media_status":"ready"},{"id":"14000422856","owner":"89213194@N05","secret":"b97649dbac","server":"2899","farm":3,"title":"Nowhere To Run","ispublic":1,"isfriend":0,"isfamily":0,"safe":0,"ownername":"Glyn Owen Photography & Image-Art","latitude":53.326464,"longitude":-2.493724,"accuracy":"12","context":0,"place_id":"Ps7PWxFQU7qSEg","woeid":"11031","geo_is_family":0,"geo_is_friend":0,"geo_is_contact":0,"geo_is_public":1,"media":"photo","media_status":"ready"},{"id":"14019245242","owner":"7432018@N02","secret":"61c3d2bcd6","server":"2896","farm":3,"title":"Garage Decatlon, Antwerpen Luchtbal","ispublic":1,"isfriend":0,"isfamily":0,"safe":0,"ownername":"(ph).otography","latitude":51.24778,"longitude":4.416606,"accuracy":"16","context":0,"place_id":"Zx1xVdhYVb7_KoY","woeid":"974235","geo_is_family":0,"geo_is_friend":0,"geo_is_contact":0,"geo_is_public":1,"media":"photo","media_status":"ready"},{"id":"14020034465","owner":"37390607@N02","secret":"2ab958e079","server":"7256","farm":8,"title":"My new baby (Explored)","ispublic":1,"isfriend":0,"isfamily":0,"safe":0,"ownername":"Bev Goodwin","latitude":53.4635,"longitude":-2.965039,"accuracy":"13","context":0,"place_id":"F55qyh9SU7qRaQ","woeid":"31094","geo_is_family":0,"geo_is_friend":0,"geo_is_contact":0,"geo_is_public":1,"media":"photo","media_status":"ready"},{"id":"14036831543","owner":"16176711@N02","secret":"1b3e180e3e","server":"7035","farm":8,"title":"Daisy in the dew {explored}","ispublic":1,"isfriend":0,"isfamily":0,"safe":0,"ownername":"conall..","latitude":54.372711,"longitude":-5.770742,"accuracy":"14","context":0,"place_id":"j.kTtIdVVr601g","woeid":"44437","geo_is_family":0,"geo_is_friend":0,"geo_is_contact":0,"geo_is_public":1,"media":"photo","media_status":"ready"},{"id":"13993457366","owner":"87402959@N02","secret":"6b41af061e","server":"5266","farm":6,"title":"Bridge & Ship","ispublic":1,"isfriend":0,"isfamily":0,"safe":0,"ownername":"Blende1.8","latitude":38.725669,"longitude":-9.150369,"accuracy":"11","context":0,"place_id":"D08qJBRWVrjs0Ek","woeid":"742676","geo_is_family":0,"geo_is_friend":0,"geo_is_contact":0,"geo_is_public":1,"media":"photo","media_status":"ready"},{"id":"14012723905","owner":"62356799@N06","secret":"ff52e3e07a","server":"2919","farm":3,"title":"As the windmills and the heavens turn","ispublic":1,"isfriend":0,"isfamily":0,"safe":0,"ownername":"@sage_solar","latitude":50.8789,"longitude":-0.693834,"accuracy":"16","context":0,"place_id":"E67xc6NQUb4x9g","woeid":"13466","geo_is_family":0,"geo_is_friend":0,"geo_is_contact":0,"geo_is_public":1,"media":"photo","media_status":"ready"},{"id":"13986628236","owner":"24448805@N07","secret":"d44075e355","server":"7195","farm":8,"title":"Vertical Panorama","ispublic":1,"isfriend":0,"isfamily":0,"safe":0,"ownername":"Tony Shi.","latitude":40.748362,"longitude":-73.985517,"accuracy":"16","context":0,"place_id":"MGEM4kFTWr0tOal8SA","woeid":"28751330","geo_is_family":0,"geo_is_friend":0,"geo_is_contact":0,"geo_is_public":1,"media":"photo","media_status":"ready"},{"id":"13986626856","owner":"100063725@N06","secret":"45c1a0c90d","server":"7411","farm":8,"title":"La costa del Mediterr\u00e1neo","ispublic":1,"isfriend":0,"isfamily":0,"safe":0,"ownername":"Antonio Chac","latitude":36.503125,"longitude":-4.917476,"accuracy":"16","context":0,"place_id":"b6ANCk5WVLwQivI","woeid":"766537","geo_is_family":0,"geo_is_friend":0,"geo_is_contact":0,"geo_is_public":1,"media":"photo","media_status":"ready"},{"id":"13981380806","owner":"34096574@N06","secret":"73305fdcf7","server":"7080","farm":8,"title":"La Ciotat : Windy Day","ispublic":1,"isfriend":0,"isfamily":0,"safe":0,"ownername":"Pantchoa","latitude":43.185308,"longitude":5.62103,"accuracy":"16","context":0,"place_id":"rRzMLmFTUrpBVrXmpw","woeid":"20075059","geo_is_family":0,"geo_is_friend":0,"geo_is_contact":0,"geo_is_public":1,"media":"photo","media_status":"ready"},{"id":"13995365142","owner":"7678976@N07","secret":"afa954f39b","server":"2932","farm":3,"title":"Heussallee\/Museumsmeile","ispublic":1,"isfriend":0,"isfamily":0,"safe":0,"ownername":"graufuchs","latitude":50.716649,"longitude":7.120687,"accuracy":"16","context":0,"place_id":"Uvujcu1XVrp6hVQ","woeid":"640161","geo_is_family":0,"geo_is_friend":0,"geo_is_contact":0,"geo_is_public":1,"media":"photo","media_status":"ready"},{"id":"13994947801","owner":"85081332@N00","secret":"08b4a89a7d","server":"2929","farm":3,"title":"Moated castle Hovestadt","ispublic":1,"isfriend":0,"isfamily":0,"safe":0,"ownername":"pe_ha45","latitude":51.661628,"longitude":8.143808,"accuracy":"16","context":0,"place_id":"F.El_VFQV7oaYq8QIw","woeid":"15002695","geo_is_family":0,"geo_is_friend":0,"geo_is_contact":0,"geo_is_public":1,"media":"photo","media_status":"ready"},{"id":"13997465455","owner":"46378751@N02","secret":"b066d125e1","server":"5207","farm":6,"title":"Light, Shadows, Clouds and Cypress [EXPLORE]","ispublic":1,"isfriend":0,"isfamily":0,"safe":0,"ownername":"Antonio Cinotti \uf8ff","latitude":43.065877,"longitude":11.570663,"accuracy":"11","context":0,"place_id":"efmaKclWULnXU.M","woeid":"723077","geo_is_family":0,"geo_is_friend":0,"geo_is_contact":0,"geo_is_public":1,"media":"photo","media_status":"ready"},{"id":"14016431593","owner":"8340348@N07","secret":"5aac4c1c18","server":"5195","farm":6,"title":"mellow yellow work","ispublic":1,"isfriend":0,"isfamily":0,"safe":0,"ownername":"johnb\/Derbys\/UK.","latitude":52.937414,"longitude":-1.407151,"accuracy":"14","context":0,"place_id":"eoAOnaBSUrJF9g","woeid":"30815","geo_is_family":0,"geo_is_friend":0,"geo_is_contact":0,"geo_is_public":1,"media":"photo","media_status":"ready"},{"id":"13972219326","owner":"89213194@N05","secret":"593bd49bf1","server":"5324","farm":6,"title":"Angelic Cloud - Sunset over Helsby, Cheshire UK","ispublic":1,"isfriend":0,"isfamily":0,"safe":0,"ownername":"Glyn Owen Photography & Image-Art","latitude":53.278583,"longitude":-2.763029,"accuracy":"16","context":0,"place_id":"sdamizVTUryf0Q","woeid":"20676","geo_is_family":0,"geo_is_friend":0,"geo_is_contact":0,"geo_is_public":1,"media":"photo","media_status":"ready"},{"id":"13995531654","owner":"79458742@N03","secret":"7094ac25b7","server":"5260","farm":6,"title":"Black Beauty is waiting for a ride","ispublic":1,"isfriend":0,"isfamily":0,"safe":0,"ownername":"11adda11","latitude":43.695279,"longitude":7.270236,"accuracy":"16","context":0,"place_id":"fU1fL6tXUrOYUc8","woeid":"609211","geo_is_family":0,"geo_is_friend":0,"geo_is_contact":0,"geo_is_public":1,"media":"photo","media_status":"ready"},{"id":"14013975203","owner":"24355450@N07","secret":"46c4c4862c","server":"7060","farm":8,"title":"Gleann Meinich..","ispublic":1,"isfriend":0,"isfamily":0,"safe":0,"ownername":"Gordie Broon.","latitude":57.536929,"longitude":-4.903421,"accuracy":"13","context":0,"place_id":"tJEgy8VQUL8nXf9pFQ","woeid":"12578048","geo_is_family":0,"geo_is_friend":0,"geo_is_contact":0,"geo_is_public":1,"media":"photo","media_status":"ready"},{"id":"14012430403","owner":"90835422@N04","secret":"45522b3562","server":"7271","farm":8,"title":"Consumed","ispublic":1,"isfriend":0,"isfamily":0,"safe":0,"ownername":"Pixelglo Photography","latitude":53.126952,"longitude":-0.486338,"accuracy":"16","context":0,"place_id":"P5svYYJQUbj1Rw","woeid":"13244","geo_is_family":0,"geo_is_friend":0,"geo_is_contact":0,"geo_is_public":1,"media":"photo","media_status":"ready"},{"id":"13983866652","owner":"65949682@N00","secret":"710a179598","server":"5576","farm":6,"title":"El Dorado","ispublic":1,"isfriend":0,"isfamily":0,"safe":0,"ownername":"OR_U","latitude":39.477611,"longitude":-0.382847,"accuracy":"16","context":0,"place_id":"aOaiaoRTUrjdUgVu0g","woeid":"20220220","geo_is_family":0,"geo_is_friend":0,"geo_is_contact":0,"geo_is_public":1,"media":"photo","media_status":"ready"},{"id":"13983454022","owner":"22279581@N05","secret":"856328158a","server":"2928","farm":3,"title":"Il mare migliore non ama i dormiglioni","ispublic":1,"isfriend":0,"isfamily":0,"safe":0,"ownername":"Diego Menna","latitude":39.95713,"longitude":15.735416,"accuracy":"16","context":0,"place_id":"g2asqU1TW7n8TWWOlg","woeid":"29340347","geo_is_family":0,"geo_is_friend":0,"geo_is_contact":0,"geo_is_public":1,"media":"photo","media_status":"ready"},{"id":"13985741435","owner":"44206268@N07","secret":"84c47fe0e5","server":"5186","farm":6,"title":"Lake Rietplas","ispublic":1,"isfriend":0,"isfamily":0,"safe":0,"ownername":"Rene Mensen","latitude":52.743462,"longitude":6.892719,"accuracy":"14","context":0,"place_id":"vPfEQ3RWULPuU3s","woeid":"729104","geo_is_family":0,"geo_is_friend":0,"geo_is_contact":0,"geo_is_public":1,"media":"photo","media_status":"ready"},{"id":"13983930794","owner":"58767708@N05","secret":"da92212a1d","server":"7205","farm":8,"title":"Lough Leane, Muckross, Killarney (Explored 23\/04\/2014)","ispublic":1,"isfriend":0,"isfamily":0,"safe":0,"ownername":"Paul O'B","latitude":52.035069,"longitude":-9.493646,"accuracy":"13","context":0,"place_id":"UVWqOYlUVLsaIaw","woeid":"561789","geo_is_family":0,"geo_is_friend":0,"geo_is_contact":0,"geo_is_public":1,"media":"photo","media_status":"ready"},{"id":"13983591464","owner":"59552935@N07","secret":"b45134df23","server":"7278","farm":8,"title":"The Light - Explored #20!","ispublic":1,"isfriend":0,"isfamily":0,"safe":0,"ownername":"*Glaukopis*","latitude":42.157878,"longitude":11.902279,"accuracy":"11","context":0,"place_id":"mkIAtz1WUrO3PTo","woeid":"709993","geo_is_family":0,"geo_is_friend":0,"geo_is_contact":0,"geo_is_public":1,"media":"photo","media_status":"ready"},{"id":"13979098901","owner":"46841627@N00","secret":"938c4b7be1","server":"5275","farm":6,"title":"La vieja dama","ispublic":1,"isfriend":0,"isfamily":0,"safe":1,"ownername":"Txanoduna","latitude":40.965624,"longitude":-5.688343,"accuracy":"16","context":0,"place_id":"S1ti_DhWVbjLtSw","woeid":"772416","geo_is_family":0,"geo_is_friend":0,"geo_is_contact":0,"geo_is_public":1,"media":"photo","media_status":"ready"},{"id":"13977564271","owner":"11397477@N05","secret":"6e340c2942","server":"7308","farm":8,"title":"la jeune fille -explore-","ispublic":1,"isfriend":0,"isfamily":0,"safe":0,"ownername":"archifra -francesco de vincenzi-","latitude":41.624208,"longitude":14.230513,"accuracy":"16","context":0,"place_id":"tCbiZERWU7zy9Fg","woeid":"716689","geo_is_family":0,"geo_is_friend":0,"geo_is_contact":0,"geo_is_public":1,"media":"photo","media_status":"ready"},{"id":"13975271135","owner":"8645675@N02","secret":"d436381121","server":"2899","farm":3,"title":"Hysteria attacking","ispublic":1,"isfriend":0,"isfamily":0,"safe":0,"ownername":"Drachenfanger","latitude":36.846861,"longitude":-76.104681,"accuracy":"16","context":0,"place_id":"GNLKBZtTVr550_Tz","woeid":"2444457","geo_is_family":0,"geo_is_friend":0,"geo_is_contact":0,"geo_is_public":1,"media":"photo","media_status":"ready"},{"id":"13974157025","owner":"43188643@N07","secret":"a4ca0620f0","server":"7349","farm":8,"title":"Alfriston Church","ispublic":1,"isfriend":0,"isfamily":0,"safe":0,"ownername":"Usuf Islam","latitude":50.810069,"longitude":0.155267,"accuracy":"13","context":0,"place_id":"0eMU5dlQUr_Upg","woeid":"10598","geo_is_family":0,"geo_is_friend":0,"geo_is_contact":0,"geo_is_public":1,"media":"photo","media_status":"ready"},{"id":"13947010266","owner":"95021587@N05","secret":"ab977587e6","server":"7128","farm":8,"title":"Montserrat ---Canon 7D---","ispublic":1,"isfriend":0,"isfamily":0,"safe":0,"ownername":"antonio_sabadell","latitude":41.591701,"longitude":1.837779,"accuracy":"11","context":0,"place_id":"67_raU5TUrj1NZt6gg","woeid":"20229032","geo_is_family":0,"geo_is_friend":0,"geo_is_contact":0,"geo_is_public":1,"media":"photo","media_status":"ready"},{"id":"13964784142","owner":"31804708@N02","secret":"a6b2b37c83","server":"5346","farm":6,"title":"El amor en tiempos de Canon - Love in the time of Canon","ispublic":1,"isfriend":0,"isfamily":0,"safe":0,"ownername":"celta4","latitude":-34.385733,"longitude":-58.561624,"accuracy":"16","context":0,"place_id":"DzTO9mxVVLylplU","woeid":"466599","geo_is_family":0,"geo_is_friend":0,"geo_is_contact":0,"geo_is_public":1,"media":"photo","media_status":"ready"},{"id":"13964191232","owner":"65240438@N02","secret":"4ce76429f4","server":"7453","farm":8,"title":"From Iceland","ispublic":1,"isfriend":0,"isfamily":0,"safe":0,"ownername":"Christine1744-thanksforover2millionviews!","latitude":64.963943,"longitude":-19.02116,"accuracy":"2","context":0,"place_id":"jPn7LAVTUb5tyPnsog","woeid":"23424845","geo_is_family":0,"geo_is_friend":0,"geo_is_contact":0,"geo_is_public":1,"media":"photo","media_status":"ready"},{"id":"13986761273","owner":"11397477@N05","secret":"a6d3355d94","server":"7374","farm":8,"title":"silencioso -explore-","ispublic":1,"isfriend":0,"isfamily":0,"safe":0,"ownername":"archifra -francesco de vincenzi-","latitude":41.607087,"longitude":14.254782,"accuracy":"16","context":0,"place_id":"tCbiZERWU7zy9Fg","woeid":"716689","geo_is_family":0,"geo_is_friend":0,"geo_is_contact":0,"geo_is_public":1,"media":"photo","media_status":"ready"},{"id":"13725254654","owner":"26849514@N06","secret":"cb69a70c04","server":"7037","farm":8,"title":"A flag of hyacinths, Bokeh","ispublic":1,"isfriend":0,"isfamily":0,"safe":0,"ownername":"Frans.Sellies","latitude":52.313017,"longitude":4.558811,"accuracy":"15","context":0,"place_id":"g3cMbBBWUb7hcEA","woeid":"734335","geo_is_family":0,"geo_is_friend":0,"geo_is_contact":0,"geo_is_public":1,"media":"photo","media_status":"ready"},{"id":"13225402933","owner":"14473732@N00","secret":"1f389eaf14","server":"3826","farm":4,"title":"cuando el Sur representaba el Imperio y el Norte la barbarie..","ispublic":1,"isfriend":0,"isfamily":0,"safe":1,"ownername":"jesuscm","latitude":40.948091,"longitude":-4.117845,"accuracy":"16","context":0,"place_id":"OdJPpwdWVb7JVzE","woeid":"774288","geo_is_family":0,"geo_is_friend":0,"geo_is_contact":0,"geo_is_public":1,"media":"photo","media_status":"ready"},{"id":"13151878295","owner":"55194659@N08","secret":"6140704ca4","server":"3675","farm":4,"title":"Family portrait in Kandy (Sri Lanka)","ispublic":1,"isfriend":0,"isfamily":0,"safe":1,"ownername":"Josep Castell","latitude":7.2842,"longitude":80.637199,"accuracy":"11","context":0,"place_id":"WdLFHlRTU7KvBEm.","woeid":"2189780","geo_is_family":0,"geo_is_friend":0,"geo_is_contact":0,"geo_is_public":1,"media":"photo","media_status":"ready"},{"id":"13149841253","owner":"55194659@N08","secret":"e634096088","server":"3733","farm":4,"title":"Old woman in Colombo (Sri Lanka)","ispublic":1,"isfriend":0,"isfamily":0,"safe":0,"ownername":"Josep Castell","latitude":6.927199,"longitude":79.8722,"accuracy":"11","context":0,"place_id":"9UovHlBTU7JI5JU8","woeid":"2189783","geo_is_family":0,"geo_is_friend":0,"geo_is_contact":0,"geo_is_public":1,"media":"photo","media_status":"ready"},{"id":"11690265443","owner":"25959337@N00","secret":"e36bd2c4c9","server":"5539","farm":6,"title":"Fet en gr\u00e5 nytt\u00e5rsdag","ispublic":1,"isfriend":0,"isfamily":0,"safe":1,"ownername":"Martin Ystenes - celebrating 5 million views","latitude":62.31775,"longitude":6.610724,"accuracy":"15","context":0,"place_id":"JygFF8hZVL_4YIY","woeid":"865644","geo_is_family":0,"geo_is_friend":0,"geo_is_contact":0,"geo_is_public":1,"media":"photo","media_status":"ready"},{"id":"11352698406","owner":"66804344@N04","secret":"59aafb63b5","server":"2829","farm":3,"title":"Morning Routine","ispublic":1,"isfriend":0,"isfamily":0,"safe":1,"ownername":"Nidreas","latitude":40.645219,"longitude":-73.951721,"accuracy":"8","context":0,"place_id":"ODHTuIhTUb75gdBu","woeid":"2347591","geo_is_family":0,"geo_is_friend":0,"geo_is_contact":0,"geo_is_public":1,"media":"photo","media_status":"ready"},{"id":"10873126166","owner":"73978317@N02","secret":"a3bccfe76f","server":"5491","farm":6,"title":"Mirage F-2000 (sunset)","ispublic":1,"isfriend":0,"isfamily":0,"safe":0,"ownername":"Enilton Kirchhof","latitude":-5.906677,"longitude":-35.245449,"accuracy":"16","context":0,"place_id":"l0ycYmpVVriacd0","woeid":"442895","geo_is_family":0,"geo_is_friend":0,"geo_is_contact":0,"geo_is_public":1,"media":"photo","media_status":"ready"},{"id":"10697954433","owner":"25959337@N00","secret":"2abc49f67b","server":"5484","farm":6,"title":"Fog and blue ice","ispublic":1,"isfriend":0,"isfamily":0,"safe":0,"ownername":"Martin Ystenes - celebrating 5 million views","latitude":64.048396,"longitude":-16.191101,"accuracy":"11","context":0,"place_id":"L30o2XlTUb6ZXW0u","woeid":"2345690","geo_is_family":0,"geo_is_friend":0,"geo_is_contact":0,"geo_is_public":1,"media":"photo","media_status":"ready"},{"id":"9674646134","owner":"65166290@N00","secret":"eb874a12ca","server":"5468","farm":6,"title":"The hills of Uibhist a Deas","ispublic":1,"isfriend":0,"isfamily":0,"safe":1,"ownername":"Hugh Spicer \/ UIsdean Spicer","latitude":57.299999,"longitude":-7.383329,"accuracy":"11","context":0,"place_id":"UD2CJnZTVrremg","woeid":"24058","geo_is_family":0,"geo_is_friend":0,"geo_is_contact":0,"geo_is_public":1,"media":"photo","media_status":"ready"},{"id":"9150785860","owner":"49234145@N04","secret":"f43261df89","server":"3807","farm":4,"title":"The Kommejtkie lighthouse","ispublic":1,"isfriend":0,"isfamily":0,"safe":0,"ownername":"David_McA","latitude":-34.136815,"longitude":18.322935,"accuracy":"12","context":0,"place_id":"tkvwzYpQV7LFmJRJ","woeid":"1582977","geo_is_family":0,"geo_is_friend":0,"geo_is_contact":0,"geo_is_public":1,"media":"photo","media_status":"ready"},{"id":"8511544872","owner":"46334878@N03","secret":"5a3101e675","server":"8391","farm":9,"title":"Walk on","ispublic":1,"isfriend":0,"isfamily":0,"safe":1,"ownername":"\u00adAna Caroline de Lima","latitude":45.46894,"longitude":9.18103,"accuracy":"11","context":0,"place_id":"49Gidk1WU7JxrFY","woeid":"718345","geo_is_family":0,"geo_is_friend":0,"geo_is_contact":0,"geo_is_public":1,"media":"photo","media_status":"ready"},{"id":"7354350478","owner":"27964309@N06","secret":"774223c82d","server":"7081","farm":8,"title":"Those eyes...","ispublic":1,"isfriend":0,"isfamily":0,"safe":0,"ownername":"vittorio vida","latitude":5.317856,"longitude":37.451248,"accuracy":"11","context":0,"place_id":"_FXi6sdQUbsdDKR9","woeid":"1318146","geo_is_family":0,"geo_is_friend":0,"geo_is_contact":0,"geo_is_public":1,"media":"photo","media_status":"ready"},{"id":"7303777704","owner":"39233616@N08","secret":"b75138818e","server":"7098","farm":8,"title":"ICELAND - Grundarfj\u00f6rdur","ispublic":1,"isfriend":0,"isfamily":0,"safe":1,"ownername":"Maupetit Arnaud","latitude":64.917152,"longitude":-23.26383,"accuracy":"7","context":0,"place_id":"qlYnE6ZYWrqvBLI","woeid":"980160","geo_is_family":0,"geo_is_friend":0,"geo_is_contact":0,"geo_is_public":1,"media":"photo","media_status":"ready"},{"id":"6316332140","owner":"36426732@N05","secret":"a2fd7cdb39","server":"6108","farm":7,"title":"Hampton court","ispublic":1,"isfriend":0,"isfamily":0,"safe":1,"ownername":"ZUCCONY","latitude":51.420432,"longitude":-0.367827,"accuracy":"13","context":0,"place_id":"ltkbCstTULiDdg","woeid":"22295","geo_is_family":0,"geo_is_friend":0,"geo_is_contact":0,"geo_is_public":1,"media":"photo","media_status":"ready"},{"id":"6300557752","owner":"25959337@N00","secret":"7c238c4d8d","server":"6019","farm":7,"title":"Romsdalsfjella","ispublic":1,"isfriend":0,"isfamily":0,"safe":0,"ownername":"Martin Ystenes - celebrating 5 million views","latitude":62.673906,"longitude":7.102661,"accuracy":"11","context":0,"place_id":"R.bQ3GNZVL_88Aw","woeid":"865700","geo_is_family":0,"geo_is_friend":0,"geo_is_contact":0,"geo_is_public":1,"media":"photo","media_status":"ready"},{"id":"6277375774","owner":"55875280@N06","secret":"58027063bc","server":"6048","farm":7,"title":"Bonneval Abbey","ispublic":1,"isfriend":0,"isfamily":0,"safe":1,"ownername":"SoWiL(d)","latitude":48.086078,"longitude":6.044929,"accuracy":"11","context":0,"place_id":"h1RwtEZUWrK3umE","woeid":"588528","geo_is_family":0,"geo_is_friend":0,"geo_is_contact":0,"geo_is_public":1,"media":"photo","media_status":"ready"},{"id":"13967066641","owner":"13073759@N04","secret":"7eb6ebb74e","server":"5336","farm":6,"title":"Uppark Woodland Walk","ispublic":1,"isfriend":0,"isfamily":0,"safe":0,"ownername":"Jainbow","latitude":50.955601,"longitude":-0.889914,"accuracy":"16","context":0,"place_id":"k_VP_e9SV7gQRw","woeid":"35242","geo_is_family":0,"geo_is_friend":0,"geo_is_contact":0,"geo_is_public":1,"media":"photo","media_status":"ready"}]},"stat":"ok"}