{"photos":{"page":14,"pages":26125,"perpage":60,"total":"1567441","photo":[{"id":"14029437861","owner":"60913863@N08","secret":"cc15b9c426","server":"2905","farm":3,"title":"Scorcio di Sesto al Reghena 3 (Glimpse of Sesto al Reghena 3)","ispublic":1,"isfriend":0,"isfamily":0,"safe":0,"ownername":"Goethe58","latitude":45.848259,"longitude":12.815712,"accuracy":"16","context":0,"place_id":"EiQnpwVWUL4NBWg","woeid":"724138","geo_is_family":0,"geo_is_friend":0,"geo_is_contact":0,"geo_is_public":1,"media":"photo","media_status":"ready"},{"id":"14009402966","owner":"8645675@N02","secret":"875c254cf5","server":"5146","farm":6,"title":"Slide of drops BW","ispublic":1,"isfriend":0,"isfamily":0,"safe":0,"ownername":"Drachenfanger","latitude":36.846977,"longitude":-76.104795,"accuracy":"16","context":0,"place_id":"GNLKBZtTVr550_Tz","woeid":"2444457","geo_is_family":0,"geo_is_friend":0,"geo_is_contact":0,"geo_is_public":1,"media":"photo","media_status":"ready"},{"id":"14029172281","owner":"62828561@N04","secret":"5eab0e2217","server":"7081","farm":8,"title":"Spring Morning","ispublic":1,"isfriend":0,"isfamily":0,"safe":0,"ownername":"Ninja Dog - \u5fcd\u8005\u72ac","latitude":52.436103,"longitude":-0.706601,"accuracy":"15","context":0,"place_id":"KlJntfhTUrMSEA","woeid":"20971","geo_is_family":0,"geo_is_friend":0,"geo_is_contact":0,"geo_is_public":1,"media":"photo","media_status":"ready"},{"id":"14009071466","owner":"50762671@N03","secret":"4591007f1a","server":"7215","farm":8,"title":"Sunset over La D\u00e9fense, The business district of Paris","ispublic":1,"isfriend":0,"isfamily":0,"safe":0,"ownername":"Julien Fromentin - Photographe","latitude":48.896218,"longitude":2.264674,"accuracy":"16","context":0,"place_id":"Usey6NFQULzmnc2mmA","woeid":"12638479","geo_is_family":0,"geo_is_friend":0,"geo_is_contact":0,"geo_is_public":1,"media":"photo","media_status":"ready"},{"id":"14028929612","owner":"31804708@N02","secret":"9f3369c68a","server":"5559","farm":6,"title":"Conglomerado - Conglomerate","ispublic":1,"isfriend":0,"isfamily":0,"safe":0,"ownername":"celta4","latitude":-34.609493,"longitude":-58.374567,"accuracy":"16","context":0,"place_id":"RgCaT.9TUL9QKn3R3A","woeid":"22530019","geo_is_family":0,"geo_is_friend":0,"geo_is_contact":0,"geo_is_public":1,"media":"photo","media_status":"ready"},{"id":"14008852936","owner":"23414563@N04","secret":"055a27dc01","server":"2914","farm":3,"title":"Compare the Meerkat. (Flickr Explore 27 April 2014). No. 58","ispublic":1,"isfriend":0,"isfamily":0,"safe":0,"ownername":"Belinda Fewings (thank you for 700,000 + views)","latitude":50.948449,"longitude":-1.553149,"accuracy":"13","context":0,"place_id":"pnUpvpJQVLKWTw","woeid":"16844","geo_is_family":0,"geo_is_friend":0,"geo_is_contact":0,"geo_is_public":1,"media":"photo","media_status":"ready"},{"id":"14051896893","owner":"62089664@N07","secret":"52c10908c4","server":"7082","farm":8,"title":"Hoboken Ride","ispublic":1,"isfriend":0,"isfamily":0,"safe":0,"ownername":"Darren LoPrinzi","latitude":40.732267,"longitude":-74.0309,"accuracy":"14","context":0,"place_id":"tVrJ_nFUV7JhjziPoQ","woeid":"55859827","geo_is_family":0,"geo_is_friend":0,"geo_is_contact":0,"geo_is_public":1,"media":"photo","media_status":"ready"},{"id":"14008727256","owner":"31798876@N02","secret":"872eb3fb85","server":"7221","farm":8,"title":"","ispublic":1,"isfriend":0,"isfamily":0,"safe":0,"ownername":"alant79","latitude":52.635858,"longitude":-1.134723,"accuracy":"16","context":0,"place_id":"0bs9mAtQULxX0NuJFw","woeid":"12696154","geo_is_family":0,"geo_is_friend":0,"geo_is_contact":0,"geo_is_public":1,"media":"photo","media_status":"ready"},{"id":"14027999421","owner":"59269150@N08","secret":"64f1ceef9f","server":"2923","farm":3,"title":"Splendour","ispublic":1,"isfriend":0,"isfamily":0,"safe":0,"ownername":"TablinumCarlson","latitude":-22.910491,"longitude":-43.177642,"accuracy":"13","context":0,"place_id":"XT_HZwhTVLIsJn4Jow","woeid":"26804349","geo_is_family":0,"geo_is_friend":0,"geo_is_contact":0,"geo_is_public":1,"media":"photo","media_status":"ready"},{"id":"14007976646","owner":"13592518@N03","secret":"b46ff34399","server":"5459","farm":6,"title":"M.I.B.","ispublic":1,"isfriend":0,"isfamily":0,"safe":0,"ownername":"Pedro Correa","latitude":-8.060329,"longitude":-34.877493,"accuracy":"16","context":0,"place_id":"gro6h9RVUL8Tg2o","woeid":"425161","geo_is_family":0,"geo_is_friend":0,"geo_is_contact":0,"geo_is_public":1,"media":"photo","media_status":"ready"},{"id":"14027855601","owner":"38181284@N06","secret":"29d938054b","server":"7071","farm":8,"title":"as darkness falls","ispublic":1,"isfriend":0,"isfamily":0,"safe":0,"ownername":"vulture labs","latitude":50.821987,"longitude":-0.157241,"accuracy":"11","context":0,"place_id":"cv1TwRlQUbMd6A","woeid":"13911","geo_is_family":0,"geo_is_friend":0,"geo_is_contact":0,"geo_is_public":1,"media":"photo","media_status":"ready"},{"id":"14027630902","owner":"70667315@N07","secret":"873a5638f3","server":"2913","farm":3,"title":"Wild coast","ispublic":1,"isfriend":0,"isfamily":0,"safe":0,"ownername":"Laurent photography","latitude":47.301235,"longitude":-3.233156,"accuracy":"13","context":0,"place_id":"XLbyV0lTW7nk8oePiQ","woeid":"29330883","geo_is_family":0,"geo_is_friend":0,"geo_is_contact":0,"geo_is_public":1,"media":"photo","media_status":"ready"},{"id":"14030834045","owner":"16854222@N05","secret":"0dd0d39c77","server":"2920","farm":3,"title":"White Rhododendron","ispublic":1,"isfriend":0,"isfamily":0,"safe":0,"ownername":"AnyMotion","latitude":50.123271,"longitude":8.6804,"accuracy":"16","context":0,"place_id":"Z0FRRfRXV7oIeew","woeid":"650272","geo_is_family":0,"geo_is_friend":0,"geo_is_contact":0,"geo_is_public":1,"media":"photo","media_status":"ready"},{"id":"14027623321","owner":"87402959@N02","secret":"2f9cd8e0d0","server":"7237","farm":8,"title":"contemporary traffic cathedral","ispublic":1,"isfriend":0,"isfamily":0,"safe":0,"ownername":"Blende1.8","latitude":38.725669,"longitude":-9.150369,"accuracy":"11","context":0,"place_id":"D08qJBRWVrjs0Ek","woeid":"742676","geo_is_family":0,"geo_is_friend":0,"geo_is_contact":0,"geo_is_public":1,"media":"photo","media_status":"ready"},{"id":"14030786725","owner":"42345335@N08","secret":"3e2da865f3","server":"2937","farm":3,"title":"Froglet \u2013 with a daisy for scale! :)","ispublic":1,"isfriend":0,"isfamily":0,"safe":0,"ownername":"EvilEyeGoshawk","latitude":56.155248,"longitude":-4.178988,"accuracy":"16","context":0,"place_id":"5R52qsZSVbkI8Q","woeid":"37340","geo_is_family":0,"geo_is_friend":0,"geo_is_contact":0,"geo_is_public":1,"media":"photo","media_status":"ready"},{"id":"14007587866","owner":"42766545@N07","secret":"8906a0ea06","server":"7238","farm":8,"title":"Spring scenery","ispublic":1,"isfriend":0,"isfamily":0,"safe":0,"ownername":"PeterCH51","latitude":47.190237,"longitude":8.29854,"accuracy":"15","context":0,"place_id":"7t5ycxNTUrtt47dZgQ","woeid":"20102398","geo_is_family":0,"geo_is_friend":0,"geo_is_contact":0,"geo_is_public":1,"media":"photo","media_status":"ready"},{"id":"14050391883","owner":"41558538@N02","secret":"dc9377d3aa","server":"2924","farm":3,"title":"Statue der G\u00f6ttin Sakhmet - Statue of the Godess Sakhmet","ispublic":1,"isfriend":0,"isfamily":0,"safe":0,"ownername":"vampire-carmen","latitude":40.779499,"longitude":-73.962664,"accuracy":"16","context":0,"place_id":"zzA0hmBTUb9GY797pA","woeid":"23511893","geo_is_family":0,"geo_is_friend":0,"geo_is_contact":0,"geo_is_public":1,"media":"photo","media_status":"ready"},{"id":"14030069025","owner":"73414467@N02","secret":"e8e2437e63","server":"7164","farm":8,"title":"Parque del Retiro (Madrid).","ispublic":1,"isfriend":0,"isfamily":0,"safe":0,"ownername":"Jos\u00e9 Luis Vega","latitude":40.416967,"longitude":-3.684754,"accuracy":"16","context":0,"place_id":"Z2U_zedTUri7YVepxQ","woeid":"20219886","geo_is_family":0,"geo_is_friend":0,"geo_is_contact":0,"geo_is_public":1,"media":"photo","media_status":"ready"},{"id":"14006750736","owner":"66644631@N05","secret":"f65ed5f71e","server":"2912","farm":3,"title":"Plate of assortment of cheese [03042014-IMG_1477]","ispublic":1,"isfriend":0,"isfamily":0,"safe":0,"ownername":"jmlpyt","latitude":48.856918,"longitude":2.341209,"accuracy":"11","context":0,"place_id":"EsIQUYZXU79_kEA","woeid":"615702","geo_is_family":0,"geo_is_friend":0,"geo_is_contact":0,"geo_is_public":1,"media":"photo","media_status":"ready"},{"id":"14026622791","owner":"47532811@N03","secret":"cccddae2db","server":"7095","farm":8,"title":"great stamp Germany 55c Karol J\u00f3zef Wojty\u0142a (27th April 2014 Canonization Canonisation Heiligsprechung Jan Pawel II, Ioannes Paulus PP. II, Pope John Paul II, Papst Johannes Paul II, Juan Pablo II, Papa Jo\u00e3o Paulo II) poste timbres Allemagne sellos","ispublic":1,"isfriend":0,"isfamily":0,"safe":0,"ownername":"stampolina - thanks to all for sending stamps!! :)","latitude":52.516071,"longitude":13.376979,"accuracy":"11","context":0,"place_id":"zot2ouJXUbKOJRM","woeid":"638242","geo_is_family":0,"geo_is_friend":0,"geo_is_contact":0,"geo_is_public":1,"media":"photo","media_status":"ready"},{"id":"14023778761","owner":"93250327@N05","secret":"2d66333e1d","server":"5342","farm":6,"title":"View from the Blue Bridge [Explored 26th April 2014]","ispublic":1,"isfriend":0,"isfamily":0,"safe":0,"ownername":"Patrizia Ilaria Sechi","latitude":51.50014,"longitude":-0.125913,"accuracy":"13","context":0,"place_id":"_8cuSp1TVrKmbg67ew","woeid":"24875645","geo_is_family":0,"geo_is_friend":0,"geo_is_contact":0,"geo_is_public":1,"media":"photo","media_status":"ready"},{"id":"14003161426","owner":"58446476@N00","secret":"2d65a8bf62","server":"2926","farm":3,"title":".","ispublic":1,"isfriend":0,"isfamily":0,"safe":0,"ownername":"p_v a l d i v i e s o","latitude":38.770413,"longitude":-9.145175,"accuracy":"16","context":0,"place_id":"sTP1JhNTUruBuVxo.Q","woeid":"20105196","geo_is_family":0,"geo_is_friend":0,"geo_is_contact":0,"geo_is_public":1,"media":"photo","media_status":"ready"},{"id":"14002524186","owner":"15200836@N02","secret":"0560125bc0","server":"7425","farm":8,"title":"MENORCA : FORNELLS VISTA DESDE MONTE TORO ( EXPLORE )","ispublic":1,"isfriend":0,"isfamily":0,"safe":0,"ownername":"marthinotf","latitude":39.988037,"longitude":4.110946,"accuracy":"12","context":0,"place_id":"Df4UeCRWVL3qt8U","woeid":"767085","geo_is_family":0,"geo_is_friend":0,"geo_is_contact":0,"geo_is_public":1,"media":"photo","media_status":"ready"},{"id":"14025638045","owner":"17306541@N06","secret":"1423504caf","server":"5026","farm":6,"title":"Rooted [Explored]","ispublic":1,"isfriend":0,"isfamily":0,"safe":0,"ownername":"jellyfire","latitude":52.284542,"longitude":1.043186,"accuracy":"12","context":0,"place_id":"x4cDPelVUr5.0w","woeid":"40416","geo_is_family":0,"geo_is_friend":0,"geo_is_contact":0,"geo_is_public":1,"media":"photo","media_status":"ready"},{"id":"14021345091","owner":"94852245@N00","secret":"69e22edc91","server":"2932","farm":3,"title":"vandkunsten, architects: torpedohallen, naval shipyard conversion, holmen, copenhagen 1953 \/ 2000-2003","ispublic":1,"isfriend":0,"isfamily":0,"safe":0,"ownername":"seier+seier","latitude":55.678437,"longitude":12.606124,"accuracy":"16","context":0,"place_id":"XnK9PC1TUrhRWnBR0Q","woeid":"20229137","geo_is_family":0,"geo_is_friend":0,"geo_is_contact":0,"geo_is_public":1,"media":"photo","media_status":"ready"},{"id":"14001358176","owner":"91564885@N00","secret":"e620fb1b5a","server":"7148","farm":8,"title":"Freixo","ispublic":1,"isfriend":0,"isfamily":0,"safe":0,"ownername":"*k59","latitude":43.074107,"longitude":-8.012959,"accuracy":"16","context":0,"place_id":"G5_lViFWV7KksJ0","woeid":"758574","geo_is_family":0,"geo_is_friend":0,"geo_is_contact":0,"geo_is_public":1,"media":"photo","media_status":"ready"},{"id":"14024727914","owner":"62356799@N06","secret":"74c7364c18","server":"7251","farm":8,"title":"The stars do not know that they are stars","ispublic":1,"isfriend":0,"isfamily":0,"safe":0,"ownername":"@sage_solar","latitude":50.879061,"longitude":-0.693029,"accuracy":"16","context":0,"place_id":"qi2jrIRQULyV7JgxyA","woeid":"12696105","geo_is_family":0,"geo_is_friend":0,"geo_is_contact":0,"geo_is_public":1,"media":"photo","media_status":"ready"},{"id":"14024164775","owner":"69008291@N02","secret":"ebaeccc369","server":"7193","farm":8,"title":"Oh, nothing is so beautiful as Spring! [Explored!]","ispublic":1,"isfriend":0,"isfamily":0,"safe":0,"ownername":"RiverCrouchWalker","latitude":51.668115,"longitude":0.574447,"accuracy":"13","context":0,"place_id":"076NQ5VTUroYfYnp4Q","woeid":"20093166","geo_is_family":0,"geo_is_friend":0,"geo_is_contact":0,"geo_is_public":1,"media":"photo","media_status":"ready"},{"id":"14024119275","owner":"81035653@N00","secret":"b8d65ba663","server":"7116","farm":8,"title":"Orange Avatar on Kingsday","ispublic":1,"isfriend":0,"isfamily":0,"safe":0,"ownername":"B\u212en","latitude":52.37379,"longitude":4.877028,"accuracy":"16","context":0,"place_id":"xfcEFYhWULKtjYI","woeid":"728410","geo_is_family":0,"geo_is_friend":0,"geo_is_contact":0,"geo_is_public":1,"media":"photo","media_status":"ready"},{"id":"14024095034","owner":"34050631@N02","secret":"e062765558","server":"2931","farm":3,"title":"River Avon","ispublic":1,"isfriend":0,"isfamily":0,"safe":0,"ownername":"Taron Curtis","latitude":52.109364,"longitude":-2.001764,"accuracy":"14","context":0,"place_id":"ckQ1sW1VUrKgYg","woeid":"40896","geo_is_family":0,"geo_is_friend":0,"geo_is_contact":0,"geo_is_public":1,"media":"photo","media_status":"ready"},{"id":"14023352494","owner":"100063725@N06","secret":"15062aa027","server":"2903","farm":3,"title":"Reflejos en el mar","ispublic":1,"isfriend":0,"isfamily":0,"safe":0,"ownername":"Antonio Chac","latitude":36.50102,"longitude":-4.831173,"accuracy":"16","context":0,"place_id":"b6ANCk5WVLwQivI","woeid":"766537","geo_is_family":0,"geo_is_friend":0,"geo_is_contact":0,"geo_is_public":1,"media":"photo","media_status":"ready"},{"id":"14019278152","owner":"53794995@N05","secret":"29977d8bfa","server":"5541","farm":6,"title":"La Laguna di Venezia","ispublic":1,"isfriend":0,"isfamily":0,"safe":0,"ownername":"Helena de Riquer","latitude":45.448217,"longitude":12.364397,"accuracy":"14","context":0,"place_id":"1kXEps9WUL8o6ro","woeid":"725746","geo_is_family":0,"geo_is_friend":0,"geo_is_contact":0,"geo_is_public":1,"media":"photo","media_status":"ready"},{"id":"14019066752","owner":"23414563@N04","secret":"4bc312047d","server":"5550","farm":6,"title":"Hello. Have a happy weekend. (Flickr Explore 26 April 2014. No. 8)","ispublic":1,"isfriend":0,"isfamily":0,"safe":0,"ownername":"Belinda Fewings (thank you for 700,000 + views)","latitude":50.948768,"longitude":-1.552974,"accuracy":"13","context":0,"place_id":"pnUpvpJQVLKWTw","woeid":"16844","geo_is_family":0,"geo_is_friend":0,"geo_is_contact":0,"geo_is_public":1,"media":"photo","media_status":"ready"},{"id":"14022343894","owner":"70226196@N00","secret":"69a2ff11a4","server":"7426","farm":8,"title":"Brighton bandstand","ispublic":1,"isfriend":0,"isfamily":0,"safe":0,"ownername":"pj_warlock","latitude":50.823451,"longitude":-0.165653,"accuracy":"13","context":0,"place_id":"ix6Lu2dTUrpqJDgfVQ","woeid":"20094196","geo_is_family":0,"geo_is_friend":0,"geo_is_contact":0,"geo_is_public":1,"media":"photo","media_status":"ready"},{"id":"14041803713","owner":"38181284@N06","secret":"809feb72da","server":"5120","farm":6,"title":"Mystery tours","ispublic":1,"isfriend":0,"isfamily":0,"safe":0,"ownername":"vulture labs","latitude":51.507887,"longitude":-0.087676,"accuracy":"15","context":0,"place_id":"AggqPb1TUrohNNCS.A","woeid":"20094296","geo_is_family":0,"geo_is_friend":0,"geo_is_contact":0,"geo_is_public":1,"media":"photo","media_status":"ready"},{"id":"14018455812","owner":"49036575@N02","secret":"9a7b155e06","server":"7105","farm":8,"title":"Lego Simpsons, Empire disguise.","ispublic":1,"isfriend":0,"isfamily":0,"safe":0,"ownername":"Zed The Dragon","latitude":42.101249,"longitude":-72.589286,"accuracy":"11","context":0,"place_id":"qyQADC9TVrPIp4aD","woeid":"2498304","geo_is_family":0,"geo_is_friend":0,"geo_is_contact":0,"geo_is_public":1,"media":"photo","media_status":"ready"},{"id":"14041591433","owner":"62815410@N04","secret":"62323eac50","server":"2900","farm":3,"title":"it's a kind of magic (brescia, italy)","ispublic":1,"isfriend":0,"isfamily":0,"safe":0,"ownername":"bloodybee","latitude":45.53516,"longitude":10.235395,"accuracy":"16","context":0,"place_id":"WO1uGLRWU7u69ps","woeid":"711410","geo_is_family":0,"geo_is_friend":0,"geo_is_contact":0,"geo_is_public":1,"media":"photo","media_status":"ready"},{"id":"14021367725","owner":"54252594@N06","secret":"307b093851","server":"7161","farm":8,"title":"Intxaurrondo II [EXPLORED] \u2013 TOP POSITION","ispublic":1,"isfriend":0,"isfamily":0,"safe":0,"ownername":"inFocusDCPhoto \u2013 Young Spanish photographer","latitude":43.314405,"longitude":-1.956682,"accuracy":"14","context":0,"place_id":"q.vWIQJWVbkVysY","woeid":"773418","geo_is_family":0,"geo_is_friend":0,"geo_is_contact":0,"geo_is_public":1,"media":"photo","media_status":"ready"},{"id":"14041310963","owner":"54252594@N06","secret":"fd487cb0df","server":"5298","farm":6,"title":"Intxaurrondo I [EXPLORED]","ispublic":1,"isfriend":0,"isfamily":0,"safe":0,"ownername":"inFocusDCPhoto \u2013 Young Spanish photographer","latitude":43.314405,"longitude":-1.956682,"accuracy":"14","context":0,"place_id":"q.vWIQJWVbkVysY","woeid":"773418","geo_is_family":0,"geo_is_friend":0,"geo_is_contact":0,"geo_is_public":1,"media":"photo","media_status":"ready"},{"id":"14017935112","owner":"91248320@N04","secret":"5b365651b5","server":"7172","farm":8,"title":"Lights of the harbor","ispublic":1,"isfriend":0,"isfamily":0,"safe":0,"ownername":"Jekurantodistaja","latitude":60.434462,"longitude":22.219376,"accuracy":"14","context":0,"place_id":"mrgmOjdUVb4t.Jk","woeid":"574224","geo_is_family":0,"geo_is_friend":0,"geo_is_contact":0,"geo_is_public":1,"media":"photo","media_status":"ready"},{"id":"14017843741","owner":"80365011@N08","secret":"785e818650","server":"7270","farm":8,"title":"Spring on the \"Hohneck\" - thank you for \"explore\"","ispublic":1,"isfriend":0,"isfamily":0,"safe":0,"ownername":"kali_merette2002","latitude":48.049972,"longitude":7.069187,"accuracy":"16","context":0,"place_id":"tcXnU0xWU7_DQtMC","woeid":"7153322","geo_is_family":0,"geo_is_friend":0,"geo_is_contact":0,"geo_is_public":1,"media":"photo","media_status":"ready"},{"id":"14017539041","owner":"42574877@N06","secret":"24a29b786a","server":"7433","farm":8,"title":"Old London , New London","ispublic":1,"isfriend":0,"isfamily":0,"safe":0,"ownername":"Olympe B.","latitude":51.505002,"longitude":-0.080264,"accuracy":"16","context":0,"place_id":"v70Y8qlTUrrLiiTZAg","woeid":"20094363","geo_is_family":0,"geo_is_friend":0,"geo_is_contact":0,"geo_is_public":1,"media":"photo","media_status":"ready"},{"id":"14040613013","owner":"37517453@N08","secret":"9e8778a49b","server":"2908","farm":3,"title":"sunset on the lagoon \/ Explore Apr 26, 2014 #268","ispublic":1,"isfriend":0,"isfamily":0,"safe":0,"ownername":"MK|PHOTOGRAPHY","latitude":45.72524,"longitude":13.381594,"accuracy":"16","context":0,"place_id":"AvvoIFhWU7rat2k","woeid":"710863","geo_is_family":0,"geo_is_friend":0,"geo_is_contact":0,"geo_is_public":1,"media":"photo","media_status":"ready"},{"id":"14017393451","owner":"60913863@N08","secret":"612ff3155b","server":"7343","farm":8,"title":"Scardovari 3","ispublic":1,"isfriend":0,"isfamily":0,"safe":0,"ownername":"Goethe58","latitude":44.889182,"longitude":12.441469,"accuracy":"16","context":0,"place_id":"43JSZIRWULmQYnk","woeid":"723862","geo_is_family":0,"geo_is_friend":0,"geo_is_contact":0,"geo_is_public":1,"media":"photo","media_status":"ready"},{"id":"14017370522","owner":"92375404@N08","secret":"37a1135ec0","server":"7132","farm":8,"title":"Kleiner Mann - was nun?","ispublic":1,"isfriend":0,"isfamily":0,"safe":0,"ownername":"tobias142","latitude":48.183604,"longitude":16.301311,"accuracy":"15","context":0,"place_id":"72ejLvpUV7u.Cps","woeid":"551754","geo_is_family":0,"geo_is_friend":0,"geo_is_contact":0,"geo_is_public":1,"media":"photo","media_status":"ready"},{"id":"13996494456","owner":"44215472@N04","secret":"f2f5cdbcab","server":"7368","farm":8,"title":"307 - T\u00edmpano Ventana - Iglesia del Salvador - Pozancos (Palencia) - Spain.","ispublic":1,"isfriend":0,"isfamily":0,"safe":0,"ownername":"ELCABALLOALVARO","latitude":42.716182,"longitude":-4.227848,"accuracy":"13","context":0,"place_id":"yKIQSENWVbo9xP8","woeid":"770645","geo_is_family":0,"geo_is_friend":0,"geo_is_contact":0,"geo_is_public":1,"media":"photo","media_status":"ready"},{"id":"14020034004","owner":"26849514@N06","secret":"43273f6354","server":"7058","farm":8,"title":"The Serre du Congo or Congoserre at the Royal greenhouses of Laeken (Brussels)","ispublic":1,"isfriend":0,"isfamily":0,"safe":0,"ownername":"Frans.Sellies","latitude":50.888835,"longitude":4.361164,"accuracy":"16","context":0,"place_id":"b_4P.TNYVLL65Ls","woeid":"968019","geo_is_family":0,"geo_is_friend":0,"geo_is_contact":0,"geo_is_public":1,"media":"photo","media_status":"ready"},{"id":"14019532785","owner":"50027776@N05","secret":"a62abd19c5","server":"7451","farm":8,"title":"Dopo il tramonto, sulla via del ritorno","ispublic":1,"isfriend":0,"isfamily":0,"safe":0,"ownername":"Luigi Alesi","latitude":43.296761,"longitude":13.209514,"accuracy":"12","context":0,"place_id":"yzAdBb5QULzeE8r_0g","woeid":"12678199","geo_is_family":0,"geo_is_friend":0,"geo_is_contact":0,"geo_is_public":1,"media":"photo","media_status":"ready"},{"id":"13996401166","owner":"29225114@N08","secret":"353e6abccb","server":"5189","farm":6,"title":"Mysterious sunbird","ispublic":1,"isfriend":0,"isfamily":0,"safe":0,"ownername":"Sergei Golyshev","latitude":-2.623613,"longitude":35.567035,"accuracy":"13","context":0,"place_id":"bJkCqXNTUb5sFyfy","woeid":"2345937","geo_is_family":0,"geo_is_friend":0,"geo_is_contact":0,"geo_is_public":1,"media":"photo","media_status":"ready"},{"id":"14039092653","owner":"58013555@N07","secret":"ce0aba2609","server":"7083","farm":8,"title":"Duddington Explored 26th April 2014 Thank you x","ispublic":1,"isfriend":0,"isfamily":0,"safe":0,"ownername":"Vide Cor Meum Images","latitude":52.599089,"longitude":-0.542258,"accuracy":"12","context":0,"place_id":"uaqDT6BQWr8RuA","woeid":"18570","geo_is_family":0,"geo_is_friend":0,"geo_is_contact":0,"geo_is_public":1,"media":"photo","media_status":"ready"},{"id":"13995523876","owner":"51058542@N02","secret":"87ea011bfc","server":"5292","farm":6,"title":"H\u00f4tel de ville de Montr\u00e9al","ispublic":1,"isfriend":0,"isfamily":0,"safe":0,"ownername":"Digital Dick Photography","latitude":45.508287,"longitude":-73.553787,"accuracy":"16","context":0,"place_id":"ewedFCtTVLmNfbik7g","woeid":"26332792","geo_is_family":0,"geo_is_friend":0,"geo_is_contact":0,"geo_is_public":1,"media":"photo","media_status":"ready"},{"id":"14018786454","owner":"79688583@N03","secret":"44eeefa5e4","server":"2938","farm":3,"title":"London Framed","ispublic":1,"isfriend":0,"isfamily":0,"safe":0,"ownername":"Jamie Frith","latitude":51.508976,"longitude":-0.087128,"accuracy":"16","context":0,"place_id":"X6buuH1VVrmrDw","woeid":"44364","geo_is_family":0,"geo_is_friend":0,"geo_is_contact":0,"geo_is_public":1,"media":"photo","media_status":"ready"},{"id":"14017926825","owner":"53602105@N02","secret":"c041f28cbb","server":"7350","farm":8,"title":"Greetings from Polignano a Mare (Explored!)","ispublic":1,"isfriend":0,"isfamily":0,"safe":0,"ownername":"Elettroshiva","latitude":40.981971,"longitude":17.229309,"accuracy":"9","context":0,"place_id":"ZG4uh31WULrJDrM","woeid":"720836","geo_is_family":0,"geo_is_friend":0,"geo_is_contact":0,"geo_is_public":1,"media":"photo","media_status":"ready"},{"id":"14014365181","owner":"12762076@N04","secret":"0a6bfb9366","server":"5523","farm":6,"title":"An Aird","ispublic":1,"isfriend":0,"isfamily":0,"safe":0,"ownername":"Mark Rowell","latitude":57.341357,"longitude":-6.098871,"accuracy":"16","context":0,"place_id":"YDV7WcxTUrotyhC.PA","woeid":"20089772","geo_is_family":0,"geo_is_friend":0,"geo_is_contact":0,"geo_is_public":1,"media":"photo","media_status":"ready"},{"id":"14014095332","owner":"16854222@N05","secret":"6e7cc1cd08","server":"7095","farm":8,"title":"An Early Stage","ispublic":1,"isfriend":0,"isfamily":0,"safe":0,"ownername":"AnyMotion","latitude":50.123271,"longitude":8.6804,"accuracy":"16","context":0,"place_id":"Z0FRRfRXV7oIeew","woeid":"650272","geo_is_family":0,"geo_is_friend":0,"geo_is_contact":0,"geo_is_public":1,"media":"photo","media_status":"ready"},{"id":"14036602763","owner":"8070463@N03","secret":"feacec016b","server":"7210","farm":8,"title":"Crocodile with mouth wide open","ispublic":1,"isfriend":0,"isfamily":0,"safe":0,"ownername":"Tambako the Jaguar","latitude":47.547277,"longitude":7.578163,"accuracy":"14","context":0,"place_id":"Cp3nkIJWWr5tTLM","woeid":"784257","geo_is_family":0,"geo_is_friend":0,"geo_is_contact":0,"geo_is_public":1,"media":"photo","media_status":"ready"},{"id":"14013269181","owner":"48988488@N04","secret":"2fe0e976b7","server":"2938","farm":3,"title":"boogie woogie","ispublic":1,"isfriend":0,"isfamily":0,"safe":0,"ownername":"claudius1954","latitude":45.925319,"longitude":9.566967,"accuracy":"16","context":0,"place_id":"sFLr.z9TUrtsz0UoSg","woeid":"20136932","geo_is_family":0,"geo_is_friend":0,"geo_is_contact":0,"geo_is_public":1,"media":"photo","media_status":"ready"},{"id":"14036434483","owner":"34885474@N03","secret":"391674707f","server":"2898","farm":3,"title":"al atardecer","ispublic":1,"isfriend":0,"isfamily":0,"safe":0,"ownername":"alcachofa1960","latitude":34.032034,"longitude":-6.843227,"accuracy":"16","context":0,"place_id":"9IpbSoNQV7k.WYJZ","woeid":"1538348","geo_is_family":0,"geo_is_friend":0,"geo_is_contact":0,"geo_is_public":1,"media":"photo","media_status":"ready"},{"id":"14036383433","owner":"54838723@N02","secret":"088766be7a","server":"5189","farm":6,"title":"imminent storm","ispublic":1,"isfriend":0,"isfamily":0,"safe":0,"ownername":"koaxial","latitude":47.964295,"longitude":11.34761,"accuracy":"15","context":0,"place_id":"r0bDQUxXUb2K9d8","woeid":"637921","geo_is_family":0,"geo_is_friend":0,"geo_is_contact":0,"geo_is_public":1,"media":"photo","media_status":"ready"},{"id":"14016312085","owner":"45283106@N08","secret":"68335f8a81","server":"2923","farm":3,"title":"721 - Monopteros","ispublic":1,"isfriend":0,"isfamily":0,"safe":0,"ownername":"Huey_Chris","latitude":48.149903,"longitude":11.59093,"accuracy":"16","context":0,"place_id":"VoG2Y_lXVby7TOA","woeid":"676757","geo_is_family":0,"geo_is_friend":0,"geo_is_contact":0,"geo_is_public":1,"media":"photo","media_status":"ready"}]},"stat":"ok"}