{"photos":{"page":60,"pages":26696,"perpage":60,"total":"1601726","photo":[{"id":"14192677945","owner":"36217762@N00","secret":"ba71d4bc05","server":"7326","farm":8,"title":"black delight","ispublic":1,"isfriend":0,"isfamily":0,"safe":0,"ownername":"Pixelm\u00e4dchen6","latitude":52.531874,"longitude":13.385596,"accuracy":"15","context":0,"place_id":"zot2ouJXUbKOJRM","woeid":"638242","geo_is_family":0,"geo_is_friend":0,"geo_is_contact":0,"geo_is_public":1,"media":"photo","media_status":"ready"},{"id":"14187834022","owner":"34096574@N06","secret":"75ed7a697f","server":"7450","farm":8,"title":"Venice : Campiello Rielo","ispublic":1,"isfriend":0,"isfamily":0,"safe":0,"ownername":"Pantchoa","latitude":45.441258,"longitude":12.326608,"accuracy":"16","context":0,"place_id":"4PC5YP1TUrvqSOUpsQ","woeid":"20150613","geo_is_family":0,"geo_is_friend":0,"geo_is_contact":0,"geo_is_public":1,"media":"photo","media_status":"ready"},{"id":"14189950094","owner":"44743466@N05","secret":"0d930cd44c","server":"5278","farm":6,"title":"just a bad day","ispublic":1,"isfriend":0,"isfamily":0,"safe":0,"ownername":"_esse_","latitude":45.164329,"longitude":10.795089,"accuracy":"11","context":0,"place_id":"QClYi4lWU71y8uQ","woeid":"717803","geo_is_family":0,"geo_is_friend":0,"geo_is_contact":0,"geo_is_public":1,"media":"photo","media_status":"ready"},{"id":"14187444965","owner":"79193776@N03","secret":"eef735f4a7","server":"7348","farm":8,"title":"On the wings of sun","ispublic":1,"isfriend":0,"isfamily":0,"safe":0,"ownername":"KerKaya","latitude":49.932218,"longitude":1.077117,"accuracy":"11","context":0,"place_id":"pV.zH89UWrJRJ4Y","woeid":"588732","geo_is_family":0,"geo_is_friend":0,"geo_is_contact":0,"geo_is_public":1,"media":"photo","media_status":"ready"},{"id":"14186333445","owner":"94015342@N04","secret":"830f7e717a","server":"7410","farm":8,"title":"'Spirits, Come Bring Me Comfort' - Bardsey Island, Wales","ispublic":1,"isfriend":0,"isfamily":0,"safe":0,"ownername":"Adrian Kingsley-Hughes","latitude":52.756541,"longitude":-4.796111,"accuracy":"15","context":0,"place_id":"5RMTjEVQU7JrHg","woeid":"11827","geo_is_family":0,"geo_is_friend":0,"geo_is_contact":0,"geo_is_public":1,"media":"photo","media_status":"ready"},{"id":"13999358227","owner":"88420718@N03","secret":"5a14ee1e8d","server":"5031","farm":6,"title":"the final watcher","ispublic":1,"isfriend":0,"isfamily":0,"safe":0,"ownername":"thequietguy","latitude":38.821521,"longitude":20.698242,"accuracy":"10","context":0,"place_id":"zYedhxtYV7_fFGM","woeid":"955263","geo_is_family":0,"geo_is_friend":0,"geo_is_contact":0,"geo_is_public":1,"media":"photo","media_status":"ready"},{"id":"14181701312","owner":"49010317@N07","secret":"e8e3b18ec1","server":"7422","farm":8,"title":"waiting for the sunset ...  aspettando il tramonto ...","ispublic":1,"isfriend":0,"isfamily":0,"safe":0,"ownername":"miriam259","latitude":16.17646,"longitude":-22.9169,"accuracy":"5","context":0,"place_id":"Ou7W2iFTUb4d48QR","woeid":"2345121","geo_is_family":0,"geo_is_friend":0,"geo_is_contact":0,"geo_is_public":1,"media":"photo","media_status":"ready"},{"id":"14203750953","owner":"22543235@N05","secret":"403303d0ee","server":"2934","farm":3,"title":"Cromwell Point","ispublic":1,"isfriend":0,"isfamily":0,"safe":0,"ownername":"Gareth Wray Photography -Thanks = 1.5 Million Hits","latitude":51.932782,"longitude":-10.322513,"accuracy":"13","context":0,"place_id":"kGghcwJUVLsUzUo","woeid":"561429","geo_is_family":0,"geo_is_friend":0,"geo_is_contact":0,"geo_is_public":1,"media":"photo","media_status":"ready"},{"id":"14176908445","owner":"90634379@N06","secret":"dd4271428b","server":"2929","farm":3,"title":"\"S\u00f3 pra ver a flor do seu sorriso se abrir...","ispublic":1,"isfriend":0,"isfamily":0,"safe":0,"ownername":"Lilian_Anadan","latitude":-23.61596,"longitude":-46.637408,"accuracy":"16","context":0,"place_id":"VuFBG0lVV79cDxo","woeid":"455344","geo_is_family":0,"geo_is_friend":0,"geo_is_contact":0,"geo_is_public":1,"media":"photo","media_status":"ready"},{"id":"13990136997","owner":"67833313@N08","secret":"6ac0888fdd","server":"2929","farm":3,"title":"Averof under sunset...","ispublic":1,"isfriend":0,"isfamily":0,"safe":0,"ownername":"Dimitra Kirgiannaki \u266a\u00b8.\u2022*\u00b4spring-lover \u00a8\u00b4","latitude":37.929665,"longitude":23.69514,"accuracy":"11","context":0,"place_id":"0PhejEpYVL9ZXy4","woeid":"965854","geo_is_family":0,"geo_is_friend":0,"geo_is_contact":0,"geo_is_public":1,"media":"photo","media_status":"ready"},{"id":"14196199103","owner":"67833313@N08","secret":"223e407072","server":"7391","farm":8,"title":"a postcard from Greece....","ispublic":1,"isfriend":0,"isfamily":0,"safe":0,"ownername":"Dimitra Kirgiannaki \u266a\u00b8.\u2022*\u00b4spring-lover \u00a8\u00b4","latitude":37.926416,"longitude":23.694454,"accuracy":"11","context":0,"place_id":"0PhejEpYVL9ZXy4","woeid":"965854","geo_is_family":0,"geo_is_friend":0,"geo_is_contact":0,"geo_is_public":1,"media":"photo","media_status":"ready"},{"id":"14175473914","owner":"34096574@N06","secret":"3ee60a3410","server":"2934","farm":3,"title":"Venice : Rio de San Cassan \/ Rio di San Cassiano","ispublic":1,"isfriend":0,"isfamily":0,"safe":0,"ownername":"Pantchoa","latitude":45.439847,"longitude":12.331872,"accuracy":"16","context":0,"place_id":"4PC5YP1TUrvqSOUpsQ","woeid":"20150613","geo_is_family":0,"geo_is_friend":0,"geo_is_contact":0,"geo_is_public":1,"media":"photo","media_status":"ready"},{"id":"14152176106","owner":"23305744@N02","secret":"71e11f0c5b","server":"7391","farm":8,"title":"CALATRAVA REGGIO EMILIA","ispublic":1,"isfriend":0,"isfamily":0,"safe":0,"ownername":"Roberto.mac.","latitude":44.69559,"longitude":10.641209,"accuracy":"11","context":0,"place_id":"YyyIj8xWULuSM2Y","woeid":"721568","geo_is_family":0,"geo_is_friend":0,"geo_is_contact":0,"geo_is_public":1,"media":"photo","media_status":"ready"},{"id":"13986569390","owner":"87317128@N08","secret":"e92ede6821","server":"7328","farm":8,"title":"The Royal Arcade","ispublic":1,"isfriend":0,"isfamily":0,"safe":0,"ownername":"Pu\u00e9rtolas","latitude":51.510244,"longitude":-0.142296,"accuracy":"16","context":0,"place_id":"amTwDy5TWr9_hw","woeid":"28571","geo_is_family":0,"geo_is_friend":0,"geo_is_contact":0,"geo_is_public":1,"media":"photo","media_status":"ready"},{"id":"14170384312","owner":"93600426@N04","secret":"ba3af0d116","server":"7402","farm":8,"title":"FCAB \/ Sector Mina Spence","ispublic":1,"isfriend":0,"isfamily":0,"safe":0,"ownername":"Trenes del Desierto II","latitude":-22.75782,"longitude":-69.215927,"accuracy":"11","context":0,"place_id":"tQJzf8FTUb5HyIx5","woeid":"2345020","geo_is_family":0,"geo_is_friend":0,"geo_is_contact":0,"geo_is_public":1,"media":"photo","media_status":"ready"},{"id":"14147066086","owner":"26429763@N08","secret":"54ed233733","server":"7452","farm":8,"title":"Babysitting","ispublic":1,"isfriend":0,"isfamily":0,"safe":0,"ownername":"Born in The 40's.. Explored again!","latitude":52.779991,"longitude":0.15319,"accuracy":"16","context":0,"place_id":"bJzmkqBTVLy5Ng","woeid":"26640","geo_is_family":0,"geo_is_friend":0,"geo_is_contact":0,"geo_is_public":1,"media":"photo","media_status":"ready"},{"id":"13982186287","owner":"22543235@N05","secret":"1d3a8869c7","server":"7453","farm":8,"title":"Corcomroe Abbey","ispublic":1,"isfriend":0,"isfamily":0,"safe":0,"ownername":"Gareth Wray Photography -Thanks = 1.5 Million Hits","latitude":53.111724,"longitude":-9.157576,"accuracy":"14","context":0,"place_id":"jpcDOWFUV7Nr6HY","woeid":"559830","geo_is_family":0,"geo_is_friend":0,"geo_is_contact":0,"geo_is_public":1,"media":"photo","media_status":"ready"},{"id":"14186982253","owner":"39669415@N05","secret":"412a149dba","server":"7382","farm":8,"title":"remembering the beautiful spring days","ispublic":1,"isfriend":0,"isfamily":0,"safe":0,"ownername":"BraCom (Bram)","latitude":51.739891,"longitude":4.154505,"accuracy":"16","context":0,"place_id":"MApSWQ5WUbmscv8","woeid":"733489","geo_is_family":0,"geo_is_friend":0,"geo_is_contact":0,"geo_is_public":1,"media":"photo","media_status":"ready"},{"id":"13980001870","owner":"56298149@N07","secret":"9b40358cbc","server":"5111","farm":6,"title":"Fort-La-Latte","ispublic":1,"isfriend":0,"isfamily":0,"safe":0,"ownername":"Emmanuel Lem\u00e9e | Photographie","latitude":48.667498,"longitude":-2.285327,"accuracy":"16","context":0,"place_id":"JPgkMFRTUrsw4PzHng","woeid":"20175953","geo_is_family":0,"geo_is_friend":0,"geo_is_contact":0,"geo_is_public":1,"media":"photo","media_status":"ready"},{"id":"14184773343","owner":"87317128@N08","secret":"befa5d8f9e","server":"7307","farm":8,"title":"Abandoned London","ispublic":1,"isfriend":0,"isfamily":0,"safe":0,"ownername":"Pu\u00e9rtolas","latitude":51.527489,"longitude":-0.067849,"accuracy":"15","context":0,"place_id":"3CybqwdTUrrjkHtG7g","woeid":"20089369","geo_is_family":0,"geo_is_friend":0,"geo_is_contact":0,"geo_is_public":1,"media":"photo","media_status":"ready"},{"id":"14183806123","owner":"11638484@N06","secret":"870f29acf3","server":"7389","farm":8,"title":"Wood Duck female and babies hanging out at my pool (Aix sponsa)","ispublic":1,"isfriend":0,"isfamily":0,"safe":0,"ownername":"Paul Hueber","latitude":28.663104,"longitude":-81.390323,"accuracy":"14","context":0,"place_id":"to4Ws4xTUb9UMZfG","woeid":"2353884","geo_is_family":0,"geo_is_friend":0,"geo_is_contact":0,"geo_is_public":1,"media":"photo","media_status":"ready"},{"id":"14158377481","owner":"101109840@N06","secret":"24fffbcdbd","server":"7365","farm":8,"title":"Harley detail","ispublic":1,"isfriend":0,"isfamily":0,"safe":0,"ownername":"Brigante\uf8ff","latitude":45.46894,"longitude":9.18103,"accuracy":"11","context":0,"place_id":"49Gidk1WU7JxrFY","woeid":"718345","geo_is_family":0,"geo_is_friend":0,"geo_is_contact":0,"geo_is_public":1,"media":"photo","media_status":"ready"},{"id":"13974092408","owner":"75367184@N05","secret":"7267f6bfbd","server":"7320","farm":8,"title":"Anser anser","ispublic":1,"isfriend":0,"isfamily":0,"safe":0,"ownername":"Wolkenrose","latitude":49.96305,"longitude":10.187094,"accuracy":"16","context":0,"place_id":"LT8FBnVXV7sHHjA","woeid":"651578","geo_is_family":0,"geo_is_friend":0,"geo_is_contact":0,"geo_is_public":1,"media":"photo","media_status":"ready"},{"id":"13972009108","owner":"8677054@N03","secret":"4097311fa7","server":"7441","farm":8,"title":"Snack time  .  .  .","ispublic":1,"isfriend":0,"isfamily":0,"safe":0,"ownername":"ericrstoner","latitude":-1.00713,"longitude":-48.959798,"accuracy":"16","context":0,"place_id":"wIqhNNhTUb7a3rI.","woeid":"2344857","geo_is_family":0,"geo_is_friend":0,"geo_is_contact":0,"geo_is_public":1,"media":"photo","media_status":"ready"},{"id":"14158129994","owner":"50027776@N05","secret":"e57605bf56","server":"7301","farm":8,"title":"Sibillini - Fosso dei Mergani","ispublic":1,"isfriend":0,"isfamily":0,"safe":0,"ownername":"Luigi Alesi","latitude":42.828299,"longitude":13.206467,"accuracy":"14","context":0,"place_id":"IcB85V1WU7lCiZ8","woeid":"713407","geo_is_family":0,"geo_is_friend":0,"geo_is_contact":0,"geo_is_public":1,"media":"photo","media_status":"ready"},{"id":"14149335671","owner":"57008594@N05","secret":"ea47d02e15","server":"7314","farm":8,"title":"cereal","ispublic":1,"isfriend":0,"isfamily":0,"safe":0,"ownername":"MotoJuan","latitude":39.067646,"longitude":-1.744937,"accuracy":"13","context":0,"place_id":"3RLag7RWVb_OtzQ","woeid":"775445","geo_is_family":0,"geo_is_friend":0,"geo_is_contact":0,"geo_is_public":1,"media":"photo","media_status":"ready"},{"id":"14172008853","owner":"32126965@N07","secret":"e3e340a705","server":"5311","farm":6,"title":"Green and Yellow ..","ispublic":1,"isfriend":0,"isfamily":0,"safe":0,"ownername":"* Janets Photos*","latitude":53.65794,"longitude":-0.137543,"accuracy":"14","context":0,"place_id":"uF97ya1SVLwBKw","woeid":"36625","geo_is_family":0,"geo_is_friend":0,"geo_is_contact":0,"geo_is_public":1,"media":"photo","media_status":"ready"},{"id":"13965211590","owner":"53794995@N05","secret":"78bd19beda","server":"7357","farm":8,"title":"Inauguraci\u00f3n","ispublic":1,"isfriend":0,"isfamily":0,"safe":0,"ownername":"Helena de Riquer","latitude":41.579528,"longitude":1.617069,"accuracy":"14","context":0,"place_id":"sJNwmcpWVLih7.A","woeid":"762550","geo_is_family":0,"geo_is_friend":0,"geo_is_contact":0,"geo_is_public":1,"media":"photo","media_status":"ready"},{"id":"13962879178","owner":"40723481@N04","secret":"c15e8bf106","server":"7402","farm":8,"title":"sala d'attesa","ispublic":1,"isfriend":0,"isfamily":0,"safe":0,"ownername":"Franco Marconi","latitude":42.947533,"longitude":13.877344,"accuracy":"16","context":0,"place_id":"R6bkHjFWULhs4nA","woeid":"722347","geo_is_family":0,"geo_is_friend":0,"geo_is_contact":0,"geo_is_public":1,"media":"photo","media_status":"ready"},{"id":"13961098479","owner":"79193776@N03","secret":"9359487aa2","server":"2897","farm":3,"title":"Soft and far away","ispublic":1,"isfriend":0,"isfamily":0,"safe":0,"ownername":"KerKaya","latitude":49.874038,"longitude":0.79815,"accuracy":"11","context":0,"place_id":"bI2lScpXUbvarQw","woeid":"631003","geo_is_family":0,"geo_is_friend":0,"geo_is_contact":0,"geo_is_public":1,"media":"photo","media_status":"ready"},{"id":"13960030788","owner":"101109840@N06","secret":"8137937c27","server":"2933","farm":3,"title":"But, where did I put my wallet?","ispublic":1,"isfriend":0,"isfamily":0,"safe":0,"ownername":"Brigante\uf8ff","latitude":45.46894,"longitude":9.18103,"accuracy":"11","context":0,"place_id":"49Gidk1WU7JxrFY","woeid":"718345","geo_is_family":0,"geo_is_friend":0,"geo_is_contact":0,"geo_is_public":1,"media":"photo","media_status":"ready"},{"id":"14165784563","owner":"15005196@N07","secret":"b073e67490","server":"7303","farm":8,"title":"\u975b \u85cd \u8a69 \u5cb8  ~ Panorama OF  COMO,PERLEDO & Varenna @ castello di Vezio~","ispublic":1,"isfriend":0,"isfamily":0,"safe":0,"ownername":"PS\u5154~\u5154\u5154\u5154~","latitude":46.013998,"longitude":9.292159,"accuracy":"14","context":0,"place_id":"ExdGqg9QV7rwKBHTSA","woeid":"15000278","geo_is_family":0,"geo_is_friend":0,"geo_is_contact":0,"geo_is_public":1,"media":"photo","media_status":"ready"},{"id":"13957396878","owner":"44161305@N02","secret":"aec2239b8a","server":"2928","farm":3,"title":"Canal Grande from Ponte degli Scalzi, Venice, Italy, March 30, 2014  463","ispublic":1,"isfriend":0,"isfamily":0,"safe":0,"ownername":"tango-","latitude":45.442023,"longitude":12.3291,"accuracy":"11","context":0,"place_id":"1kXEps9WUL8o6ro","woeid":"725746","geo_is_family":0,"geo_is_friend":0,"geo_is_contact":0,"geo_is_public":1,"media":"photo","media_status":"ready"},{"id":"14140973962","owner":"33660572@N02","secret":"b60f65577e","server":"2905","farm":3,"title":"Peuples du monde: les Mursi d'Ethiopie.","ispublic":1,"isfriend":0,"isfamily":0,"safe":0,"ownername":"claude gourlay","latitude":5.495703,"longitude":36.75167,"accuracy":"11","context":0,"place_id":"uLjanjpQVrKolM.u","woeid":"1482352","geo_is_family":0,"geo_is_friend":0,"geo_is_contact":0,"geo_is_public":1,"media":"photo","media_status":"ready"},{"id":"14163195613","owner":"34096574@N06","secret":"2511a54974","server":"5339","farm":6,"title":"Venice : Tintoretto's  ashes  - 1\/2","ispublic":1,"isfriend":0,"isfamily":0,"safe":0,"ownername":"Pantchoa","latitude":45.446538,"longitude":12.332969,"accuracy":"16","context":0,"place_id":"EzRUzuJTUrtWx_W.dw","woeid":"20150612","geo_is_family":0,"geo_is_friend":0,"geo_is_contact":0,"geo_is_public":1,"media":"photo","media_status":"ready"},{"id":"14136920672","owner":"20878641@N00","secret":"a0cd06018d","server":"5272","farm":6,"title":"Hare","ispublic":1,"isfriend":0,"isfamily":0,"safe":0,"ownername":"Andrew Pescod","latitude":54.875514,"longitude":-3.072619,"accuracy":"16","context":0,"place_id":"Vs9W5AFTU7xUAQ","woeid":"21699","geo_is_family":0,"geo_is_friend":0,"geo_is_contact":0,"geo_is_public":1,"media":"photo","media_status":"ready"},{"id":"13952794299","owner":"101109840@N06","secret":"dcc3d5f47c","server":"7401","farm":8,"title":"Ties","ispublic":1,"isfriend":0,"isfamily":0,"safe":0,"ownername":"Brigante\uf8ff","latitude":45.46894,"longitude":9.18103,"accuracy":"11","context":0,"place_id":"49Gidk1WU7JxrFY","woeid":"718345","geo_is_family":0,"geo_is_friend":0,"geo_is_contact":0,"geo_is_public":1,"media":"photo","media_status":"ready"},{"id":"14139259815","owner":"44161305@N02","secret":"ece2887191","server":"2912","farm":3,"title":"Mantarkaya Rock (Mushroom rock), Acik Saray, G\u00fcl\u015fehir, Cappadocia (Kapadokya, Turkey) 220","ispublic":1,"isfriend":0,"isfamily":0,"safe":1,"ownername":"tango-","latitude":38.74364,"longitude":34.647359,"accuracy":"13","context":0,"place_id":"2TFePR5TUbgaEB9O","woeid":"2321280","geo_is_family":0,"geo_is_friend":0,"geo_is_contact":0,"geo_is_public":1,"media":"photo","media_status":"ready"},{"id":"13952579579","owner":"69195288@N07","secret":"52a6044630","server":"5033","farm":6,"title":"E-loc 186 115-9 en 186 198-8(Rotterdam Centraal 3-5-2014)","ispublic":1,"isfriend":0,"isfamily":0,"safe":0,"ownername":"Ronnie Venhorst","latitude":51.92481,"longitude":4.469289,"accuracy":"16","context":0,"place_id":"lhM3WGRWUbndGLo","woeid":"733075","geo_is_family":0,"geo_is_friend":0,"geo_is_contact":0,"geo_is_public":1,"media":"photo","media_status":"ready"},{"id":"13952269070","owner":"59269150@N08","secret":"dc3557acb9","server":"2924","farm":3,"title":"The Colours Of Parati","ispublic":1,"isfriend":0,"isfamily":0,"safe":0,"ownername":"TablinumCarlson","latitude":-23.21672,"longitude":-44.718009,"accuracy":"11","context":0,"place_id":"bFZZOQtVV7xtTD0","woeid":"456392","geo_is_family":0,"geo_is_friend":0,"geo_is_contact":0,"geo_is_public":1,"media":"photo","media_status":"ready"},{"id":"14114763326","owner":"39669415@N05","secret":"1276c6301e","server":"5031","farm":6,"title":"Golden hour","ispublic":1,"isfriend":0,"isfamily":0,"safe":0,"ownername":"BraCom (Bram)","latitude":51.829447,"longitude":4.030152,"accuracy":"16","context":0,"place_id":"EzqMfXZWUblU.es","woeid":"733652","geo_is_family":0,"geo_is_friend":0,"geo_is_contact":0,"geo_is_public":1,"media":"photo","media_status":"ready"},{"id":"14135703004","owner":"44161305@N02","secret":"7c9f9b2646","server":"5346","farm":6,"title":"Sciacca, Sicily 111","ispublic":1,"isfriend":0,"isfamily":0,"safe":0,"ownername":"tango-","latitude":37.507547,"longitude":13.082613,"accuracy":"14","context":0,"place_id":"RXkhnPhWULlZY5k","woeid":"723897","geo_is_family":0,"geo_is_friend":0,"geo_is_contact":0,"geo_is_public":1,"media":"photo","media_status":"ready"},{"id":"14110130356","owner":"56105315@N07","secret":"65b5e83c16","server":"7455","farm":8,"title":"My favorite walk......   Explored","ispublic":1,"isfriend":0,"isfamily":0,"safe":0,"ownername":"Nick Stewart2","latitude":51.745264,"longitude":-2.529326,"accuracy":"13","context":0,"place_id":"bhGFs59TWrol7g","woeid":"28033","geo_is_family":0,"geo_is_friend":0,"geo_is_contact":0,"geo_is_public":1,"media":"photo","media_status":"ready"},{"id":"13946241670","owner":"40531854@N04","secret":"4a5c59f7e7","server":"7351","farm":8,"title":"Orange Mustang [Explored 8\/5\/14]","ispublic":1,"isfriend":0,"isfamily":0,"safe":0,"ownername":"Rapidrat","latitude":52.302172,"longitude":-0.786289,"accuracy":"16","context":0,"place_id":"IPvltWpSW77AaQ","woeid":"39446","geo_is_family":0,"geo_is_friend":0,"geo_is_contact":0,"geo_is_public":1,"media":"photo","media_status":"ready"},{"id":"14132389265","owner":"99574551@N04","secret":"f24e0d4d57","server":"7298","farm":8,"title":"! Tree Convention !","ispublic":1,"isfriend":0,"isfamily":0,"safe":0,"ownername":"Massmo Relsig","latitude":54.593599,"longitude":9.815168,"accuracy":"13","context":0,"place_id":"3waEk3tTUrusVc8MJg","woeid":"20164249","geo_is_family":0,"geo_is_friend":0,"geo_is_contact":0,"geo_is_public":1,"media":"photo","media_status":"ready"},{"id":"14128893482","owner":"101109840@N06","secret":"5cc5e1f6ae","server":"2914","farm":3,"title":"Monster - Italian Style","ispublic":1,"isfriend":0,"isfamily":0,"safe":0,"ownername":"Brigante\uf8ff","latitude":45.46894,"longitude":9.18103,"accuracy":"11","context":0,"place_id":"49Gidk1WU7JxrFY","woeid":"718345","geo_is_family":0,"geo_is_friend":0,"geo_is_contact":0,"geo_is_public":1,"media":"photo","media_status":"ready"},{"id":"13944925369","owner":"44161305@N02","secret":"f18240dc8d","server":"7433","farm":8,"title":"383 Grotta dei Colombi, Riserva dello Zingaro, San Vito Lo Capo, Sicily","ispublic":1,"isfriend":0,"isfamily":0,"safe":0,"ownername":"tango-","latitude":38.177401,"longitude":12.769212,"accuracy":"13","context":0,"place_id":"KyD2cJFWULmEfi0","woeid":"723212","geo_is_family":0,"geo_is_friend":0,"geo_is_contact":0,"geo_is_public":1,"media":"photo","media_status":"ready"},{"id":"13944707809","owner":"96794675@N02","secret":"f7a4ee91e0","server":"5498","farm":6,"title":"Bruzzano","ispublic":1,"isfriend":0,"isfamily":0,"safe":0,"ownername":"Donca 66","latitude":38.020048,"longitude":16.080533,"accuracy":"13","context":0,"place_id":"lYpCVnVWU78GRBg","woeid":"715070","geo_is_family":0,"geo_is_friend":0,"geo_is_contact":0,"geo_is_public":1,"media":"photo","media_status":"ready"},{"id":"14128370672","owner":"47632980@N06","secret":"02a5d15429","server":"7390","farm":8,"title":"DSC01059k","ispublic":1,"isfriend":0,"isfamily":0,"safe":0,"ownername":"typograph030","latitude":51.157687,"longitude":14.993838,"accuracy":"16","context":0,"place_id":"uxEOtndTUb4nLR9E","woeid":"2345496","geo_is_family":0,"geo_is_friend":0,"geo_is_contact":0,"geo_is_public":1,"media":"photo","media_status":"ready"},{"id":"14151369953","owner":"88420718@N03","secret":"5ed688a942","server":"7318","farm":8,"title":"horizon","ispublic":1,"isfriend":0,"isfamily":0,"safe":0,"ownername":"thequietguy","latitude":41.137296,"longitude":23.222351,"accuracy":"11","context":0,"place_id":"fxqZi19YV79Wso0","woeid":"955547","geo_is_family":0,"geo_is_friend":0,"geo_is_contact":0,"geo_is_public":1,"media":"photo","media_status":"ready"},{"id":"13942897980","owner":"44161305@N02","secret":"b38d0a3972","server":"7410","farm":8,"title":"G\u00f6reme,  Cappadocia (Kapadokya, Turkey) 1041","ispublic":1,"isfriend":0,"isfamily":0,"safe":0,"ownername":"tango-","latitude":38.645567,"longitude":34.830265,"accuracy":"12","context":0,"place_id":"OIvmaeNTUbmsxu00","woeid":"2339815","geo_is_family":0,"geo_is_friend":0,"geo_is_contact":0,"geo_is_public":1,"media":"photo","media_status":"ready"},{"id":"13942470729","owner":"83014686@N00","secret":"6d41e9c619","server":"2933","farm":3,"title":"house_20140501_D_080786.jpg","ispublic":1,"isfriend":0,"isfamily":0,"safe":0,"ownername":"\u00a9 Steven House www.houselightgallery.com","latitude":51.205151,"longitude":4.238201,"accuracy":"15","context":0,"place_id":"1wlbRt5YVL2si20","woeid":"967272","geo_is_family":0,"geo_is_friend":0,"geo_is_contact":0,"geo_is_public":1,"media":"photo","media_status":"ready"},{"id":"13936103110","owner":"14442041@N04","secret":"d96e1ab142","server":"7346","farm":8,"title":"Copacabana und Leme","ispublic":1,"isfriend":0,"isfamily":0,"safe":0,"ownername":"Quasebart","latitude":-22.963609,"longitude":-43.164896,"accuracy":"16","context":0,"place_id":".aq0U89VUbK6fW4","woeid":"438473","geo_is_family":0,"geo_is_friend":0,"geo_is_contact":0,"geo_is_public":1,"media":"photo","media_status":"ready"},{"id":"14141825413","owner":"95930823@N08","secret":"ffe85765ea","server":"2916","farm":3,"title":"Arc-en-ciel sur le Saguenay","ispublic":1,"isfriend":0,"isfamily":0,"safe":0,"ownername":"gaudreaultnormand","latitude":48.430937,"longitude":-71.064205,"accuracy":"16","context":0,"place_id":"vpTJqWhSVrpW","woeid":"3403","geo_is_family":0,"geo_is_friend":0,"geo_is_contact":0,"geo_is_public":1,"media":"photo","media_status":"ready"},{"id":"14097967446","owner":"22897666@N00","secret":"507747bf68","server":"5324","farm":6,"title":"May Crescent Moon  *Explore*","ispublic":1,"isfriend":0,"isfamily":0,"safe":0,"ownername":"Catskills Photography","latitude":41.652392,"longitude":-74.664287,"accuracy":"16","context":0,"place_id":"hzYzWUdTVr8Dc249","woeid":"2453452","geo_is_family":0,"geo_is_friend":0,"geo_is_contact":0,"geo_is_public":1,"media":"photo","media_status":"ready"},{"id":"14120886435","owner":"7493849@N05","secret":"1c2e88cba4","server":"7355","farm":8,"title":"Zinal","ispublic":1,"isfriend":0,"isfamily":0,"safe":0,"ownername":"twoeye","latitude":46.058967,"longitude":7.655475,"accuracy":"15","context":0,"place_id":"Quq47vNWWrlDESI","woeid":"783095","geo_is_family":0,"geo_is_friend":0,"geo_is_contact":0,"geo_is_public":1,"media":"photo","media_status":"ready"},{"id":"14116754765","owner":"7428283@N05","secret":"7d14e2a458","server":"5341","farm":6,"title":"The lake in May.","ispublic":1,"isfriend":0,"isfamily":0,"safe":0,"ownername":"la1cna","latitude":59.172039,"longitude":9.3847,"accuracy":"16","context":0,"place_id":"j1BivzhZVL7jlZQ","woeid":"864343","geo_is_family":0,"geo_is_friend":0,"geo_is_contact":0,"geo_is_public":1,"media":"photo","media_status":"ready"},{"id":"14112941911","owner":"42108906@N04","secret":"f6d447dd2a","server":"2930","farm":3,"title":"EXPO is arriving","ispublic":1,"isfriend":0,"isfamily":0,"safe":0,"ownername":"Fil.ippo","latitude":45.483363,"longitude":9.189376,"accuracy":"15","context":0,"place_id":"49Gidk1WU7JxrFY","woeid":"718345","geo_is_family":0,"geo_is_friend":0,"geo_is_contact":0,"geo_is_public":1,"media":"photo","media_status":"ready"},{"id":"13928488410","owner":"93704958@N03","secret":"298ce9c069","server":"7184","farm":8,"title":"Brothers in Hyde Park","ispublic":1,"isfriend":0,"isfamily":0,"safe":0,"ownername":"Jazzteffe","latitude":51.511039,"longitude":-0.163078,"accuracy":"14","context":0,"place_id":"K5C5EVRTUrpKduHgSw","woeid":"20094323","geo_is_family":0,"geo_is_friend":0,"geo_is_contact":0,"geo_is_public":1,"media":"photo","media_status":"ready"},{"id":"13928486440","owner":"69082729@N05","secret":"65de98f3ba","server":"7190","farm":8,"title":"Tra nuvole e rami - Between clouds and branches","ispublic":1,"isfriend":0,"isfamily":0,"safe":0,"ownername":"Paola Morosin","latitude":43.106189,"longitude":12.378146,"accuracy":"15","context":0,"place_id":"mrsPREpWULpKrGg","woeid":"720187","geo_is_family":0,"geo_is_friend":0,"geo_is_contact":0,"geo_is_public":1,"media":"photo","media_status":"ready"}]},"stat":"ok"}