{"photos":{"page":61,"pages":26696,"perpage":60,"total":"1601726","photo":[{"id":"13886881239","owner":"39669415@N05","secret":"b86d9b29cf","server":"7374","farm":8,"title":"Sunset reflection","ispublic":1,"isfriend":0,"isfamily":0,"safe":0,"ownername":"BraCom (Bram)","latitude":51.708408,"longitude":4.068061,"accuracy":"16","context":0,"place_id":"Ec3Aji1WUbrD5k8","woeid":"730010","geo_is_family":0,"geo_is_friend":0,"geo_is_contact":0,"geo_is_public":1,"media":"photo","media_status":"ready"},{"id":"14072840945","owner":"16618681@N00","secret":"7d9fe80ec6","server":"2905","farm":3,"title":"Dune di Maspalomas","ispublic":1,"isfriend":0,"isfamily":0,"safe":0,"ownername":"marypink","latitude":27.770069,"longitude":-15.583089,"accuracy":"11","context":0,"place_id":"j67CmqNWVLyhP5c","woeid":"766774","geo_is_family":0,"geo_is_friend":0,"geo_is_contact":0,"geo_is_public":1,"media":"photo","media_status":"ready"},{"id":"14084946113","owner":"19312459@N00","secret":"b1f016bd46","server":"5295","farm":6,"title":"...messing about in boats  (GCC Project 52 Week #18)","ispublic":1,"isfriend":0,"isfamily":0,"safe":0,"ownername":"fearghal breathnach","latitude":53.090235,"longitude":-6.193521,"accuracy":"15","context":0,"place_id":"lWuD50dTUrqwVN2ULQ","woeid":"20074552","geo_is_family":0,"geo_is_friend":0,"geo_is_contact":0,"geo_is_public":1,"media":"photo","media_status":"ready"},{"id":"14114100925","owner":"82831944@N02","secret":"ebe2ab18fe","server":"5443","farm":6,"title":"dalla parte del frigo: si?","ispublic":1,"isfriend":0,"isfamily":0,"safe":0,"ownername":"Antonio Iacobelli (Jacobson-2012)","latitude":41.113147,"longitude":16.86367,"accuracy":"15","context":0,"place_id":"4EezEdZWU7r5KMc","woeid":"710722","geo_is_family":0,"geo_is_friend":0,"geo_is_contact":0,"geo_is_public":1,"media":"photo","media_status":"ready"},{"id":"14109128061","owner":"32208339@N04","secret":"cf78f1f787","server":"7311","farm":8,"title":"\"Fluffy\" Starling...","ispublic":1,"isfriend":0,"isfamily":0,"safe":0,"ownername":"Feathers (Allan)","latitude":50.984261,"longitude":0.642356,"accuracy":"13","context":0,"place_id":"hUC0tnBQULuWUg","woeid":"12195","geo_is_family":0,"geo_is_friend":0,"geo_is_contact":0,"geo_is_public":1,"media":"photo","media_status":"ready"},{"id":"13925593408","owner":"59022763@N08","secret":"93c320e840","server":"2900","farm":3,"title":"Etna vista da Centuripe","ispublic":1,"isfriend":0,"isfamily":0,"safe":0,"ownername":"Laralucy","latitude":37.62577,"longitude":14.744219,"accuracy":"11","context":0,"place_id":"9kSTUM9WU7n88c8","woeid":"713730","geo_is_family":0,"geo_is_friend":0,"geo_is_contact":0,"geo_is_public":1,"media":"photo","media_status":"ready"},{"id":"13925455017","owner":"82904757@N08","secret":"c89861df91","server":"5338","farm":6,"title":"Picking up the pace ...","ispublic":1,"isfriend":0,"isfamily":0,"safe":0,"ownername":"vmanseventy","latitude":55.951602,"longitude":-3.193588,"accuracy":"13","context":0,"place_id":"A7YJ5HNVUbwIGw","woeid":"43674","geo_is_family":0,"geo_is_friend":0,"geo_is_contact":0,"geo_is_public":1,"media":"photo","media_status":"ready"},{"id":"14107690692","owner":"16854222@N05","secret":"d6d68ca4ec","server":"7325","farm":8,"title":"MONDAY ? ... You Must Be Kidding !","ispublic":1,"isfriend":0,"isfamily":0,"safe":0,"ownername":"AnyMotion","latitude":50.123271,"longitude":8.6804,"accuracy":"16","context":0,"place_id":"Z0FRRfRXV7oIeew","woeid":"650272","geo_is_family":0,"geo_is_friend":0,"geo_is_contact":0,"geo_is_public":1,"media":"photo","media_status":"ready"},{"id":"13922982129","owner":"58878812@N08","secret":"cbfce7eb96","server":"7397","farm":8,"title":"Damaged Barn","ispublic":1,"isfriend":0,"isfamily":0,"safe":0,"ownername":"D-TaiL","latitude":45.940103,"longitude":-73.729285,"accuracy":"16","context":0,"place_id":"1wt1HEJSV7oK","woeid":"3506","geo_is_family":0,"geo_is_friend":0,"geo_is_contact":0,"geo_is_public":1,"media":"photo","media_status":"ready"},{"id":"13918949137","owner":"34731278@N05","secret":"7e242409f9","server":"7450","farm":8,"title":"Spiderweb","ispublic":1,"isfriend":0,"isfamily":0,"safe":0,"ownername":"Adabo!","latitude":50.849252,"longitude":12.909514,"accuracy":"15","context":0,"place_id":"_.hlgz9XVrm_BLM","woeid":"643134","geo_is_family":0,"geo_is_friend":0,"geo_is_contact":0,"geo_is_public":1,"media":"photo","media_status":"ready"},{"id":"14101457202","owner":"37708438@N05","secret":"f7844aa1ca","server":"5350","farm":6,"title":"FOG ON THE CANAL","ispublic":1,"isfriend":0,"isfamily":0,"safe":0,"ownername":"kenny barker","latitude":56.029087,"longitude":-3.832855,"accuracy":"11","context":0,"place_id":"HZ280wZTV7L1Qg","woeid":"25842","geo_is_family":0,"geo_is_friend":0,"geo_is_contact":0,"geo_is_public":1,"media":"photo","media_status":"ready"},{"id":"14101054302","owner":"34096574@N06","secret":"0610417812","server":"7405","farm":8,"title":"Venice : Campo de le Becarie  ( Pescaria ) \/ Mercato Del Pesce Al Minuto","ispublic":1,"isfriend":0,"isfamily":0,"safe":0,"ownername":"Pantchoa","latitude":45.439386,"longitude":12.333527,"accuracy":"16","context":0,"place_id":"qyV161RTUruqVTuLuQ","woeid":"20150614","geo_is_family":0,"geo_is_friend":0,"geo_is_contact":0,"geo_is_public":1,"media":"photo","media_status":"ready"},{"id":"14124152893","owner":"93461361@N05","secret":"13eb51c688","server":"5120","farm":6,"title":"star light star bright","ispublic":1,"isfriend":0,"isfamily":0,"safe":0,"ownername":"Van Luvender","latitude":38.932206,"longitude":-74.923474,"accuracy":"16","context":0,"place_id":"HVEmvnNTUb279Zrr","woeid":"2374656","geo_is_family":0,"geo_is_friend":0,"geo_is_contact":0,"geo_is_public":1,"media":"photo","media_status":"ready"},{"id":"14124040763","owner":"60423624@N05","secret":"84346871ef","server":"7451","farm":8,"title":"dynamic dunes","ispublic":1,"isfriend":0,"isfamily":0,"safe":0,"ownername":"dubdream","latitude":54.358156,"longitude":11.094131,"accuracy":"11","context":0,"place_id":"N9xLxhRXV772ZDI","woeid":"654915","geo_is_family":0,"geo_is_friend":0,"geo_is_contact":0,"geo_is_public":1,"media":"photo","media_status":"ready"},{"id":"14079829256","owner":"44161305@N02","secret":"705aa22f10","server":"7182","farm":8,"title":"045 Sciacca, Sicily","ispublic":1,"isfriend":0,"isfamily":0,"safe":0,"ownername":"tango-","latitude":37.503325,"longitude":13.079738,"accuracy":"14","context":0,"place_id":"RXkhnPhWULlZY5k","woeid":"723897","geo_is_family":0,"geo_is_friend":0,"geo_is_contact":0,"geo_is_public":1,"media":"photo","media_status":"ready"},{"id":"14099815052","owner":"33408514@N07","secret":"78a3baf4f2","server":"7348","farm":8,"title":"Laguna de \"El Acequi\u00f3n\"\/ \"El Acequi\u00f3n\" Lagoon (Albacete, Spain).","ispublic":1,"isfriend":0,"isfamily":0,"safe":0,"ownername":"Recesvintus","latitude":39.025284,"longitude":-2.02672,"accuracy":"15","context":0,"place_id":"MPGCTP1TUrg308YKLQ","woeid":"20223894","geo_is_family":0,"geo_is_friend":0,"geo_is_contact":0,"geo_is_public":1,"media":"photo","media_status":"ready"},{"id":"13916074539","owner":"26554900@N08","secret":"0624f5cda6","server":"2931","farm":3,"title":"Lago di Carezza","ispublic":1,"isfriend":0,"isfamily":0,"safe":0,"ownername":"mirnab!","latitude":46.408865,"longitude":11.590232,"accuracy":"12","context":0,"place_id":"cAK6wVdWU7g.wto","woeid":"712256","geo_is_family":0,"geo_is_friend":0,"geo_is_contact":0,"geo_is_public":1,"media":"photo","media_status":"ready"},{"id":"14099414831","owner":"87402959@N02","secret":"3d5a4c37d7","server":"2916","farm":3,"title":"just a Lantern in the Blue","ispublic":1,"isfriend":0,"isfamily":0,"safe":0,"ownername":"Blende1.8","latitude":45.438251,"longitude":12.31849,"accuracy":"11","context":0,"place_id":"1kXEps9WUL8o6ro","woeid":"725746","geo_is_family":0,"geo_is_friend":0,"geo_is_contact":0,"geo_is_public":1,"media":"photo","media_status":"ready"},{"id":"13916020030","owner":"42645785@N04","secret":"64ced4d6ab","server":"7365","farm":8,"title":"Soft raindrops","ispublic":1,"isfriend":0,"isfamily":0,"safe":0,"ownername":"dorena-wm","latitude":47.842783,"longitude":11.145627,"accuracy":"16","context":0,"place_id":"Pm2CEkVWUr5CHu0","woeid":"704755","geo_is_family":0,"geo_is_friend":0,"geo_is_contact":0,"geo_is_public":1,"media":"photo","media_status":"ready"},{"id":"14102263824","owner":"76627744@N08","secret":"0381b90883","server":"7336","farm":8,"title":"Blick vom Wolfsberg","ispublic":1,"isfriend":0,"isfamily":0,"safe":0,"ownername":"Sandsteiner","latitude":50.88939,"longitude":14.186611,"accuracy":"14","context":0,"place_id":"q4WBs7BXWr3kAb8","woeid":"687687","geo_is_family":0,"geo_is_friend":0,"geo_is_contact":0,"geo_is_public":1,"media":"photo","media_status":"ready"},{"id":"13915001117","owner":"46059838@N04","secret":"acd57b094c","server":"7382","farm":8,"title":"HAPPY SUNDAY MY FRIENDS !!!!!!!","ispublic":1,"isfriend":0,"isfamily":0,"safe":0,"ownername":"Marie.L.Manzor","latitude":48.863754,"longitude":2.345433,"accuracy":"15","context":0,"place_id":"MX9qvkpUV7KbhpzmmQ","woeid":"55843754","geo_is_family":0,"geo_is_friend":0,"geo_is_contact":0,"geo_is_public":1,"media":"photo","media_status":"ready"},{"id":"14099320185","owner":"65416880@N00","secret":"1c1df8a4ae","server":"5316","farm":6,"title":"I set fire ... to the ocean","ispublic":1,"isfriend":0,"isfamily":0,"safe":0,"ownername":"mariola aga","latitude":18.720327,"longitude":-68.452623,"accuracy":"16","context":0,"place_id":"aFqydCxXW7_TYw","woeid":"69511","geo_is_family":0,"geo_is_friend":0,"geo_is_contact":0,"geo_is_public":1,"media":"photo","media_status":"ready"},{"id":"14095564472","owner":"50115085@N08","secret":"26ef070c63","server":"2939","farm":3,"title":"","ispublic":1,"isfriend":0,"isfamily":0,"safe":0,"ownername":"Varvara_R","latitude":56.3129,"longitude":38.133373,"accuracy":"16","context":0,"place_id":"fi6KcMhTUrL9pmOR","woeid":"2080463","geo_is_family":0,"geo_is_friend":0,"geo_is_contact":0,"geo_is_public":1,"media":"photo","media_status":"ready"},{"id":"13911891098","owner":"35581435@N07","secret":"62ba407683","server":"7423","farm":8,"title":"O Quadrado de Trancoso","ispublic":1,"isfriend":0,"isfamily":0,"safe":0,"ownername":"marcelo nacinovic","latitude":-16.593423,"longitude":-39.092788,"accuracy":"11","context":0,"place_id":"HTlt5udTUb7fwhxO","woeid":"2344848","geo_is_family":0,"geo_is_friend":0,"geo_is_contact":0,"geo_is_public":1,"media":"photo","media_status":"ready"},{"id":"14092475012","owner":"23198449@N07","secret":"7dab800d64","server":"2932","farm":3,"title":"Staying a little by the way #1 - Summary","ispublic":1,"isfriend":0,"isfamily":0,"safe":0,"ownername":"stedef","latitude":53.343787,"longitude":-6.2574,"accuracy":"11","context":0,"place_id":"fjmHzRZUVLpKRgI","woeid":"560743","geo_is_family":0,"geo_is_friend":0,"geo_is_contact":0,"geo_is_public":1,"media":"photo","media_status":"ready"},{"id":"13908742938","owner":"33960023@N04","secret":"5e5d4ac301","server":"2924","farm":3,"title":"Cascade de P\u00e9rouse [Sancy]","ispublic":1,"isfriend":0,"isfamily":0,"safe":0,"ownername":"BerColly","latitude":45.536642,"longitude":2.849664,"accuracy":"14","context":0,"place_id":"323YIe9QULxY349zWA","woeid":"12638414","geo_is_family":0,"geo_is_friend":0,"geo_is_contact":0,"geo_is_public":1,"media":"photo","media_status":"ready"},{"id":"14093663115","owner":"40279823@N00","secret":"8d46135de0","server":"5196","farm":6,"title":"Bursting","ispublic":1,"isfriend":0,"isfamily":0,"safe":0,"ownername":"CharlesFred","latitude":47.793502,"longitude":24.091322,"accuracy":"16","context":0,"place_id":"L.qZXr5ZVL2ec_g","woeid":"867359","geo_is_family":0,"geo_is_friend":0,"geo_is_contact":0,"geo_is_public":1,"media":"photo","media_status":"ready"},{"id":"13906237167","owner":"75133058@N00","secret":"73dd03809a","server":"7408","farm":8,"title":"Baguales","ispublic":1,"isfriend":0,"isfamily":0,"safe":0,"ownername":"Eduardo Amorim","latitude":-34.233802,"longitude":-59.499206,"accuracy":"11","context":0,"place_id":"K.q5MK9SUbg4DZE","woeid":"332504","geo_is_family":0,"geo_is_friend":0,"geo_is_contact":0,"geo_is_public":1,"media":"photo","media_status":"ready"},{"id":"13905081678","owner":"26085061@N05","secret":"6865b1a654","server":"2916","farm":3,"title":"Costa Navarino Hotel #Explored 2 May 2014, Nr.486#","ispublic":1,"isfriend":0,"isfamily":0,"safe":0,"ownername":"ATSICHLAS (Busy)","latitude":36.995972,"longitude":21.655426,"accuracy":"9","context":0,"place_id":"KLgkndRYVLsqTSg","woeid":"961294","geo_is_family":0,"geo_is_friend":0,"geo_is_contact":0,"geo_is_public":1,"media":"photo","media_status":"ready"},{"id":"14090371194","owner":"8868875@N03","secret":"d749d85394","server":"5560","farm":6,"title":"how to start a revolution","ispublic":1,"isfriend":0,"isfamily":0,"safe":0,"ownername":"gato-gato-gato","latitude":47.37603,"longitude":8.526355,"accuracy":"16","context":0,"place_id":"N6mvrZ5WWrsOeBo","woeid":"781693","geo_is_family":0,"geo_is_friend":0,"geo_is_contact":0,"geo_is_public":1,"media":"photo","media_status":"ready"},{"id":"13902708770","owner":"55010871@N03","secret":"6c62b71f5f","server":"5446","farm":6,"title":"La Ville-Lumie\u0300re","ispublic":1,"isfriend":0,"isfamily":0,"safe":0,"ownername":"AlejandroTejada","latitude":48.856918,"longitude":2.341209,"accuracy":"11","context":0,"place_id":"EsIQUYZXU79_kEA","woeid":"615702","geo_is_family":0,"geo_is_friend":0,"geo_is_contact":0,"geo_is_public":1,"media":"photo","media_status":"ready"},{"id":"13902507569","owner":"9939547@N08","secret":"a91918c27c","server":"2936","farm":3,"title":"IMG_2928","ispublic":1,"isfriend":0,"isfamily":0,"safe":0,"ownername":"jimbonzo079","latitude":52.315195,"longitude":-5.756835,"accuracy":"6","context":0,"place_id":"2eIY2QFTVr_DwWZNLg","woeid":"24554868","geo_is_family":0,"geo_is_friend":0,"geo_is_contact":0,"geo_is_public":1,"media":"photo","media_status":"ready"},{"id":"14084861481","owner":"49010317@N07","secret":"87b9b506d6","server":"7388","farm":8,"title":"\u2602 today ...","ispublic":1,"isfriend":0,"isfamily":0,"safe":0,"ownername":"miriam259","latitude":44.27296,"longitude":9.39702,"accuracy":"11","context":0,"place_id":"qAPzkyhWUL5EdTA","woeid":"724146","geo_is_family":0,"geo_is_friend":0,"geo_is_contact":0,"geo_is_public":1,"media":"photo","media_status":"ready"},{"id":"14087153265","owner":"13048208@N02","secret":"c4984cde66","server":"2910","farm":3,"title":"Enchanter","ispublic":1,"isfriend":0,"isfamily":0,"safe":0,"ownername":"Damian_Ward","latitude":55.860056,"longitude":-5.081595,"accuracy":"16","context":0,"place_id":"_z30RopSULmUmA","woeid":"32352","geo_is_family":0,"geo_is_friend":0,"geo_is_contact":0,"geo_is_public":1,"media":"photo","media_status":"ready"},{"id":"14059774346","owner":"38337348@N06","secret":"cbb3576aa6","server":"5488","farm":6,"title":"Ballet of love","ispublic":1,"isfriend":0,"isfamily":0,"safe":0,"ownername":"Passie13(Ines van Megen-Thijssen)","latitude":51.925564,"longitude":4.453926,"accuracy":"16","context":0,"place_id":"lhM3WGRWUbndGLo","woeid":"733075","geo_is_family":0,"geo_is_friend":0,"geo_is_contact":0,"geo_is_public":1,"media":"photo","media_status":"ready"},{"id":"13896174088","owner":"50115085@N08","secret":"bda359d72a","server":"7442","farm":8,"title":"Green","ispublic":1,"isfriend":0,"isfamily":0,"safe":0,"ownername":"Varvara_R","latitude":55.671207,"longitude":37.664308,"accuracy":"15","context":0,"place_id":"FrHuLKlTUr1ucumn","woeid":"2077239","geo_is_family":0,"geo_is_friend":0,"geo_is_contact":0,"geo_is_public":1,"media":"photo","media_status":"ready"},{"id":"13894267949","owner":"36119280@N04","secret":"237078d180","server":"7431","farm":8,"title":"Stramme Wadln","ispublic":1,"isfriend":0,"isfamily":0,"safe":0,"ownername":"blichb","latitude":48.076873,"longitude":11.152657,"accuracy":"16","context":0,"place_id":"xa4W8YdXVLkCy1c","woeid":"663578","geo_is_family":0,"geo_is_friend":0,"geo_is_contact":0,"geo_is_public":1,"media":"photo","media_status":"ready"},{"id":"14099538663","owner":"34096574@N06","secret":"759d17c6a5","server":"7183","farm":8,"title":"Venice : Campo Dei Mori  - 1\/2","ispublic":1,"isfriend":0,"isfamily":0,"safe":0,"ownername":"Pantchoa","latitude":45.445383,"longitude":12.332125,"accuracy":"16","context":0,"place_id":"EzRUzuJTUrtWx_W.dw","woeid":"20150612","geo_is_family":0,"geo_is_friend":0,"geo_is_contact":0,"geo_is_public":1,"media":"photo","media_status":"ready"},{"id":"14096851773","owner":"41056143@N06","secret":"2ec950c8d9","server":"5115","farm":6,"title":"MARE NECTARIS","ispublic":1,"isfriend":0,"isfamily":0,"safe":0,"ownername":"Grant Simon Rogers","latitude":52.977214,"longitude":0.757606,"accuracy":"15","context":0,"place_id":"T2Ggaz9QVr_mMQ","woeid":"14593","geo_is_family":0,"geo_is_friend":0,"geo_is_contact":0,"geo_is_public":1,"media":"photo","media_status":"ready"},{"id":"13890014309","owner":"35895492@N05","secret":"7908ca26a6","server":"7295","farm":8,"title":"XII Mercado Barroco. Olivares","ispublic":1,"isfriend":0,"isfamily":0,"safe":0,"ownername":"Z\u00fa S\u00e1nchez","latitude":37.418704,"longitude":-6.155726,"accuracy":"15","context":0,"place_id":"b_vtsoBWVLJsMFU","woeid":"768702","geo_is_family":0,"geo_is_friend":0,"geo_is_contact":0,"geo_is_public":1,"media":"photo","media_status":"ready"},{"id":"13889147767","owner":"48763069@N00","secret":"3b537353c3","server":"7315","farm":8,"title":"Langeoog Tideland...","ispublic":1,"isfriend":0,"isfamily":0,"safe":0,"ownername":"Rainer Fritz","latitude":53.73372,"longitude":7.501391,"accuracy":"13","context":0,"place_id":"u74wostTW7mQF1tRwg","woeid":"29350602","geo_is_family":0,"geo_is_friend":0,"geo_is_contact":0,"geo_is_public":1,"media":"photo","media_status":"ready"},{"id":"14052551596","owner":"53951073@N03","secret":"87df401a05","server":"7362","farm":8,"title":"polignano  a mare","ispublic":1,"isfriend":0,"isfamily":0,"safe":0,"ownername":"paolo dell'angelo","latitude":40.995239,"longitude":17.21916,"accuracy":"11","context":0,"place_id":"ZG4uh31WULrJDrM","woeid":"720836","geo_is_family":0,"geo_is_friend":0,"geo_is_contact":0,"geo_is_public":1,"media":"photo","media_status":"ready"},{"id":"14094803293","owner":"59022763@N08","secret":"c866dc0d79","server":"7041","farm":8,"title":"Canale di Brucoli","ispublic":1,"isfriend":0,"isfamily":0,"safe":0,"ownername":"Laralucy","latitude":37.280231,"longitude":15.18838,"accuracy":"11","context":0,"place_id":"WivlYKRWU7v5bWw","woeid":"711464","geo_is_family":0,"geo_is_friend":0,"geo_is_contact":0,"geo_is_public":1,"media":"photo","media_status":"ready"},{"id":"14050633246","owner":"73414467@N02","secret":"eb7d9a0c8f","server":"5316","farm":6,"title":"Florecillas.-","ispublic":1,"isfriend":0,"isfamily":0,"safe":0,"ownername":"Jos\u00e9 Luis Vega","latitude":40.404466,"longitude":-3.767512,"accuracy":"16","context":0,"place_id":"u2JCGChTUriEZ6WcWQ","woeid":"20219929","geo_is_family":0,"geo_is_friend":0,"geo_is_contact":0,"geo_is_public":1,"media":"photo","media_status":"ready"},{"id":"13886788718","owner":"35328181@N03","secret":"a836396c9d","server":"5584","farm":6,"title":"Daffodil","ispublic":1,"isfriend":0,"isfamily":0,"safe":0,"ownername":"RonG58","latitude":44.34918,"longitude":-70.059022,"accuracy":"16","context":0,"place_id":"Pf2esiVTV7u5j4s8","woeid":"2515620","geo_is_family":0,"geo_is_friend":0,"geo_is_contact":0,"geo_is_public":1,"media":"photo","media_status":"ready"},{"id":"13885949540","owner":"67833313@N08","secret":"1171f7ea2c","server":"7195","farm":8,"title":"the acrobat...","ispublic":1,"isfriend":0,"isfamily":0,"safe":0,"ownername":"Dimitra Kirgiannaki \u266a\u00b8.\u2022*\u00b4spring-lover \u00a8\u00b4","latitude":37.924791,"longitude":23.702693,"accuracy":"11","context":0,"place_id":"0PhejEpYVL9ZXy4","woeid":"965854","geo_is_family":0,"geo_is_friend":0,"geo_is_contact":0,"geo_is_public":1,"media":"photo","media_status":"ready"},{"id":"14068742862","owner":"21298507@N04","secret":"16f4d955c2","server":"5532","farm":6,"title":"Stalking Heron","ispublic":1,"isfriend":0,"isfamily":0,"safe":0,"ownername":"Charliebubbles","latitude":53.622422,"longitude":-2.868547,"accuracy":"15","context":0,"place_id":"bfinUrBQULzczY9qQA","woeid":"12696007","geo_is_family":0,"geo_is_friend":0,"geo_is_contact":0,"geo_is_public":1,"media":"photo","media_status":"ready"},{"id":"14066696962","owner":"34288348@N07","secret":"8c64f8fd8f","server":"2911","farm":3,"title":"Pink on pink on pink","ispublic":1,"isfriend":0,"isfamily":0,"safe":0,"ownername":"DameBoudicca","latitude":55.693672,"longitude":13.247441,"accuracy":"16","context":0,"place_id":"5EcsB2hZW73YErQ","woeid":"897819","geo_is_family":0,"geo_is_friend":0,"geo_is_contact":0,"geo_is_public":1,"media":"photo","media_status":"ready"},{"id":"14068375705","owner":"50453616@N07","secret":"9a819442b9","server":"7063","farm":8,"title":"The famous castle","ispublic":1,"isfriend":0,"isfamily":0,"safe":0,"ownername":"Guylaine Begin","latitude":46.812067,"longitude":-71.207341,"accuracy":"16","context":0,"place_id":"ov.ccdFTVLnm0Bpljg","woeid":"26332805","geo_is_family":0,"geo_is_friend":0,"geo_is_contact":0,"geo_is_public":1,"media":"photo","media_status":"ready"},{"id":"14087922433","owner":"44161305@N02","secret":"4be9f67923","server":"7206","farm":8,"title":"Spiral staircase, Palazzo Barozzi, Vignola, Italy 2014-04-26 16.31.24","ispublic":1,"isfriend":0,"isfamily":0,"safe":0,"ownername":"tango-","latitude":44.479051,"longitude":11.009719,"accuracy":"15","context":0,"place_id":"9lz0wylWUL8TlDg","woeid":"725943","geo_is_family":0,"geo_is_friend":0,"geo_is_contact":0,"geo_is_public":1,"media":"photo","media_status":"ready"},{"id":"14087574203","owner":"28791544@N04","secret":"f7431a35c6","server":"7334","farm":8,"title":"The Three Curves","ispublic":1,"isfriend":0,"isfamily":0,"safe":0,"ownername":"Sean Batten","latitude":51.504822,"longitude":-0.080734,"accuracy":"16","context":0,"place_id":"v70Y8qlTUrrLiiTZAg","woeid":"20094363","geo_is_family":0,"geo_is_friend":0,"geo_is_contact":0,"geo_is_public":1,"media":"photo","media_status":"ready"},{"id":"14064007901","owner":"36103179@N05","secret":"109d35bdd1","server":"2921","farm":3,"title":"Oxythyrea versus Misumena","ispublic":1,"isfriend":0,"isfamily":0,"safe":0,"ownername":"xden","latitude":43.615137,"longitude":3.872069,"accuracy":"16","context":0,"place_id":"xSGtyOFXU7jOVCU","woeid":"612977","geo_is_family":0,"geo_is_friend":0,"geo_is_contact":0,"geo_is_public":1,"media":"photo","media_status":"ready"},{"id":"14066336995","owner":"73422502@N08","secret":"7d6e039a9d","server":"5155","farm":6,"title":"Beach","ispublic":1,"isfriend":0,"isfamily":0,"safe":0,"ownername":"Zeeyolq Photography","latitude":-33.9508,"longitude":18.378024,"accuracy":"14","context":0,"place_id":"FtMDlBVQV7ONm4pw","woeid":"1591691","geo_is_family":0,"geo_is_friend":0,"geo_is_contact":0,"geo_is_public":1,"media":"photo","media_status":"ready"},{"id":"14059359422","owner":"23012400@N03","secret":"057cf17118","server":"5093","farm":6,"title":"Pinturas Rupestres de Valonsadero.Soria.","ispublic":1,"isfriend":0,"isfamily":0,"safe":0,"ownername":"Miguel. (respenda)","latitude":41.798959,"longitude":-2.519302,"accuracy":"11","context":0,"place_id":"9FoeL0JWVb517dc","woeid":"774837","geo_is_family":0,"geo_is_friend":0,"geo_is_contact":0,"geo_is_public":1,"media":"photo","media_status":"ready"},{"id":"14058658621","owner":"16618681@N00","secret":"750272d37a","server":"2898","farm":3,"title":"\u266b\u266a Oh che bel castello...\u266b\u266a","ispublic":1,"isfriend":0,"isfamily":0,"safe":0,"ownername":"marypink","latitude":27.759519,"longitude":-15.575619,"accuracy":"11","context":0,"place_id":"t5ahw1xTUrhb0Ca.nA","woeid":"20225307","geo_is_family":0,"geo_is_friend":0,"geo_is_contact":0,"geo_is_public":1,"media":"photo","media_status":"ready"},{"id":"14080648743","owner":"43301211@N03","secret":"d3acf51602","server":"5209","farm":6,"title":"In a Bed of Daisies....","ispublic":1,"isfriend":0,"isfamily":0,"safe":0,"ownername":"klythawk","latitude":52.952283,"longitude":-1.090865,"accuracy":"15","context":0,"place_id":"IrTTIexQVLySaw","woeid":"16678","geo_is_family":0,"geo_is_friend":0,"geo_is_contact":0,"geo_is_public":1,"media":"photo","media_status":"ready"},{"id":"14052393481","owner":"23012400@N03","secret":"8fae9c97d6","server":"5128","farm":6,"title":"Monte Valonsadero.Soria.","ispublic":1,"isfriend":0,"isfamily":0,"safe":0,"ownername":"Miguel. (respenda)","latitude":41.817192,"longitude":-2.550909,"accuracy":"16","context":0,"place_id":"ZDuvfxpWVLN34dQ","woeid":"769642","geo_is_family":0,"geo_is_friend":0,"geo_is_contact":0,"geo_is_public":1,"media":"photo","media_status":"ready"},{"id":"14070062453","owner":"29411055@N07","secret":"ae00f2c2ed","server":"7227","farm":8,"title":"Guard cat(((:-\u0150rz\u0151-v\u00e9d\u0151 cica","ispublic":1,"isfriend":0,"isfamily":0,"safe":0,"ownername":"Katalin R\u00e9z","latitude":47.5288,"longitude":19.234312,"accuracy":"11","context":0,"place_id":"UV7.BYdQUL_yOAfkqA","woeid":"12577915","geo_is_family":0,"geo_is_friend":0,"geo_is_contact":0,"geo_is_public":1,"media":"photo","media_status":"ready"},{"id":"14045621222","owner":"90451570@N07","secret":"7ab2eccbb8","server":"7192","farm":8,"title":"Tulips at Dyrham","ispublic":1,"isfriend":0,"isfamily":0,"safe":0,"ownername":"CarolynEaton","latitude":51.480634,"longitude":-2.374838,"accuracy":"16","context":0,"place_id":"QDXgWVlQWrIuZw","woeid":"18810","geo_is_family":0,"geo_is_friend":0,"geo_is_contact":0,"geo_is_public":1,"media":"photo","media_status":"ready"},{"id":"14048272724","owner":"82484300@N00","secret":"d86221f6da","server":"5485","farm":6,"title":"Casa de la Julianeta (Albarraci\u0301n, Teruel)","ispublic":1,"isfriend":0,"isfamily":0,"safe":0,"ownername":"dleiva","latitude":40.409561,"longitude":-1.438894,"accuracy":"12","context":0,"place_id":"IO67bDFWV7tZo7w","woeid":"751686","geo_is_family":0,"geo_is_friend":0,"geo_is_contact":0,"geo_is_public":1,"media":"photo","media_status":"ready"}]},"stat":"ok"}