{"photos":{"page":38,"pages":26685,"perpage":60,"total":"1601100","photo":[{"id":"14080662146","owner":"63947271@N06","secret":"b9bfb9d28f","server":"2916","farm":3,"title":"Communion","ispublic":1,"isfriend":0,"isfamily":0,"safe":0,"ownername":"S l a w e k","latitude":51.14134,"longitude":-1.242485,"accuracy":"12","context":0,"place_id":"1z4wzcZTWr1DtQ","woeid":"28795","geo_is_family":0,"geo_is_friend":0,"geo_is_contact":0,"geo_is_public":1,"media":"photo","media_status":"ready"},{"id":"13964671380","owner":"58606144@N08","secret":"91b4f7d75e","server":"5532","farm":6,"title":"[Streets of Istanbul VI]","ispublic":1,"isfriend":0,"isfamily":0,"safe":0,"ownername":"funky_koala","latitude":41.058644,"longitude":28.9888,"accuracy":"11","context":0,"place_id":"l02DEdJTUb5XGlLZ","woeid":"2344116","geo_is_family":0,"geo_is_friend":0,"geo_is_contact":0,"geo_is_public":1,"media":"photo","media_status":"ready"},{"id":"14146925991","owner":"59269150@N08","secret":"7f5a83d06a","server":"7437","farm":8,"title":"Cristo Redentor","ispublic":1,"isfriend":0,"isfamily":0,"safe":0,"ownername":"TablinumCarlson","latitude":-22.918555,"longitude":-43.179016,"accuracy":"11","context":0,"place_id":"mAqmHW5VV78OT5o","woeid":"455825","geo_is_family":0,"geo_is_friend":0,"geo_is_contact":0,"geo_is_public":1,"media":"photo","media_status":"ready"},{"id":"14147408155","owner":"90634379@N06","secret":"c02a79cc75","server":"7392","farm":8,"title":"Colors of autumn ...","ispublic":1,"isfriend":0,"isfamily":0,"safe":0,"ownername":"Lilian_Anadan","latitude":-23.568392,"longitude":-46.660308,"accuracy":"11","context":0,"place_id":"0RylrWxVV79p49E","woeid":"455827","geo_is_family":0,"geo_is_friend":0,"geo_is_contact":0,"geo_is_public":1,"media":"photo","media_status":"ready"},{"id":"14123957846","owner":"22350928@N02","secret":"1107698b01","server":"7408","farm":8,"title":"BP in Svarfa\u00f0ardalur","ispublic":1,"isfriend":0,"isfamily":0,"safe":0,"ownername":"bjornvald","latitude":65.898358,"longitude":-18.600196,"accuracy":"13","context":0,"place_id":"Wco6JCFTUb4R6d.v","woeid":"2345693","geo_is_family":0,"geo_is_friend":0,"geo_is_contact":0,"geo_is_public":1,"media":"photo","media_status":"ready"},{"id":"14166961343","owner":"84800538@N07","secret":"e2b3c3798d","server":"2904","farm":3,"title":"Shaw Library","ispublic":1,"isfriend":0,"isfamily":0,"safe":0,"ownername":"streetamatic","latitude":38.912431,"longitude":-77.0225,"accuracy":"16","context":0,"place_id":"YiDmTipTVrO2JD5R","woeid":"2491890","geo_is_family":0,"geo_is_friend":0,"geo_is_contact":0,"geo_is_public":1,"media":"photo","media_status":"ready"},{"id":"13959816947","owner":"12688320@N03","secret":"4c559b8c50","server":"2917","farm":3,"title":"Fog and Fence","ispublic":1,"isfriend":0,"isfamily":0,"safe":0,"ownername":"channel locks","latitude":53.542495,"longitude":9.966848,"accuracy":"15","context":0,"place_id":"Y29PxthXVLwwVNg","woeid":"666383","geo_is_family":0,"geo_is_friend":0,"geo_is_contact":0,"geo_is_public":1,"media":"photo","media_status":"ready"},{"id":"13959824100","owner":"75462591@N02","secret":"56340e76b7","server":"7429","farm":8,"title":"Water hat","ispublic":1,"isfriend":0,"isfamily":0,"safe":0,"ownername":"Michel Couprie","latitude":45.542179,"longitude":0.72214,"accuracy":"11","context":0,"place_id":"kk0Cg7ZXULvW7SE","woeid":"621392","geo_is_family":0,"geo_is_friend":0,"geo_is_contact":0,"geo_is_public":1,"media":"photo","media_status":"ready"},{"id":"13959303489","owner":"44161305@N02","secret":"4752e6d290","server":"7360","farm":8,"title":"121 Monte Cofano from Erice, Sicily","ispublic":1,"isfriend":0,"isfamily":0,"safe":0,"ownername":"tango-","latitude":38.032813,"longitude":12.558403,"accuracy":"12","context":0,"place_id":"tw2BwQ5WU7.Abvw","woeid":"715188","geo_is_family":0,"geo_is_friend":0,"geo_is_contact":0,"geo_is_public":1,"media":"photo","media_status":"ready"},{"id":"14145300355","owner":"31965255@N00","secret":"e38d9d3316","server":"2911","farm":3,"title":"sciamatura","ispublic":1,"isfriend":0,"isfamily":0,"safe":0,"ownername":"mbeo","latitude":46.212387,"longitude":8.841856,"accuracy":"13","context":0,"place_id":"e2RnFCRWWrkFj8k","woeid":"783320","geo_is_family":0,"geo_is_friend":0,"geo_is_contact":0,"geo_is_public":1,"media":"photo","media_status":"ready"},{"id":"14141394951","owner":"79117486@N02","secret":"133fe66ec2","server":"7377","farm":8,"title":"Guggenheim - rio nervion ( on explore 9-5-2014 )","ispublic":1,"isfriend":0,"isfamily":0,"safe":0,"ownername":"haymartxo","latitude":43.265706,"longitude":-2.953262,"accuracy":"11","context":0,"place_id":"v0b7ga9WV745BHU","woeid":"754542","geo_is_family":0,"geo_is_friend":0,"geo_is_contact":0,"geo_is_public":1,"media":"photo","media_status":"ready"},{"id":"14141706732","owner":"26359075@N02","secret":"5ecef146e9","server":"5470","farm":6,"title":"The cross and the clouds...","ispublic":1,"isfriend":0,"isfamily":0,"safe":0,"ownername":"G\u00e9rard Farenc (slowly back) !","latitude":43.218109,"longitude":3.228671,"accuracy":"15","context":0,"place_id":"pdbJxnJTUri9tuC.3Q","woeid":"20203084","geo_is_family":0,"geo_is_friend":0,"geo_is_contact":0,"geo_is_public":1,"media":"photo","media_status":"ready"},{"id":"13957180208","owner":"7493849@N05","secret":"60e89eeeb8","server":"5198","farm":6,"title":"Monte Rosa Gletscher","ispublic":1,"isfriend":0,"isfamily":0,"safe":0,"ownername":"twoeye","latitude":45.957295,"longitude":7.814798,"accuracy":"14","context":0,"place_id":"5iMmsSNQULzDiwSTlQ","woeid":"12682989","geo_is_family":0,"geo_is_friend":0,"geo_is_contact":0,"geo_is_public":1,"media":"photo","media_status":"ready"},{"id":"14140863852","owner":"42761333@N07","secret":"ac5c303d78","server":"7436","farm":8,"title":"Beach Reflections - EXPLORED! Thank you! :-)","ispublic":1,"isfriend":0,"isfamily":0,"safe":0,"ownername":"Ricardodaforce","latitude":38.37397,"longitude":-0.409712,"accuracy":"14","context":0,"place_id":"YsKXKRJWVbi22ps","woeid":"772926","geo_is_family":0,"geo_is_friend":0,"geo_is_contact":0,"geo_is_public":1,"media":"photo","media_status":"ready"},{"id":"14143450505","owner":"63947271@N06","secret":"32be9469f8","server":"5118","farm":6,"title":"Pixies' Meadow","ispublic":1,"isfriend":0,"isfamily":0,"safe":0,"ownername":"S l a w e k","latitude":51.066967,"longitude":-0.289077,"accuracy":"12","context":0,"place_id":"8Lps9EtTUbP.uw","woeid":"23945","geo_is_family":0,"geo_is_friend":0,"geo_is_contact":0,"geo_is_public":1,"media":"photo","media_status":"ready"},{"id":"14140422442","owner":"74582320@N00","secret":"c27eac0510","server":"7451","farm":8,"title":"peaceful or victorious pressure cooking 11-273BW","ispublic":1,"isfriend":0,"isfamily":0,"safe":0,"ownername":"Mark Estabrook","latitude":50.441379,"longitude":30.522489,"accuracy":"11","context":0,"place_id":"5I6w0q5YUL586B8","woeid":"924938","geo_is_family":0,"geo_is_friend":0,"geo_is_contact":0,"geo_is_public":1,"media":"photo","media_status":"ready"},{"id":"14162917113","owner":"90378082@N07","secret":"654067ce94","server":"2931","farm":3,"title":"Cafe life","ispublic":1,"isfriend":0,"isfamily":0,"safe":0,"ownername":"Baz 120","latitude":41.89921,"longitude":12.475512,"accuracy":"15","context":0,"place_id":"FphPyURWU7ux6h4","woeid":"711883","geo_is_family":0,"geo_is_friend":0,"geo_is_contact":0,"geo_is_public":1,"media":"photo","media_status":"ready"},{"id":"14137932581","owner":"65504618@N05","secret":"c19796fd57","server":"2904","farm":3,"title":"The Gathering","ispublic":1,"isfriend":0,"isfamily":0,"safe":0,"ownername":"Reggie Bishop <|600k thanks everyone|>","latitude":38.998011,"longitude":-76.484241,"accuracy":"13","context":0,"place_id":"wyqqUZ1TV7vKv_Fd","woeid":"2514214","geo_is_family":0,"geo_is_friend":0,"geo_is_contact":0,"geo_is_public":1,"media":"photo","media_status":"ready"},{"id":"13952447989","owner":"87848574@N07","secret":"06f79de657","server":"2904","farm":3,"title":"Wooden Boats","ispublic":1,"isfriend":0,"isfamily":0,"safe":0,"ownername":"fredMin","latitude":28.236299,"longitude":83.989997,"accuracy":"11","context":0,"place_id":"0qhXkFtTULzE7lss","woeid":"2269173","geo_is_family":0,"geo_is_friend":0,"geo_is_contact":0,"geo_is_public":1,"media":"photo","media_status":"ready"},{"id":"14135094201","owner":"32791195@N08","secret":"f69d66b71d","server":"7355","farm":8,"title":"Pines Late Sun Reflections 10mm","ispublic":1,"isfriend":0,"isfamily":0,"safe":0,"ownername":"dangerousdavecarper","latitude":52.721945,"longitude":1.121506,"accuracy":"15","context":0,"place_id":"pANsOARTVLtsqg","woeid":"26118","geo_is_family":0,"geo_is_friend":0,"geo_is_contact":0,"geo_is_public":1,"media":"photo","media_status":"ready"},{"id":"14157686563","owner":"78102624@N03","secret":"f4c928b299","server":"7422","farm":8,"title":"Zonda [On Explore !]","ispublic":1,"isfriend":0,"isfamily":0,"safe":0,"ownername":"11MrAxel","latitude":48.00809,"longitude":0.197809,"accuracy":"14","context":0,"place_id":"nkMnWiBXUrlyw74","woeid":"603413","geo_is_family":0,"geo_is_friend":0,"geo_is_contact":0,"geo_is_public":1,"media":"photo","media_status":"ready"},{"id":"13950781169","owner":"53794995@N05","secret":"0c27ec1df9","server":"2931","farm":3,"title":"Ventanas, o no","ispublic":1,"isfriend":0,"isfamily":0,"safe":0,"ownername":"Helena de Riquer","latitude":37.877059,"longitude":-4.782894,"accuracy":"15","context":0,"place_id":"VPKFov1TUrhyy6oLvA","woeid":"20220004","geo_is_family":0,"geo_is_friend":0,"geo_is_contact":0,"geo_is_public":1,"media":"photo","media_status":"ready"},{"id":"13950172290","owner":"7493849@N05","secret":"2dff9c1ae0","server":"5588","farm":6,"title":"Cervino","ispublic":1,"isfriend":0,"isfamily":0,"safe":0,"ownername":"twoeye","latitude":45.933878,"longitude":7.708164,"accuracy":"16","context":0,"place_id":"SbLGNDpQULw1pdD18g","woeid":"12677102","geo_is_family":0,"geo_is_friend":0,"geo_is_contact":0,"geo_is_public":1,"media":"photo","media_status":"ready"},{"id":"13949352519","owner":"11269250@N07","secret":"f1cfbc024c","server":"7404","farm":8,"title":"~ under Eiffel ~","ispublic":1,"isfriend":0,"isfamily":0,"safe":0,"ownername":"Janey Kay","latitude":48.858277,"longitude":2.294629,"accuracy":"16","context":0,"place_id":"Gh_droFUV7JfPjFofw","woeid":"55843775","geo_is_family":0,"geo_is_friend":0,"geo_is_contact":0,"geo_is_public":1,"media":"photo","media_status":"ready"},{"id":"14132825862","owner":"44743466@N05","secret":"51d44d9b2e","server":"7376","farm":8,"title":"perch\u00e8 si.","ispublic":1,"isfriend":0,"isfamily":0,"safe":0,"ownername":"_esse_","latitude":44.069426,"longitude":12.58306,"accuracy":"15","context":0,"place_id":"WQUosZ9WULvQhbk","woeid":"721682","geo_is_family":0,"geo_is_friend":0,"geo_is_contact":0,"geo_is_public":1,"media":"photo","media_status":"ready"},{"id":"13942819037","owner":"31156303@N06","secret":"96765cd9dd","server":"2906","farm":3,"title":"The Art of Rain","ispublic":1,"isfriend":0,"isfamily":0,"safe":0,"ownername":"Chernivtsi Online","latitude":48.295241,"longitude":25.929125,"accuracy":"16","context":0,"place_id":"3WEMLxdYU7IVSWU","woeid":"918247","geo_is_family":0,"geo_is_friend":0,"geo_is_contact":0,"geo_is_public":1,"media":"photo","media_status":"ready"},{"id":"14128998974","owner":"29826595@N06","secret":"b8c1842489","server":"7428","farm":8,"title":"Whinchat male","ispublic":1,"isfriend":0,"isfamily":0,"safe":0,"ownername":"themadbirdlady - anne cotton","latitude":56.200401,"longitude":-3.889503,"accuracy":"11","context":0,"place_id":"cmuSWVhQWrwfIg","woeid":"18626","geo_is_family":0,"geo_is_friend":0,"geo_is_contact":0,"geo_is_public":1,"media":"photo","media_status":"ready"},{"id":"13941916079","owner":"7493849@N05","secret":"fbb1275140","server":"2898","farm":3,"title":"Grande Ghiacciaio di Verra","ispublic":1,"isfriend":0,"isfamily":0,"safe":0,"ownername":"twoeye","latitude":45.932885,"longitude":7.749094,"accuracy":"14","context":0,"place_id":"5iMmsSNQULzDiwSTlQ","woeid":"12682989","geo_is_family":0,"geo_is_friend":0,"geo_is_contact":0,"geo_is_public":1,"media":"photo","media_status":"ready"},{"id":"13941538188","owner":"37486507@N06","secret":"84772e7e55","server":"5322","farm":6,"title":"Crepuscolo blu \/ Blue dusk","ispublic":1,"isfriend":0,"isfamily":0,"safe":0,"ownername":"AndreaPucci","latitude":51.500868,"longitude":-0.062645,"accuracy":"16","context":0,"place_id":"5PTridlSUb_r5g","woeid":"33592","geo_is_family":0,"geo_is_friend":0,"geo_is_contact":0,"geo_is_public":1,"media":"photo","media_status":"ready"},{"id":"13941423390","owner":"12547928@N07","secret":"400102b224","server":"2916","farm":3,"title":"Cromer Front","ispublic":1,"isfriend":0,"isfamily":0,"safe":0,"ownername":"Tony Shertila","latitude":52.932583,"longitude":1.30101,"accuracy":"16","context":0,"place_id":"BHEDXGNQVbn0YQ","woeid":"17381","geo_is_family":0,"geo_is_friend":0,"geo_is_contact":0,"geo_is_public":1,"media":"photo","media_status":"ready"},{"id":"14126917654","owner":"92036053@N06","secret":"156a3cec8e","server":"2911","farm":3,"title":"Antigo poste de energia comum na regi\u00e3o da Grande S\u00e3o Paulo, Brazil.","ispublic":1,"isfriend":0,"isfamily":0,"safe":0,"ownername":"IVOLINES","latitude":-23.532415,"longitude":-46.307887,"accuracy":"16","context":0,"place_id":"LI5rIWxVV7j.xYQ","woeid":"452779","geo_is_family":0,"geo_is_friend":0,"geo_is_contact":0,"geo_is_public":1,"media":"photo","media_status":"ready"},{"id":"13938941168","owner":"81334082@N02","secret":"cf9bed0c7a","server":"7380","farm":8,"title":"20140413_215708_10.0 mm_f_5.6_300.0 s_HDRsN (explored)","ispublic":1,"isfriend":0,"isfamily":0,"safe":0,"ownername":"lost and found at sea","latitude":51.146627,"longitude":-3.688003,"accuracy":"16","context":0,"place_id":"mmAfhKhQW73kRg","woeid":"19794","geo_is_family":0,"geo_is_friend":0,"geo_is_contact":0,"geo_is_public":1,"media":"photo","media_status":"ready"},{"id":"13938179029","owner":"75753392@N07","secret":"ea8a36ea6f","server":"7341","farm":8,"title":"Water Break-its-Neck","ispublic":1,"isfriend":0,"isfamily":0,"safe":0,"ownername":"Paula J James","latitude":52.241848,"longitude":-3.147201,"accuracy":"11","context":0,"place_id":"OJStc1NTW7NZIw","woeid":"29976","geo_is_family":0,"geo_is_friend":0,"geo_is_contact":0,"geo_is_public":1,"media":"photo","media_status":"ready"},{"id":"13937924129","owner":"61033692@N00","secret":"a18155e87a","server":"7344","farm":8,"title":"Senza titolo","ispublic":1,"isfriend":0,"isfamily":0,"safe":0,"ownername":"magellano","latitude":36.89043,"longitude":27.28918,"accuracy":"11","context":0,"place_id":"ID6q1pxYV74Kg1o","woeid":"954124","geo_is_family":0,"geo_is_friend":0,"geo_is_contact":0,"geo_is_public":1,"media":"photo","media_status":"ready"},{"id":"13937365967","owner":"44161305@N02","secret":"a41dfb98c9","server":"2896","farm":3,"title":"427 Mothia, Sicily","ispublic":1,"isfriend":0,"isfamily":0,"safe":0,"ownername":"tango-","latitude":37.884405,"longitude":12.471542,"accuracy":"13","context":0,"place_id":"xBURoUJWU7tAde0","woeid":"711004","geo_is_family":0,"geo_is_friend":0,"geo_is_contact":0,"geo_is_public":1,"media":"photo","media_status":"ready"},{"id":"13937060318","owner":"47626306@N00","secret":"3ee78bab71","server":"7403","farm":8,"title":"Queens Bath , Alcazar , Seville","ispublic":1,"isfriend":0,"isfamily":0,"safe":0,"ownername":"geospace","latitude":37.384201,"longitude":-5.991499,"accuracy":"16","context":0,"place_id":"wS127mJTUrigW8AezQ","woeid":"20220182","geo_is_family":0,"geo_is_friend":0,"geo_is_contact":0,"geo_is_public":1,"media":"photo","media_status":"ready"},{"id":"13934492487","owner":"107257500@N03","secret":"7c9871642f","server":"2930","farm":3,"title":"Cycles","ispublic":1,"isfriend":0,"isfamily":0,"safe":0,"ownername":"hoobgoobliin","latitude":52.950111,"longitude":0.803654,"accuracy":"15","context":0,"place_id":"rSgzh85TUrpWfwwl3Q","woeid":"20093016","geo_is_family":0,"geo_is_friend":0,"geo_is_contact":0,"geo_is_public":1,"media":"photo","media_status":"ready"},{"id":"13933715338","owner":"50027776@N05","secret":"422ea0fb68","server":"7445","farm":8,"title":"Sibillini - Castelluccio di Norcia","ispublic":1,"isfriend":0,"isfamily":0,"safe":0,"ownername":"Luigi Alesi","latitude":42.828299,"longitude":13.206467,"accuracy":"14","context":0,"place_id":"IcB85V1WU7lCiZ8","woeid":"713407","geo_is_family":0,"geo_is_friend":0,"geo_is_contact":0,"geo_is_public":1,"media":"photo","media_status":"ready"},{"id":"14117019571","owner":"38490142@N05","secret":"f4acd8cf60","server":"7310","farm":8,"title":"Grotte de Lastournelle - Lot et Garonne","ispublic":1,"isfriend":0,"isfamily":0,"safe":0,"ownername":"Vaxjo","latitude":44.343371,"longitude":0.658321,"accuracy":"13","context":0,"place_id":"FMGZ7_9TUrsrgKx7iA","woeid":"20197451","geo_is_family":0,"geo_is_friend":0,"geo_is_contact":0,"geo_is_public":1,"media":"photo","media_status":"ready"},{"id":"14137202213","owner":"79193776@N03","secret":"d5464d9727","server":"7197","farm":8,"title":"Veiled Sun","ispublic":1,"isfriend":0,"isfamily":0,"safe":0,"ownername":"KerKaya","latitude":48.832633,"longitude":-3.513793,"accuracy":"11","context":0,"place_id":"5o2R2mdXULO9kyc","woeid":"629159","geo_is_family":0,"geo_is_friend":0,"geo_is_contact":0,"geo_is_public":1,"media":"photo","media_status":"ready"},{"id":"14116598325","owner":"36119280@N04","secret":"ac113ac370","server":"7361","farm":8,"title":"NYC","ispublic":1,"isfriend":0,"isfamily":0,"safe":0,"ownername":"blichb","latitude":40.74828,"longitude":-73.985684,"accuracy":"16","context":0,"place_id":"MGEM4kFTWr0tOal8SA","woeid":"28751330","geo_is_family":0,"geo_is_friend":0,"geo_is_contact":0,"geo_is_public":1,"media":"photo","media_status":"ready"},{"id":"13929286939","owner":"7183258@N02","secret":"71fc81a681","server":"2907","farm":3,"title":"Wild Coast","ispublic":1,"isfriend":0,"isfamily":0,"safe":0,"ownername":"andywon","latitude":28.948598,"longitude":-13.832817,"accuracy":"13","context":0,"place_id":"vM8go.BQULwrU9.5fQ","woeid":"12690158","geo_is_family":0,"geo_is_friend":0,"geo_is_contact":0,"geo_is_public":1,"media":"photo","media_status":"ready"},{"id":"13928891387","owner":"49214499@N06","secret":"b1b94f7fce","server":"7421","farm":8,"title":"Spring flowers","ispublic":1,"isfriend":0,"isfamily":0,"safe":0,"ownername":"Jurek.P","latitude":52.45632,"longitude":21.164422,"accuracy":"16","context":0,"place_id":"_0mXkmdUUr91rpQ","woeid":"505240","geo_is_family":0,"geo_is_friend":0,"geo_is_contact":0,"geo_is_public":1,"media":"photo","media_status":"ready"},{"id":"13928610509","owner":"29949529@N08","secret":"a1e97fb865","server":"7350","farm":8,"title":"","ispublic":1,"isfriend":0,"isfamily":0,"safe":0,"ownername":"bobbat","latitude":44.763677,"longitude":20.407791,"accuracy":"13","context":0,"place_id":"ePk618RUUblHDoU","woeid":"533257","geo_is_family":0,"geo_is_friend":0,"geo_is_contact":0,"geo_is_public":1,"media":"photo","media_status":"ready"},{"id":"13928509998","owner":"8868875@N03","secret":"5630686cb5","server":"5034","farm":6,"title":"Come, come!","ispublic":1,"isfriend":0,"isfamily":0,"safe":0,"ownername":"gato-gato-gato","latitude":47.37603,"longitude":8.526355,"accuracy":"16","context":0,"place_id":"N6mvrZ5WWrsOeBo","woeid":"781693","geo_is_family":0,"geo_is_friend":0,"geo_is_contact":0,"geo_is_public":1,"media":"photo","media_status":"ready"},{"id":"13928374448","owner":"11638484@N06","secret":"5304018c77","server":"7378","farm":8,"title":"These Kids Are Wearing Me Out......","ispublic":1,"isfriend":0,"isfamily":0,"safe":0,"ownername":"Paul Hueber","latitude":28.535218,"longitude":-81.382684,"accuracy":"14","context":0,"place_id":"SSNNo4pTVrwPCzCa","woeid":"2466256","geo_is_family":0,"geo_is_friend":0,"geo_is_contact":0,"geo_is_public":1,"media":"photo","media_status":"ready"},{"id":"14114543514","owner":"76916503@N04","secret":"bcb0738995","server":"7363","farm":8,"title":"","ispublic":1,"isfriend":0,"isfamily":0,"safe":0,"ownername":"Isina Fri","latitude":43.590649,"longitude":-5.763616,"accuracy":"14","context":0,"place_id":"2ua2NgJWV7.vKYg","woeid":"755890","geo_is_family":0,"geo_is_friend":0,"geo_is_contact":0,"geo_is_public":1,"media":"photo","media_status":"ready"},{"id":"14132940063","owner":"66759125@N00","secret":"1d1b903f2b","server":"5229","farm":6,"title":"","ispublic":1,"isfriend":0,"isfamily":0,"safe":0,"ownername":"Svein Nordrum","latitude":61.367777,"longitude":8.811721,"accuracy":"10","context":0,"place_id":"zqt.Kh9ZV71xrJk","woeid":"857711","geo_is_family":0,"geo_is_friend":0,"geo_is_contact":0,"geo_is_public":1,"media":"photo","media_status":"ready"},{"id":"14109511282","owner":"25122972@N04","secret":"228b7a8993","server":"2896","farm":3,"title":"Awaken","ispublic":1,"isfriend":0,"isfamily":0,"safe":0,"ownername":"jactoll","latitude":52.224526,"longitude":-2.012557,"accuracy":"15","context":0,"place_id":"o0jP0L9SVLvBsA","woeid":"36154","geo_is_family":0,"geo_is_friend":0,"geo_is_contact":0,"geo_is_public":1,"media":"photo","media_status":"ready"},{"id":"14087936116","owner":"29965389@N03","secret":"2d4e2fcde7","server":"5337","farm":6,"title":"","ispublic":1,"isfriend":0,"isfamily":0,"safe":0,"ownername":"dirtyharrry","latitude":35.367602,"longitude":24.494833,"accuracy":"16","context":0,"place_id":"wFDlkPFYVLsCLTg","woeid":"961110","geo_is_family":0,"geo_is_friend":0,"geo_is_contact":0,"geo_is_public":1,"media":"photo","media_status":"ready"},{"id":"13924052417","owner":"42014801@N04","secret":"bd90867d00","server":"2933","farm":3,"title":"Altenstein House \/ Schloss Altenstein","ispublic":1,"isfriend":0,"isfamily":0,"safe":0,"ownername":"Caledoniafan","latitude":50.83512,"longitude":10.34926,"accuracy":"16","context":0,"place_id":"rfHYx6VXVbsIWlo","woeid":"671669","geo_is_family":0,"geo_is_friend":0,"geo_is_contact":0,"geo_is_public":1,"media":"photo","media_status":"ready"},{"id":"13921294109","owner":"13426843@N08","secret":"2e60ce76aa","server":"2938","farm":3,"title":"Field Of Rapeseeds","ispublic":1,"isfriend":0,"isfamily":0,"safe":0,"ownername":"Rutger Blom","latitude":55.702983,"longitude":13.160075,"accuracy":"16","context":0,"place_id":"5EcsB2hZW73YErQ","woeid":"897819","geo_is_family":0,"geo_is_friend":0,"geo_is_contact":0,"geo_is_public":1,"media":"photo","media_status":"ready"},{"id":"14127481783","owner":"34050631@N02","secret":"206d88cfed","server":"5239","farm":6,"title":"Bluebell Wood","ispublic":1,"isfriend":0,"isfamily":0,"safe":0,"ownername":"Taron Curtis","latitude":52.402038,"longitude":-2.04237,"accuracy":"16","context":0,"place_id":"SFFVJj1SUb0woA","woeid":"33713","geo_is_family":0,"geo_is_friend":0,"geo_is_contact":0,"geo_is_public":1,"media":"photo","media_status":"ready"},{"id":"14106259915","owner":"87848574@N07","secret":"763fa62959","server":"5522","farm":6,"title":"Window Watch","ispublic":1,"isfriend":0,"isfamily":0,"safe":0,"ownername":"fredMin","latitude":27.701999,"longitude":85.317497,"accuracy":"11","context":0,"place_id":"l9lWcGdTULyUgU9b","woeid":"2269179","geo_is_family":0,"geo_is_friend":0,"geo_is_contact":0,"geo_is_public":1,"media":"photo","media_status":"ready"},{"id":"13919239837","owner":"95077606@N03","secret":"7b8f488f20","server":"5336","farm":6,"title":"Can't Talk, Won't Listen","ispublic":1,"isfriend":0,"isfamily":0,"safe":0,"ownername":"J_Care","latitude":51.492199,"longitude":-0.158346,"accuracy":"16","context":0,"place_id":"tQG5WI1TUrp5gJmiQg","woeid":"20089320","geo_is_family":0,"geo_is_friend":0,"geo_is_contact":0,"geo_is_public":1,"media":"photo","media_status":"ready"},{"id":"13918932650","owner":"47574723@N03","secret":"79525ac1a2","server":"7067","farm":8,"title":"\"How Did You Find Me?\"","ispublic":1,"isfriend":0,"isfamily":0,"safe":0,"ownername":"The Spirit of the World ( On&Off for 2 Days)","latitude":21.7866,"longitude":82.794761,"accuracy":"2","context":0,"place_id":"kZ2lUVFTUb7CK_DAfA","woeid":"23424848","geo_is_family":0,"geo_is_friend":0,"geo_is_contact":0,"geo_is_public":1,"media":"photo","media_status":"ready"},{"id":"14102210881","owner":"7445476@N07","secret":"285755edf8","server":"7321","farm":8,"title":"Railway Station @ Night","ispublic":1,"isfriend":0,"isfamily":0,"safe":0,"ownername":"Marcel Cavelti","latitude":46.852898,"longitude":9.527356,"accuracy":"16","context":0,"place_id":"5iW1.IxTUb4Temvu","woeid":"2347091","geo_is_family":0,"geo_is_friend":0,"geo_is_contact":0,"geo_is_public":1,"media":"photo","media_status":"ready"},{"id":"13918225550","owner":"79117486@N02","secret":"531c5f69cc","server":"2930","farm":3,"title":"Guggenheim ( Bilbao )( on explore 4-5-2014 )","ispublic":1,"isfriend":0,"isfamily":0,"safe":0,"ownername":"haymartxo","latitude":43.265956,"longitude":-2.959442,"accuracy":"11","context":0,"place_id":"v0b7ga9WV745BHU","woeid":"754542","geo_is_family":0,"geo_is_friend":0,"geo_is_contact":0,"geo_is_public":1,"media":"photo","media_status":"ready"},{"id":"14081356386","owner":"72339619@N05","secret":"ffcaaab694","server":"7182","farm":8,"title":"Musica di un attimo (Explore)","ispublic":1,"isfriend":0,"isfamily":0,"safe":0,"ownername":"doniflo","latitude":41.025477,"longitude":28.971645,"accuracy":"11","context":0,"place_id":"l02DEdJTUb5XGlLZ","woeid":"2344116","geo_is_family":0,"geo_is_friend":0,"geo_is_contact":0,"geo_is_public":1,"media":"photo","media_status":"ready"},{"id":"13916233418","owner":"73112706@N04","secret":"61d1ee1c82","server":"7295","farm":8,"title":"darkness and light \/ Dunkelheit und Licht","ispublic":1,"isfriend":0,"isfamily":0,"safe":0,"ownername":"tideloon","latitude":46.699258,"longitude":7.737314,"accuracy":"16","context":0,"place_id":"MWoAjZpWWrnpWAQ","woeid":"783323","geo_is_family":0,"geo_is_friend":0,"geo_is_contact":0,"geo_is_public":1,"media":"photo","media_status":"ready"}]},"stat":"ok"}