{"photos":{"page":9, "pages":24254, "perpage":60, "total":"1455209", "photo":[{"id":"12976413955", "owner":"62109658@N06", "secret":"694acc3c88", "server":"7331", "farm":8, "title":"Coates bridge and lock", "ispublic":1, "isfriend":0, "isfamily":0, "safe":0, "ownername":"Barry Potter (EdenMedia)", "latitude":53.897112, "longitude":-0.805059, "accuracy":"16", "context":0, "place_id":"ys4uwzZQUL_5Jw", "woeid":"12578", "geo_is_family":0, "geo_is_friend":0, "geo_is_contact":0, "geo_is_public":1, "media":"photo", "media_status":"ready"}, {"id":"12976739814", "owner":"35095613@N08", "secret":"c11d42df59", "server":"7330", "farm":8, "title":"Waterfall Aldeyjarfoss - northern Iceland", "ispublic":1, "isfriend":0, "isfamily":0, "safe":0, "ownername":"P\u00e1ll Gu\u00f0j\u00f3nsson", "latitude":65.366011, "longitude":-17.338162, "accuracy":"16", "context":0, "place_id":"pHSRA2pTUrp_PaWgqw", "woeid":"20070101", "geo_is_family":0, "geo_is_friend":0, "geo_is_contact":0, "geo_is_public":1, "media":"photo", "media_status":"ready"}, {"id":"12976690384", "owner":"42890356@N02", "secret":"011eee6945", "server":"7295", "farm":8, "title":"Memories of Summer - Explored", "ispublic":1, "isfriend":0, "isfamily":0, "safe":0, "ownername":"faranorclarke", "latitude":51.398188, "longitude":-0.149774, "accuracy":"13", "context":0, "place_id":"WTxIldVTW7viIg", "woeid":"29135", "geo_is_family":0, "geo_is_friend":0, "geo_is_contact":0, "geo_is_public":1, "media":"photo", "media_status":"ready"}, {"id":"12976009083", "owner":"43194508@N07", "secret":"01a188224b", "server":"3328", "farm":4, "title":"ggg...explore...", "ispublic":1, "isfriend":0, "isfamily":0, "safe":0, "ownername":"jimmy297.", "latitude":42.461395, "longitude":-2.46068, "accuracy":"15", "context":0, "place_id":"LRRz6jJWVL8zWm0", "woeid":"765455", "geo_is_family":0, "geo_is_friend":0, "geo_is_contact":0, "geo_is_public":1, "media":"photo", "media_status":"ready"}, {"id":"12975779344", "owner":"57356734@N07", "secret":"dbff79c4ae", "server":"3519", "farm":4, "title":"Final approach", "ispublic":1, "isfriend":0, "isfamily":0, "safe":0, "ownername":"Gaute Froystein Photography", "latitude":59.437307, "longitude":7.989978, "accuracy":"12", "context":0, "place_id":"H7dljShZV72UzpM", "woeid":"857776", "geo_is_family":0, "geo_is_friend":0, "geo_is_contact":0, "geo_is_public":1, "media":"photo", "media_status":"ready"}, {"id":"12975079913", "owner":"78772251@N07", "secret":"761cd18f8b", "server":"3054", "farm":4, "title":"blossom", "ispublic":1, "isfriend":0, "isfamily":0, "safe":1, "ownername":"neals pics", "latitude":52.221214, "longitude":0.734581, "accuracy":"14", "context":0, "place_id":"GfumPzNQVr0RLg", "woeid":"14714", "geo_is_family":0, "geo_is_friend":0, "geo_is_contact":0, "geo_is_public":1, "media":"photo", "media_status":"ready"}, {"id":"12974993333", "owner":"37206078@N04", "secret":"199edd1ac8", "server":"3375", "farm":4, "title":"Walls of Avila with snow", "ispublic":1, "isfriend":0, "isfamily":0, "safe":1, "ownername":"Eduardo Est\u00e9llez", "latitude":40.658502, "longitude":-4.699406, "accuracy":"16", "context":0, "place_id":"scqkAPJWV7nqfL4", "woeid":"753330", "geo_is_family":0, "geo_is_friend":0, "geo_is_contact":0, "geo_is_public":1, "media":"photo", "media_status":"ready"}, {"id":"12974870893", "owner":"22876654@N00", "secret":"91d0cf2a4a", "server":"7438", "farm":8, "title":"What \u2026 ?", "ispublic":1, "isfriend":0, "isfamily":0, "safe":0, "ownername":"halifaxlight", "latitude":34.073137, "longitude":-4.976463, "accuracy":"13", "context":0, "place_id":"zlskJLJQV7mdhu2r", "woeid":"1535450", "geo_is_family":0, "geo_is_friend":0, "geo_is_contact":0, "geo_is_public":1, "media":"photo", "media_status":"ready"}, {"id":"12974035025", "owner":"88420718@N03", "secret":"217c1c7416", "server":"7355", "farm":8, "title":"seclusion", "ispublic":1, "isfriend":0, "isfamily":0, "safe":1, "ownername":"thequietguy", "latitude":40.752453, "longitude":21.126029, "accuracy":"11", "context":0, "place_id":"xaRXjjtUV7KysUYJFQ", "woeid":"55869893", "geo_is_family":0, "geo_is_friend":0, "geo_is_contact":0, "geo_is_public":1, "media":"photo", "media_status":"ready"}, {"id":"12972992845", "owner":"81035653@N00", "secret":"87cea5f7e7", "server":"2135", "farm":3, "title":"The open-air market held every Saturday morning in Landau", "ispublic":1, "isfriend":0, "isfamily":0, "safe":1, "ownername":"B\u212en", "latitude":47.54464, "longitude":9.684812, "accuracy":"16", "context":0, "place_id":"x_hJwN1TULyM3qC4gQ", "woeid":"22662225", "geo_is_family":0, "geo_is_friend":0, "geo_is_contact":0, "geo_is_public":1, "media":"photo", "media_status":"ready"}, {"id":"12972069863", "owner":"43016292@N07", "secret":"cb8a7f2d05", "server":"7295", "farm":8, "title":"Europe \/\/ Germany  \/\/ Bavaria \/\/ Obere Firstalm", "ispublic":1, "isfriend":0, "isfamily":0, "safe":0, "ownername":"msc-photodesign", "latitude":47.670472, "longitude":11.853144, "accuracy":"16", "context":0, "place_id":"y1tus_BQULxmE1J6EA", "woeid":"12635192", "geo_is_family":0, "geo_is_friend":0, "geo_is_contact":0, "geo_is_public":1, "media":"photo", "media_status":"ready"}, {"id":"12970879735", "owner":"8231395@N04", "secret":"8a26481b00", "server":"7413", "farm":8, "title":"Bald Eagle in flight", "ispublic":1, "isfriend":0, "isfamily":0, "safe":1, "ownername":"Ed Rosack", "latitude":28.013055, "longitude":-81.22, "accuracy":"16", "context":0, "place_id":"alvaGv5QUL9aNg8vvg", "woeid":"12587851", "geo_is_family":0, "geo_is_friend":0, "geo_is_contact":0, "geo_is_public":1, "media":"photo", "media_status":"ready"}, {"id":"12969947093", "owner":"67587247@N06", "secret":"a8dc14bc1f", "server":"7339", "farm":8, "title":"Photographer At Work!", "ispublic":1, "isfriend":0, "isfamily":0, "safe":0, "ownername":"Postcards From The Edge Photography", "latitude":27.441487, "longitude":-82.689886, "accuracy":"13", "context":0, "place_id":"HsXA8E9TUbybWKCi", "woeid":"2367826", "geo_is_family":0, "geo_is_friend":0, "geo_is_contact":0, "geo_is_public":1, "media":"photo", "media_status":"ready"}, {"id":"12969736753", "owner":"100063725@N06", "secret":"950539b59f", "server":"2306", "farm":3, "title":"Saliendo a pescar", "ispublic":1, "isfriend":0, "isfamily":0, "safe":0, "ownername":"Antonio Chac", "latitude":36.505677, "longitude":-4.876577, "accuracy":"16", "context":0, "place_id":"b6ANCk5WVLwQivI", "woeid":"766537", "geo_is_family":0, "geo_is_friend":0, "geo_is_contact":0, "geo_is_public":1, "media":"photo", "media_status":"ready"}, {"id":"12969970924", "owner":"47532811@N03", "secret":"ab45b73f09", "server":"7392", "farm":8, "title":"great stamp Czechia Ceska 18 Kc (1907 a.d., water tower of Pilsner Urquell Brewery, Wasserturm, Ch\u00e2teau d'eau, Torre de agua, \u0412\u043e\u0434\u043e\u043d\u0430\u043f\u043e\u0440\u043d\u0430\u044f \u0431\u0430\u0448\u043d\u044f) po\u0161tovn\u00ed zn\u00e1mky \u010cesko postzegels Tsjechi\u00eb sellos Checa postimerkit Czechia \u043f\u043e\u0447\u0442\u043e\u0432\u044b\u0435 \u043c\u0430\u0440\u043a\u0438 \u0427\u0435\u0445\u0438\u0438 timbres-poste", "ispublic":1, "isfriend":0, "isfamily":0, "safe":1, "ownername":"stampolina - thanks to all for sending stamps!! :)", "latitude":49.747299, "longitude":13.376489, "accuracy":"11", "context":0, "place_id":"X_.VRm9WW7wodyo", "woeid":"796166", "geo_is_family":0, "geo_is_friend":0, "geo_is_contact":0, "geo_is_public":1, "media":"photo", "media_status":"ready"}, {"id":"12968758053", "owner":"79688583@N03", "secret":"17d426d826", "server":"7388", "farm":8, "title":"London Calling", "ispublic":1, "isfriend":0, "isfamily":0, "safe":0, "ownername":"Jamie Frith", "latitude":51.507433, "longitude":-0.147843, "accuracy":"15", "context":0, "place_id":"amTwDy5TWr9_hw", "woeid":"28571", "geo_is_family":0, "geo_is_friend":0, "geo_is_contact":0, "geo_is_public":1, "media":"photo", "media_status":"ready"}, {"id":"12968521105", "owner":"68562669@N06", "secret":"6e4246981f", "server":"2343", "farm":3, "title":"The Lobster Pots", "ispublic":1, "isfriend":0, "isfamily":0, "safe":1, "ownername":"Ken Came", "latitude":50.723816, "longitude":-1.741837, "accuracy":"16", "context":0, "place_id":"TbYmzT1QVLqiFA", "woeid":"16017", "geo_is_family":0, "geo_is_friend":0, "geo_is_contact":0, "geo_is_public":1, "media":"photo", "media_status":"ready"}, {"id":"12968845894", "owner":"56936646@N07", "secret":"609b3e694a", "server":"7452", "farm":8, "title":"When in Rome part 2", "ispublic":1, "isfriend":0, "isfamily":0, "safe":1, "ownername":"Frank van Dongen", "latitude":41.902109, "longitude":12.452713, "accuracy":"16", "context":0, "place_id":"62ufGyBUUb26u2g", "woeid":"537842", "geo_is_family":0, "geo_is_friend":0, "geo_is_contact":0, "geo_is_public":1, "media":"photo", "media_status":"ready"}, {"id":"12968547243", "owner":"77896923@N03", "secret":"de15ce9feb", "server":"7303", "farm":8, "title":"cherry blossoms", "ispublic":1, "isfriend":0, "isfamily":0, "safe":0, "ownername":"demerson2", "latitude":34.307143, "longitude":-75.9375, "accuracy":"1", "context":0, "place_id":"3Xw_xEBTUb5puUMm", "woeid":"2347592", "geo_is_family":0, "geo_is_friend":0, "geo_is_contact":0, "geo_is_public":1, "media":"photo", "media_status":"ready"}, {"id":"12967614564", "owner":"37708438@N05", "secret":"b33eafc171", "server":"7390", "farm":8, "title":"nude", "ispublic":1, "isfriend":0, "isfamily":0, "safe":1, "ownername":"kenny barker", "latitude":56.655094, "longitude":-5.08461, "accuracy":"11", "context":0, "place_id":"xr4XfLxQU7xfAw", "woeid":"11675", "geo_is_family":0, "geo_is_friend":0, "geo_is_contact":0, "geo_is_public":1, "media":"photo", "media_status":"ready"}, {"id":"12967281064", "owner":"27420180@N08", "secret":"862444e1d8", "server":"2641", "farm":3, "title":"Paris from Bastille @ sunset", "ispublic":1, "isfriend":0, "isfamily":0, "safe":1, "ownername":"A.G. Photographe", "latitude":48.853039, "longitude":2.369281, "accuracy":"16", "context":0, "place_id":"o87ZyUpUV7IfkA8sMw", "woeid":"55843760", "geo_is_family":0, "geo_is_friend":0, "geo_is_contact":0, "geo_is_public":1, "media":"photo", "media_status":"ready"}, {"id":"12966535265", "owner":"31804708@N02", "secret":"eec0d05d97", "server":"7419", "farm":8, "title":"Descendiendo - Descending", "ispublic":1, "isfriend":0, "isfamily":0, "safe":1, "ownername":"celta4", "latitude":-25.557309, "longitude":-65.500488, "accuracy":"9", "context":0, "place_id":".0QrEChVVL8OjFc", "woeid":"465493", "geo_is_family":0, "geo_is_friend":0, "geo_is_contact":0, "geo_is_public":1, "media":"photo", "media_status":"ready"}, {"id":"12966550754", "owner":"11269250@N07", "secret":"c071827918", "server":"7356", "farm":8, "title":"~ paris in the spring ~", "ispublic":1, "isfriend":0, "isfamily":0, "safe":0, "ownername":"Janey Kay", "latitude":48.858277, "longitude":2.294511, "accuracy":"15", "context":0, "place_id":"Gh_droFUV7JfPjFofw", "woeid":"55843775", "geo_is_family":0, "geo_is_friend":0, "geo_is_contact":0, "geo_is_public":1, "media":"photo", "media_status":"ready"}, {"id":"12966424464", "owner":"96844815@N03", "secret":"7b6a55f657", "server":"7448", "farm":8, "title":"Charge of the Flight Brigade", "ispublic":1, "isfriend":0, "isfamily":0, "safe":0, "ownername":"LKB Photographic", "latitude":55.857963, "longitude":-4.255126, "accuracy":"16", "context":0, "place_id":"ec7HT9FTU7snhw", "woeid":"21125", "geo_is_family":0, "geo_is_friend":0, "geo_is_contact":0, "geo_is_public":1, "media":"photo", "media_status":"ready"}, {"id":"12965781973", "owner":"27450151@N05", "secret":"9034719ae0", "server":"7324", "farm":8, "title":"Potentilla sterilis", "ispublic":1, "isfriend":0, "isfamily":0, "safe":0, "ownername":"Sinkha63", "latitude":45.124649, "longitude":1.723979, "accuracy":"11", "context":0, "place_id":"K71yhbJUVbN6yQw", "woeid":"579780", "geo_is_family":0, "geo_is_friend":0, "geo_is_contact":0, "geo_is_public":1, "media":"photo", "media_status":"ready"}, {"id":"12965977784", "owner":"34096574@N06", "secret":"5531a41397", "server":"2015", "farm":3, "title":"Carmona - Provincia de Sevilla ( Spain )  \/  Calle Puerta de Sevilla  - Explore #173", "ispublic":1, "isfriend":0, "isfamily":0, "safe":0, "ownername":"Pantchoa", "latitude":37.471338, "longitude":-5.64172, "accuracy":"16", "context":0, "place_id":"ecGT05FWV7y8._U", "woeid":"756224", "geo_is_family":0, "geo_is_friend":0, "geo_is_contact":0, "geo_is_public":1, "media":"photo", "media_status":"ready"}, {"id":"12965566093", "owner":"89765119@N06", "secret":"aa1cb9eaaf", "server":"7356", "farm":8, "title":"Mirror in water and ice  (Explore)", "ispublic":1, "isfriend":0, "isfamily":0, "safe":1, "ownername":"Vidar Ringstad, Norway", "latitude":59.896213, "longitude":10.674483, "accuracy":"15", "context":0, "place_id":"ht3te0RZV73WBu0", "woeid":"857713", "geo_is_family":0, "geo_is_friend":0, "geo_is_contact":0, "geo_is_public":1, "media":"photo", "media_status":"ready"}, {"id":"12965106095", "owner":"62464213@N05", "secret":"7e6af06fc1", "server":"2671", "farm":3, "title":"IMG_3599 (explore)", "ispublic":1, "isfriend":0, "isfamily":0, "safe":1, "ownername":"anto-logic", "latitude":43.548237, "longitude":10.311527, "accuracy":"14", "context":0, "place_id":"ReDfkHJWULgV80A", "woeid":"722705", "geo_is_family":0, "geo_is_friend":0, "geo_is_contact":0, "geo_is_public":1, "media":"photo", "media_status":"ready"}, {"id":"12964214274", "owner":"66644631@N05", "secret":"0f53ab539a", "server":"7304", "farm":8, "title":"Tangerine", "ispublic":1, "isfriend":0, "isfamily":0, "safe":1, "ownername":"jmlpyt", "latitude":48.872063, "longitude":2.485951, "accuracy":"16", "context":0, "place_id":"6fi1bwpUV7JFTLqnog", "woeid":"55863564", "geo_is_family":0, "geo_is_friend":0, "geo_is_contact":0, "geo_is_public":1, "media":"photo", "media_status":"ready"}, {"id":"12960679764", "owner":"34457549@N08", "secret":"4d7a99eb45", "server":"2547", "farm":3, "title":"Coral Cove Park - Jupiter, Florida", "ispublic":1, "isfriend":0, "isfamily":0, "safe":1, "ownername":"Daniel Piraino", "latitude":26.93198, "longitude":-80.101913, "accuracy":"16", "context":0, "place_id":"l.VElmZTVrmic9wK", "woeid":"2430365", "geo_is_family":0, "geo_is_friend":0, "geo_is_contact":0, "geo_is_public":1, "media":"photo", "media_status":"ready"}, {"id":"12959990043", "owner":"80516886@N00", "secret":"04cb4daa2e", "server":"7438", "farm":8, "title":"Rio de Janeiro - Sugar Loaf - P\u00e3o de A\u00e7ucar", "ispublic":1, "isfriend":0, "isfamily":0, "safe":1, "ownername":".**rickipanema**.", "latitude":-22.94512, "longitude":-43.189437, "accuracy":"16", "context":0, "place_id":"oIGe_OpVUL9r0i4", "woeid":"425853", "geo_is_family":0, "geo_is_friend":0, "geo_is_contact":0, "geo_is_public":1, "media":"photo", "media_status":"ready"}, {"id":"12957383665", "owner":"7992704@N05", "secret":"ba271bd6ae", "server":"2877", "farm":3, "title":"Puerta de Alcal\u00e1", "ispublic":1, "isfriend":0, "isfamily":0, "safe":0, "ownername":"_Hadock_", "latitude":40.419941, "longitude":-3.688531, "accuracy":"16", "context":0, "place_id":"JzEjUPlTUrhiX7CzJA", "woeid":"20219956", "geo_is_family":0, "geo_is_friend":0, "geo_is_contact":0, "geo_is_public":1, "media":"photo", "media_status":"ready"}, {"id":"12957279885", "owner":"56105315@N07", "secret":"fe5ebf650d", "server":"2808", "farm":3, "title":"Stump  -  Explored", "ispublic":1, "isfriend":0, "isfamily":0, "safe":1, "ownername":"Nick Stewart2", "latitude":51.77769, "longitude":-2.525712, "accuracy":"16", "context":0, "place_id":"nB.0JPBSV74Bzg", "woeid":"35468", "geo_is_family":0, "geo_is_friend":0, "geo_is_contact":0, "geo_is_public":1, "media":"photo", "media_status":"ready"}, {"id":"12956975883", "owner":"63633802@N00", "secret":"7f182344e7", "server":"7314", "farm":8, "title":"Lluna creixent", "ispublic":1, "isfriend":0, "isfamily":0, "safe":1, "ownername":"Escursso", "latitude":41.482158, "longitude":2.264447, "accuracy":"16", "context":0, "place_id":"DbmuyJtWVb8phEs", "woeid":"775416", "geo_is_family":0, "geo_is_friend":0, "geo_is_contact":0, "geo_is_public":1, "media":"photo", "media_status":"ready"}, {"id":"12956338435", "owner":"78772251@N07", "secret":"47e5af5647", "server":"7376", "farm":8, "title":"spring light", "ispublic":1, "isfriend":0, "isfamily":0, "safe":0, "ownername":"neals pics", "latitude":52.221214, "longitude":0.734581, "accuracy":"14", "context":0, "place_id":"GfumPzNQVr0RLg", "woeid":"14714", "geo_is_family":0, "geo_is_friend":0, "geo_is_contact":0, "geo_is_public":1, "media":"photo", "media_status":"ready"}, {"id":"12956520424", "owner":"53752545@N02", "secret":"85294759c1", "server":"2839", "farm":3, "title":"Sunset to the Cap Dramont #16 ~ Var \/ France ~", "ispublic":1, "isfriend":0, "isfamily":0, "safe":0, "ownername":"Yannick Lefevre", "latitude":43.415086, "longitude":6.846381, "accuracy":"16", "context":0, "place_id":"UFMKUHVTW7lSTbic8A", "woeid":"29329902", "geo_is_family":0, "geo_is_friend":0, "geo_is_contact":0, "geo_is_public":1, "media":"photo", "media_status":"ready"}, {"id":"12956299134", "owner":"35427361@N08", "secret":"efaf5bcd30", "server":"2885", "farm":3, "title":"Alta Badia.", "ispublic":1, "isfriend":0, "isfamily":0, "safe":1, "ownername":"coloreda24", "latitude":46.551541, "longitude":11.923599, "accuracy":"11", "context":0, "place_id":"Mzu93l9WULglY78", "woeid":"722404", "geo_is_family":0, "geo_is_friend":0, "geo_is_contact":0, "geo_is_public":1, "media":"photo", "media_status":"ready"}, {"id":"12956020614", "owner":"89041163@N02", "secret":"c94fa68865", "server":"7415", "farm":8, "title":"#21", "ispublic":1, "isfriend":0, "isfamily":0, "safe":0, "ownername":".SimStorm", "latitude":50.834544, "longitude":19.073091, "accuracy":"16", "context":0, "place_id":"IQLpbgBVW7o6neI", "woeid":"490696", "geo_is_family":0, "geo_is_friend":0, "geo_is_contact":0, "geo_is_public":1, "media":"photo", "media_status":"ready"}, {"id":"12955948684", "owner":"59533438@N02", "secret":"c01785aa29", "server":"7410", "farm":8, "title":"Purple Yellow Green", "ispublic":1, "isfriend":0, "isfamily":0, "safe":1, "ownername":"Steven H Scott", "latitude":52.47452, "longitude":1.744165, "accuracy":"13", "context":0, "place_id":"CKkWGu9TUro9UN1x6w", "woeid":"20093133", "geo_is_family":0, "geo_is_friend":0, "geo_is_contact":0, "geo_is_public":1, "media":"photo", "media_status":"ready"}, {"id":"12955279344", "owner":"49688740@N03", "secret":"558bc147c5", "server":"2872", "farm":3, "title":"Chasse-neige \u00e0 LaTour de Carol. [Explorer 6-03-14]", "ispublic":1, "isfriend":0, "isfamily":0, "safe":0, "ownername":"Nil Ruiz", "latitude":42.465141, "longitude":1.890519, "accuracy":"11", "context":0, "place_id":"5O5O4jNXUruAls0", "woeid":"601653", "geo_is_family":0, "geo_is_friend":0, "geo_is_contact":0, "geo_is_public":1, "media":"photo", "media_status":"ready"}, {"id":"12954695045", "owner":"51933620@N03", "secret":"ab5d69e4cc", "server":"3729", "farm":4, "title":"Spring cleaning, explored", "ispublic":1, "isfriend":0, "isfamily":0, "safe":1, "ownername":"lescatalpas", "latitude":51.327393, "longitude":3.859227, "accuracy":"16", "context":0, "place_id":"OKql1c1WUbjCELc", "woeid":"732478", "geo_is_family":0, "geo_is_friend":0, "geo_is_contact":0, "geo_is_public":1, "media":"photo", "media_status":"ready"}, {"id":"12955022484", "owner":"8231395@N04", "secret":"793d7b3f32", "server":"7312", "farm":8, "title":"Composing", "ispublic":1, "isfriend":0, "isfamily":0, "safe":0, "ownername":"Ed Rosack", "latitude":28.625927, "longitude":-81.367295, "accuracy":"16", "context":0, "place_id":"FuNEzlNTVr551Ama", "woeid":"2444346", "geo_is_family":0, "geo_is_friend":0, "geo_is_contact":0, "geo_is_public":1, "media":"photo", "media_status":"ready"}, {"id":"12954411245", "owner":"81035653@N00", "secret":"cd4ccfbdff", "server":"3708", "farm":4, "title":"The historic Bavarian town Lindau am Bodensee", "ispublic":1, "isfriend":0, "isfamily":0, "safe":1, "ownername":"B\u212en", "latitude":47.542904, "longitude":9.683569, "accuracy":"16", "context":0, "place_id":"x_hJwN1TULyM3qC4gQ", "woeid":"22662225", "geo_is_family":0, "geo_is_friend":0, "geo_is_contact":0, "geo_is_public":1, "media":"photo", "media_status":"ready"}, {"id":"12954424723", "owner":"20905078@N04", "secret":"057f1e4ec4", "server":"2808", "farm":3, "title":"", "ispublic":1, "isfriend":0, "isfamily":0, "safe":0, "ownername":"patrickjoust", "latitude":44.327539, "longitude":-68.256222, "accuracy":"16", "context":0, "place_id":"QGbZ7VBTUb96cLbEOg", "woeid":"23509351", "geo_is_family":0, "geo_is_friend":0, "geo_is_contact":0, "geo_is_public":1, "media":"photo", "media_status":"ready"}, {"id":"12954291233", "owner":"72947739@N07", "secret":"23aa85ac8f", "server":"7369", "farm":8, "title":"vague smile..", "ispublic":1, "isfriend":0, "isfamily":0, "safe":1, "ownername":"camelot98", "latitude":24.844696, "longitude":67.05368, "accuracy":"11", "context":0, "place_id":"zpVY2SRTULtE05Ow", "woeid":"2211096", "geo_is_family":0, "geo_is_friend":0, "geo_is_contact":0, "geo_is_public":1, "media":"photo", "media_status":"ready"}, {"id":"12954062375", "owner":"30992106@N07", "secret":"53446e8799", "server":"2851", "farm":3, "title":"Fr\u00fchling", "ispublic":1, "isfriend":0, "isfamily":0, "safe":1, "ownername":"J\u00f6rgenshaus", "latitude":50.796658, "longitude":7.212653, "accuracy":"16", "context":0, "place_id":"GkbM5_xXW77add4", "woeid":"694844", "geo_is_family":0, "geo_is_friend":0, "geo_is_contact":0, "geo_is_public":1, "media":"photo", "media_status":"ready"}, {"id":"12954135803", "owner":"16941881@N00", "secret":"317bcb50de", "server":"7459", "farm":8, "title":"resting place (Explored)", "ispublic":1, "isfriend":0, "isfamily":0, "safe":0, "ownername":"franmol (was away in Febuary but catching up)", "latitude":52.187733, "longitude":-8.232858, "accuracy":"15", "context":0, "place_id":"rTXbbc9UVLuveIU", "woeid":"561403", "geo_is_family":0, "geo_is_friend":0, "geo_is_contact":0, "geo_is_public":1, "media":"photo", "media_status":"ready"}, {"id":"12954013653", "owner":"21207178@N07", "secret":"6ffa264583", "server":"2843", "farm":3, "title":"Student Residence between two Bridges in Nuremberg, Germany", "ispublic":1, "isfriend":0, "isfamily":0, "safe":0, "ownername":"Batikart", "latitude":49.452057, "longitude":11.074905, "accuracy":"11", "context":0, "place_id":"zFjtAiFXWrr04Es", "woeid":"680564", "geo_is_family":0, "geo_is_friend":0, "geo_is_contact":0, "geo_is_public":1, "media":"photo", "media_status":"ready"}, {"id":"12953702465", "owner":"55574675@N06", "secret":"8440808619", "server":"7455", "farm":8, "title":"Small fishingboats", "ispublic":1, "isfriend":0, "isfamily":0, "safe":1, "ownername":"DirkVandeVelde back and catching up", "latitude":30.424708, "longitude":-9.62107, "accuracy":"16", "context":0, "place_id":"U8YGq.JQV7426_Po", "woeid":"1542773", "geo_is_family":0, "geo_is_friend":0, "geo_is_contact":0, "geo_is_public":1, "media":"photo", "media_status":"ready"}, {"id":"12953336164", "owner":"50628097@N05", "secret":"99c36e615e", "server":"7447", "farm":8, "title":".", "ispublic":1, "isfriend":0, "isfamily":0, "safe":0, "ownername":"ngravity", "latitude":35.340194, "longitude":25.134015, "accuracy":"16", "context":0, "place_id":"RYP8_otYV7rsF5s", "woeid":"950519", "geo_is_family":0, "geo_is_friend":0, "geo_is_contact":0, "geo_is_public":1, "media":"photo", "media_status":"ready"}, {"id":"12952674945", "owner":"62529443@N07", "secret":"b970f9544e", "server":"3764", "farm":4, "title":"Coffee to go", "ispublic":1, "isfriend":0, "isfamily":0, "safe":0, "ownername":"MarDiet", "latitude":50.10657, "longitude":8.663642, "accuracy":"16", "context":0, "place_id":"Z0FRRfRXV7oIeew", "woeid":"650272", "geo_is_family":0, "geo_is_friend":0, "geo_is_contact":0, "geo_is_public":1, "media":"photo", "media_status":"ready"}, {"id":"12952174005", "owner":"43016292@N07", "secret":"a519e9d36e", "server":"2872", "farm":3, "title":"Europe \/\/ Germany  \/\/ Bavaria \/\/ Alps", "ispublic":1, "isfriend":0, "isfamily":0, "safe":1, "ownername":"msc-photodesign", "latitude":47.670222, "longitude":11.851172, "accuracy":"16", "context":0, "place_id":"y1tus_BQULxmE1J6EA", "woeid":"12635192", "geo_is_family":0, "geo_is_friend":0, "geo_is_contact":0, "geo_is_public":1, "media":"photo", "media_status":"ready"}, {"id":"12952300213", "owner":"27450151@N05", "secret":"2515bde16a", "server":"2875", "farm":3, "title":"Inachis io", "ispublic":1, "isfriend":0, "isfamily":0, "safe":0, "ownername":"Sinkha63", "latitude":45.124649, "longitude":1.723979, "accuracy":"11", "context":0, "place_id":"K71yhbJUVbN6yQw", "woeid":"579780", "geo_is_family":0, "geo_is_friend":0, "geo_is_contact":0, "geo_is_public":1, "media":"photo", "media_status":"ready"}, {"id":"12951289195", "owner":"62815410@N04", "secret":"994a8b7af4", "server":"7355", "farm":8, "title":"the musician's laundry day (brescia, italy)", "ispublic":1, "isfriend":0, "isfamily":0, "safe":1, "ownername":"bloodybee", "latitude":45.535678, "longitude":10.23488, "accuracy":"15", "context":0, "place_id":"WO1uGLRWU7u69ps", "woeid":"711410", "geo_is_family":0, "geo_is_friend":0, "geo_is_contact":0, "geo_is_public":1, "media":"photo", "media_status":"ready"}, {"id":"12950987143", "owner":"67353277@N02", "secret":"4f2a96a6cb", "server":"3724", "farm":4, "title":"Sunset and snow - Explore 05.03.2014 - Thank you!", "ispublic":1, "isfriend":0, "isfamily":0, "safe":1, "ownername":"Carolin de Verdier", "latitude":56.031125, "longitude":13.893327, "accuracy":"14", "context":0, "place_id":"NDMbL0dZW7MteKM", "woeid":"899243", "geo_is_family":0, "geo_is_friend":0, "geo_is_contact":0, "geo_is_public":1, "media":"photo", "media_status":"ready"}, {"id":"12950907614", "owner":"58606144@N08", "secret":"1e648f2bcb", "server":"3828", "farm":4, "title":"[Barcelona Hotel W <-> Hotel M]", "ispublic":1, "isfriend":0, "isfamily":0, "safe":0, "ownername":"funky_koala", "latitude":41.385051, "longitude":2.167053, "accuracy":"11", "context":0, "place_id":"p.gvf6dWV7k1Gpg", "woeid":"753692", "geo_is_family":0, "geo_is_friend":0, "geo_is_contact":0, "geo_is_public":1, "media":"photo", "media_status":"ready"}, {"id":"12950266554", "owner":"45577562@N04", "secret":"3f31a9fa92", "server":"7386", "farm":8, "title":"Day 5 - In the woods", "ispublic":1, "isfriend":0, "isfamily":0, "safe":1, "ownername":"Frylund\/Zorglub", "latitude":56.248092, "longitude":10.168238, "accuracy":"16", "context":0, "place_id":"f2Gd1upUV7JGmLs", "woeid":"558246", "geo_is_family":0, "geo_is_friend":0, "geo_is_contact":0, "geo_is_public":1, "media":"photo", "media_status":"ready"}, {"id":"12949911043", "owner":"100063725@N06", "secret":"725d93bca6", "server":"3674", "farm":4, "title":"Nube sobre el puerto", "ispublic":1, "isfriend":0, "isfamily":0, "safe":1, "ownername":"Antonio Chac", "latitude":36.507005, "longitude":-4.872651, "accuracy":"16", "context":0, "place_id":"b6ANCk5WVLwQivI", "woeid":"766537", "geo_is_family":0, "geo_is_friend":0, "geo_is_contact":0, "geo_is_public":1, "media":"photo", "media_status":"ready"}, {"id":"12949693145", "owner":"65741821@N02", "secret":"f7e22d43bd", "server":"2820", "farm":3, "title":"Stowe House (Explored)", "ispublic":1, "isfriend":0, "isfamily":0, "safe":1, "ownername":"Jicardee29", "latitude":52.030946, "longitude":-1.033401, "accuracy":"11", "context":0, "place_id":"Oi1d3X1TWrIMYxmKHA", "woeid":"28835361", "geo_is_family":0, "geo_is_friend":0, "geo_is_contact":0, "geo_is_public":1, "media":"photo", "media_status":"ready"}, {"id":"12948769143", "owner":"94435348@N08", "secret":"164a5c12bb", "server":"7400", "farm":8, "title":"Morning Glory..(Explored)", "ispublic":1, "isfriend":0, "isfamily":0, "safe":1, "ownername":"AshleyHemsley2013", "latitude":50.86684, "longitude":0.2585, "accuracy":"11", "context":0, "place_id":"B3L07e1TULuC5g", "woeid":"22137", "geo_is_family":0, "geo_is_friend":0, "geo_is_contact":0, "geo_is_public":1, "media":"photo", "media_status":"ready"}]}, "stat":"ok"}