{"photos":{"page":51,"pages":26696,"perpage":60,"total":"1601717","photo":[{"id":"14094883004","owner":"57809130@N02","secret":"d64106272f","server":"2933","farm":3,"title":"Scanno: Vivi Il Costume 2014 [DSC_0255]","ispublic":1,"isfriend":0,"isfamily":0,"safe":0,"ownername":"\u0131\u0183\u0183\u01ddd\u026f\u0250C\u0131\u028coBo\u0131\u0183\u0279\u01ddS_FotoGrafoDiLettante","latitude":41.900199,"longitude":13.883819,"accuracy":"11","context":0,"place_id":"0T1bwNZWULktaz8","woeid":"723852","geo_is_family":0,"geo_is_friend":0,"geo_is_contact":0,"geo_is_public":1,"media":"photo","media_status":"ready"},{"id":"14092456295","owner":"85178107@N08","secret":"c01ec285a8","server":"2910","farm":3,"title":"Hove beach, Trom\u00f8y - Arendal","ispublic":1,"isfriend":0,"isfamily":0,"safe":0,"ownername":"\u00d8yvind Bjerkholt (Thanks for 2,4 million+ views)","latitude":58.433088,"longitude":8.822708,"accuracy":"14","context":0,"place_id":"dfNlcu5ZVL8Hj90","woeid":"865152","geo_is_family":0,"geo_is_friend":0,"geo_is_contact":0,"geo_is_public":1,"media":"photo","media_status":"ready"},{"id":"14088576461","owner":"90451570@N07","secret":"c6752f1945","server":"5552","farm":6,"title":"Moonrise over Harbourside","ispublic":1,"isfriend":0,"isfamily":0,"safe":0,"ownername":"CarolynEaton","latitude":51.45071,"longitude":-2.610915,"accuracy":"16","context":0,"place_id":"8O0YV51QVLkRgA","woeid":"16330","geo_is_family":0,"geo_is_friend":0,"geo_is_contact":0,"geo_is_public":1,"media":"photo","media_status":"ready"},{"id":"13905158898","owner":"85178107@N08","secret":"1f3ae24420","server":"2917","farm":3,"title":"Sunset as seen from the tip of Hove, Trom\u00f8ya - Arendal","ispublic":1,"isfriend":0,"isfamily":0,"safe":0,"ownername":"\u00d8yvind Bjerkholt (Thanks for 2,4 million+ views)","latitude":58.431874,"longitude":8.826227,"accuracy":"14","context":0,"place_id":"dfNlcu5ZVL8Hj90","woeid":"865152","geo_is_family":0,"geo_is_friend":0,"geo_is_contact":0,"geo_is_public":1,"media":"photo","media_status":"ready"},{"id":"14111311503","owner":"68404761@N05","secret":"0f562ba95c","server":"2921","farm":3,"title":"Un pajarito. (Explore)","ispublic":1,"isfriend":0,"isfamily":0,"safe":0,"ownername":"Juan J Martinez","latitude":36.094747,"longitude":-5.443639,"accuracy":"14","context":0,"place_id":"Xhct.L1TUrgTpBBU2Q","woeid":"20223173","geo_is_family":0,"geo_is_friend":0,"geo_is_contact":0,"geo_is_public":1,"media":"photo","media_status":"ready"},{"id":"13902812850","owner":"42345335@N08","secret":"3da0f64eda","server":"2905","farm":3,"title":"These trousers are a bit tight!!! ;)","ispublic":1,"isfriend":0,"isfamily":0,"safe":0,"ownername":"EvilEyeGoshawk","latitude":56.156198,"longitude":-4.178549,"accuracy":"16","context":0,"place_id":"5R52qsZSVbkI8Q","woeid":"37340","geo_is_family":0,"geo_is_friend":0,"geo_is_contact":0,"geo_is_public":1,"media":"photo","media_status":"ready"},{"id":"13901844358","owner":"87590381@N04","secret":"e7fc6bb2cb","server":"7398","farm":8,"title":"94","ispublic":1,"isfriend":0,"isfamily":0,"safe":0,"ownername":"Daniel Michael Hammelstein","latitude":50.625778,"longitude":6.95237,"accuracy":"11","context":0,"place_id":"Fj8gOkNXWrLu9Ho","woeid":"688305","geo_is_family":0,"geo_is_friend":0,"geo_is_contact":0,"geo_is_public":1,"media":"photo","media_status":"ready"},{"id":"13901702800","owner":"13426843@N08","secret":"9cfc9efdfb","server":"7323","farm":8,"title":"Glory Times","ispublic":1,"isfriend":0,"isfamily":0,"safe":0,"ownername":"Rutger Blom","latitude":55.703392,"longitude":13.203396,"accuracy":"16","context":0,"place_id":"5EcsB2hZW73YErQ","woeid":"897819","geo_is_family":0,"geo_is_friend":0,"geo_is_contact":0,"geo_is_public":1,"media":"photo","media_status":"ready"},{"id":"13901018387","owner":"9939547@N08","secret":"859d8975b8","server":"7342","farm":8,"title":"IMG_4491","ispublic":1,"isfriend":0,"isfamily":0,"safe":0,"ownername":"jimbonzo079","latitude":46.150634,"longitude":-1.226909,"accuracy":"15","context":0,"place_id":"S8eHpD1XU7MFFBs","woeid":"619562","geo_is_family":0,"geo_is_friend":0,"geo_is_contact":0,"geo_is_public":1,"media":"photo","media_status":"ready"},{"id":"13900831138","owner":"67833313@N08","secret":"ecc65dc660","server":"2927","farm":3,"title":"the sad song of the blue fishingboat...","ispublic":1,"isfriend":0,"isfamily":0,"safe":0,"ownername":"Dimitra Kirgiannaki \u266a\u00b8.\u2022*\u00b4spring-lover \u00a8\u00b4","latitude":38.078455,"longitude":23.994518,"accuracy":"11","context":0,"place_id":"VOsDfZpYV71488U","woeid":"957953","geo_is_family":0,"geo_is_friend":0,"geo_is_contact":0,"geo_is_public":1,"media":"photo","media_status":"ready"},{"id":"14084679734","owner":"53372670@N05","secret":"e6917d9ce1","server":"7371","farm":8,"title":"Ini","ispublic":1,"isfriend":0,"isfamily":0,"safe":0,"ownername":"CSHamilton","latitude":55.864325,"longitude":-4.257438,"accuracy":"15","context":0,"place_id":"qN2GlNNVUbxcsw","woeid":"43621","geo_is_family":0,"geo_is_friend":0,"geo_is_contact":0,"geo_is_public":1,"media":"photo","media_status":"ready"},{"id":"14083048135","owner":"30992106@N07","secret":"36b16055f0","server":"7375","farm":8,"title":"Sonnenuntergang \u00fcber (oder in) der Nordsee","ispublic":1,"isfriend":0,"isfamily":0,"safe":0,"ownername":"J\u00f6rgenshaus","latitude":51.500929,"longitude":3.478224,"accuracy":"16","context":0,"place_id":"BDlWLuJWUb_iQXg","woeid":"735097","geo_is_family":0,"geo_is_friend":0,"geo_is_contact":0,"geo_is_public":1,"media":"photo","media_status":"ready"},{"id":"14079121892","owner":"48518396@N08","secret":"ae218e8f42","server":"7298","farm":8,"title":"\u0645\u0645\u0644\u0643\u0629 \u0627\u0644\u0628\u062d\u0631\u064a\u0646 Boeing 747SP A9C-HAK  Bahrain Royal Flight","ispublic":1,"isfriend":0,"isfamily":0,"safe":0,"ownername":"Olivier CABARET","latitude":47.157126,"longitude":-1.60808,"accuracy":"14","context":0,"place_id":"ZcrU8uJQUL_uvKxO2w","woeid":"12512881","geo_is_family":0,"geo_is_friend":0,"geo_is_contact":0,"geo_is_public":1,"media":"photo","media_status":"ready"},{"id":"14058451196","owner":"54816077@N03","secret":"5137b9858c","server":"5544","farm":6,"title":"Puppy on a Rainy Day","ispublic":1,"isfriend":0,"isfamily":0,"safe":0,"ownername":"Thousand Word Images by Dustin Abbott","latitude":45.851494,"longitude":-77.202123,"accuracy":"16","context":0,"place_id":"KAOZv3VTUb6vc1Fc","woeid":"2344922","geo_is_family":0,"geo_is_friend":0,"geo_is_contact":0,"geo_is_public":1,"media":"photo","media_status":"ready"},{"id":"13893800527","owner":"32126965@N07","secret":"ff09c9981e","server":"5548","farm":6,"title":"Grimsby Church ..","ispublic":1,"isfriend":0,"isfamily":0,"safe":0,"ownername":"* Janets Photos*","latitude":53.566872,"longitude":-0.092611,"accuracy":"13","context":0,"place_id":"Pixzi0ZTU7KzCA","woeid":"21896","geo_is_family":0,"geo_is_friend":0,"geo_is_contact":0,"geo_is_public":1,"media":"photo","media_status":"ready"},{"id":"13893687117","owner":"16874065@N00","secret":"bed3bd582e","server":"7395","farm":8,"title":"228venise-n&b","ispublic":1,"isfriend":0,"isfamily":0,"safe":0,"ownername":"R E M I B R I D O T","latitude":45.428597,"longitude":12.356547,"accuracy":"16","context":0,"place_id":"AvFeNkBTULwVHOYOMg","woeid":"22656587","geo_is_family":0,"geo_is_friend":0,"geo_is_contact":0,"geo_is_public":1,"media":"photo","media_status":"ready"},{"id":"14076635052","owner":"60423624@N05","secret":"3278ef02d2","server":"5499","farm":6,"title":"Weststrand","ispublic":1,"isfriend":0,"isfamily":0,"safe":0,"ownername":"dubdream","latitude":54.388954,"longitude":11.091384,"accuracy":"11","context":0,"place_id":"N9xLxhRXV772ZDI","woeid":"654915","geo_is_family":0,"geo_is_friend":0,"geo_is_contact":0,"geo_is_public":1,"media":"photo","media_status":"ready"},{"id":"13892952027","owner":"44161305@N02","secret":"04ec768fb0","server":"7439","farm":8,"title":"001 May 1, 2014, Labor Day in Sicily, Sciacca","ispublic":1,"isfriend":0,"isfamily":0,"safe":0,"ownername":"tango-","latitude":37.508057,"longitude":13.077421,"accuracy":"14","context":0,"place_id":"RXkhnPhWULlZY5k","woeid":"723897","geo_is_family":0,"geo_is_friend":0,"geo_is_contact":0,"geo_is_public":1,"media":"photo","media_status":"ready"},{"id":"14073424571","owner":"89836309@N02","secret":"a66097f5da","server":"7404","farm":8,"title":"Tidal Causeway","ispublic":1,"isfriend":0,"isfamily":0,"safe":0,"ownername":"Earth Guardian Angel","latitude":55.679178,"longitude":-1.866239,"accuracy":"16","context":0,"place_id":"sNNfneJQULvWbQ","woeid":"12142","geo_is_family":0,"geo_is_friend":0,"geo_is_contact":0,"geo_is_public":1,"media":"photo","media_status":"ready"},{"id":"14075659485","owner":"82375888@N00","secret":"a5e6966e7b","server":"5510","farm":6,"title":"S\u00f3lheimaj\u00f6kull glacier exploration","ispublic":1,"isfriend":0,"isfamily":0,"safe":0,"ownername":"Johannes Huwe","latitude":63.511905,"longitude":-19.284708,"accuracy":"16","context":0,"place_id":"g.DvBdxTUb6KR0Va","woeid":"2345709","geo_is_family":0,"geo_is_friend":0,"geo_is_contact":0,"geo_is_public":1,"media":"photo","media_status":"ready"},{"id":"14071912621","owner":"44962378@N08","secret":"8e79b2ccdd","server":"7402","farm":8,"title":"Cheese!","ispublic":1,"isfriend":0,"isfamily":0,"safe":0,"ownername":"FilippoMarchi\uf8ff\uf8ff\uf8ff","latitude":41.385047,"longitude":2.180902,"accuracy":"16","context":0,"place_id":"uwgaZH9WV7kYBCo","woeid":"753693","geo_is_family":0,"geo_is_friend":0,"geo_is_contact":0,"geo_is_public":1,"media":"photo","media_status":"ready"},{"id":"14051977776","owner":"7132158@N07","secret":"cab4301f8b","server":"5454","farm":6,"title":"Only dead fish go with the flow","ispublic":1,"isfriend":0,"isfamily":0,"safe":0,"ownername":"Rui Almeida.","latitude":39.241261,"longitude":-9.34297,"accuracy":"16","context":0,"place_id":"E7ygRyFWVrgJMQQ","woeid":"742841","geo_is_family":0,"geo_is_friend":0,"geo_is_contact":0,"geo_is_public":1,"media":"photo","media_status":"ready"},{"id":"14075462864","owner":"50115085@N08","secret":"4c20c545cc","server":"2904","farm":3,"title":"Tranquility","ispublic":1,"isfriend":0,"isfamily":0,"safe":0,"ownername":"Varvara_R","latitude":44.95177,"longitude":35.246415,"accuracy":"14","context":0,"place_id":"Sn8tvwdYUbrF8lQ","woeid":"930924","geo_is_family":0,"geo_is_friend":0,"geo_is_contact":0,"geo_is_public":1,"media":"photo","media_status":"ready"},{"id":"14074004354","owner":"22543235@N05","secret":"824150f4df","server":"7348","farm":8,"title":"Corcomroe Remnants","ispublic":1,"isfriend":0,"isfamily":0,"safe":0,"ownername":"Gareth Wray Photography -Thanks = 1.5 Million Hits","latitude":53.113656,"longitude":-9.155731,"accuracy":"13","context":0,"place_id":"jpcDOWFUV7Nr6HY","woeid":"559830","geo_is_family":0,"geo_is_friend":0,"geo_is_contact":0,"geo_is_public":1,"media":"photo","media_status":"ready"},{"id":"14073502735","owner":"26418845@N08","secret":"38081a918c","server":"7037","farm":8,"title":"\"Vanishing Point\" rape","ispublic":1,"isfriend":0,"isfamily":0,"safe":0,"ownername":"KF-Photo","latitude":48.546508,"longitude":9.134706,"accuracy":"16","context":0,"place_id":"PezskHJXWr5AUMo","woeid":"684957","geo_is_family":0,"geo_is_friend":0,"geo_is_contact":0,"geo_is_public":1,"media":"photo","media_status":"ready"},{"id":"14070074832","owner":"33660572@N02","secret":"5bec4697bf","server":"2938","farm":3,"title":"P\u00ebuples du monde: les Amhara d'Ethiopie.","ispublic":1,"isfriend":0,"isfamily":0,"safe":0,"ownername":"claude gourlay","latitude":12.008959,"longitude":38.909961,"accuracy":"11","context":0,"place_id":"ORWCe3FQUbsyn2qe","woeid":"1318294","geo_is_family":0,"geo_is_friend":0,"geo_is_contact":0,"geo_is_public":1,"media":"photo","media_status":"ready"},{"id":"13885977727","owner":"7501678@N03","secret":"1d63a36120","server":"7360","farm":8,"title":"Topsham, Exeter, Devon [Explored]","ispublic":1,"isfriend":0,"isfamily":0,"safe":0,"ownername":"photphobia","latitude":50.687486,"longitude":-3.468847,"accuracy":"13","context":0,"place_id":"WouDJuxSVb0UKw","woeid":"37789","geo_is_family":0,"geo_is_friend":0,"geo_is_contact":0,"geo_is_public":1,"media":"photo","media_status":"ready"},{"id":"13885630089","owner":"82904757@N08","secret":"2a603e11b2","server":"5499","farm":6,"title":"Handbags ...","ispublic":1,"isfriend":0,"isfamily":0,"safe":0,"ownername":"vmanseventy","latitude":55.953332,"longitude":-3.201999,"accuracy":"13","context":0,"place_id":"J6EKC.RTUrrhMkK4IA","woeid":"20094247","geo_is_family":0,"geo_is_friend":0,"geo_is_contact":0,"geo_is_public":1,"media":"photo","media_status":"ready"},{"id":"13884904379","owner":"96844815@N03","secret":"f51ee1c510","server":"5095","farm":6,"title":"The Leaning Post","ispublic":1,"isfriend":0,"isfamily":0,"safe":0,"ownername":"LKB Photographic","latitude":55.862307,"longitude":-4.253339,"accuracy":"16","context":0,"place_id":"qN2GlNNVUbxcsw","woeid":"43621","geo_is_family":0,"geo_is_friend":0,"geo_is_contact":0,"geo_is_public":1,"media":"photo","media_status":"ready"},{"id":"14045893796","owner":"25738602@N03","secret":"2259097dc9","server":"7334","farm":8,"title":"navigando dolcemente  sulle stelline , sotto il cielo ventoso ...  ( explore , grazie !!!! )","ispublic":1,"isfriend":0,"isfamily":0,"safe":0,"ownername":"Preziosa 1 \/ Gabriella","latitude":44.348404,"longitude":9.236769,"accuracy":"16","context":0,"place_id":"lQPe4KxWULsOgFA","woeid":"721511","geo_is_family":0,"geo_is_friend":0,"geo_is_contact":0,"geo_is_public":1,"media":"photo","media_status":"ready"},{"id":"14064785891","owner":"62664577@N02","secret":"b9971f4e97","server":"7205","farm":8,"title":"Buachaille Etive M\u00f2r, Rannoch Moor","ispublic":1,"isfriend":0,"isfamily":0,"safe":0,"ownername":"cidaborn","latitude":56.657264,"longitude":-4.861106,"accuracy":"13","context":0,"place_id":"E8jo_hdTV7uMww","woeid":"25160","geo_is_family":0,"geo_is_friend":0,"geo_is_contact":0,"geo_is_public":1,"media":"photo","media_status":"ready"},{"id":"14063924591","owner":"13000946@N05","secret":"d641445e63","server":"7441","farm":8,"title":"MAGHREB  ON  ALGIERS","ispublic":1,"isfriend":0,"isfamily":0,"safe":0,"ownername":"OMAR-DZ","latitude":36.772167,"longitude":3.067588,"accuracy":"11","context":0,"place_id":"6Y7JxcFQUL9b5tiK","woeid":"1253079","geo_is_family":0,"geo_is_friend":0,"geo_is_contact":0,"geo_is_public":1,"media":"photo","media_status":"ready"},{"id":"14064851945","owner":"82375888@N00","secret":"f75dcafd37","server":"7204","farm":8,"title":"Iceland roadtrip","ispublic":1,"isfriend":0,"isfamily":0,"safe":0,"ownername":"Johannes Huwe","latitude":64.165713,"longitude":-15.935668,"accuracy":"9","context":0,"place_id":"eqCgMBdYWrpsnGw","woeid":"980270","geo_is_family":0,"geo_is_friend":0,"geo_is_contact":0,"geo_is_public":1,"media":"photo","media_status":"ready"},{"id":"14041518486","owner":"53247049@N07","secret":"6bc86bef1c","server":"7349","farm":8,"title":"TOUCAN BARBET Semnornis ramphastinus near Mindo in ECUADOR. Barbet Photo by Peter Wendelken.","ispublic":1,"isfriend":0,"isfamily":0,"safe":0,"ownername":"Neotropical Pete","latitude":-0.020256,"longitude":-78.763689,"accuracy":"15","context":0,"place_id":"6GbmDgRSVbxC0M0","woeid":"376133","geo_is_family":0,"geo_is_friend":0,"geo_is_contact":0,"geo_is_public":1,"media":"photo","media_status":"ready"},{"id":"14060057981","owner":"47227085@N07","secret":"3a9351aac1","server":"5247","farm":6,"title":"Medusas","ispublic":1,"isfriend":0,"isfamily":0,"safe":0,"ownername":"Andrea Borx","latitude":44.244676,"longitude":12.368974,"accuracy":"13","context":0,"place_id":"MhEtk9ZWULrkP3U","woeid":"720587","geo_is_family":0,"geo_is_friend":0,"geo_is_contact":0,"geo_is_public":1,"media":"photo","media_status":"ready"},{"id":"14062392375","owner":"60913863@N08","secret":"edec8bf019","server":"5519","farm":6,"title":"Castello di Pompeano (Pompeano Castle)","ispublic":1,"isfriend":0,"isfamily":0,"safe":0,"ownername":"Goethe58","latitude":44.399528,"longitude":10.758619,"accuracy":"16","context":0,"place_id":"yYa1I41WUL5F_oo","woeid":"724090","geo_is_family":0,"geo_is_friend":0,"geo_is_contact":0,"geo_is_public":1,"media":"photo","media_status":"ready"},{"id":"14082404863","owner":"100738664@N05","secret":"ba66f2ac2e","server":"7042","farm":8,"title":"Verso sera .... Night view--------","ispublic":1,"isfriend":0,"isfamily":0,"safe":0,"ownername":"IVAN 63","latitude":43.919689,"longitude":10.202114,"accuracy":"16","context":0,"place_id":"mUuvVEJWU72iMQs","woeid":"717919","geo_is_family":0,"geo_is_friend":0,"geo_is_contact":0,"geo_is_public":1,"media":"photo","media_status":"ready"},{"id":"14058643161","owner":"34256037@N00","secret":"97ccc7ec34","server":"5231","farm":6,"title":"De Esch","ispublic":1,"isfriend":0,"isfamily":0,"safe":0,"ownername":"Bart van Damme","latitude":51.909834,"longitude":4.522054,"accuracy":"14","context":0,"place_id":"7TNmGcBTUrrBEnj36g","woeid":"20063973","geo_is_family":0,"geo_is_friend":0,"geo_is_contact":0,"geo_is_public":1,"media":"photo","media_status":"ready"},{"id":"14061982474","owner":"76805638@N07","secret":"2612907c89","server":"2936","farm":3,"title":"inbetween","ispublic":1,"isfriend":0,"isfamily":0,"safe":0,"ownername":"Sergey S Ponomarev","latitude":58.635684,"longitude":49.723691,"accuracy":"14","context":0,"place_id":"TNFhWbJTUb60weqf","woeid":"2346902","geo_is_family":0,"geo_is_friend":0,"geo_is_contact":0,"geo_is_public":1,"media":"photo","media_status":"ready"},{"id":"14061270185","owner":"96898796@N02","secret":"1af16c0a2a","server":"7192","farm":8,"title":"stillness","ispublic":1,"isfriend":0,"isfamily":0,"safe":0,"ownername":"degghi","latitude":46.369436,"longitude":10.671758,"accuracy":"16","context":0,"place_id":"gwIdfAxWULqacv8","woeid":"720100","geo_is_family":0,"geo_is_friend":0,"geo_is_contact":0,"geo_is_public":1,"media":"photo","media_status":"ready"},{"id":"14061367014","owner":"42345335@N08","secret":"f5d6dc4541","server":"5242","farm":6,"title":"Hawthorn Shieldbug","ispublic":1,"isfriend":0,"isfamily":0,"safe":0,"ownername":"EvilEyeGoshawk","latitude":56.107278,"longitude":-3.978509,"accuracy":"15","context":0,"place_id":"OTggGT5SVLvPyA","woeid":"36135","geo_is_family":0,"geo_is_friend":0,"geo_is_contact":0,"geo_is_public":1,"media":"photo","media_status":"ready"},{"id":"14060113214","owner":"116261672@N04","secret":"ae81831663","server":"2919","farm":3,"title":"The man on his path","ispublic":1,"isfriend":0,"isfamily":0,"safe":0,"ownername":"\u00aeCarpe Diem","latitude":41.078348,"longitude":29.010901,"accuracy":"14","context":0,"place_id":"XA85EXZUV7ILoMqh1g","woeid":"55870825","geo_is_family":0,"geo_is_friend":0,"geo_is_contact":0,"geo_is_public":1,"media":"photo","media_status":"ready"},{"id":"14078359553","owner":"62448022@N00","secret":"c46125c6da","server":"2921","farm":3,"title":"White Ribbon","ispublic":1,"isfriend":0,"isfamily":0,"safe":0,"ownername":"Aerial Photography","latitude":48.826311,"longitude":11.824872,"accuracy":"16","context":0,"place_id":"brNPwxRXUbm4T0g","woeid":"633212","geo_is_family":0,"geo_is_friend":0,"geo_is_contact":0,"geo_is_public":1,"media":"photo","media_status":"ready"},{"id":"14075938973","owner":"96037254@N00","secret":"0a5ffbae51","server":"5041","farm":6,"title":"Dimensions","ispublic":1,"isfriend":0,"isfamily":0,"safe":0,"ownername":"ep_jhu","latitude":38.891297,"longitude":-77.017359,"accuracy":"16","context":0,"place_id":"TWj9L_JTUbM.QM7L","woeid":"2395538","geo_is_family":0,"geo_is_friend":0,"geo_is_contact":0,"geo_is_public":1,"media":"photo","media_status":"ready"},{"id":"14054316874","owner":"14279081@N08","secret":"aae46e81f5","server":"5094","farm":6,"title":"iphoneography","ispublic":1,"isfriend":0,"isfamily":0,"safe":0,"ownername":"\u039eSS\u039e\u00ae\u00ae\u039e","latitude":41.962585,"longitude":12.805037,"accuracy":"15","context":0,"place_id":"j5hnx3dWUL4ZYOM","woeid":"724931","geo_is_family":0,"geo_is_friend":0,"geo_is_contact":0,"geo_is_public":1,"media":"photo","media_status":"ready"},{"id":"14072792643","owner":"91306687@N04","secret":"f18df2bb2f","server":"5330","farm":6,"title":"Miriam (DSC_7250)","ispublic":1,"isfriend":0,"isfamily":0,"safe":1,"ownername":"marccolilla","latitude":41.115928,"longitude":1.256433,"accuracy":"16","context":0,"place_id":".MHbJwBWVb88fNw","woeid":"775246","geo_is_family":0,"geo_is_friend":0,"geo_is_contact":0,"geo_is_public":1,"media":"photo","media_status":"ready"},{"id":"14070246663","owner":"9730602@N07","secret":"dc2cb74da7","server":"2939","farm":3,"title":"London cormorant [Explored - 29 Apr 14]","ispublic":1,"isfriend":0,"isfamily":0,"safe":0,"ownername":"Andy Wasley","latitude":51.510769,"longitude":-0.113464,"accuracy":"16","context":0,"place_id":"jy4nJpJTUrqO2uKrkQ","woeid":"20094354","geo_is_family":0,"geo_is_friend":0,"geo_is_contact":0,"geo_is_public":1,"media":"photo","media_status":"ready"},{"id":"14067637543","owner":"70138263@N07","secret":"cbf2044471","server":"5220","farm":6,"title":"Flower","ispublic":1,"isfriend":0,"isfamily":0,"safe":0,"ownername":"kostybit","latitude":43.296081,"longitude":-2.249901,"accuracy":"16","context":0,"place_id":"3T0dkPdWVbMKDUc","woeid":"779177","geo_is_family":0,"geo_is_friend":0,"geo_is_contact":0,"geo_is_public":1,"media":"photo","media_status":"ready"},{"id":"14038682372","owner":"96404105@N08","secret":"8081924017","server":"2935","farm":3,"title":"000056UA-F Jagsthausen","ispublic":1,"isfriend":0,"isfamily":0,"safe":0,"ownername":"Impressionen-Digital","latitude":49.309528,"longitude":9.469169,"accuracy":"11","context":0,"place_id":"cQ2ldzxXVLmIA2U","woeid":"663893","geo_is_family":0,"geo_is_friend":0,"geo_is_contact":0,"geo_is_public":1,"media":"photo","media_status":"ready"},{"id":"14038257724","owner":"38337348@N06","secret":"f5abeb95af","server":"7405","farm":8,"title":"A windy place","ispublic":1,"isfriend":0,"isfamily":0,"safe":0,"ownername":"Passie13(Ines van Megen-Thijssen)","latitude":51.977479,"longitude":4.064941,"accuracy":"11","context":0,"place_id":"sYGpdP1QV7oultVSWw","woeid":"15021017","geo_is_family":0,"geo_is_friend":0,"geo_is_contact":0,"geo_is_public":1,"media":"photo","media_status":"ready"},{"id":"14032345481","owner":"95011179@N08","secret":"2dcd6936d2","server":"7241","farm":8,"title":"Enchantment","ispublic":1,"isfriend":0,"isfamily":0,"safe":0,"ownername":"__MaRiNa__","latitude":42.042408,"longitude":2.418365,"accuracy":"11","context":0,"place_id":"FYmUYhFTUrgWVoHmDw","woeid":"20221273","geo_is_family":0,"geo_is_friend":0,"geo_is_contact":0,"geo_is_public":1,"media":"photo","media_status":"ready"},{"id":"14052030983","owner":"95276574@N05","secret":"4a22b525cf","server":"2918","farm":3,"title":"Lock Stock & Barrel","ispublic":1,"isfriend":0,"isfamily":0,"safe":0,"ownername":"Jeffrey De Keyser","latitude":48.857727,"longitude":2.337448,"accuracy":"15","context":0,"place_id":"36CFHdZUV7KNOKK4LQ","woeid":"55843752","geo_is_family":0,"geo_is_friend":0,"geo_is_contact":0,"geo_is_public":1,"media":"photo","media_status":"ready"},{"id":"14028806642","owner":"26429763@N08","secret":"37c9ebd3ab","server":"7232","farm":8,"title":"Aprilia RS4-50 Max Biaggi Replica","ispublic":1,"isfriend":0,"isfamily":0,"safe":0,"ownername":"Born in The 40's.. Explored again!","latitude":50.711983,"longitude":-1.986068,"accuracy":"16","context":0,"place_id":"aoldIMxSULkIcQ","woeid":"32326","geo_is_family":0,"geo_is_friend":0,"geo_is_contact":0,"geo_is_public":1,"media":"photo","media_status":"ready"},{"id":"14006798276","owner":"90378082@N07","secret":"bdf2b102df","server":"5218","farm":6,"title":"Take it with a pinch of salt.","ispublic":1,"isfriend":0,"isfamily":0,"safe":0,"ownername":"Baz 120","latitude":41.911108,"longitude":12.47637,"accuracy":"15","context":0,"place_id":"62ufGyBUUb26u2g","woeid":"537842","geo_is_family":0,"geo_is_friend":0,"geo_is_contact":0,"geo_is_public":1,"media":"photo","media_status":"ready"},{"id":"14026565582","owner":"75972341@N04","secret":"f39599a33f","server":"5218","farm":6,"title":"street talk","ispublic":1,"isfriend":0,"isfamily":0,"safe":0,"ownername":"Gerard Koopen","latitude":31.625613,"longitude":-7.982661,"accuracy":"15","context":0,"place_id":"BB5YC1tQV7m3SIVd","woeid":"1537782","geo_is_family":0,"geo_is_friend":0,"geo_is_contact":0,"geo_is_public":1,"media":"photo","media_status":"ready"},{"id":"14025457361","owner":"42014801@N04","secret":"38616e1720","server":"7368","farm":8,"title":"'Do want! Do want! Do want !! ' \/ \"Gib her! Gib her! Gib her!! \"","ispublic":1,"isfriend":0,"isfamily":0,"safe":0,"ownername":"Caledoniafan","latitude":50.627672,"longitude":12.442917,"accuracy":"16","context":0,"place_id":"xrcl3ElXVLqN4wY","woeid":"660374","geo_is_family":0,"geo_is_friend":0,"geo_is_contact":0,"geo_is_public":1,"media":"photo","media_status":"ready"},{"id":"14002976546","owner":"60527064@N00","secret":"52d443889b","server":"7027","farm":8,"title":"Scooter row, Rue Peel","ispublic":1,"isfriend":0,"isfamily":0,"safe":0,"ownername":"Eric Flexyourhead","latitude":45.501459,"longitude":-73.575986,"accuracy":"16","context":0,"place_id":"VMbMMUFTVLlG4aWz_Q","woeid":"26332799","geo_is_family":0,"geo_is_friend":0,"geo_is_contact":0,"geo_is_public":1,"media":"photo","media_status":"ready"},{"id":"14022508271","owner":"96404105@N08","secret":"00f07797c2","server":"2934","farm":3,"title":"Schw\u00e4bisch-Hall 2 (Farbe)","ispublic":1,"isfriend":0,"isfamily":0,"safe":0,"ownername":"Impressionen-Digital","latitude":49.113311,"longitude":9.746049,"accuracy":"11","context":0,"place_id":"bs8d07BXW7kCZwM","woeid":"693472","geo_is_family":0,"geo_is_friend":0,"geo_is_contact":0,"geo_is_public":1,"media":"photo","media_status":"ready"},{"id":"14023412214","owner":"11397477@N05","secret":"94c1a3ab20","server":"2919","farm":3,"title":"home sweet home -explore-","ispublic":1,"isfriend":0,"isfamily":0,"safe":0,"ownername":"archifra -francesco de vincenzi-","latitude":41.552943,"longitude":14.525899,"accuracy":"15","context":0,"place_id":"JYrgLsFWU7jwo5E","woeid":"712783","geo_is_family":0,"geo_is_friend":0,"geo_is_contact":0,"geo_is_public":1,"media":"photo","media_status":"ready"},{"id":"13892668930","owner":"90378082@N07","secret":"4c29413201","server":"7429","farm":8,"title":"Eyes wide shut","ispublic":1,"isfriend":0,"isfamily":0,"safe":0,"ownername":"Baz 120","latitude":41.893764,"longitude":12.477464,"accuracy":"15","context":0,"place_id":"FphPyURWU7ux6h4","woeid":"711883","geo_is_family":0,"geo_is_friend":0,"geo_is_contact":0,"geo_is_public":1,"media":"photo","media_status":"ready"}]},"stat":"ok"}