{"photos":{"page":21,"pages":26131,"perpage":60,"total":"1567809","photo":[{"id":"7430863876","owner":"45115614@N05","secret":"9944a8a02f","server":"7128","farm":8,"title":"Le Pont d'Arcole. PARIS","ispublic":1,"isfriend":0,"isfamily":0,"safe":1,"ownername":"R.G. Photographe","latitude":48.855383,"longitude":2.350537,"accuracy":"16","context":0,"place_id":"l6ezWo1UV7J685f0sQ","woeid":"55843761","geo_is_family":0,"geo_is_friend":0,"geo_is_contact":0,"geo_is_public":1,"media":"photo","media_status":"ready"},{"id":"7408624992","owner":"61674778@N07","secret":"4c388cc8ff","server":"8151","farm":9,"title":"Mari\u00eblle, London 2007: On the green","ispublic":1,"isfriend":0,"isfamily":0,"safe":1,"ownername":"mdiepraam","latitude":51.47871,"longitude":-0.295386,"accuracy":"14","context":0,"place_id":"BfllKmFTVrKOHA","woeid":"24882","geo_is_family":0,"geo_is_friend":0,"geo_is_contact":0,"geo_is_public":1,"media":"photo","media_status":"ready"},{"id":"7408624262","owner":"61674778@N07","secret":"7b6eefd314","server":"5464","farm":6,"title":"Mari\u00eblle, London 2007: Sizing up the map","ispublic":1,"isfriend":0,"isfamily":0,"safe":1,"ownername":"mdiepraam","latitude":51.47871,"longitude":-0.295386,"accuracy":"14","context":0,"place_id":"BfllKmFTVrKOHA","woeid":"24882","geo_is_family":0,"geo_is_friend":0,"geo_is_contact":0,"geo_is_public":1,"media":"photo","media_status":"ready"},{"id":"7408623428","owner":"61674778@N07","secret":"fbd9416251","server":"8164","farm":9,"title":"Mari\u00eblle, London 2007: Chuckling with pleasure","ispublic":1,"isfriend":0,"isfamily":0,"safe":1,"ownername":"mdiepraam","latitude":51.47871,"longitude":-0.295386,"accuracy":"14","context":0,"place_id":"BfllKmFTVrKOHA","woeid":"24882","geo_is_family":0,"geo_is_friend":0,"geo_is_contact":0,"geo_is_public":1,"media":"photo","media_status":"ready"},{"id":"7404376390","owner":"36426732@N05","secret":"ef91cc44c7","server":"7224","farm":8,"title":"KId at Notre Dame Montreal","ispublic":1,"isfriend":0,"isfamily":0,"safe":1,"ownername":"ZUCCONY","latitude":45.50465,"longitude":-73.556467,"accuracy":"16","context":0,"place_id":"xwkKkThTVLnn_qYMRA","woeid":"26332783","geo_is_family":0,"geo_is_friend":0,"geo_is_contact":0,"geo_is_public":1,"media":"photo","media_status":"ready"},{"id":"7164765775","owner":"28794527@N00","secret":"39100b9677","server":"7220","farm":8,"title":"Scooter Girl: Re-Edit 2014","ispublic":1,"isfriend":0,"isfamily":0,"safe":0,"ownername":"Burnt Umber","latitude":25.774271,"longitude":-80.190593,"accuracy":"16","context":0,"place_id":"bniHmA9UVLrkYtSopw","woeid":"56019937","geo_is_family":0,"geo_is_friend":0,"geo_is_contact":0,"geo_is_public":1,"media":"photo","media_status":"ready"},{"id":"7266970582","owner":"61674778@N07","secret":"967d2de497","server":"8147","farm":9,"title":"Mari\u00eblle, Elf Fantasy Fair 2010: Away from the crowd (Explored)","ispublic":1,"isfriend":0,"isfamily":0,"safe":1,"ownername":"mdiepraam","latitude":52.122251,"longitude":4.987106,"accuracy":"14","context":0,"place_id":"CoAqOTlWUbsVYnQ","woeid":"731477","geo_is_family":0,"geo_is_friend":0,"geo_is_contact":0,"geo_is_public":1,"media":"photo","media_status":"ready"},{"id":"7247551712","owner":"61674778@N07","secret":"3f4be5490e","server":"7216","farm":8,"title":"Mari\u00eblle, Cotswolds 2011: Surrounded by hair","ispublic":1,"isfriend":0,"isfamily":0,"safe":1,"ownername":"mdiepraam","latitude":51.934105,"longitude":-1.957626,"accuracy":"12","context":0,"place_id":"Gm4BFK1QV7x0Nw","woeid":"15687","geo_is_family":0,"geo_is_friend":0,"geo_is_contact":0,"geo_is_public":1,"media":"photo","media_status":"ready"},{"id":"7239783016","owner":"61674778@N07","secret":"52c1317ede","server":"8152","farm":9,"title":"Mari\u00eblle, Cotswolds 2011: Dressed for summer","ispublic":1,"isfriend":0,"isfamily":0,"safe":1,"ownername":"mdiepraam","latitude":51.934105,"longitude":-1.957626,"accuracy":"12","context":0,"place_id":"Gm4BFK1QV7x0Nw","woeid":"15687","geo_is_family":0,"geo_is_friend":0,"geo_is_contact":0,"geo_is_public":1,"media":"photo","media_status":"ready"},{"id":"7004567348","owner":"25959337@N00","secret":"52039ae777","server":"7054","farm":8,"title":"South view from Molde","ispublic":1,"isfriend":0,"isfamily":0,"safe":0,"ownername":"Martin Ystenes - celebrating 5 million views","latitude":62.73633,"longitude":7.172355,"accuracy":"11","context":0,"place_id":"hh56CHZZVLs1jVE","woeid":"861904","geo_is_family":0,"geo_is_friend":0,"geo_is_contact":0,"geo_is_public":1,"media":"photo","media_status":"ready"},{"id":"6999231558","owner":"35895492@N05","secret":"31259427f6","server":"5336","farm":6,"title":"Ponte dei sospiri","ispublic":1,"isfriend":0,"isfamily":0,"safe":1,"ownername":"Z\u00fa S\u00e1nchez","latitude":45.433183,"longitude":12.339727,"accuracy":"15","context":0,"place_id":"UQEdl5BTUrv2TyTgZw","woeid":"20150616","geo_is_family":0,"geo_is_friend":0,"geo_is_contact":0,"geo_is_public":1,"media":"photo","media_status":"ready"},{"id":"7132477819","owner":"26849514@N06","secret":"75db9d7538","server":"7082","farm":8,"title":"Demonstration of some communist diehards on the Red Square, Moscow (Happy May 1st !)","ispublic":1,"isfriend":0,"isfamily":0,"safe":1,"ownername":"Frans.Sellies","latitude":55.753841,"longitude":37.620749,"accuracy":"14","context":0,"place_id":"Gyn7fcFTU7gkY7d5","woeid":"2122265","geo_is_family":0,"geo_is_friend":0,"geo_is_contact":0,"geo_is_public":1,"media":"photo","media_status":"ready"},{"id":"7101865755","owner":"27420180@N08","secret":"7f55fd9395","server":"7180","farm":8,"title":"Just married","ispublic":1,"isfriend":0,"isfamily":0,"safe":1,"ownername":"A.G. Photographe","latitude":48.864068,"longitude":2.313593,"accuracy":"16","context":0,"place_id":"WU8qo85UV7J7dLZuCw","woeid":"55843784","geo_is_family":0,"geo_is_friend":0,"geo_is_contact":0,"geo_is_public":1,"media":"photo","media_status":"ready"},{"id":"6934450574","owner":"61674778@N07","secret":"bb032b15ab","server":"5320","farm":6,"title":"Hanneke, Delft 2012: Elsewhere","ispublic":1,"isfriend":0,"isfamily":0,"safe":0,"ownername":"mdiepraam","latitude":52.011262,"longitude":4.358096,"accuracy":"16","context":0,"place_id":"aiJuZcJWUb72ezE","woeid":"734359","geo_is_family":0,"geo_is_friend":0,"geo_is_contact":0,"geo_is_public":1,"media":"photo","media_status":"ready"},{"id":"6906975390","owner":"49384482@N08","secret":"14ea79377f","server":"5115","farm":6,"title":"Autumn on Lake Annecy","ispublic":1,"isfriend":0,"isfamily":0,"safe":1,"ownername":"bluerockpile","latitude":45.89878,"longitude":6.128829,"accuracy":"11","context":0,"place_id":"17bSoapUVbwVzH8","woeid":"576199","geo_is_family":0,"geo_is_friend":0,"geo_is_contact":0,"geo_is_public":1,"media":"photo","media_status":"ready"},{"id":"6898788770","owner":"69129761@N06","secret":"b9a3231a57","server":"7078","farm":8,"title":"Brin de Muguet 2014","ispublic":1,"isfriend":0,"isfamily":0,"safe":1,"ownername":"Daniel.35690","latitude":48.134754,"longitude":-1.533411,"accuracy":"15","context":0,"place_id":"SqJPkU5UVb9nKbY","woeid":"575391","geo_is_family":0,"geo_is_friend":0,"geo_is_contact":0,"geo_is_public":1,"media":"photo","media_status":"ready"},{"id":"7034370015","owner":"49384482@N08","secret":"2b94d4e10e","server":"7280","farm":8,"title":"The Other Cinema presents: Brief Encounter","ispublic":1,"isfriend":0,"isfamily":0,"safe":0,"ownername":"bluerockpile","latitude":51.51242,"longitude":-0.033089,"accuracy":"13","context":0,"place_id":"mrWBawBTVLij_A","woeid":"26266","geo_is_family":0,"geo_is_friend":0,"geo_is_contact":0,"geo_is_public":1,"media":"photo","media_status":"ready"},{"id":"6802942537","owner":"34726560@N00","secret":"61a26b6aec","server":"7174","farm":8,"title":"Oak leaves and bokeh","ispublic":1,"isfriend":0,"isfamily":0,"safe":0,"ownername":"Steve-h","latitude":53.306204,"longitude":-6.261515,"accuracy":"16","context":0,"place_id":"BGStrtxUVLhC8SQ","woeid":"562509","geo_is_family":0,"geo_is_friend":0,"geo_is_contact":0,"geo_is_public":1,"media":"photo","media_status":"ready"},{"id":"6794330337","owner":"29394931@N06","secret":"98ef5ed2df","server":"7142","farm":8,"title":"8:08 AM - Paris","ispublic":1,"isfriend":0,"isfamily":0,"safe":1,"ownername":"\u2203Scape","latitude":48.861764,"longitude":2.288997,"accuracy":"14","context":0,"place_id":"hytGYNFUV7LeiExhTQ","woeid":"55843834","geo_is_family":0,"geo_is_friend":0,"geo_is_contact":0,"geo_is_public":1,"media":"photo","media_status":"ready"},{"id":"6748954573","owner":"26630527@N02","secret":"ebf4b42fdf","server":"7021","farm":8,"title":"","ispublic":1,"isfriend":0,"isfamily":0,"safe":0,"ownername":"Tachameladoble (juaniv.tumblr.com)","latitude":-32.891231,"longitude":-68.839546,"accuracy":"11","context":0,"place_id":"SBr2AKxSUbik4fo","woeid":"332471","geo_is_family":0,"geo_is_friend":0,"geo_is_contact":0,"geo_is_public":1,"media":"photo","media_status":"ready"},{"id":"6587073331","owner":"47532811@N03","secret":"302e84bf9d","server":"7148","farm":8,"title":"beautiful stamp USA 1st class red rose LOVE u.s. postage United States of America timbre \u00c9tats-Unis \u043f\u043e\u0447\u0442\u043e\u0432\u0430\u044f \u043c\u0430\u0440\u043a\u0430 \u0421\u0428\u0410 pullar ABD \u90ae\u7968 \u7f8e\u56fd M\u011bigu\u00f3 USA Briefmarken \u90f5\u4fbf\u5207\u624b \u5207\u624b \u30a2\u30e1\u30ea\u30ab selo Estados Unidos sello USA francobolli USA Stati Uniti d'America USA 1st class","ispublic":1,"isfriend":0,"isfamily":0,"safe":1,"ownername":"stampolina - thanks to all for sending stamps!! :)","latitude":40.670743,"longitude":-73.914985,"accuracy":"11","context":0,"place_id":".skCPTpTVr.Q3WKW","woeid":"2459115","geo_is_family":0,"geo_is_friend":0,"geo_is_contact":0,"geo_is_public":1,"media":"photo","media_status":"ready"},{"id":"6516638977","owner":"26849514@N06","secret":"8db85b95cc","server":"7154","farm":8,"title":"Interior of the St. John's Co-Cathedral, Valletta (Malta)","ispublic":1,"isfriend":0,"isfamily":0,"safe":1,"ownername":"Frans.Sellies","latitude":35.897632,"longitude":14.512521,"accuracy":"16","context":0,"place_id":"bsljh9dVWrnOmpk","woeid":"483559","geo_is_family":0,"geo_is_friend":0,"geo_is_contact":0,"geo_is_public":1,"media":"photo","media_status":"ready"},{"id":"6491750337","owner":"13249895@N08","secret":"6646c72bb2","server":"7159","farm":8,"title":"IMG 03 Dezembro 2011 [EXPLORE]","ispublic":1,"isfriend":0,"isfamily":0,"safe":1,"ownername":"Tony Borrach","latitude":-22.864534,"longitude":-43.757583,"accuracy":"11","context":0,"place_id":"dHPv7qZVV7xQ_5Q","woeid":"456251","geo_is_family":0,"geo_is_friend":0,"geo_is_contact":0,"geo_is_public":1,"media":"photo","media_status":"ready"},{"id":"6375711715","owner":"29394931@N06","secret":"fa63b796dd","server":"6238","farm":7,"title":"Montmartre, Paris","ispublic":1,"isfriend":0,"isfamily":0,"safe":1,"ownername":"\u2203Scape","latitude":48.888469,"longitude":2.338065,"accuracy":"16","context":0,"place_id":"IFTbeKJUV7LF35bKtA","woeid":"55843852","geo_is_family":0,"geo_is_friend":0,"geo_is_contact":0,"geo_is_public":1,"media":"photo","media_status":"ready"},{"id":"6362830011","owner":"36426732@N05","secret":"c3d15b15a1","server":"6091","farm":7,"title":"Zucatti park NYC","ispublic":1,"isfriend":0,"isfamily":0,"safe":1,"ownername":"ZUCCONY","latitude":40.709332,"longitude":-74.010402,"accuracy":"16","context":0,"place_id":"kOBmim5TUb_CeES9hw","woeid":"23511903","geo_is_family":0,"geo_is_friend":0,"geo_is_contact":0,"geo_is_public":1,"media":"photo","media_status":"ready"},{"id":"6218168732","owner":"26849514@N06","secret":"b3fa7eb961","server":"6153","farm":7,"title":"The Stefanos crater on the island of Nisyros","ispublic":1,"isfriend":0,"isfamily":0,"safe":1,"ownername":"Frans.Sellies","latitude":36.577213,"longitude":27.168846,"accuracy":"16","context":0,"place_id":"scumBeRUVLqsKm2MNg","woeid":"56025082","geo_is_family":0,"geo_is_friend":0,"geo_is_contact":0,"geo_is_public":1,"media":"photo","media_status":"ready"},{"id":"6200282118","owner":"49036575@N02","secret":"f520d7a9e9","server":"6017","farm":7,"title":"Paris, La Pyramide du Louvre","ispublic":1,"isfriend":0,"isfamily":0,"safe":1,"ownername":"Zed The Dragon","latitude":48.861009,"longitude":2.336204,"accuracy":"15","context":0,"place_id":"36CFHdZUV7KNOKK4LQ","woeid":"55843752","geo_is_family":0,"geo_is_friend":0,"geo_is_contact":0,"geo_is_public":1,"media":"photo","media_status":"ready"},{"id":"6187728605","owner":"26849514@N06","secret":"a0698655ed","server":"6169","farm":7,"title":"Old city of Sana'a, capital of Yemen (Unesco world heritage)","ispublic":1,"isfriend":0,"isfamily":0,"safe":1,"ownername":"Frans.Sellies","latitude":15.348424,"longitude":44.205551,"accuracy":"14","context":0,"place_id":"Wz_snsxQW7_b7Z0g","woeid":"1958237","geo_is_family":0,"geo_is_friend":0,"geo_is_contact":0,"geo_is_public":1,"media":"photo","media_status":"ready"},{"id":"6143544757","owner":"7649805@N07","secret":"0fe2f8d863","server":"6063","farm":7,"title":"Misty bark","ispublic":1,"isfriend":0,"isfamily":0,"safe":0,"ownername":"pattoise","latitude":47.406714,"longitude":-0.314826,"accuracy":"10","context":0,"place_id":"fKHiRCpXUL8vScI","woeid":"625792","geo_is_family":0,"geo_is_friend":0,"geo_is_contact":0,"geo_is_public":1,"media":"photo","media_status":"ready"},{"id":"6129580936","owner":"26849514@N06","secret":"7492cc2f2e","server":"6184","farm":7,"title":"A street in Sighisoara, Romania","ispublic":1,"isfriend":0,"isfamily":0,"safe":1,"ownername":"Frans.Sellies","latitude":46.215981,"longitude":24.79052,"accuracy":"14","context":0,"place_id":"DX6djHVZWroVlOo","woeid":"880270","geo_is_family":0,"geo_is_friend":0,"geo_is_contact":0,"geo_is_public":1,"media":"photo","media_status":"ready"},{"id":"6018223150","owner":"7649805@N07","secret":"57a3a5345b","server":"6021","farm":7,"title":"Golden beach","ispublic":1,"isfriend":0,"isfamily":0,"safe":0,"ownername":"pattoise","latitude":50.18833,"longitude":1.624603,"accuracy":"9","context":0,"place_id":"7oSTH6FXUL1sEmk","woeid":"627189","geo_is_family":0,"geo_is_friend":0,"geo_is_contact":0,"geo_is_public":1,"media":"photo","media_status":"ready"},{"id":"5861147041","owner":"27964309@N06","secret":"6a3350201d","server":"3239","farm":4,"title":"Eolie Islands","ispublic":1,"isfriend":0,"isfamily":0,"safe":1,"ownername":"vittorio vida","latitude":38.464778,"longitude":14.95435,"accuracy":"16","context":0,"place_id":"CUhGzO5WU7099bk","woeid":"717329","geo_is_family":0,"geo_is_friend":0,"geo_is_contact":0,"geo_is_public":1,"media":"photo","media_status":"ready"},{"id":"5853737753","owner":"25959337@N00","secret":"022791c833","server":"3178","farm":4,"title":"Valmuer i Trondheim","ispublic":1,"isfriend":0,"isfamily":0,"safe":0,"ownername":"Martin Ystenes - celebrating 5 million views","latitude":63.44153,"longitude":10.408859,"accuracy":"11","context":0,"place_id":".ZIp4z1TUrq0BCrWXA","woeid":"20099939","geo_is_family":0,"geo_is_friend":0,"geo_is_contact":0,"geo_is_public":1,"media":"photo","media_status":"ready"},{"id":"5824317187","owner":"31758759@N07","secret":"409e38813f","server":"3397","farm":4,"title":"Monumento a la Lengua Castellana","ispublic":1,"isfriend":0,"isfamily":0,"safe":0,"ownername":"\u0b90\u2605 UfoSp@in \u2605\u0b90 ( Slow \ufd3e\u0361\u0e4f\u032f\u0361\u0e4f\ufd3f )","latitude":40.961638,"longitude":-5.666198,"accuracy":"16","context":0,"place_id":"S1ti_DhWVbjLtSw","woeid":"772416","geo_is_family":0,"geo_is_friend":0,"geo_is_contact":0,"geo_is_public":1,"media":"photo","media_status":"ready"},{"id":"5790627044","owner":"7649805@N07","secret":"a351d4acc3","server":"3275","farm":4,"title":"Blue eyes","ispublic":1,"isfriend":0,"isfamily":0,"safe":0,"ownername":"pattoise","latitude":47.20091,"longitude":-0.270881,"accuracy":"10","context":0,"place_id":"msJlg0RUWrPXi6w","woeid":"589081","geo_is_family":0,"geo_is_friend":0,"geo_is_contact":0,"geo_is_public":1,"media":"photo","media_status":"ready"},{"id":"5643563603","owner":"25959337@N00","secret":"a8b0292fe3","server":"5181","farm":6,"title":"Tynes og Straumshornet","ispublic":1,"isfriend":0,"isfamily":0,"safe":0,"ownername":"Martin Ystenes - celebrating 5 million views","latitude":62.382412,"longitude":6.551628,"accuracy":"11","context":0,"place_id":"yxxwR8hZVLqCKFM","woeid":"860228","geo_is_family":0,"geo_is_friend":0,"geo_is_contact":0,"geo_is_public":1,"media":"photo","media_status":"ready"},{"id":"5643031972","owner":"29394931@N06","secret":"e996fc9126","server":"5046","farm":6,"title":"Piazza di Spagna, Rome","ispublic":1,"isfriend":0,"isfamily":0,"safe":1,"ownername":"\u2203Scape","latitude":41.905854,"longitude":12.482094,"accuracy":"16","context":0,"place_id":"uijRnjBWULsQTwc","woeid":"721943","geo_is_family":0,"geo_is_friend":0,"geo_is_contact":0,"geo_is_public":1,"media":"photo","media_status":"ready"},{"id":"5592909175","owner":"26849514@N06","secret":"5d2cb1410d","server":"5230","farm":6,"title":"Pamukkale, Turkey","ispublic":1,"isfriend":0,"isfamily":0,"safe":1,"ownername":"Frans.Sellies","latitude":37.920918,"longitude":29.124767,"accuracy":"16","context":0,"place_id":"7QNlepJTUb7zg1UV","woeid":"2347277","geo_is_family":0,"geo_is_friend":0,"geo_is_contact":0,"geo_is_public":1,"media":"photo","media_status":"ready"},{"id":"5592715699","owner":"26849514@N06","secret":"55546797b0","server":"5091","farm":6,"title":"Blue mosque, Istanbul","ispublic":1,"isfriend":0,"isfamily":0,"safe":1,"ownername":"Frans.Sellies","latitude":41.005447,"longitude":28.976708,"accuracy":"16","context":0,"place_id":"gHMOtA5TUL1gH4XVvg","woeid":"22724021","geo_is_family":0,"geo_is_friend":0,"geo_is_contact":0,"geo_is_public":1,"media":"photo","media_status":"ready"},{"id":"5524213806","owner":"26849514@N06","secret":"7855edceb1","server":"5294","farm":6,"title":"Chateau de Chenonceau, France","ispublic":1,"isfriend":0,"isfamily":0,"safe":1,"ownername":"Frans.Sellies","latitude":47.324745,"longitude":1.070158,"accuracy":"16","context":0,"place_id":"yAAW2cVUWr92Ypo","woeid":"585568","geo_is_family":0,"geo_is_friend":0,"geo_is_contact":0,"geo_is_public":1,"media":"photo","media_status":"ready"},{"id":"5329847610","owner":"22388951@N02","secret":"19f30b8181","server":"5244","farm":6,"title":"Acid Queen","ispublic":1,"isfriend":0,"isfamily":0,"safe":1,"ownername":"Raffaele Preti","latitude":44.645818,"longitude":10.924873,"accuracy":"12","context":0,"place_id":"8_AhqnNWU7JeMi4","woeid":"718431","geo_is_family":0,"geo_is_friend":0,"geo_is_contact":0,"geo_is_public":1,"media":"photo","media_status":"ready"},{"id":"5297003660","owner":"26849514@N06","secret":"41249c53d4","server":"5123","farm":6,"title":"Towers of Ushguli, Georgia","ispublic":1,"isfriend":0,"isfamily":0,"safe":1,"ownername":"Frans.Sellies","latitude":42.918406,"longitude":43.012676,"accuracy":"12","context":0,"place_id":"MBrPT0JQW7zEvNn9","woeid":"1962796","geo_is_family":0,"geo_is_friend":0,"geo_is_contact":0,"geo_is_public":1,"media":"photo","media_status":"ready"},{"id":"5245488939","owner":"27112342@N03","secret":"83c617c513","server":"5002","farm":6,"title":"Epicenter of Indian Election VARANASI . The Most Ancient City in the World. lOOKING FOR A GAME CHANGER.","ispublic":1,"isfriend":0,"isfamily":0,"safe":0,"ownername":"Sunciti _ Sundaram's Images + Messages","latitude":25.325543,"longitude":83.036513,"accuracy":"15","context":0,"place_id":"6pK8OyZUV7PZIETjOw","woeid":"55951386","geo_is_family":0,"geo_is_friend":0,"geo_is_contact":0,"geo_is_public":1,"media":"photo","media_status":"ready"},{"id":"5219294740","owner":"26849514@N06","secret":"772e79bf3b","server":"5121","farm":6,"title":"Rainbow over Mestia in Svaneti, Georgia","ispublic":1,"isfriend":0,"isfamily":0,"safe":1,"ownername":"Frans.Sellies","latitude":43.039002,"longitude":42.703685,"accuracy":"14","context":0,"place_id":"i8jBRcJQW7wSNt0G","woeid":"1964570","geo_is_family":0,"geo_is_friend":0,"geo_is_contact":0,"geo_is_public":1,"media":"photo","media_status":"ready"},{"id":"5183079652","owner":"40122107@N07","secret":"4bc5471857","server":"1028","farm":2,"title":"the old quay, brodick, isle of arran, scotland.","ispublic":1,"isfriend":0,"isfamily":0,"safe":1,"ownername":"Bearded iris.","latitude":55.576648,"longitude":-5.147689,"accuracy":"11","context":0,"place_id":"DerIahRQVrpMfg","woeid":"14088","geo_is_family":0,"geo_is_friend":0,"geo_is_contact":0,"geo_is_public":1,"media":"photo","media_status":"ready"},{"id":"5144369436","owner":"26849514@N06","secret":"400c0b812f","server":"1175","farm":2,"title":"Sanahin monastery \/ \u054d\u0561\u0576\u0561\u0570\u056b\u0576 \u057e\u0561\u0576\u0584 (Armenia)","ispublic":1,"isfriend":0,"isfamily":0,"safe":1,"ownername":"Frans.Sellies","latitude":41.088797,"longitude":44.666119,"accuracy":"12","context":0,"place_id":"J19.VWtTULve5cOL","woeid":"2214591","geo_is_family":0,"geo_is_friend":0,"geo_is_contact":0,"geo_is_public":1,"media":"photo","media_status":"ready"},{"id":"5140560091","owner":"26849514@N06","secret":"168d60789c","server":"1332","farm":2,"title":"The Vahramashen Church \/ \u054e\u0561\u0570\u0580\u0561\u0574\u0561\u0577\u0567\u0576 \u0565\u056f\u0565\u0572\u0565\u0581\u056b","ispublic":1,"isfriend":0,"isfamily":0,"safe":1,"ownername":"Frans.Sellies","latitude":40.387678,"longitude":44.228468,"accuracy":"12","context":0,"place_id":"HfKm4.pTUrpY.TR.QQ","woeid":"20070209","geo_is_family":0,"geo_is_friend":0,"geo_is_contact":0,"geo_is_public":1,"media":"photo","media_status":"ready"},{"id":"5130498271","owner":"35699605@N00","secret":"c9b62c9c58","server":"4072","farm":5,"title":"Caf\u00e9 del Mar Rio de Janeiro Copacabana Brazil Av. Atl\u00e2ntica franquia Brasil CDM Lounge Bar DJ Restaurante","ispublic":1,"isfriend":0,"isfamily":0,"safe":0,"ownername":"seLusaVa","latitude":-22.96863,"longitude":-43.179911,"accuracy":"16","context":0,"place_id":"mAqmHW5VV78OT5o","woeid":"455825","geo_is_family":0,"geo_is_friend":0,"geo_is_contact":0,"geo_is_public":1,"media":"photo","media_status":"ready"},{"id":"5041649107","owner":"25959337@N00","secret":"4be7ef6337","server":"4133","farm":5,"title":"Autumn grass on Mt. Sandvikshornet","ispublic":1,"isfriend":0,"isfamily":0,"safe":0,"ownername":"Martin Ystenes - celebrating 5 million views","latitude":62.430041,"longitude":6.660118,"accuracy":"11","context":0,"place_id":"MrFmUUtTULxLNa8KvQ","woeid":"22659813","geo_is_family":0,"geo_is_friend":0,"geo_is_contact":0,"geo_is_public":1,"media":"photo","media_status":"ready"},{"id":"5001305552","owner":"43678068@N04","secret":"719f28b653","server":"4149","farm":5,"title":"bon dia","ispublic":1,"isfriend":0,"isfamily":0,"safe":0,"ownername":"feniche","latitude":39.398115,"longitude":-0.408575,"accuracy":"16","context":0,"place_id":"Ey5AYF5WV7sZ_a4","woeid":"751654","geo_is_family":0,"geo_is_friend":0,"geo_is_contact":0,"geo_is_public":1,"media":"photo","media_status":"ready"},{"id":"4989866236","owner":"34726560@N00","secret":"e1b1868192","server":"4132","farm":5,"title":"Lines of light","ispublic":1,"isfriend":0,"isfamily":0,"safe":0,"ownername":"Steve-h","latitude":53.346591,"longitude":-6.241404,"accuracy":"16","context":0,"place_id":"fjmHzRZUVLpKRgI","woeid":"560743","geo_is_family":0,"geo_is_friend":0,"geo_is_contact":0,"geo_is_public":1,"media":"photo","media_status":"ready"},{"id":"4964233619","owner":"36553071@N02","secret":"1caf7ba550","server":"4127","farm":5,"title":"A Lavender Sunset [Oh what a Re-post!]","ispublic":1,"isfriend":0,"isfamily":0,"safe":1,"ownername":"Vainsang","latitude":44.073989,"longitude":5.560326,"accuracy":"14","context":0,"place_id":"9LLlPt5XU7MFDn4","woeid":"619271","geo_is_family":0,"geo_is_friend":0,"geo_is_contact":0,"geo_is_public":1,"media":"photo","media_status":"ready"},{"id":"4957388336","owner":"25959337@N00","secret":"2c19cce16f","server":"4090","farm":5,"title":"\"My God! You look gorgeous!\"","ispublic":1,"isfriend":0,"isfamily":0,"safe":0,"ownername":"Martin Ystenes - celebrating 5 million views","latitude":63.426483,"longitude":10.395126,"accuracy":"11","context":0,"place_id":"4ENgaYRZVL.NwR4","woeid":"865157","geo_is_family":0,"geo_is_friend":0,"geo_is_contact":0,"geo_is_public":1,"media":"photo","media_status":"ready"},{"id":"4935062869","owner":"13908767@N00","secret":"6c680de64a","server":"4114","farm":5,"title":"Strumpfbandnatter (Thamnophis sirtalis)","ispublic":1,"isfriend":0,"isfamily":0,"safe":1,"ownername":"guenterleitenbauer","latitude":46.829194,"longitude":13.863372,"accuracy":"9","context":0,"place_id":"koAUZjZUVrrk9KA","woeid":"540874","geo_is_family":0,"geo_is_friend":0,"geo_is_contact":0,"geo_is_public":1,"media":"photo","media_status":"ready"},{"id":"4919739432","owner":"26849514@N06","secret":"0938d90318","server":"4142","farm":5,"title":"Beachy head","ispublic":1,"isfriend":0,"isfamily":0,"safe":0,"ownername":"Frans.Sellies","latitude":50.735151,"longitude":0.24187,"accuracy":"13","context":0,"place_id":"AA8cnOZQULuLsQ","woeid":"12129","geo_is_family":0,"geo_is_friend":0,"geo_is_contact":0,"geo_is_public":1,"media":"photo","media_status":"ready"},{"id":"4826797160","owner":"35705054@N07","secret":"fa47625e7b","server":"4099","farm":5,"title":"Rain from below (Berne, Suisse)","ispublic":1,"isfriend":0,"isfamily":0,"safe":0,"ownername":"Frederic Mancosu","latitude":46.948429,"longitude":7.44046,"accuracy":"9","context":0,"place_id":"X7bxbwhWWrtKmg8","woeid":"781788","geo_is_family":0,"geo_is_friend":0,"geo_is_contact":0,"geo_is_public":1,"media":"photo","media_status":"ready"},{"id":"4814221345","owner":"25959337@N00","secret":"8af85e2161","server":"4077","farm":5,"title":"Isafj\u00f6rdur harbor with smoke","ispublic":1,"isfriend":0,"isfamily":0,"safe":0,"ownername":"Martin Ystenes - celebrating 5 million views","latitude":66.06709,"longitude":-23.13034,"accuracy":"9","context":0,"place_id":"QX9.D1RYWrryoTA","woeid":"980266","geo_is_family":0,"geo_is_friend":0,"geo_is_contact":0,"geo_is_public":1,"media":"photo","media_status":"ready"},{"id":"4803118326","owner":"25959337@N00","secret":"de7fa23f32","server":"4082","farm":5,"title":"Thingeyri, Iceland","ispublic":1,"isfriend":0,"isfamily":0,"safe":0,"ownername":"Martin Ystenes - celebrating 5 million views","latitude":65.857879,"longitude":-23.310241,"accuracy":"11","context":0,"place_id":"7kkR.LtTUb4bnnb8","woeid":"2345708","geo_is_family":0,"geo_is_friend":0,"geo_is_contact":0,"geo_is_public":1,"media":"photo","media_status":"ready"},{"id":"4791170461","owner":"25959337@N00","secret":"edfc2068ce","server":"4099","farm":5,"title":"Dramatic sky and mountains on Iceland","ispublic":1,"isfriend":0,"isfamily":0,"safe":0,"ownername":"Martin Ystenes - celebrating 5 million views","latitude":63.992826,"longitude":-16.957397,"accuracy":"9","context":0,"place_id":"L30o2XlTUb6ZXW0u","woeid":"2345690","geo_is_family":0,"geo_is_friend":0,"geo_is_contact":0,"geo_is_public":1,"media":"photo","media_status":"ready"},{"id":"4791567488","owner":"25959337@N00","secret":"a602a7770e","server":"4137","farm":5,"title":"Seljalandsfoss","ispublic":1,"isfriend":0,"isfamily":0,"safe":0,"ownername":"Martin Ystenes - celebrating 5 million views","latitude":63.617592,"longitude":-19.966278,"accuracy":"9","context":0,"place_id":"b.hXXWdYWrocUZY","woeid":"980478","geo_is_family":0,"geo_is_friend":0,"geo_is_contact":0,"geo_is_public":1,"media":"photo","media_status":"ready"}]},"stat":"ok"}