{"photos":{"page":15,"pages":26126,"perpage":60,"total":"1567541","photo":[{"id":"14013088742","owner":"42345335@N08","secret":"90f01d3df2","server":"7058","farm":8,"title":"Red White & Blue!","ispublic":1,"isfriend":0,"isfamily":0,"safe":0,"ownername":"EvilEyeGoshawk","latitude":56.101199,"longitude":-3.980741,"accuracy":"15","context":0,"place_id":"OTggGT5SVLvPyA","woeid":"36135","geo_is_family":0,"geo_is_friend":0,"geo_is_contact":0,"geo_is_public":1,"media":"photo","media_status":"ready"},{"id":"14036184083","owner":"73414467@N02","secret":"97cab302fc","server":"7028","farm":8,"title":"Puerta de Alcal\u00e1 II","ispublic":1,"isfriend":0,"isfamily":0,"safe":0,"ownername":"Jos\u00e9 Luis Vega","latitude":40.420013,"longitude":-3.688656,"accuracy":"16","context":0,"place_id":"JzEjUPlTUrhiX7CzJA","woeid":"20219956","geo_is_family":0,"geo_is_friend":0,"geo_is_contact":0,"geo_is_public":1,"media":"photo","media_status":"ready"},{"id":"14012982412","owner":"73414467@N02","secret":"9248cae4b9","server":"2911","farm":3,"title":"Puerta de Alcal\u00e1 y III","ispublic":1,"isfriend":0,"isfamily":0,"safe":0,"ownername":"Jos\u00e9 Luis Vega","latitude":40.420013,"longitude":-3.688656,"accuracy":"16","context":0,"place_id":"JzEjUPlTUrhiX7CzJA","woeid":"20219956","geo_is_family":0,"geo_is_friend":0,"geo_is_contact":0,"geo_is_public":1,"media":"photo","media_status":"ready"},{"id":"14012288611","owner":"75462591@N02","secret":"698869101a","server":"7030","farm":8,"title":"Beauty and the beast - La belle et la b\u00eate","ispublic":1,"isfriend":0,"isfamily":0,"safe":0,"ownername":"Michel Couprie","latitude":48.60525,"longitude":2.269775,"accuracy":"9","context":0,"place_id":"6cSWGM9UWrseGic","woeid":"581822","geo_is_family":0,"geo_is_friend":0,"geo_is_contact":0,"geo_is_public":1,"media":"photo","media_status":"ready"},{"id":"14011756532","owner":"21488930@N04","secret":"dc18bd68ab","server":"5480","farm":6,"title":"\u2600....bokeh colorato e azalee in fiore - Azaleas in bloom and colorful bokeh......2604","ispublic":1,"isfriend":0,"isfamily":0,"safe":0,"ownername":"\u01bfier","latitude":44.928398,"longitude":10.374879,"accuracy":"11","context":0,"place_id":"z0qzOW5WU74wMRU","woeid":"714477","geo_is_family":0,"geo_is_friend":0,"geo_is_contact":0,"geo_is_public":1,"media":"photo","media_status":"ready"},{"id":"14014843905","owner":"62448022@N00","secret":"2c8d63b88b","server":"7081","farm":8,"title":"Bottle Crates","ispublic":1,"isfriend":0,"isfamily":0,"safe":0,"ownername":"Aerial Photography","latitude":48.935599,"longitude":10.596925,"accuracy":"16","context":0,"place_id":"22cQQq9QULxPSPe8mA","woeid":"12636065","geo_is_family":0,"geo_is_friend":0,"geo_is_contact":0,"geo_is_public":1,"media":"photo","media_status":"ready"},{"id":"14014195384","owner":"93250327@N05","secret":"93775eb658","server":"7082","farm":8,"title":"Stylish London [Explored 25th April 2014]","ispublic":1,"isfriend":0,"isfamily":0,"safe":0,"ownername":"Patrizia Ilaria Sechi","latitude":51.510131,"longitude":-0.134668,"accuracy":"13","context":0,"place_id":"CQ9kd11TUrqtHSw5Sw","woeid":"20094342","geo_is_family":0,"geo_is_friend":0,"geo_is_contact":0,"geo_is_public":1,"media":"photo","media_status":"ready"},{"id":"14010377951","owner":"93250327@N05","secret":"f5e40d2e1c","server":"7062","farm":8,"title":"The flirty squirrel [Explored 25th April 2014]","ispublic":1,"isfriend":0,"isfamily":0,"safe":0,"ownername":"Patrizia Ilaria Sechi","latitude":51.499766,"longitude":-0.133552,"accuracy":"13","context":0,"place_id":"_8cuSp1TVrKmbg67ew","woeid":"24875645","geo_is_family":0,"geo_is_friend":0,"geo_is_contact":0,"geo_is_public":1,"media":"photo","media_status":"ready"},{"id":"14009975112","owner":"91272808@N04","secret":"d080553535","server":"5235","farm":6,"title":"Reflection","ispublic":1,"isfriend":0,"isfamily":0,"safe":0,"ownername":"Fredrik meling","latitude":67.885107,"longitude":12.971935,"accuracy":"12","context":0,"place_id":"5a1zwE9ZVL7nisY","woeid":"864255","geo_is_family":0,"geo_is_friend":0,"geo_is_contact":0,"geo_is_public":1,"media":"photo","media_status":"ready"},{"id":"14009892032","owner":"12039065@N00","secret":"ae104abdb9","server":"7064","farm":8,"title":"Volc\u00e1n Lan\u00edn","ispublic":1,"isfriend":0,"isfamily":0,"safe":0,"ownername":"Mono Andes","latitude":-39.58122,"longitude":-71.520686,"accuracy":"16","context":0,"place_id":"7GKvwPdTUrrmSk.s2A","woeid":"20071043","geo_is_family":0,"geo_is_friend":0,"geo_is_contact":0,"geo_is_public":1,"media":"photo","media_status":"ready"},{"id":"14007978352","owner":"24578303@N07","secret":"934f640ef5","server":"5545","farm":6,"title":"The Salmon Leap (explored)","ispublic":1,"isfriend":0,"isfamily":0,"safe":0,"ownername":"Alan10eden","latitude":52.979107,"longitude":-7.493126,"accuracy":"16","context":0,"place_id":"QKAPX9FUVLqVmcM","woeid":"560241","geo_is_family":0,"geo_is_friend":0,"geo_is_contact":0,"geo_is_public":1,"media":"photo","media_status":"ready"},{"id":"13987916626","owner":"45283106@N08","secret":"cbfef232a6","server":"7415","farm":8,"title":"720 - Fr\u00fchlingsfest 2014","ispublic":1,"isfriend":0,"isfamily":0,"safe":0,"ownername":"Huey_Chris","latitude":48.134389,"longitude":11.551909,"accuracy":"14","context":0,"place_id":"DmLJcpZXW7Opmpo","woeid":"699197","geo_is_family":0,"geo_is_friend":0,"geo_is_contact":0,"geo_is_public":1,"media":"photo","media_status":"ready"},{"id":"14011376434","owner":"53196512@N07","secret":"af2cd4f3e9","server":"2939","farm":3,"title":"Stone Bridge Across Mala Savica (All In Camera Light Painting), Gorenjska Slovenia","ispublic":1,"isfriend":0,"isfamily":0,"safe":0,"ownername":"flatworldsedge","latitude":46.290586,"longitude":13.798151,"accuracy":"16","context":0,"place_id":"xb6SG2BTUb2eXvMLJA","woeid":"23701302","geo_is_family":0,"geo_is_friend":0,"geo_is_contact":0,"geo_is_public":1,"media":"photo","media_status":"ready"},{"id":"14011295284","owner":"66552293@N00","secret":"06a10e0ef0","server":"5460","farm":6,"title":"Bobbing along (explored 25th April 2014 #1)","ispublic":1,"isfriend":0,"isfamily":0,"safe":0,"ownername":"Andrewsteeleuk","latitude":51.749205,"longitude":-0.347442,"accuracy":"15","context":0,"place_id":"Aw1X8QpTUrovFQXgIA","woeid":"20093195","geo_is_family":0,"geo_is_friend":0,"geo_is_contact":0,"geo_is_public":1,"media":"photo","media_status":"ready"},{"id":"14007311721","owner":"35232195@N06","secret":"28a15eb4d9","server":"7199","farm":8,"title":"Surrounded","ispublic":1,"isfriend":0,"isfamily":0,"safe":0,"ownername":"Julio L\u00f3pez Saguar","latitude":39.60291,"longitude":-9.075779,"accuracy":"15","context":0,"place_id":"x0KOSJ1WVr4YRmY","woeid":"744516","geo_is_family":0,"geo_is_friend":0,"geo_is_contact":0,"geo_is_public":1,"media":"photo","media_status":"ready"},{"id":"14010402965","owner":"46944516@N00","secret":"77a7d35530","server":"7084","farm":8,"title":"Girl portrait","ispublic":1,"isfriend":0,"isfamily":0,"safe":0,"ownername":"pedrosimoes7","latitude":38.707883,"longitude":-9.137449,"accuracy":"13","context":0,"place_id":"GhOdV2BTUb2QRRzmMg","woeid":"23701333","geo_is_family":0,"geo_is_friend":0,"geo_is_contact":0,"geo_is_public":1,"media":"photo","media_status":"ready"},{"id":"14010501284","owner":"7992704@N05","secret":"d6fa154387","server":"2908","farm":3,"title":"Shore","ispublic":1,"isfriend":0,"isfamily":0,"safe":0,"ownername":"_Hadock_","latitude":43.287241,"longitude":-2.175357,"accuracy":"16","context":0,"place_id":"o.xhpANWVbNMItY","woeid":"779071","geo_is_family":0,"geo_is_friend":0,"geo_is_contact":0,"geo_is_public":1,"media":"photo","media_status":"ready"},{"id":"14006576602","owner":"7432018@N02","secret":"7fdd5e3105","server":"7440","farm":8,"title":"Garage Decathlon, Antwerpen Luchtbal","ispublic":1,"isfriend":0,"isfamily":0,"safe":0,"ownername":"(ph).otography","latitude":51.247713,"longitude":4.416601,"accuracy":"16","context":0,"place_id":"Zx1xVdhYVb7_KoY","woeid":"974235","geo_is_family":0,"geo_is_friend":0,"geo_is_contact":0,"geo_is_public":1,"media":"photo","media_status":"ready"},{"id":"14006397631","owner":"45722248@N07","secret":"2440285e0a","server":"7319","farm":8,"title":"Diagonal","ispublic":1,"isfriend":0,"isfamily":0,"safe":0,"ownername":"ffela","latitude":52.532669,"longitude":13.382619,"accuracy":"16","context":0,"place_id":"zot2ouJXUbKOJRM","woeid":"638242","geo_is_family":0,"geo_is_friend":0,"geo_is_contact":0,"geo_is_public":1,"media":"photo","media_status":"ready"},{"id":"14028785443","owner":"76806538@N03","secret":"37a0a48a9e","server":"2937","farm":3,"title":"Porto","ispublic":1,"isfriend":0,"isfamily":0,"safe":0,"ownername":"Matty\u00b4s - Fotoseite","latitude":41.149822,"longitude":-8.606928,"accuracy":"16","context":0,"place_id":"jR0y605WUb2kru8","woeid":"737409","geo_is_family":0,"geo_is_friend":0,"geo_is_contact":0,"geo_is_public":1,"media":"photo","media_status":"ready"},{"id":"14009166684","owner":"13728580@N05","secret":"2f28539eeb","server":"5168","farm":6,"title":"Going home","ispublic":1,"isfriend":0,"isfamily":0,"safe":0,"ownername":"~ielle~ ilarialuciani.com","latitude":48.842053,"longitude":2.321505,"accuracy":"15","context":0,"place_id":"kZbonQRUV7JxwWdJRQ","woeid":"55843828","geo_is_family":0,"geo_is_friend":0,"geo_is_contact":0,"geo_is_public":1,"media":"photo","media_status":"ready"},{"id":"14008534835","owner":"58610507@N03","secret":"0725c39e54","server":"5542","farm":6,"title":"St Marks Fly (male) - Bibio marci","ispublic":1,"isfriend":0,"isfamily":0,"safe":0,"ownername":"Heath McDonald","latitude":51.25375,"longitude":-2.737498,"accuracy":"16","context":0,"place_id":"6BaJh2JSW7JzcQ","woeid":"39874","geo_is_family":0,"geo_is_friend":0,"geo_is_contact":0,"geo_is_public":1,"media":"photo","media_status":"ready"},{"id":"14008940324","owner":"42574877@N06","secret":"6ee3d16095","server":"7238","farm":8,"title":"The Tower Bridge at night","ispublic":1,"isfriend":0,"isfamily":0,"safe":1,"ownername":"Olympe B.","latitude":51.504611,"longitude":-0.076581,"accuracy":"16","context":0,"place_id":"v70Y8qlTUrrLiiTZAg","woeid":"20094363","geo_is_family":0,"geo_is_friend":0,"geo_is_contact":0,"geo_is_public":1,"media":"photo","media_status":"ready"},{"id":"13985131576","owner":"36894632@N05","secret":"f6af6acc44","server":"7243","farm":8,"title":"","ispublic":1,"isfriend":0,"isfamily":0,"safe":0,"ownername":"Stavros.A","latitude":36.956339,"longitude":21.6733,"accuracy":"15","context":0,"place_id":"COHkq4BYVL9iZd4","woeid":"965477","geo_is_family":0,"geo_is_friend":0,"geo_is_contact":0,"geo_is_public":1,"media":"photo","media_status":"ready"},{"id":"13985111636","owner":"33408514@N07","secret":"2c8efea6b9","server":"2920","farm":3,"title":"Paisaje de leyenda en blanco y negro (Letur) \/ Legendary landscape in Black and White (Letur, Albacete, Spain)","ispublic":1,"isfriend":0,"isfamily":0,"safe":0,"ownername":"Recesvintus","latitude":38.367468,"longitude":-2.101435,"accuracy":"15","context":0,"place_id":"poYN4.9WVL.WaxQ","woeid":"765143","geo_is_family":0,"geo_is_friend":0,"geo_is_contact":0,"geo_is_public":1,"media":"photo","media_status":"ready"},{"id":"14028109483","owner":"43155663@N07","secret":"d51dc29212","server":"7168","farm":8,"title":"","ispublic":1,"isfriend":0,"isfamily":0,"safe":0,"ownername":"city\/human\/life","latitude":51.445234,"longitude":7.011401,"accuracy":"16","context":0,"place_id":"UZIHF3RXVrIRFRQ","woeid":"648820","geo_is_family":0,"geo_is_friend":0,"geo_is_contact":0,"geo_is_public":1,"media":"photo","media_status":"ready"},{"id":"14004731102","owner":"41611710@N04","secret":"9ccf1df628","server":"5107","farm":6,"title":"D\u00e9voluy","ispublic":1,"isfriend":0,"isfamily":0,"safe":0,"ownername":"martinepittet","latitude":44.69371,"longitude":5.94103,"accuracy":"11","context":0,"place_id":"5EtVIRtXULkoyi4","woeid":"623927","geo_is_family":0,"geo_is_friend":0,"geo_is_contact":0,"geo_is_public":1,"media":"photo","media_status":"ready"},{"id":"14004476132","owner":"29225114@N08","secret":"b319b4eaee","server":"2934","farm":3,"title":"Mr. Flashy","ispublic":1,"isfriend":0,"isfamily":0,"safe":0,"ownername":"Sergei Golyshev","latitude":-4.112218,"longitude":36.187591,"accuracy":"10","context":0,"place_id":"9YampqlTUb4Vw2d6","woeid":"2345938","geo_is_family":0,"geo_is_friend":0,"geo_is_contact":0,"geo_is_public":1,"media":"photo","media_status":"ready"},{"id":"14027123063","owner":"23904816@N00","secret":"76b6518e17","server":"2924","farm":3,"title":"Not excluded Marriage","ispublic":1,"isfriend":0,"isfamily":0,"safe":0,"ownername":"Rainer \u274f","latitude":51.957595,"longitude":6.709041,"accuracy":"13","context":0,"place_id":"oBJZKYdWUb6gtDE","woeid":"734818","geo_is_family":0,"geo_is_friend":0,"geo_is_contact":0,"geo_is_public":1,"media":"photo","media_status":"ready"},{"id":"13983624886","owner":"53145368@N03","secret":"fff9366485","server":"7303","farm":8,"title":"Watching Time Go By.","ispublic":1,"isfriend":0,"isfamily":0,"safe":0,"ownername":"Des Daly","latitude":51.942669,"longitude":-7.711414,"accuracy":"16","context":0,"place_id":"ub9kteFUV7NpFoc","woeid":"559493","geo_is_family":0,"geo_is_friend":0,"geo_is_contact":0,"geo_is_public":1,"media":"photo","media_status":"ready"},{"id":"14006733055","owner":"92474414@N04","secret":"4345f7f5bd","server":"5274","farm":6,"title":"Tracks \/\/ Explore \/\/ Apr 25 '14","ispublic":1,"isfriend":0,"isfamily":0,"safe":0,"ownername":"donlunzo16","latitude":48.770219,"longitude":9.172897,"accuracy":"11","context":0,"place_id":"R3VGrQNXW7LCxIA","woeid":"698064","geo_is_family":0,"geo_is_friend":0,"geo_is_contact":0,"geo_is_public":1,"media":"photo","media_status":"ready"},{"id":"14003336331","owner":"21608855@N03","secret":"2d8e8a091a","server":"7234","farm":8,"title":"A cat will always look at a Queen","ispublic":1,"isfriend":0,"isfamily":0,"safe":0,"ownername":"Julie Bracken","latitude":51.241527,"longitude":-0.729212,"accuracy":"16","context":0,"place_id":"TTnsU.1QUr_h3g","woeid":"10559","geo_is_family":0,"geo_is_friend":0,"geo_is_contact":0,"geo_is_public":1,"media":"photo","media_status":"ready"},{"id":"14003200981","owner":"60527064@N00","secret":"62a0a9a7c9","server":"5158","farm":6,"title":"Inside Cath\u00e9drale Marie-Reine-du-Monde, Pt. I","ispublic":1,"isfriend":0,"isfamily":0,"safe":0,"ownername":"Eric Flexyourhead","latitude":45.499443,"longitude":-73.568766,"accuracy":"16","context":0,"place_id":"YKXEFvJTVLlYzxcrIQ","woeid":"26332794","geo_is_family":0,"geo_is_friend":0,"geo_is_contact":0,"geo_is_public":1,"media":"photo","media_status":"ready"},{"id":"14003040232","owner":"67995615@N03","secret":"5ba6e92c49","server":"5008","farm":6,"title":"Dubai Burj Khalifa","ispublic":1,"isfriend":0,"isfamily":0,"safe":0,"ownername":"claudecastor","latitude":25.206843,"longitude":55.269126,"accuracy":"14","context":0,"place_id":"eQtoeghQW77HLrTB","woeid":"1940345","geo_is_family":0,"geo_is_friend":0,"geo_is_contact":0,"geo_is_public":1,"media":"photo","media_status":"ready"},{"id":"14002900431","owner":"67995615@N03","secret":"bd99773461","server":"2906","farm":3,"title":"Dubai Marina Panorama","ispublic":1,"isfriend":0,"isfamily":0,"safe":0,"ownername":"claudecastor","latitude":25.086541,"longitude":55.144844,"accuracy":"16","context":0,"place_id":"252NWxFUV7Ku9UKXpw","woeid":"55872697","geo_is_family":0,"geo_is_friend":0,"geo_is_contact":0,"geo_is_public":1,"media":"photo","media_status":"ready"},{"id":"14005880105","owner":"91248320@N04","secret":"e16749d250","server":"5572","farm":6,"title":"White beauty","ispublic":1,"isfriend":0,"isfamily":0,"safe":0,"ownername":"Jekurantodistaja","latitude":21.80494,"longitude":-79.984771,"accuracy":"16","context":0,"place_id":"Mt25O49XWr5B9Q","woeid":"68426","geo_is_family":0,"geo_is_friend":0,"geo_is_contact":0,"geo_is_public":1,"media":"photo","media_status":"ready"},{"id":"14002555962","owner":"62089664@N07","secret":"66699ef2fd","server":"7458","farm":8,"title":"Lime Texture","ispublic":1,"isfriend":0,"isfamily":0,"safe":0,"ownername":"Darren LoPrinzi","latitude":39.355826,"longitude":-74.43128,"accuracy":"15","context":0,"place_id":"74GEOBdTUb2kwwC0","woeid":"2378832","geo_is_family":0,"geo_is_friend":0,"geo_is_contact":0,"geo_is_public":1,"media":"photo","media_status":"ready"},{"id":"13982641556","owner":"31804708@N02","secret":"f959bb337f","server":"7084","farm":8,"title":"Remando - Paddling","ispublic":1,"isfriend":0,"isfamily":0,"safe":0,"ownername":"celta4","latitude":-34.606455,"longitude":-58.366284,"accuracy":"16","context":0,"place_id":"qhWAI6VTUL9WkDce_Q","woeid":"22529963","geo_is_family":0,"geo_is_friend":0,"geo_is_contact":0,"geo_is_public":1,"media":"photo","media_status":"ready"},{"id":"14002559531","owner":"38181284@N06","secret":"7e440f4a0c","server":"7171","farm":8,"title":"Southwark","ispublic":1,"isfriend":0,"isfamily":0,"safe":0,"ownername":"vulture labs","latitude":51.508795,"longitude":-0.088191,"accuracy":"15","context":0,"place_id":"AggqPb1TUrohNNCS.A","woeid":"20094296","geo_is_family":0,"geo_is_friend":0,"geo_is_contact":0,"geo_is_public":1,"media":"photo","media_status":"ready"},{"id":"14006172774","owner":"95104112@N05","secret":"a53ededac9","server":"7295","farm":8,"title":"Take a Rest, Ancient Agora, Athens, Greece","ispublic":1,"isfriend":0,"isfamily":0,"safe":0,"ownername":"nouregef","latitude":37.97558,"longitude":23.722121,"accuracy":"16","context":0,"place_id":"3Cs0dTRTUb0joCQA5A","woeid":"23701328","geo_is_family":0,"geo_is_friend":0,"geo_is_contact":0,"geo_is_public":1,"media":"photo","media_status":"ready"},{"id":"14025695663","owner":"81035653@N00","secret":"0e67ec8c24","server":"5175","farm":6,"title":"The adventurous game of Paragliding above the Achensee","ispublic":1,"isfriend":0,"isfamily":0,"safe":0,"ownername":"B\u212en","latitude":47.423783,"longitude":11.700097,"accuracy":"14","context":0,"place_id":"yvC8vbVUV7vjryA","woeid":"551055","geo_is_family":0,"geo_is_friend":0,"geo_is_contact":0,"geo_is_public":1,"media":"photo","media_status":"ready"},{"id":"14002470101","owner":"36426732@N05","secret":"33974fb32b","server":"2917","farm":3,"title":"RWK @ Bushwick NY","ispublic":1,"isfriend":0,"isfamily":0,"safe":0,"ownername":"ZUCCONY","latitude":40.708738,"longitude":-73.922598,"accuracy":"16","context":0,"place_id":"hMYkt5BTWr0zXn1SZg","woeid":"28751393","geo_is_family":0,"geo_is_friend":0,"geo_is_contact":0,"geo_is_public":1,"media":"photo","media_status":"ready"},{"id":"13982538596","owner":"36426732@N05","secret":"a7faa29fe7","server":"7118","farm":8,"title":"Smithe, Street Art Broooklyn","ispublic":1,"isfriend":0,"isfamily":0,"safe":0,"ownername":"ZUCCONY","latitude":40.70478,"longitude":-73.930481,"accuracy":"16","context":0,"place_id":"hMYkt5BTWr0zXn1SZg","woeid":"28751393","geo_is_family":0,"geo_is_friend":0,"geo_is_contact":0,"geo_is_public":1,"media":"photo","media_status":"ready"},{"id":"14002341482","owner":"42345335@N08","secret":"5bf78e8c68","server":"2911","farm":3,"title":"Mr Mole","ispublic":1,"isfriend":0,"isfamily":0,"safe":0,"ownername":"EvilEyeGoshawk","latitude":56.102779,"longitude":-3.981213,"accuracy":"15","context":0,"place_id":"OTggGT5SVLvPyA","woeid":"36135","geo_is_family":0,"geo_is_friend":0,"geo_is_contact":0,"geo_is_public":1,"media":"photo","media_status":"ready"},{"id":"14025481573","owner":"31798876@N02","secret":"c75792fe18","server":"7203","farm":8,"title":"hunger","ispublic":1,"isfriend":0,"isfamily":0,"safe":0,"ownername":"alant79","latitude":52.635858,"longitude":-1.134723,"accuracy":"16","context":0,"place_id":"0bs9mAtQULxX0NuJFw","woeid":"12696154","geo_is_family":0,"geo_is_friend":0,"geo_is_contact":0,"geo_is_public":1,"media":"photo","media_status":"ready"},{"id":"14025375283","owner":"13592518@N03","secret":"aa474a409e","server":"7110","farm":8,"title":"Praia da Boca da Barra","ispublic":1,"isfriend":0,"isfamily":0,"safe":0,"ownername":"Pedro Correa","latitude":-8.777024,"longitude":-35.106017,"accuracy":"16","context":0,"place_id":"cGACqmxVVLvUnSQ","woeid":"461334","geo_is_family":0,"geo_is_friend":0,"geo_is_contact":0,"geo_is_public":1,"media":"photo","media_status":"ready"},{"id":"14025121853","owner":"45886150@N02","secret":"7eedcdec30","server":"7400","farm":8,"title":"Le Courant de Contis","ispublic":1,"isfriend":0,"isfamily":0,"safe":0,"ownername":"@Thierry","latitude":44.089511,"longitude":-1.325848,"accuracy":"15","context":0,"place_id":"4wxsPPFUWry.4TU","woeid":"586871","geo_is_family":0,"geo_is_friend":0,"geo_is_contact":0,"geo_is_public":1,"media":"photo","media_status":"ready"},{"id":"14004876655","owner":"42345335@N08","secret":"859063f274","server":"2938","farm":3,"title":"Ladybird","ispublic":1,"isfriend":0,"isfamily":0,"safe":0,"ownername":"EvilEyeGoshawk","latitude":56.101115,"longitude":-3.981041,"accuracy":"15","context":0,"place_id":"OTggGT5SVLvPyA","woeid":"36135","geo_is_family":0,"geo_is_friend":0,"geo_is_contact":0,"geo_is_public":1,"media":"photo","media_status":"ready"},{"id":"14001615742","owner":"27420180@N08","secret":"ecafe1f8b0","server":"2914","farm":3,"title":"From Sacr\u00e9 Coeur","ispublic":1,"isfriend":0,"isfamily":0,"safe":0,"ownername":"A.G. Photographe","latitude":48.858249,"longitude":2.294608,"accuracy":"16","context":0,"place_id":"Gh_droFUV7JfPjFofw","woeid":"55843775","geo_is_family":0,"geo_is_friend":0,"geo_is_contact":0,"geo_is_public":1,"media":"photo","media_status":"ready"},{"id":"14004811255","owner":"8288986@N06","secret":"0c0bf225e8","server":"7182","farm":8,"title":"Mountains","ispublic":1,"isfriend":0,"isfamily":0,"safe":0,"ownername":"aycasan","latitude":40.913512,"longitude":40.98999,"accuracy":"7","context":0,"place_id":"Oth1setTUb4B4FHK","woeid":"2347305","geo_is_family":0,"geo_is_friend":0,"geo_is_contact":0,"geo_is_public":1,"media":"photo","media_status":"ready"},{"id":"14004728155","owner":"57866871@N03","secret":"b922a66e2c","server":"7227","farm":8,"title":"Symmetrical storm","ispublic":1,"isfriend":0,"isfamily":0,"safe":0,"ownername":"snowyturner","latitude":51.676203,"longitude":-4.700603,"accuracy":"13","context":0,"place_id":"Jh4GiFRSVbtnng","woeid":"37109","geo_is_family":0,"geo_is_friend":0,"geo_is_contact":0,"geo_is_public":1,"media":"photo","media_status":"ready"},{"id":"13981319576","owner":"48988488@N04","secret":"32b1515af0","server":"2897","farm":3,"title":"abbraccio","ispublic":1,"isfriend":0,"isfamily":0,"safe":0,"ownername":"claudius1954","latitude":45.54958,"longitude":7.321786,"accuracy":"14","context":0,"place_id":"oaiXL2NTUruvFf2HCg","woeid":"20147452","geo_is_family":0,"geo_is_friend":0,"geo_is_contact":0,"geo_is_public":1,"media":"photo","media_status":"ready"},{"id":"14004347425","owner":"50027776@N05","secret":"df7f74d5db","server":"7295","farm":8,"title":"la collina dei ciliegi","ispublic":1,"isfriend":0,"isfamily":0,"safe":0,"ownername":"Luigi Alesi","latitude":43.296761,"longitude":13.209514,"accuracy":"12","context":0,"place_id":"yzAdBb5QULzeE8r_0g","woeid":"12678199","geo_is_family":0,"geo_is_friend":0,"geo_is_contact":0,"geo_is_public":1,"media":"photo","media_status":"ready"},{"id":"14024283663","owner":"41558538@N02","secret":"8325640579","server":"2926","farm":3,"title":"Nepal Himalaya Pavillon","ispublic":1,"isfriend":0,"isfamily":0,"safe":0,"ownername":"vampire-carmen","latitude":49.019331,"longitude":12.375926,"accuracy":"15","context":0,"place_id":"wI.1yMlWUrlQW24","woeid":"703161","geo_is_family":0,"geo_is_friend":0,"geo_is_contact":0,"geo_is_public":1,"media":"photo","media_status":"ready"},{"id":"14003918935","owner":"22461382@N00","secret":"453c0d355e","server":"5010","farm":6,"title":"c e l e s t i a l | lofoten, norway","ispublic":1,"isfriend":0,"isfamily":0,"safe":0,"ownername":"elmofoto","latitude":68.055063,"longitude":13.125294,"accuracy":"16","context":0,"place_id":"YhLe4NVZV7LfxXg","woeid":"858718","geo_is_family":0,"geo_is_friend":0,"geo_is_contact":0,"geo_is_public":1,"media":"photo","media_status":"ready"},{"id":"14003668184","owner":"58013555@N07","secret":"c6ed2cdddf","server":"2899","farm":3,"title":"Out of Lacock Explored April 24th 2014. Thank you again everyone x","ispublic":1,"isfriend":0,"isfamily":0,"safe":0,"ownername":"Vide Cor Meum Images","latitude":51.4165,"longitude":-2.123612,"accuracy":"13","context":0,"place_id":"NqnAkAFTV7zUjw","woeid":"25630","geo_is_family":0,"geo_is_friend":0,"geo_is_contact":0,"geo_is_public":1,"media":"photo","media_status":"ready"},{"id":"13979871966","owner":"16854222@N05","secret":"4cebb5f925","server":"2925","farm":3,"title":"Camouflaged Beauty","ispublic":1,"isfriend":0,"isfamily":0,"safe":0,"ownername":"AnyMotion","latitude":-24.514171,"longitude":30.905227,"accuracy":"13","context":0,"place_id":"cQIoWFBUV7NSkfdOMA","woeid":"55921371","geo_is_family":0,"geo_is_friend":0,"geo_is_contact":0,"geo_is_public":1,"media":"photo","media_status":"ready"},{"id":"14002903825","owner":"85150392@N05","secret":"d7776bd41b","server":"5041","farm":6,"title":"Anything is connected to anything","ispublic":1,"isfriend":0,"isfamily":0,"safe":0,"ownername":"Manuel.Martin_72","latitude":47.384745,"longitude":8.516425,"accuracy":"16","context":0,"place_id":"iCPlQRNTUrtyULKpPg","woeid":"20102307","geo_is_family":0,"geo_is_friend":0,"geo_is_contact":0,"geo_is_public":1,"media":"photo","media_status":"ready"},{"id":"14021797613","owner":"36030103@N07","secret":"0450f9d31c","server":"2923","farm":3,"title":"Cayo Jutias 4","ispublic":1,"isfriend":0,"isfamily":0,"safe":0,"ownername":"gsamie","latitude":22.699138,"longitude":-84.053521,"accuracy":"15","context":0,"place_id":"BSFykPhTUb4xx4Z6","woeid":"2345106","geo_is_family":0,"geo_is_friend":0,"geo_is_contact":0,"geo_is_public":1,"media":"photo","media_status":"ready"},{"id":"13998396301","owner":"80516886@N00","secret":"5c26d50e3b","server":"5171","farm":6,"title":"Praia, Surf & Futebol na Areia - Praia de Itacoatiara - Niteroi - Rio de Janeiro","ispublic":1,"isfriend":0,"isfamily":0,"safe":0,"ownername":".**rickipanema**.","latitude":-22.974614,"longitude":-43.031331,"accuracy":"16","context":0,"place_id":"v17jQPJVUb_P9Ks","woeid":"435903","geo_is_family":0,"geo_is_friend":0,"geo_is_contact":0,"geo_is_public":1,"media":"photo","media_status":"ready"}]},"stat":"ok"}